{
	"(30,60,120,180) Min": "(30, 60, 120, 180) min",
	"10 sec Auto Refresh": "Aggiornamento automatico 10 s.",
	"1Hour": "1 ora",
	"1st": "prima",
	"2nd": "seconda",
	"30sec": "30 sec",
	"3rd": "terza",
	"4th": "quarta",
	"5 min. Refresh": "Aggiornamento 5 min.",
	"5Min": "5 min",
	"Abnormally High": "Insolitamente alto",
	"Account": "Conto",
	"Activate": "Attiva",
	"Add Media": "Aggiungi file multimediale",
	"Add Mini Module": "Aggiungere Mini Modulo",
	"Add Slave Controller": "Aggiungi controller slave",
	"Add Unit": "Aggiungi unità",
	"Addis Ababa": "Addis Abeba",
	"Advanced Options": "Opzioni avanzate",
	"Advanced Setting": "Impostazione avanzata",
	"Algiers": "Algeri",
	"All": "Tutto",
	"All Units": "Tutte le unità",
	"All settings will be reset. Do you want to continue?": "Tutte le impostazioni saranno reimpostate. Continuare?",
	"An error occurred while submitting the form.": "Si è verificato un errore durante l'invio del modulo.",
	"Apply": "Applica",
	"Apply to All Units": "Applica a tutte le unità",
	"Apply?": "Applicare?",
	"Approximate round trip in milli-seconds": "Percorso andata/ritorno approssimativo in millisecondi",
	"April": "Aprile",
	"Are you sure to change Settings?": "Modificare le impostazioni?",
	"Are you sure to change the calibration settings of this unit?": "Modificare le impostazioni di calibratura di questa unità?",
	"Are you sure to reboot?": "Riavviare?",
	"Are you sure to use": "Utilizzare",
	"Are you sure to use Wi-Fi DHCP?": "Utilizzare DHCP Wi-Fi?",
	"Are you sure to use Wired DHCP?": "Utilizzare DHCP cablato?",
	"Aspect Ratio when rotated": "Rapporto d'aspetto in caso di rotazione",
	"Athens": "Atene",
	"August": "Agosto",
	"Authenticate": "Autentica",
	"Authentication Failed": "Autenticazione non riuscita.",
	"Authentication completed.": "Autenticazione riuscita.",
	"Auto Detect": "Rilevamento automatico",
	"Auto Refresh": "Aggiornamento automatico",
	"Automatically Assign IP Address": "Assegna automaticamente indirizzo IP",
	"Available to Installation": "Disponibile per l'installazione",
	"Azores": "Azzorre",
	"BLU Status": "Stato BLU",
	"Back": "Indietro",
	"Backlight": "Retroilluminazione",
	"Backup Media Upload": "Caricamento supporti di backup",
	"Backup file Thumbnail Image": "Immagine di anteprima del file di backup",
	"Backup via storage": "Backup tramite archiviazione",
	"Baghdad": "Bagdad",
	"Basic Setting": "Impostazione di base",
	"Begin test": "Inizia test",
	"Belarus": "Bielorussia",
	"Belgium": "Belgio",
	"Belgrade": "Belgrado",
	"Berlin": "Berlino",
	"Black Level": "Livello nero",
	"Bootloader Version": "Versione bootloader",
	"Bottom": "In basso",
	"Bottom Left": "In basso a sinistra",
	"Bottom Light": "In basso a destra",
	"Bottom Right": "In basso a destra",
	"Box Name": "Nome casella",
	"Brazil": "Brasile",
	"Brightness": "Luminosità",
	"Browse": "Sfoglia",
	"Browse a file to upload": "Cercare un file da caricare",
	"Brussels": "Bruxelles",
	"Bucharest": "Bucarest",
	"CIS": "CSI",
	"Calibrate Unit": "Calibra unità",
	"Calibrated": "Calibrato",
	"Calibrating...": "Calibrazione in corso...",
	"Calibration": "Calibrazione",
	"Cambodia": "Cambogia",
	"Cameroon": "Camerun",
	"Canary Islands": "Isole Canarie",
	"Cancel": "Annulla",
	"Cannot start S/W update. Check xxx file please.": "Impossibile avviare aggiornamento S/W. Controllare il file xxx.",
	"Cape Verde": "Capo Verde",
	"Capture time Interval": "Acquisisci intervallo di tempo",
	"Capture time interval": "Acquisisci intervallo di tempo",
	"Category": "Categoria",
	"Cayman Islands": "Isole Cayman",
	"Central African Republic": "Repubblica centrafricana",
	"Chad": "Ciad",
	"Change Password": "Modifica password",
	"Changing Time may cause you to be logged out.": "La modifica dell'ora potrebbe causare la disconnessione.",
	"Changing Time zone may cause you to be logged out.": "La modifica del fuso orario può causare la disconnessione dell’utente.",
	"Charts": "Grafici",
	"Check Temperature sensors. -40 means errors when reading Temperature sensors": "Controllare i sensori di temperatura. -40 indica errori durante la lettura dei sensori di temperatura",
	"Check for Update": "Controllare gli aggiornamenti",
	"Check the account number you entered.": "Controlla il numero di conto che hai inserito.",
	"Check whether two passwords are same": "Controlla se le due password sono uguali",
	"Check your URL input": "Verificare l'input URL",
	"CheckScreen": "Controlla schermo",
	"Checking for update...": "Controllo aggiornamenti in corso...",
	"Chile": "Cile",
	"China": "Cina",
	"Christmas Island": "Isola Christmas",
	"City": "Città",
	"Close": "Chiudi",
	"Close status of cabinet doors": "Gli sportelli sono chiusi",
	"Closed": "Chiuso",
	"Closed Loop Fan": "Ventola circuiro chiuso",
	"ClosedLoop": "Circuito chiuso",
	"Color Temperature": "Temp. col.",
	"ColorRead": "Lettura colore",
	"Column": "Colonna",
	"Confirm": "Conferma",
	"Confirm Account Number": "Conferma numero account",
	"Confirm New Password": "Conferma nuova password",
	"Confirm the account number you entered.": "Confermare il numero di conto inserito.",
	"Connected": "Connesso",
	"Content Rotation": "Rotazione contenuto",
	"Content Rotation Status": "Stato rotazione contenuto",
	"Content Rotation is ON": "Rotazione contenuti ATTIVA",
	"Content is rotated": "Il contenuto è ruotato",
	"Contents rotation is ON": "Rotazione contenuti ATTIVA",
	"Continent": "Continente",
	"Contrast": "Contrasto",
	"Control": "Controllo",
	"Control Item": "Elemento di controllo",
	"Control Type": "Tipo di controllo",
	"Cool": "Freddo",
	"Copenhagen": "Copenaghen",
	"Country/Territory": "Paese/Territorio",
	"Croatia": "Croazia",
	"Current": "Corrente",
	"Current Fan RPM": "Giri/minuto ventola correnti",
	"Current Password": "Password corrente",
	"Current Picture mode does not support changing color temperature. Please select \"Expert\" of \"Calibration\" mode to adjust the color temperature.": "La modalità immagine corrente non supporta il cambio della temperatura dei colori. Selezionare la modalità \"Esperto\" di \"Calibratura\" per regolare la temperatura dei colori.",
	"Current Ver.": "Ver. corrente",
	"Current Version": "Versione corrente",
	"Custom": "Personalizza",
	"Cut Left Edge": "Taglia bordo sinistro",
	"Cut Right Edge": "Taglia bordo destro",
	"Cyprus": "Cipro",
	"Czech": "Ceco",
	"Czech Republic": "Repubblica Ceca",
	"Côte d'Ivoire": "Costa d'Avorio",
	"DHCP State": "Stato DHCP",
	"DNS Server": "Server DNS",
	"DOWNLOAD LOG": "SCARICA REGISTRO",
	"DOWNLOAD LOG FILE": "SCARICA FILE REGISTRO",
	"DPM (Standby Mode)": "DPM (modalità standby)",
	"Daisy Direction": "Direzione margherita",
	"Daisy Start by": "Inizio margherita da",
	"Damage Detection": "Rilevamento Danni",
	"Damaged": "Danneggiato",
	"Damascus": "Damasco",
	"Data is not collected now. wait for maximum 60 seconds": "I dati non vengono raccolti ora. attendere per un massimo di 60 secondi",
	"Date": "Dati",
	"Day": "Giorno",
	"Daylight Saving Time": "Ora legale",
	"Days": "Giorni",
	"December": "Dicembre",
	"Default": "Predefinito",
	"Default size": "Dimensione predefinita",
	"Delete": "Elimina",
	"Delete Mini Module": "Eliminare Mini Modulo",
	"Delete Slave Controller": "Elimina controller slave",
	"Delete Unit": "Elimina unità",
	"Delete the file": "Elimina file",
	"Delete?": "Eliminare?",
	"Democratic Republic Of The Congo": "Repubblica Democratica del Congo",
	"Denmark": "Danimarca",
	"Details of Unit": "Dettagli dell'unità",
	"Device Control": "Controllo dispositivo",
	"Digital Board Reboot": "Riavvio scheda digitale",
	"Disconnected": "Disconnesso",
	"Display & Sound": "Display e audio",
	"Display & sound": "Display e audio",
	"Do not reboot in Device page.": "Non riavviare nella pagina Dispositivo.",
	"Do you want to delete the item?": "Eliminare l'elemento?",
	"Do you want to delete the selected file?": "Eliminare il file selezionato?",
	"Do you want to delete this LED FPGA Update file?": "Eliminare questo file di aggiornamento LED FPGA?",
	"Do you want to delete this S/W Update file?": "Eliminare questo file di aggiornamento S/W?",
	"Do you want to install this S/W Update file?": "Installare questo file di aggiornamento S/W?",
	"Do you want to proceed?": "Procedere?",
	"Do you want to set the time & date?": "Impostare l'ora e la data?",
	"Do you want to set the time or date automatically?": "Impostare l'ora o la data automaticamente?",
	"Dominican Republic": "Repubblica Dominicana",
	"Done": "Eseguito",
	"Door": "Porta",
	"Door Control": "Controllo porta",
	"Door Monitor": "Monitor porta",
	"Door Open": "Porta aperta",
	"Door Sensor": "Sensore porta",
	"Door Sensor Status": "Stato sensore porta",
	"Door xxx is opened": "La porta xxx è aperta",
	"Draw": "Disegna",
	"Dublin": "Dublino",
	"Duplicated Unit ID": "ID unità duplicato",
	"Duration": "Durata",
	"Dynamic Brightness": "Luminosità dinamica",
	"Dynamic Brightness Control": "Controllo luminosità dinamica",
	"Easter Island": "Isola di Pasqua",
	"Edit": "Modifica",
	"Education": "Educazione",
	"Egypt": "Egitto",
	"Enable or disable Signage 365 Care services on this device": "Abilitare o disabilitare i servizi di Signage 365 Care su questo dispositivo",
	"Enable or disable {apptitle} service on this device": "Abilitare o disabilitare il servizio di {apptitle} su questo dispositivo",
	"End": "Fine",
	"End Time": "Ora di fine",
	"Energy Saving": "Risparmio energetico",
	"Enter Account Number": "Inserisci Numero Di Conto",
	"Enter the account number to activate Signage 365 Care.": "Inserire il numero di conto per attivare Signage 365 Care",
	"Enter the account number to activate {apptitle}.": "Inserire il numero di account per attivare {apptitle}.",
	"Enter the following": "Inserire il seguente",
	"Enter the network address to ping": "Immettere l'indirizzo di rete per eseguire il ping",
	"Equatorial Guinea": "Guinea Equatoriale",
	"Ethiopia": "Etiopia",
	"Europe": "Europa",
	"Event": "Evento",
	"Exit": "Esci",
	"Expert": "Esperto",
	"Export": "Esporta",
	"External": "Esterno",
	"External Input Rotation": "Rotazione ingresso esterno",
	"External Input Rotation Status": "Stato rotazione ingresso esterno",
	"External Input Rotation is ON": "Rotazione ingresso esterno attivata",
	"EyeQ sensor": "Sensore EyeQ",
	"FPGA Version": "Versione FPGA",
	"Factory Reset": "Ripristino di fabbrica",
	"Fail": "Operazione non riuscita",
	"Fail to update. Check xxx file please.": "Impossibile aggiornare. Controllare il file xxx.",
	"Failed to update LED FPGA with xxx. Check the file please": "Impossibile aggiornare FPGA LED con xxx. Controllare il file",
	"Failed to update LED FPGA with xxx. Check the status of the unit controller.": "Aggiornamento LED FPGA non riuscito con xxx. Verificare lo stato del controller dell’unità.",
	"Failed to update fan micom with xxx. Check the file please": "Impossibile aggiornare micom ventola con xxx. Controllare il file",
	"Fan": "Ventola",
	"Fan Micom Version": "Versione micom ventola",
	"Fan RPM": "Giri/minuto ventola",
	"Fan RPM history is not yet collected": "Cronologia giri/minuto ventola non ancora raccolta",
	"Fan Status": "Stato ventola",
	"February": "Febbraio",
	"File Name": "Nome file",
	"File Select": "Selezione file",
	"File Upload Progress": "Stato di caricamento file",
	"File upload via mobile devices does not support.": "Il caricamento del file tramite dispositivi mobili non è supportato.",
	"Finland": "Finlandia",
	"First Use": "Primo utilizzo",
	"Flash memory is not enough.": "Memoria flash insufficiente.",
	"For your security, we recommend to change default password. Would you like to change your password now?": "Per la sicurezza dell'utente, è consigliabile cambiare la password predefinita. Cambiare la password adesso?",
	"France": "Francia",
	"French Polynesia": "Polinesia Francese",
	"Fri": "ven",
	"Friday": "Venerdì",
	"Front": "Anteriore",
	"Full": "Completo",
	"Game": "Gioco",
	"Gamut Matrix": "Matrice gamma",
	"General": "Generale",
	"Germany": "Germania",
	"Gibraltar": "Gibilterra",
	"Go To First Use": "Vai a Primo utilizzo",
	"Gov./Corp.": "Governo/Aziende",
	"Greece": "Grecia",
	"Greenland": "Groenlandia",
	"Guadeloupe": "Guadalupa",
	"Guatemala City": "Città del Guatemala",
	"Height": "Altezza",
	"High": "Alta",
	"History is not yet collected": "Cronologia non ancora raccolta",
	"Home": "Casa",
	"Horizontal": "Orizzontale",
	"Hour": "Ora",
	"Hours": "Ore",
	"Humidity": "Umidità",
	"Hungary": "Ungheria",
	"IMB Settings": "Impostazioni IMB",
	"IMB Status": "Stato IMB",
	"IP Address": "Indirizzo IP",
	"Iceland": "Islanda",
	"Image": "Immagine",
	"Impact": "Impatto",
	"Incorrect Password entered. Please try again.": "È stata inserita una Password errata. Riprovare.",
	"Information": "Informazioni",
	"Input": "Ingresso",
	"Input 6 or more characters": "Inserisci 6 o più caratteri",
	"Input Direction": "Direzione input",
	"Input Password": "Immetti password",
	"Input Priority": "Priorità di ingresso",
	"Input Priority Setting": "Impostazione priorità ingresso",
	"Input Signage Name please.": "Nome monitor di ingresso.",
	"Input Window": "Finestra ingresso",
	"Install": "Installa",
	"Install Succeeded": "Installazione riuscita",
	"Installation Failed": "Installazione non riuscita",
	"Installation Menu": "Menu di installazione",
	"Installing…": "Installazione in corso...",
	"Internet Not available": "Internet non disponibile",
	"Internet available": "Internet disponibile",
	"Invalid NEW Password. Password must be 6 characters in length.": "NUOVA Password non valida. La Password deve contenere 6 caratteri.",
	"Invalid NEW Password. Password must be 8 characters in length.": "NUOVA Password non valida. La Password deve contenere 8 caratteri.",
	"Invalid NEW Password. You must use a combination of letters and numbers.": "NUOVA Password non valida. È necessario utilizzare una combinazione di lettere e numeri.",
	"Invalid New password. Password must be at least 8 characters.": "Nuova password non valida. La password deve contenere almeno 8 caratteri.",
	"Invalid New password. You must use a mixture of mixed-case letters, numbers and special characters.": "Nuova password non valida. È necessario usare una combinazione di lettere maiuscole e minuscole, numeri e caratteri speciali.",
	"Invalid day value": "Valore giorno non valido",
	"Invalid hour value": "Valore ora non valido",
	"Invalid minute value": "Valore minuto non valido",
	"Invalid month value": "Valore mese non valido",
	"Invalid value": "Valore non valido",
	"Invalid year value": "Valore anno non valido",
	"Ireland": "Irlanda",
	"Irregular": "Irregolare",
	"Israel": "Israele",
	"Issue History": "Cronologia dei problemi",
	"Italy": "Italia",
	"Jakarta": "Giacarta",
	"Jamaica": "Giamaica",
	"January": "Gennaio",
	"Japan": "Giappone",
	"Jerusalem": "Gerusalemme",
	"Jordan": "Giordania",
	"July": "Luglio",
	"June": "Giugno",
	"Kazakhstan": "Kazakistan",
	"Kenya": "Kenia",
	"Korea": "Corea",
	"Korea, Republic of": "Corea, Repubblica di",
	"LED Assistant Settings": "Impostazioni LED Assistant",
	"LED FPGA Update file list": "Elenco file di aggiornamento LED FPGA",
	"LED FPGA Updating ......": "Aggiornamento LED FPGA in corso......",
	"LED Features": "Funzionalità LED",
	"LED Film Settings": "Impostazioni LED Film",
	"LED Open Detection": "Rilevamento LED aperto",
	"LED Settings": "Impostazioni LED",
	"LED Unit": "Unità LED",
	"LED Unit Status": "Stato unità LED",
	"LG ConnectedCare App": "App LG ConnectedCare",
	"LG ConnectedCare app": "App LG ConnectedCare",
	"LG Control Manager": "Gestore controllo LG",
	"Landscape": "Paesaggio",
	"Language": "Lingua",
	"Large": "Grande",
	"Last": "ultima",
	"Latvia": "Lettonia",
	"Layout Editor": "Editor layout",
	"Lebanon": "Libano",
	"Libya": "Libia",
	"Lisbon": "Lisbona",
	"Lithuania": "Lituania",
	"Loading": "Caricamento",
	"Loading...": "Caricamento in corso...",
	"Loading…": "Caricamento in corso…",
	"Location": "Posizione",
	"Log Report": "Report di log",
	"Log after Power Up": "Accedi dopo accensione",
	"Log in with the authorized ID and password.": "Accedere con ID e password autorizzati.",
	"Login": "Accedi",
	"Login is required.": "È richiesto l'accesso.",
	"Logout": "Disconnessione",
	"London": "Londra",
	"Low": "Basso",
	"Luxembourg": "Lussemburgo",
	"MAC Address": "Indirizzo MAC",
	"Main": "Principale",
	"Malaysia": "Malesia",
	"Maldives": "Maldive",
	"Mall/QSR": "Centro commerciale/QSR",
	"Manage": "Gestisci",
	"Manual": "Manuale",
	"March": "Marzo",
	"Marriage Guide (2 Steps)": "Guida al Marriage (2 passaggi)",
	"Marriage Status": "Stato Marriage",
	"Marshall Islands": "Isole Marshall",
	"Martinique": "Martinica",
	"Max Backlight": "Retroilluminazione max",
	"Maximum": "Massimo",
	"May": "Maggio",
	"Media Library": "Libreria multimediale",
	"Media file List": "Elenco di file multimediali",
	"Media file Upload (XXX GB available)": "Caricamento file multimediale (XXX GB disponibili)",
	"Medium": "Medio",
	"Menu Language": "Lingua menu",
	"Mexico": "Messico",
	"Mexico City": "Città del Messico",
	"Micom Progress": "Stato Micom",
	"Micom Update": "Aggiornamento Micom",
	"Micom Version": "Versione micom",
	"Middle East": "Medio Oriente",
	"Min Backlight": "Retroilluminazione min.",
	"Mini Module": "Mini Modulo",
	"Minimum": "Minimo",
	"Minimum = XXms, Maximum = YYms, Average = ZZms": "Minimo = XXms, Massimo = YYms, Medio = ZZms",
	"Mins": "Min",
	"Model Name": "Nome modello",
	"Module Calibration": "Calibratura modulo",
	"Module Calibration is modified. Exit without saving?": "Calibratura modulo modificata. Uscire senza salvare?",
	"Module Size": "Dimensione modulo",
	"Modules": "Moduli",
	"Mogadishu": "Mogadiscio",
	"Moldova": "Moldovia",
	"Mon": "lun",
	"Monday": "Lunedì",
	"Month": "Mese",
	"More": "Altro",
	"Morocco": "Marocco",
	"Moscow": "Mosca",
	"Motion": "Movimento",
	"Mozambique": "Mozambico",
	"Muscat": "Mascate",
	"Mute": "Disattiva audio",
	"NOT AVAILABLE": "NON DISPONIBILE",
	"Name": "Nome",
	"Natural Mode": "Modalità naturale",
	"Natural Size": "Dimensione naturale",
	"Netherlands": "Olanda",
	"Network": "Rete",
	"Network Ready": "Rete pronta",
	"Network Settings": "Impostazioni di rete",
	"New Caledonia": "Nuova Caledonia",
	"New Password": "Nuova password",
	"New Password and Confirm Password do not match.": "Nuova Password e Conferma Password non corrispondono.",
	"New Zealand": "Nuova Zelanda",
	"Newer Ver.": "Ver. più recente",
	"Next": "Avanti",
	"Next Day": "Giorno successivo",
	"No Signal": "Nessun segnale",
	"No backup files exist in storage device.": "Nessun file di backup esistente nel dispositivo di archiviazione.",
	"None": "Nessuno",
	"Normal": "Normale",
	"North America": "Nord America",
	"North Korea": "Nord Corea",
	"Norway": "Norvegia",
	"Not Connected": "Non connesso",
	"Notification": "Notifica",
	"November": "Novembre",
	"Number": "Numero",
	"OFF": "DISATTIVA",
	"OLED LIGHT": "Luce OLED",
	"OLED Light": "Luce OLED",
	"ON": "ATTIVA",
	"OSD Portrait Mode": "Modalità OSD Portrait",
	"OSD Portrait Mode is ON": "Modalità verticale OSD ON",
	"OSD Portrait Status": "Stato verticale OSD",
	"OSD Portrait mode is xxx": "La modalità verticale OSD è xxx",
	"OSD Rotation is ON": "Rotazione OSD ATTIVA",
	"Occurrence Time": "Ora ricorrenza",
	"October": "Ottobre",
	"Off": "Disattiva",
	"Off Until Reset": "Inattivo fino al ripristino",
	"Off When Open": "Inattivo se aperto",
	"On": "Attiva",
	"On When Open": "Attivo se aperto",
	"Open Loop Fan": "Ventola circuiro aperto",
	"OpenLoop": "Circuito aperto",
	"Opened": "Aperto",
	"Original": "Originale",
	"Output Window": "Finestra uscita",
	"OverHeat": "Surriscaldamento",
	"Overwrite": "Sovrascrivi",
	"Overwrite xxx?": "Sovrascrivere xxx?",
	"Overwrite?": "Sovrascrivere?",
	"PM Mode": "Modalità PM",
	"Pacific": "Pacifico",
	"Packets : Sent = XX. Received = YY. Lost = ZZ (WW% loss)": "Pacchetti: Inviati = XX. Ricevuti = YY. Persi = ZZ (WW% perdita)",
	"Panel": "Pannello",
	"Papua New Guinea": "Papua Nuova Guinea",
	"Paris": "Parigi",
	"Password is incorrect. Please Try Again": "La password non è corretta. Riprovare",
	"Password is incorrect. Please try again.": "La password non è corretta. Riprovare.",
	"Peru": "Perù",
	"Philippines": "Filippine",
	"Picture": "Immagine",
	"Picture Mode": "Modalità immagine",
	"Picture Settings": "Impostazioni immagine",
	"Ping Test": "Test del ping",
	"Ping statistics for [X.X.X.X]": "Statistiche del ping per [X.X.X.X]",
	"Ping test failed. Invalid format of network address field.": "Test del ping non riuscito. Formato del campo dell'indirizzo di rete non valido.",
	"Ping test is in progress": "Test ping in corso",
	"Ping test result": "Risultato del test ping",
	"Pinging [X.X.X.X] with YYY bytes of data": "Esecuzione di ping [X.X.X.X] con YYY byte di dati",
	"Play": "Riproduci",
	"Play via URL": "Riproduci via URL",
	"Please Keep this Signage on.": "Mantenere attivo il monitor.",
	"Please check the following items and try again.": "Verificare i seguenti elementi e riprovare.",
	"Please check the installation file and try again.": "Controllare il file di installazione e riprovare.",
	"Please choose a file to upload": "Scegliere un file da caricare",
	"Please choose a video file to upload": "Scegliere un file video da caricare",
	"Please don't turn off the device and wait until the installation is completed.": "Non spegnere il dispositivo e attendere il completamento dell'installazione.",
	"Please don’t turn off the device. And wait while process is completed.": "Non spegnere il dispositivo. E attendere il completamento del processo.",
	"Please enter the authorized ID and password.": "Inserire ID e password autorizzati.",
	"Please login again.": "Effettuare nuovamente l'accesso.",
	"Please press the physical marriage button.": "Premere il pulsante Physical Marriage.",
	"Please restart the marriage authentication process.": "Riavviare il processo di autenticazione Marriage.",
	"Please select city": "Selezionare la città",
	"Please select country": "Selezionare il paese",
	"Please upload S/W update file via PC browser.": "Caricare il file di aggiornamento software tramite il browser del PC.",
	"Poland": "Polonia",
	"Port": "Porta",
	"Port Number": "Numero porta",
	"Port Settings": "Impostazioni porta",
	"Portrait": "Verticale",
	"Portrait Mode": "Modalità verticale",
	"Portugal": "Portogallo",
	"Position": "Posizione",
	"Power": "Accensione",
	"Power Off": "Spegnimento",
	"Power Off Management": "Gestione spegnimento",
	"Power Off(Default)": "Spegni (predefinito)",
	"Power Rack": "Rack di alimentazione",
	"Power Rack Settings": "Impostazioni Rack di alimentazione",
	"Prague": "Praga",
	"Press the physical marriage button on your master cabinet.": "Premere il pulsante Physical Marriage sul cabinet principale.",
	"Pressing Start will give you 1 minute to perform the process.": "Dopo aver premuto Avvia, c’è 1 minuto di tempo per eseguire la procedura.",
	"Prev DAY": "GIORNO precedente",
	"Prev.": "Prec.",
	"Preview": "Anteprima",
	"Priority": "Priorità",
	"Puerto Rico": "Porto Rico",
	"RPM": "Giri/minuto",
	"Rearrange": "Riorganizza",
	"Reboot": "Riavvia",
	"Reboot?": "Riavviare?",
	"Rebooting": "Riavvio",
	"Reference Resolution": "Risoluzione di riferimento",
	"Refresh": "Aggiorna",
	"Regular": "Regolare",
	"Rejected": "Rifiutato",
	"Remember me": "Ricordami",
	"Rename": "Rinomina",
	"Rename or Overwrite?": "Rinominare o sovrascrivere?",
	"Rename to {{filename (2)}} or Overwrite?": "Rinominare in {{filename (2)}} o sovrascrivere?",
	"Reply from [X.X.X.X] : bytes = YY, time = ZZms, TTL = WW": "Risposta da [X.X.X.X] : byte = YY, tempo= ZZms, TTL = WW",
	"Republic Of The Congo": "Repubblica del Congo",
	"Request timed out.": "Timeout della richiesta.",
	"Require Network Settings": "Impostazioni di rete necessarie",
	"Required Marriage": "Marriage richiesto",
	"Reset": "Ripristina",
	"Reset All": "Ripristina tutto",
	"Reset Mute": "Ripristina muto",
	"Reset Mute' is Needed": "È necessario ripristinare il muto",
	"Reset to factory reset": "Ripristina le impostazioni di fabbrica",
	"Riyadh": "Riad",
	"Rome": "Roma",
	"Rotation": "Rotazione",
	"Row": "Riga",
	"Run Time": "Tempo di esecuzione",
	"Run Time Since Last Power Up": "Tempo di esecuzione dall'ultima accensione",
	"Rwanda": "Ruanda",
	"S/W Update": "Aggiornamento S/W",
	"S/W Update File list": "Elenco di file di aggiornamento S/W",
	"S/W Update file list": "Elenco di file di aggiornamento S/W",
	"S/W Update succeeded": "Aggiornamento S/W riuscito",
	"S/W Updating": "Aggiornamento S/W",
	"S/W Updating......": "Aggiornamento software in corso......",
	"S/W Ver.": "Ver. S/W",
	"S/W update file does not exist.": "Il file di aggiornamento software non esiste.",
	"S/W will update. Do you want to continue?": "S/W verrà aggiornato. Continuare?",
	"SCREEN": "SCHERMO",
	"SI App / Play via URL": "App SI / Riproduci via URL",
	"Saint Lucia": "Santa Lucia",
	"Sakhalin": "Sachalin",
	"Samarkand": "Samarcanda",
	"Sat": "sab",
	"Saturday": "Sabato",
	"Saudi Arabia": "Arabia Saudita",
	"Save": "Salva",
	"Screen": "Schermo",
	"Screen Configuration": "Configurazione schermo",
	"Screen Fault Detection": "Rilevamento guasto schermo",
	"Screen Off": "Annullamento video",
	"Screen Off & Backlight": "Schermo spento e retroilluminazione",
	"Screen Off & Backlight On": "Schermo spento e retroilluminazione attiva",
	"Screen Off Always": "Schermo spento sempre",
	"Screen Power Off": "Spegnimento schermo",
	"Screen Rotation": "Rotazione dello schermo",
	"Screen Rotation Status": "Stato rotazione schermo",
	"Screen Rotation is ON": "Rotazione schermo attivata",
	"ScreenOn": "Schermo acceso",
	"Select File": "Seleziona file",
	"Select Input Source": "Seleziona sorgente di ingresso",
	"Select a file to upload": "Seleziona un file da caricare",
	"Select media file": "Selezionare il file multimediale",
	"Sensor": "Sensore",
	"Seoul": "Seul",
	"September": "Settembre",
	"Serial Number": "Numero di serie",
	"Server Status": "Stato server",
	"Set": "Imposta",
	"Set Automatically": "Imposta automaticamente",
	"Set Master": "Imposta master",
	"Set Slave": "Imposta slave",
	"Set URL": "Imposta URL",
	"Setting": "Impostazione",
	"Show Color": "Mostra colore",
	"Sigane Name is Too Long": "Nome Signage troppo lungo",
	"Sign in": "Accedi",
	"Signage 365 Care App": "App Signage 365 Care",
	"Signage Name": "Nome Monitor",
	"Signal": "Segnale",
	"Size": "Dimensione",
	"Slovakia": "Slovacchia",
	"Small": "Piccolo",
	"Software Version": "Versione software",
	"Solomon Islands": "Isole Salomone",
	"Sound Control": "Controllo audio",
	"South Africa": "Sud Africa",
	"South America": "Sud America",
	"Spain": "Spagna",
	"Sports": "Sport",
	"Stalled Image": "Immagine bloccata",
	"Start": "Avvia",
	"Start Time": "Ora di inizio",
	"State": "Stato",
	"Status": "Stato",
	"Step 1. Physical Marriage": "Passaggio 1. Physical Marriage",
	"Step 2. Logical Marriage": "Passaggio 2. Logical Marriage",
	"Stockholm": "Stoccolma",
	"Storage": "Memorizzazione",
	"Subnet Mask": "Subnet mask",
	"Subnet prefix length": "Lunghezza prefisso subnet",
	"Success": "Operazione riuscita",
	"Sun": "Dom",
	"Sunday": "Domenica",
	"SuperSign Content": "Contenuto SuperSign",
	"SuperSign Contents": "Contenuto SuperSign",
	"Sustain Aspect Ratio": "Mantieni rapporto d'aspetto",
	"Sweden": "Svezia",
	"Switzerland": "Svizzera",
	"Syria": "Siria",
	"System": "Sistema",
	"System Box": "Sistema",
	"System Control": "Controllo sistema",
	"System Controller": "Controller di sistema",
	"System Controller Settings": "Impostazioni Controller di sistema",
	"System Information": "Informazioni di sistema",
	"System Reboot": "Riavvio sistema",
	"System Settings": "Impostazioni di sistema",
	"System controller will restart.": "Il Controller di sistema verrà riavviato.",
	"System controller will restart. Do you want to continue?": "Il Controller di sistema verrà riavviato. Continuare?",
	"São Paulo": "San Paolo",
	"Temperature": "Temperatura",
	"Temperature history is not yet collected": "Cronologia temperatura non ancora raccolta",
	"Test Color": "Verifica colore",
	"Test Pattern": "Verifica scherma",
	"Thailand": "Tailandia",
	"The POWER remote controller key will not work during the update.": "Il tasto POWER del telecomando non funzionerà durante l'aggiornamento.",
	"The Signage 365 care app has been deleted.": "L'app Signage 365 Care è stata eliminata.",
	"The Signage 365 care app has been successfully installed.": "L'app Signage 365 Care è stata installata correttamente.",
	"The Signage 365 care app has been successfully updated.": "L'app Signage 365 Care è stata aggiornata correttamente.",
	"The URL format is invalid.": "Il formato URL non è valido.",
	"The installation of the Signage 365 care app has failed.": "L'installazione dell'app Signage 365 Care non è riuscita.",
	"The installation of the Signage 365 care app is in progress.": "L'installazione dell'app Signage 365 Care è in corso.",
	"The installation of the {apptitle} has failed.": "Errore nell'installazione di {apptitle}.",
	"The installation of the {apptitle} is in progress.": "Installazione di {apptitle} in corso.",
	"The timer is reset and the marriage process must be restarted from the beginning.": "Il timer è azzerato e la procedura Marriage deve essere riavviata dall'inizio.",
	"The update of the Signage 365 care app has failed.": "L'aggiornamento dell'app Signage 365 Care non è riuscito.",
	"The update of the Signage 365 care app is in progress.": "L'aggiornamento dell'app Signage 365 Care è in corso.",
	"The update of the {apptitle} has failed.": "Errore nell'aggiornamento di {apptitle}.",
	"The update of the {apptitle} is in progress.": "Aggiornamento di {apptitle} in corso.",
	"The {apptitle} has been successfully installed.": "Installazione di {apptitle} completata.",
	"The {apptitle} has been successfully updated.": "Aggiornamento di {apptitle} completato.",
	"There is a difference between your signage and the signage 365 care server in time and date.": "Esiste una differenza di data e ora tra il monitor e il server Signage 365 Care.",
	"There is a difference between your signage and the {apptitle} server in time and date.": "Rilevata una differenza tra il monitor e il server di {apptitle} nella data e nell'ora.",
	"There is no list.": "Non vi sono liste.",
	"There's No Backup file": "Nessun file di backup",
	"This pop up will be closed automatically in 5 sec.": "Questa finestra si chiuderà automaticamente tra 5 secondi.",
	"Thu": "gio",
	"Thursday": "Giovedì",
	"Tile ID": "ID Tile",
	"Tile Mode": "Modalità Tile",
	"Tile Mode Setting": "Impostazione modalità riquadri",
	"Tile Mode Settings": "Impostazioni modalità riquadri",
	"Time": "Ora",
	"Time & Date": "Data e ora",
	"Time & Date Settings": "Impostazioni ora e data",
	"Time & Date Settings Required": "Impostazioni di ora e data obbligatorie",
	"Time Setting": "Impostazione ora",
	"Time Zone": "Fuso orario",
	"Tint": "Tinta",
	"Tiranë": "Tirana",
	"To choose an AP, please use Settings App. with a remote controller.": "Per scegliere un AP, utilizzare l'applicazione Impostazioni con un controller remoto.",
	"To make your Password more secure. Use letters and numbers.": "Per rendere la Password più sicura. Utilizzare lettere e numeri.",
	"To make your password more secure, use a mixture of mixed-case letters, numbers and special characters": "Per rendere la password più sicura, usare una combinazione di lettere maiuscole e minuscole, numeri e caratteri speciali",
	"To use Signage 365 care, you need to connect the device to the network . Do you want to set the network connection?": "Per utilizzare Signage 365 Care, è necessario connettere il dispositivo alla rete. Impostare la connessione di rete?",
	"To use {apptitle}, you need to connect the device to the network. Do you want to set the network connection?": "Per utilizzare {apptitle}, è necessario connettere il dispositivo alla rete. Impostare la connessione di rete?",
	"Top": "In alto",
	"Top Left": "In alto a sinistra",
	"Top Right": "In alto a destra",
	"Transportation": "Trasporto",
	"Trinidad And Tobago": "Trinidad e Tobago",
	"Tue": "mar",
	"Tuesday": "Martedì",
	"Tunis": "Tunisi",
	"Turkey": "Turchia",
	"Type": "Tipo",
	"URL Loader": "Caricamento URL",
	"URL Setting": "Impostazione URL",
	"Ukraine": "Ucraina",
	"Unit Calibration": "Calibratura unità",
	"Unit Calibration is modified. Exit without saving?": "Calibratura unità modificata. Uscire senza salvare?",
	"Unit Configuration": "Configurazione unità",
	"Unit Resolution": "Risoluzione unità",
	"Unit Status": "Stato unità",
	"Unit Temperature": "Temperatura unità",
	"United Arab Emirates": "Emirati Arabi Uniti",
	"United Kingdom": "Regno Unito",
	"United States of America": "Stati Uniti di America",
	"Units cut left edge can not be placed in the X:0 positions.": "Non è possibile collocare le unità tagliate del bordo sinistro nelle posizioni X:0.",
	"Units cut right edge cannot be placed in the Y:(Cut Pixel) positions.": "Non è possibile collocare le unità tagliate del bordo destro nelle posizioni Y:(Pixel Tagliato).",
	"Unsupported File type.": "Tipo di file non supportato",
	"Unsupported File type. Only Image/Video files are allowed.": "Tipo di file non supportato Sono consentiti solo file di immagine/video.",
	"Update": "Aggiorna",
	"Update Failed": "Aggiornamento non riuscito",
	"Update LED FPGA micom with xxx done": "Aggiornamento micom FPGA LED con xxx eseguito",
	"Update LED FPGA with xxx done": "Aggiornamento FPGA LED con xxx eseguito",
	"Update Progress": "Stato aggiornamento",
	"Update Succeeded": "Aggiornamento riuscito",
	"Update completed. Set is rebooting now.": "Aggiornamento completato. È in corso il riavvio della TV.",
	"Update completed. Signage is rebooting now.": "Aggiornamento completato. Riavvio del monitor in corso.",
	"Update fan micom with xxx done": "Aggiornamento micom ventola con xxx eseguito",
	"Update is completed.": "Aggiornamento completato.",
	"Update is in progress.": "Aggiornamento in corso.",
	"Update?": "Aggiornare?",
	"Updating…": "Aggiornamento in corso...",
	"Upload": "CARICA",
	"Upload FPGA Update file (XXX GB available)": "Carica file di aggiornamento FPGA (XXX GB disponibili)",
	"Upload LED FPGA update file": "Carica file di aggiornamento FPGA LED",
	"Upload secured S/W Update file": "Carica il file di aggiornamento S/W protetto",
	"Upload secured S/W Update file (XXX GB available)": "Carica file di aggiornamento S/W protetto (XXX GB disponibili)",
	"Uploading": "Caricamento",
	"User": "Utente",
	"Validation Error.": "Errore di convalida.",
	"Vatican City": "Città del Vaticano",
	"Version": "Versione",
	"Vertical": "Verticale",
	"Video Scaler": "Scaler video",
	"View": "Visualizza",
	"View Photo": "Visualizza Foto",
	"Virtual Controller": "Controller virtuale",
	"Vivid": "Nitidezza",
	"Waiting for Approval": "In attesa di approvazione",
	"Warm": "Caldo",
	"Warsaw": "Varsavia",
	"Wed": "mer",
	"Wednesday": "Mercoledì",
	"Week": "Settimana",
	"Weekday": "Giorno feriale",
	"Welcome to LG WebOS": "Benvenuto in LG WebOS",
	"Width": "Ampiezza",
	"Wired": "Cablata",
	"Working": "In funzione",
	"XX GB free of XXGB": "XX GB di XX GB disponibili",
	"XX of YY": "XX di YY",
	"YES": "SÌ",
	"Yes": "Sì",
	"You changed IP address or DHCP status. Please reconnect to changed IP address": "L'indirizzo IP o lo stato DHCP è stato modificato. Ricollegarsi all'indirizzo IP modificato",
	"You did not finish the process in time.": "La procedura non è stata conclusa in tempo.",
	"You have failed to login 1/5 time.": "Accesso non riuscito 1 volta su 5.",
	"You have failed to login 5 times. Please try again after 05:00.": "Accesso non riuscito 5 volte. Riprova dopo le 05:00.",
	"You may not be able to reconnect to web pages if you cannot find out new IP address.": "Potrebbe non essere possibile ricollegarsi alle pagine Web se non si scopre il nuovo indirizzo IP.",
	"You've entered the same password as the current one. Please enter a different password.": "È stata inserita una password identica a quella corrente. Indicarne un'altra.",
	"Your Password has been changed.": "La password è stata modificata.",
	"Your device needs the correct time & date to authenticate marriage.": "Per autenticare il Marriage immettere l'ora e la data corrette sul dispositivo.",
	"Zagreb": "Zagabria",
	"Zoom In": "Zoom av.",
	"Zoom In/Out": "Ingrandisci/Riduci",
	"Zoom Out": "Riduci",
	"Zürich": "Zurigo",
	"align": "allinea",
	"available": "disponibile",
	"color": "colore",
	"full aspect ratio": "formato a schermo pieno",
	"general": "generale",
	"hour": "ora",
	"last": "ultima",
	"original aspect ratio": "formato originale",
	"over {period} min.": "oltre {period} min.",
	"reading": "lettura",
	"save as PC Time": "salva come Tempo PC",
	"sharpness": "nitidezza",
	"upload": "carica",
	"version": "versione",
	"warning": "avvertenza",
	"webOS Version": "Versione webOS",
	"year": "anno",
	"{apptitle} will be deleted.": "{apptitle} verrà eliminata.",
	"{{filename}} already exists.": "{{filename}} esiste già."
}
