{
	"(30,60,120,180) Min": "(30,60,120,180) മി.",
	"10 sec": "10 നിമിഷം",
	"10 sec Auto Refresh": "10 സെ. സ്വയം പുതുക്കിയെടുക്കൽ",
	"1Hour": "1 മണിക്കൂർ",
	"30sec": "30സെ.",
	"5 min. Refresh": "5 മി. പുതുക്കിയെടുക്കൽ",
	"5Min": "5മി.",
	"APS": "എ.പി.എസ്.",
	"Abnormally High": "പതിവില്ലാത്ത വിധം ഉയർന്നത്",
	"Account": "അക്കൗണ്ട്",
	"Accra": "അക്ക്ര",
	"Activate": "സജീവമാക്കുക",
	"Adak": "അടക്",
	"Add Media": "മീഡിയ ചേർക്കുക",
	"Add Mini Module": "മിനി മൊഡ്യൂൾ ചേർക്കുക",
	"Add Slave Controller": "സ്ലേവ് കൺട്രോളർ ചേർക്കുക",
	"Add Unit": "യൂണിറ്റ് ചേർക്കുക",
	"Addis Ababa": "അഡ്ഡിസ് അബാബ",
	"Adelaide": "അടെലൈട്",
	"Aden": "അടെന്‍",
	"Advanced Options": "മുന്തിയ താല്പര്യങ്ങള്‍ ",
	"Advanced Setting": "വിപുലമായ സെറ്റിംഗ്",
	"Afghanistan": "അഫ്ഘാനിസ്ഥാന്‍",
	"Albania": "അല്‍ബനിയ",
	"Algeria": "അല്‍ജിരിയ",
	"Algiers": "അല്‍ജീര്‍സ്",
	"All": "ഓള്‍ ",
	"All Units": "എല്ലാ യൂണിറ്റുകളും",
	"All settings will be reset. Do you want to continue?": "എല്ലാ ക്രമീകരണവും പുനഃസജ്ജമാക്കപ്പെടും. നിങ്ങൾക്ക് തുടരണോ?",
	"Almaty": "ആല്‍മടി",
	"Amman": "അമ്മാന്‍",
	"Amsterdam": "ആമ്സ്റ്റെര്‍ഡാം",
	"An error occurred while submitting the form.": "ഫോം സമർപ്പിക്കുമ്പോൾ ഒരു പിശക് സംഭവിച്ചു.",
	"Anadyr": "അനദ്യ്ര്",
	"Anchorage": "അഞ്ചോരാജ്",
	"Angola": "അങ്ങോല",
	"Antananarivo": "ആന്‍റനന്നാറിവോ",
	"Apia": "ആപ്പിയ",
	"Apply": "കൊടുക്ക്",
	"Apply to All Units": "എല്ലാ യൂണിറ്റുകളിലും ബാധകമാക്കുക",
	"Apply?": "ബാധകമാക്കണോ?",
	"Approximate round trip in milli-seconds": "മില്ലിസെക്കൻഡിലുള്ള ഏകദേശ റൗണ്ട് ട്രിപ്പ്",
	"April": "ഏപ്രിൽ",
	"Araguaína": "അരങ്ങുഐന്ന",
	"Are you sure to change Settings?": "ക്രമീകരണം മാറ്റണമെന്ന് തീർച്ചയാണോ?",
	"Are you sure to change the calibration settings of this unit?": "ഈ യൂണിറ്റിന്റെ കാലിബ്രേഷൻ ക്രമീകരണം മാറ്റണമെന്ന് തീർച്ചയാണോ?",
	"Are you sure to reboot?": "റീബൂട്ട് ചെയ്യണമെന്ന് തീർച്ചയാണോ?",
	"Are you sure to use": "ഉപയോഗിക്കണമെന്ന് തീർച്ചയാണോ",
	"Are you sure to use Wi-Fi DHCP?": "Wi-Fi DHCP ഉപയോഗിക്കണമെന്ന് തീർച്ചയാണോ?",
	"Are you sure to use Wired DHCP?": "വയേർഡ് DHCP ഉപയോഗിക്കണമെന്ന് തീർച്ചയാണോ?",
	"Argentina": "അര്ജെന്‍റീന",
	"Armenia": "അര്‍മേനിയ",
	"Aruba": "അരുബ",
	"Ashgabat": "അഷ്ഗാബാറ്റ്",
	"Asmara": "അസ്മാറ",
	"Aspect Ratio when rotated": "തിരിക്കുമ്പോഴുള്ള വീക്ഷണാനുപാതം",
	"Asunción": "അസുന്‍സിയോണ്‍",
	"Athens": "ഏതെന്‍സ്",
	"Atikokan": "അടികൊകന്‍",
	"Auckland": "ഓക്ലന്‍റ്",
	"August": "ഓഗസ്റ്റ്",
	"Australia": "ആസ്ട്രേലിയ",
	"Austria": "ഓസ്ട്രിയാ",
	"Authenticate": "പ്രാമാണീകരിക്കുക",
	"Authentication Failed": "പ്രാമാണീകരണം പരാജയപ്പെട്ടു",
	"Authentication completed.": "പ്രാമാണീകരണം പൂർത്തിയായി.",
	"Auto": "ഓട്ടോ",
	"Auto Detect": "സ്വയം കണ്ടെത്തുക",
	"Auto Refresh": "സ്വയം പുതുക്കുക",
	"Automatically Assign IP Address": "സ്വയം IP വിലാസം ചമക്കുക.",
	"Available to Installation": "ഇൻസ്റ്റാൾ ചെയ്യുന്നതിന് ലഭ്യമാണ്",
	"Azerbaijan": "അസര്‍ബൈജാന്‍",
	"Azores": "അജോരെസ്",
	"BLU Status": "BLU നില",
	"Back": "പുറകില്‍",
	"Backlight": "പീഠികഭാസം",
	"Backup Media Upload": "ബാക്കപ്പ് മീഡിയ അപ്‌ലോഡ്",
	"Backup file Thumbnail Image": "ബാക്കപ്പ് ഫയൽ ലഘുചിത്ര ഇമേജ്",
	"Backup via storage": "സംഭരണം വഴി ബാക്കപ്പുചെയ്യുക",
	"Baghdad": "ബാഗ്ദാദ്",
	"Bahamas": "ബഹാമാസ്",
	"Bahrain": "ബഹ്റിന്‍",
	"Baku": "ബാക്",
	"Bamako": "ബമാകൊ",
	"Bangkok": "ബാങ്കോക്",
	"Bangladesh": "ബങ്ഗ്ലദേശ്",
	"Bangui": "ബാംഗുയി",
	"Banjul": "ബന്‍ജൂല്‍",
	"Barbados": "ബാര്‍ബഡോസ്",
	"Basic Setting": "അടിസ്ഥാന ക്രമീകരണം",
	"Begin test": "പരിശോധന ആരംഭിക്കുക",
	"Beijing": "ബീജിങ്",
	"Beirut": "ബേറൂത്",
	"Belarus": "ബെലാറൂസ്",
	"Belgium": "ബെല്‍ജിയം",
	"Belgrade": "ബെല്‍ഗ്റേഡ്",
	"Belize": "ബെലീസ്",
	"Belém": "ബോലെമ്",
	"Benin": "ബെനിന്‍",
	"Berlin": "ബെര്‍ലിന്‍",
	"Bermuda": "ബെര്‍മുദാ",
	"Bhutan": "ഭൂടന്‍",
	"Bishkek": "ബിഷ്കെക്",
	"Bissau": "ബിസ്സാവു",
	"Black Level": "കറുത്ത തട്ട് ",
	"Blanc-Sablon": "ബ്ലാങ്ക്-സബ്ലോന്‍",
	"Blantyre": "ബ്ലാന്‍റ്യ്രെ",
	"Boa Vista": "ബോയ വിസ്ത",
	"Bogotá": "ബൊഗൊടാ",
	"Bolivia": "ബൊലിവിയ",
	"Bootloader Version": "ബൂട്ട്‌ലോഡർ പതിപ്പ്",
	"Bosnia": "ബോസ്നിയ",
	"Botswana": "ബോട്സ്വാന",
	"Bottom": "ചുവടെ",
	"Bottom Left": "ചുവടെ ഇടതുഭാഗത്ത്",
	"Bottom Light": "ചുവടെ വലതുഭാഗത്ത്",
	"Bottom Right": "ചുവടെ വലതുഭാഗത്ത്",
	"Box Name": "ബോക്‌സിന്റെ പേര്",
	"Bratislava": "ബ്രാടിസ്ലാവാ",
	"Brazil": "ബ്രസീല്‍",
	"Brazzaville": "ബ്രാജാവില്ലേ",
	"Brightness": "ബ്രൈറ്റ്നസ്സ്",
	"Brisbane": "ബ്രിസ്ബന്‍",
	"Browse": "ബ്രൗസ് ചെയ്യുക",
	"Browse a file to upload": "അപ്‌ലോഡ് ചെയ്യാൻ ഒരു ഫയൽ ബ്രൗസ് ചെയ്യുക",
	"Brussels": "ബ്രസെല്സ്",
	"Bucharest": "ബുക്കാറസ്റ്റ്",
	"Budapest": "ബുഡാപെസ്ട്",
	"Buenos Aires": "ബ്യൂനസ് എയര്‍സ്",
	"Bujumbura": "ബുജുംബേര",
	"Bulgaria": "ബള്‍ഗേറിയ",
	"Burkina Faso": "ബുര്കിനാ ഫാസൊ",
	"Burundi": "ബുറുണ്ടി",
	"Cairo": "കൈറോ",
	"Calibrate Unit": "യൂണിറ്റ് കാലിബ്രേറ്റ് ചെയ്യൽ",
	"Calibrated": "കാലിബ്രേറ്റുചെയ്തു",
	"Calibrating...": "കാലിബ്രേറ്റുചെയ്തു...",
	"Cambodia": "കംബോഡിയ",
	"Cameroon": "കാമെറൂണ്‍",
	"Campo Grande": "കമ്പോ ഗ്രണ്ടേ",
	"Canada": "കാന്നഡ",
	"Canary Islands": "കാനറി ദ്വീപുകള്‍",
	"Cancel": "ഒഴിവാക്കുക",
	"Cancún": "കങ്കുന്‍",
	"Cannot start S/W update. Check xxx file please.": "S/W അപ്‌ഡേറ്റ് ആരംഭിക്കാനാകുന്നില്ല. xxx ഫയൽ പരിശോധിക്കൂ.",
	"Cape Verde": "കേപ് വെര്ഡേ",
	"Capture time Interval": "ക്യാപ്ചർ സമയ ഇടവേള",
	"Capture time interval": "Capture time interval",
	"Caracas": "കരാകസ്",
	"Casablanca": "കാസാബ്ലാങ്കാ",
	"Category": "വിഭാഗം",
	"Cayman Islands": "കായ്മാന്‍ ദ്വീപുകള്‍",
	"Central African Republic": "മധ്യ ആഫ്രികന്‍ റിപ്പബ്ലിക്",
	"Chad": "ചാഡ്",
	"Change Password": "രഹസ്യകോഡ് മാറ്റുക",
	"Changing Time may cause you to be logged out.": "സമയം മാറ്റുന്നത്, ലോഗൗട്ട് ചെയ്യപ്പെടുന്നതിന് ഇടയാക്കാം.",
	"Changing Time zone may cause you to be logged out.": "സമയ മേഖല മാറ്റുന്നത് നിങ്ങൾ ലോഗ് ഔട്ട് ചെയ്യപ്പെടുന്നതിന് കാരണമായേക്കാം.",
	"Charts": "ചാർട്ടുകൾ",
	"Check Temperature sensors. -40 means errors when reading Temperature sensors": "താപനില സെൻസറുകൾ പരിശോധിക്കുക. -40 എന്നാൽ താപനില സെൻസറുകൾ റീഡുചെയ്യുമ്പോഴുള്ള പിശകിനെ സൂചിപ്പിക്കുന്നു",
	"Check for Update": "അപ്ഡേറ്റിനായി പരിശോധിക്കുക",
	"Check whether two passwords are same": "രണ്ട് പാസ്‌വേഡുകളും സമാനമാണോയെന്ന് പരിശോധിക്കുക",
	"Check your URL input": "നിങ്ങളുടെ URL ഇൻപുട്ട് പരിശോധിക്കുക",
	"CheckScreen": "സ്ക്രീൻ പരിശോധിക്കുക",
	"Checking for update...": "അപ്ഡേറ്റിനായി പരിശോധിക്കുന്നു...",
	"Chicago": "ഷിക്കാഗോ",
	"Chihuahua": "ചിഹൂയഹൂയ",
	"Chile": "ചിലി",
	"China": "ചൈന",
	"Chisinau": "ചിസിനൌ",
	"Christmas Island": "ക്രിസ്തുമസ് ദ്വീപ്",
	"Cinema": "സിനിമ",
	"City": "നഗരം",
	"Close": "അടയ്ക്കുക",
	"Close status of cabinet doors": "കാബിനറ്റ് ഡോറുകളുടെ ക്ലോസ് സ്റ്റാറ്റസ്",
	"Closed": "അടച്ചു",
	"Closed Loop Fan": "അടച്ച ലൂപ്പ് ഫാൻ",
	"ClosedLoop": "ക്ലോസ്‌ഡ് ലൂപ്പ്",
	"Colombia": "കൊളമ്പിയ",
	"Colombo": "കൊളമ്പോ",
	"Color Temperature": "നിറം താപനില",
	"ColorRead": "കളർ റീഡ്",
	"Column": "നിര",
	"Conakry": "കന്യാക്രീ",
	"Confirm": "ഉറപ്പ്",
	"Confirm Account Number": "അക്കൗണ്ട് നമ്പർ സ്ഥിരീകരിക്കുക",
	"Confirm New Password": "പുതിയ രഹസ്യകോഡ് സ്ഥിരീകരിക്കുക",
	"Confirm the account number you entered.": "നിങ്ങൾ നൽകിയ അക്കൗണ്ട് നമ്പർ സ്ഥിരീകരിക്കുക.",
	"Connected": "ബന്ധിച്ചത്",
	"Content Rotation": "ഉള്ളടക്കം തിരിക്കൽ",
	"Content Rotation Status": "ഉള്ളടക്ക തിരിക്കൽ നില",
	"Content Rotation is ON": "ഉള്ളടക്കം തിരിക്കൽ ഓണാണ്",
	"Content is rotated": "ഉള്ളടക്കം തിരിച്ചിട്ടുണ്ട്",
	"Contents rotation is ON": "ഉള്ളടക്ക റൊട്ടേഷൻ ഓണാണ്",
	"Continent": "ഭൂഖണ്ഡം",
	"Contrast": "താരതമ്യം",
	"Control": "നിയന്ത്രണം",
	"Control Item": "ഇനം നിയന്ത്രിക്കുക",
	"Control Type": "നിയന്ത്രണ തരം",
	"Cool": "തണുപ്പ്",
	"Copenhagen": "കോപ്പെന്‍ഹാഗെന്‍",
	"Costa Rica": "കോസ്റ്റ ഋക",
	"Country/Territory": "രാജ്യം/പ്രദേശം",
	"Croatia": "ക്രോയാശീയ",
	"Cuba": "ക്യൂബ",
	"Cuiabá": "കുയിയബ",
	"Current": "വൈദ്യുതി",
	"Current Fan RPM": "നിലവിലെ ഫാൻ RPM",
	"Current Password": "നിലവിലെ രഹസ്യകോഡ്",
	"Current Picture mode does not support changing color temperature. Please select \"Expert\" of \"Calibration\" mode to adjust the color temperature.": "വർണ്ണ നില മാറ്റുന്നതിനെ നിലവിലെ ചിത്ര മോഡ് പിന്തുണയ്‌ക്കുന്നില്ല. വർണ്ണ നില ക്രമീകരിക്കാൻ \"കാലിബ്രേഷൻ\" എന്നതിന്റെ \"വിദഗ്‌ദ്ധ\" മോഡ് തിരഞ്ഞെടുക്കുക.",
	"Current Ver.": "നിലവിലെ പതി.",
	"Current Version": "നിലവിലെ പതിപ്പ്",
	"Custom": "ആചാരം",
	"Cut Left Edge": "ഇടത് അരിക് മുറിക്കുക",
	"Cut Right Edge": "വലത് അരിക് മുറിക്കുക",
	"Cyprus": "സിപ്രസ്",
	"Czech": "ചെക്",
	"Czech Republic": "ചെക് റിപ്പബ്ലിക്",
	"Côte d'Ivoire": "കോടെ ഡു''lവോയിരെ",
	"DHCP State": "DHCP നില",
	"DNS Server": "DNS സെര്‍വര്‍",
	"DOWNLOAD LOG": "ഡൗൺലോഡ് ലോഗ്",
	"DOWNLOAD LOG FILE": "ലോഗ് ഫയൽ ഡൗൺലോഡ് ചെയ്യുക",
	"DPM (Standby Mode)": "DPM (സ്റ്റാൻഡ്‌ബൈ മോഡ്)",
	"Daisy Direction": "ഡെയ്‌സി ദിശ",
	"Daisy Start by": "ഡെയ്‌സി ഇപ്രകാരം ആരംഭിക്കുക",
	"Dakar": "തകര്‍",
	"Damage Detection": "കേടുപാട് കണ്ടെത്തൽ",
	"Damaged": "കേടുപാടുള്ളത്",
	"Damascus": "ദമാസ്കുസ്",
	"Danmarkshavn": "ടന്‍മര്‍ക്ഷ്വന്‍",
	"Darwin": "ഡാര്‍വിന്‍",
	"Dashboard": "ഡാഷ്‌ബോർഡ്",
	"Data is not collected now. wait for maximum 60 seconds": "ഡാറ്റ ഇപ്പോൾ ശേഖരിക്കുന്നില്ല. പരമാവധി 60 സെക്കൻഡ് വരെ കാത്തിരിക്കൂ",
	"Date": "തീയതി",
	"Dawson": "ഡൌസന്‍",
	"Dawson Creek": "ഡൌസന്‍ ക്രീക്",
	"Day": "ദിവസം",
	"Daylight Saving Time": "പകല്‍ വെളിച്ച സംരക്ഷണ സമയം ",
	"Days": "ദിവസങ്ങൾ",
	"December": "ഡിസംബർ",
	"Default": "ഡീഫോള്‍ട്ട്",
	"Default size": "ഡിഫോൾട്ട് വലുപ്പം",
	"Delete": "കളഞ്ഞു",
	"Delete Mini Module": "മിനി മൊഡ്യൂൾ ഇല്ലാതാക്കുക",
	"Delete Slave Controller": "സ്ലേവ് കൺട്രോളർ ഇല്ലാതാക്കുക",
	"Delete Unit": "യൂണിറ്റ് ഇല്ലാതാക്കുക",
	"Delete the file": "ഫയൽ ഇല്ലാതാക്കുക",
	"Delete?": "ഇല്ലാതാക്കണോ?",
	"Democratic Republic Of The Congo": "ഡെമോക്രാറ്റിക് റിപ്പബ്ലിക് ഓഫ് കോങ്കോ",
	"Denmark": "ഡെന്‍മാര്‍ക്",
	"Denver": "ഡെന്‍വെര്‍",
	"Details of Unit": "യൂണിറ്റ് വിശദാംശങ്ങൾ",
	"Detroit": "ഡിട്രോയിറ്റ്",
	"Device Control": "ഉപകരണ നിയന്ത്രണം",
	"Dhaka": "ധാക",
	"Digital Board Reboot": "ഡിജിറ്റൽ ബോർഡ് റീബൂട്ട്",
	"Dili": "ദിലി",
	"Disconnected": "വിച്ഛേദിച്ചു",
	"Display": "പ്രദര്ശിപ്പിക്കുക",
	"Display & Sound": "ഡിസ്‌പ്ലേയും ശബ്‌ദവും",
	"Display & sound": "ഡിസ്പ്ലേയും ശബ്‌ദവും",
	"Do not reboot in Device page.": "ഉപകരണ പേജിൽ റീബൂട്ട് ചെയ്യരുത്.",
	"Do you want to delete the item?": "ഇനം ഇല്ലാതാക്കാൻ ആഗ്രഹിക്കുന്നുണ്ടോ?",
	"Do you want to delete the selected file?": "തിരഞ്ഞെടുത്ത ഫയൽ ഇല്ലാതാക്കണോ?",
	"Do you want to delete this LED FPGA Update file?": "ഈ LED FPGA അപ്ഡേറ്റ് ഫയൽ ഇല്ലാതാക്കണോ?",
	"Do you want to delete this S/W Update file?": "ഈ S/W അപ്‌ഡേറ്റ് ഫയൽ ഇല്ലാതാക്കണോ?",
	"Do you want to install this S/W Update file?": "ഈ S/W അപ്‌ഡേറ്റ് ഇൻസ്റ്റാൾ ചെയ്യണോ?",
	"Do you want to proceed?": "തുടരണോ?",
	"Do you want to set the time & date?": "സമയവും തീയതിയും സജ്ജീകരിക്കണോ?",
	"Do you want to set the time or date automatically?": "സമയം അല്ലെങ്കിൽ തീയതി സ്വയം സെറ്റ് ചെയ്യണോ?",
	"Dodoma": "ഡൊഡോമ",
	"Doha": "ദോഹ",
	"Dominica": "ഡൊമിനിക",
	"Dominican Republic": "ഡൊമിനികന്‍ റിപ്പബ്ലിക്",
	"Done": "കഴിഞ്ഞു",
	"Door": "ഡോർ",
	"Door Control": "ഡോർ നിയന്ത്രണം",
	"Door Monitor": "ഡോർ മോണിറ്റർ",
	"Door Open": "ഡോർ തുറന്നിരിക്കുന്നു",
	"Door Sensor": "ഡോർ സെൻസർ",
	"Door Sensor Status": "ഡോർ സെൻസർ നില",
	"Door xxx is opened": "ഡോർ xxx തുറന്നിരിക്കുന്നു",
	"Douala": "ദൌയാള",
	"Draw": "വരയ്ക്കുക",
	"Dubai": "ദുബൈ",
	"Dublin": "ഡബ്ലിന്‍",
	"Duplicated Unit ID": "ഡ്യൂപ്ലിക്കേറ്റാക്കിയ യൂണിറ്റ് ID",
	"Duration": "ദൈർഘ്യം",
	"Dushanbe": "ദുഷന്‍ബെ",
	"Dynamic Brightness": "ഡൈനാമിക്ക് തെളിച്ചം",
	"Dynamic Brightness Control": "ഡൈനാമിക്ക് തെളിച്ച നിയന്ത്രണം",
	"Easter Island": "കിഴക്കന്‍ ദ്വീപ്",
	"Ecuador": "അക്വഡോര്‍",
	"Edit": "പുതുക്കല്‍",
	"Edmonton": "എഡ്മൊന്‍റോണ്‍",
	"Education": "വിദ്യാഭ്യാസം",
	"Egypt": "ഈജിപ്റ്റ്",
	"El Salvador": "എല്‍ സല്‍വഡോര്‍",
	"Enable or disable Signage 365 Care services on this device": "ഈ ഉപകരണത്തിൽ സൈനേജ് 365 കെയർ സേവനങ്ങൾ പ്രവർത്തനസജ്ജമാക്കുക അല്ലെങ്കിൽ പ്രവർത്തനരഹിതമാക്കുക",
	"Enable or disable {apptitle} service on this device": "ഈ ഉപകരണത്തിൽ {apptitle} സേവനം പ്രവർത്തനസജ്ജമാക്കുക അല്ലെങ്കിൽ പ്രവർത്തനരഹിതമാക്കുക",
	"End": "അവസാനിച്ചു",
	"Energy Saving": "ഊര്‍ജ്ജ സംരക്ഷണം",
	"Enter Account Number": "അക്കൗണ്ട് നമ്പർ നൽകുക",
	"Enter the account number to activate Signage 365 Care.": "സൈനേജ് 365 കെയർ സജീവമാക്കാൻ അക്കൗണ്ട് നമ്പർ നൽകുക.",
	"Enter the account number to activate {apptitle}.": "{apptitle} സജീവമാക്കാൻ അക്കൗണ്ട് നമ്പർ നൽകുക.",
	"Enter the following": "ഇനിപ്പറയുന്നത് നൽകുക",
	"Enter the network address to ping": "പിംഗിലേക്ക് നെറ്റ്‌വർക്ക് വിലാസം നൽകുക",
	"Equatorial Guinea": "ഉത്തര ഗിനിയ",
	"Eritrea": "എരിട്രെയ",
	"Estonia": "എസ്റ്റോണിയ",
	"Ethiopia": "എത്യൊപ്യ",
	"Event": "പരിപാടി",
	"Exit": "പുറത്തുകടക്കുക",
	"Export": "എക്‌സ്‌പോർട്ടുചെയ്യുക",
	"External": "എക്സ്റ്റേണൽ",
	"External Input Rotation": "ബാഹ്യ ഇൻപുട്ട് റൊട്ടേഷൻ",
	"External Input Rotation Status": "ബാഹ്യ ഇൻപുട്ട് റൊട്ടേഷൻ നില",
	"External Input Rotation is ON": "ബാഹ്യ ഇൻപുട്ട് റൊട്ടേഷൻ ഓണാണ്",
	"EyeQ sensor": "EyeQ സെൻസർ",
	"FPGA Version": "FPGA പതിപ്പ്",
	"Factory Reset": "ഫാക്‌ടറി പുനഃസജ്ജീകരണം",
	"Fail": "പരാജയം",
	"Fail Over": "ഫെയിൽ ഓവർ",
	"Fail to update. Check xxx file please.": "അപ്‌ഡേറ്റ് പരാജയപ്പെട്ടു. xxx ഫയൽ പരിശോധിക്കൂ.",
	"Failed to update LED FPGA with xxx. Check the file please": "xxx ഉപയോഗിച്ച് LED FPGA അപ്ഡേറ്റ് ചെയ്യൽ പരാജയപ്പെട്ടു. ഫയൽ പരിശോധിക്കൂ",
	"Failed to update LED FPGA with xxx. Check the status of the unit controller.": "xxx ഉപയോഗിച്ച് LED FPGA അപ്ഡേറ്റ് ചെയ്യുന്നത് പരാജയപ്പെട്ടു. യൂണിറ്റ് കൺട്രോളറിന്റെ സ്റ്റാറ്റസ് പരിശോധിക്കുക.",
	"Failed to update fan micom with xxx. Check the file please": "xxx ഉപയോഗിച്ച് ഫാൻ micom അപ്‌ഡേറ്റ് ചെയ്യൽ പരാജയപ്പെട്ടു. ഫയൽ പരിശോധിക്കൂ",
	"Fan": "ഫാൻ",
	"Fan Micom Version": "ഫാൻ Micom പതിപ്പ്",
	"Fan RPM": "ഫാൻ RPM",
	"Fan RPM history is not yet collected": "ഫാൻ RPM ചരിത്രം ഇതുവരെ ശേഖരിച്ചിട്ടില്ല",
	"Fan Status": "ഫാൻ നില",
	"February": "ഫെബ്രുവരി",
	"Fernando de Noronha": "ഫെര്‍ണാണ്ടോ ഡേ നോരോന്‍ഹ",
	"Fiji": "ഫിജി",
	"File Name": "ഫയല്‍ പേര് ",
	"File Select": "ഫയൽ തിരഞ്ഞെടുക്കൽ",
	"File Upload Progress": "ഫയൽ അപ്‌ലോഡ് പുരോഗമിക്കുന്നു",
	"File upload via mobile devices does not support.": "മൊബൈൽ ഉപകരണങ്ങൾ വഴിയുള്ള ഫയൽ അപ്‌ലോഡ് പിന്തുണയ്ക്കുന്നില്ല.",
	"Finland": "ഫിന്‍ലാന്‍ഡ്",
	"First Use": "ആദ്യ ഉപയോഗം",
	"Flash memory is not enough.": "ഫ്ലാഷ് മെമ്മറി പര്യാപ്തമല്ല.",
	"For your security, we recommend to change default password. Would you like to change your password now?": "നിങ്ങളുടെ സുരക്ഷയ്‌ക്കായി, ഡിഫോൾട്ട് പാസ്‌വേഡ് മാറ്റുന്നത് ഞങ്ങൾ ശുപാർശ ചെയ്യുന്നു. നിങ്ങളുടെ പാസ്‌വേഡ് ഇപ്പോൾ മാറ്റണോ?",
	"Fortaleza": "ഫോര്‍ടലെജ",
	"Frame": "ഫ്രെയിം",
	"France": "ഫ്രാന്‍സ്",
	"Freetown": "ഫ്രീടൌണ്‍",
	"French Polynesia": "ഫ്രെഞ്ച് പൊല്യ്നെശീയ",
	"Fri": "വെള്ളി",
	"Friday": "വെള്ളി",
	"Front": "മുൻവശം",
	"Full": "മുഴുവന്‍",
	"Gabon": "ഗാബോണ്‍",
	"Gaborone": "ഗാബോറോണെ",
	"Gambia": "ഗ്യാംബിയ",
	"Gambier": "ഗാംബിഎര്‍",
	"Game": "കളി",
	"Gamma": "ഗാമ",
	"Gamut Matrix": "പൂർണ്ണ മെട്രിക്സ്",
	"Gateway": "ഗയ്ടെവയ്",
	"General": "സാധാരണ",
	"Georgia": "ജോര്‍ജ്ജിയ",
	"Germany": "ജര്‍മനി",
	"Ghana": "ഘാന",
	"Gibraltar": "ഗിബ്രല്‍റ്റര്‍",
	"Glace Bay": "ഗ്ലാകെ ബായ്",
	"Go To First Use": "ആദ്യ ഉപയോഗത്തിലേക്ക് പോകുക",
	"Godthab": "ഗോദ്താബ്",
	"Gov./Corp.": "ഗവ./കോർപ്പ.",
	"Greece": "ഗ്രീസ്",
	"Greenland": "ഗ്രീന്‍ലാണ്ട്",
	"Guadalcanal": "ഗുയാടല്‍കനാല്‍",
	"Guadeloupe": "ഗുയാദേലൌപേ",
	"Guam": "ഗ്വാം",
	"Guatemala": "ഗ്വാടെമാലാ",
	"Guatemala City": "ഗ്വാടെമാലാ നഗരം",
	"Guayaquil": "ഗുയായകുയില്‍",
	"Guernsey": "ഗുഎര്‍ന്‍സെയ്",
	"Guinea": "ഗിനിയ",
	"Guinea Bissau": "ഗിനിയ ബിസ്സാവു",
	"Guyana": "ഗുയാന",
	"Haiti": "ഹൈതി",
	"Halifax": "ഹാലിഫാക്സ്",
	"Harare": "ഹരാരെ",
	"Havana": "ഹവാന",
	"Height": "ഉയരം",
	"Helsinki": "ഹെല്‍സിങ്കി",
	"Hermosillo": "ഹെര്‍മോശില്ലോ",
	"High": "ഉയര്ന്ന",
	"History is not yet collected": "ചരിത്രം ഇതുവരെ ശേഖരിച്ചിട്ടില്ല",
	"Ho Chi Minh": "ഹോ ചി മീന്‍ഹ്",
	"Hobart": "ഹോബാര്‍ട്",
	"Home": "ഹോം",
	"Honduras": "ഹോണ്ടുറാസ്",
	"Hong Kong": "ഹോങ് കോങ്",
	"Honolulu": "ഹോണോലുലു",
	"Horizontal": "തിരശ്ചീനമായ",
	"Hour": "മണിക്കൂര്‍ ",
	"Humidity": "ആര്ദ്രത",
	"Hungary": "ഹങ്കറി",
	"ID/password": "ID/പാസ്‌വേഡ്",
	"IMB Settings": "IMB ക്രമീകരണം",
	"IMB Status": "IMB നില",
	"IP Address": "IP വിലാസം",
	"Iceland": "ഐസ്ലാന്‍ഡ്",
	"Image": "ഇമേജ്",
	"Impact": "പ്രഭാവം",
	"Incorrect Password entered. Please try again.": "തെറ്റായ പാസ്‌വേഡ് നൽകി. വീണ്ടും ശ്രമിക്കുക.",
	"India": "ഇന്ത്യ",
	"Indianapolis": "ഇന്ദിയാനപോലീസ്",
	"Indonesia": "ഇന്‍ഡോനേഷ്യ",
	"Information": "വിവരങള്‍",
	"Input": "നിക്ഷേപണം",
	"Input 6 or more characters": "6 അല്ലെങ്കിൽ അതിലധികം പ്രതീകങ്ങൾ നൽകുക",
	"Input Direction": "ഇൻപുട്ട് ദിശ",
	"Input Password": "രഹസ്യകോട് നല്കുക ",
	"Input Priority": "ഇൻപുട്ട് മുൻഗണന",
	"Input Priority Setting": "ഇൻപുട്ട് മുൻഗണനാ സജ്ജീകരണം",
	"Input Signage Name please.": "Signage പേര് നൽകൂ.",
	"Input Window": "ഇൻപുട്ട് വിൻഡോ",
	"Install": "സ്ഥാപിക്കുക",
	"Install Succeeded": "ഇൻസ്റ്റാൾ വിജയകരം",
	"Installation Failed": "ഇൻസ്റ്റലേഷൻ പരാജയപ്പെട്ടു",
	"Installation Menu": "ഇൻസ്റ്റാൾ ചെയ്യൽ മെനു",
	"Installing…": "ഇൻസ്റ്റാൾ ചെയ്യുന്നു…",
	"Internet Not available": "ഇന്റർനെറ്റ് ലഭ്യമല്ല",
	"Internet available": "ഇന്റർനെറ്റ് ലഭ്യമാണ്",
	"Invalid NEW Password. Password must be 6 characters in length.": "പുതിയ പാസ്‌വേഡ് അസാധുവാണ്. പാസ്‌വേഡ്  6 അക്ഷരങ്ങൾ ദൈർഘ്യമുണ്ടായിരിക്കണം.",
	"Invalid NEW Password. Password must be 8 characters in length.": "പുതിയ പാസ്‌വേഡ് അസാധുവാണ്. പാസ്‌വേഡ്  8 അക്ഷരങ്ങൾ ദൈർഘ്യമുണ്ടായിരിക്കണം.",
	"Invalid NEW Password. You must use a combination of letters and numbers.": "പുതിയ പാസ്‌വേഡ് അസാധുവാണ്.നിങ്ങൾ അക്ഷരങ്ങളും അക്കങ്ങളും സംയുക്തമായി ഉപയോഗിക്കണം.",
	"Invalid New password. Password must be at least 8 characters.": "പുതിയ പാസ്‌വേഡ് അസാധുവാണ്. പാസ്‌വേഡ് കുറഞ്ഞത് 8 അക്ഷരങ്ങളുള്ളതായിരിക്കണം.",
	"Invalid New password. You must use a mixture of mixed-case letters, numbers and special characters.": "പുതിയ പാസ്‌വേഡ് അസാധുവാണ്. മിക്സഡ്-കേസ് ലെറ്ററുകളുടെയും സംഖ്യകളുടെയും പ്രത്യേക പ്രതീകങ്ങളുടെയും ഒരു മിശ്രണം നിങ്ങൾ ഉപയോഗിക്കണം.",
	"Invalid day value": "ദിവസ മൂല്യം അസാധുവാണ്",
	"Invalid hour value": "മണിക്കൂർ മൂല്യം അസാധുവാണ്",
	"Invalid minute value": "മിനിറ്റ് മൂല്യം അസാധുവാണ്",
	"Invalid month value": "മാസ മൂല്യം അസാധുവാണ്",
	"Invalid value": "മൂല്യം അസാധുവാണ്",
	"Invalid year value": "വർഷ മൂല്യം അസാധുവാണ്",
	"Iran": "ഇറാന്‍",
	"Iraq": "ഇറാക്ക്",
	"Ireland": "ഐര്‍ലന്‍ഡ്",
	"Irkutsk": "ഇര്‍കുട്സ്ക്",
	"Irregular": "ക്രമരഹിതമായി",
	"Israel": "ഇസ്രയേല്‍",
	"Issue History": "പ്രശ്‌ന ചരിത്രം",
	"Istanbul": "ഈസ്റ്റന്‍ബുല്‍",
	"Italy": "ഇറ്റലി",
	"Jakarta": "ജക്കാര്‍ത്ത",
	"Jamaica": "ജമൈക്ക",
	"January": "ജനുവരി",
	"Japan": "ജപ്പാന്‍",
	"Jerusalem": "ജെറുസലേം",
	"Johannesburg": "ജോഹ്ഹനെസ്ബൂര്‍ഗ്",
	"Jordan": "ജോര്‍ദാന്‍",
	"July": "ജൂലൈ",
	"June": "ജൂൺ",
	"Kabul": "കാബൂള്‍",
	"Kaliningrad": "കളിനിങ്ഗ്രട്",
	"Kamchatka": "കമ്ചട്ക",
	"Kampala": "കംപാലാ",
	"Karachi": "കറാച്ചി",
	"Katmandu": "കാഠ്മണ്ഡു",
	"Kazakhstan": "കാജഖ്സ്റ്റന്‍",
	"Kenya": "കെനിയ",
	"Khartoum": "ഖാര്‍റ്റും",
	"Khovd": "ഘോവ്ദ്",
	"Kiev": "കീവ്",
	"Kigali": "കിഗാലി",
	"Kingston": "കിംഗ്സ്ടന്‍",
	"Kinshasa": "കിന്‍ഷാസ",
	"Kiribati": "കിരീബാടി",
	"Kiritimati": "കിരീടിമടി",
	"Kolkata": "കൊല്‍ക്കത്ത",
	"Korea": "കൊറിയ",
	"Korea, Republic of": "കൊറിയ,റിപ്പബ്ലിക് ഓഫ്",
	"Krasnoyarsk": "ക്രാസ്നോയര്‍സ്ക്",
	"Kuala Lumpur": "കുയാള ലുംപൂര്‍",
	"Kuching": "കുച്ചിങ്",
	"Kuwait": "കുവൈത്ത്",
	"Kuwait City": "കുവൈത്ത് നഗരം",
	"Kyrgyzstan": "ക്യ്ര്ഗ്യ്സ്റ്റന്‍",
	"LED Assistant Settings": "LED Assistant ക്രമീകരണം",
	"LED FPGA Update file list": "LED FPGA അപ്ഡേറ്റ് ഫയൽ ലിസ്റ്റ്",
	"LED FPGA Updating ......": "LED FPGA അപ്ഡേറ്റുചെയ്യുന്നു ......",
	"LED Features": "LED സവിശേഷതകൾ",
	"LED Film Settings": "LED ഫിലിം ക്രമീകരണം",
	"LED Open Detection": "LED ഓപ്പൺ കണ്ടെത്തൽ",
	"LED Settings": "LED ക്രമീകരണം",
	"LED Unit": "LED യൂണിറ്റ്",
	"LED Unit Status": "LED യൂണിറ്റ് നില",
	"LG ConnectedCare App": "LG ConnectedCare ആപ്പ്",
	"LG ConnectedCare app": "LG ConnectedCare ആപ്പ്",
	"LG Control Manager": "LG കൺട്രോൾ മാനേജർ",
	"La Paz": "ള ഫജ്",
	"Lagos": "ലാഗോസ്",
	"Landscape": "ലാൻഡ്സ്കേപ്പ്",
	"Language": "ഭാഷ",
	"Laos": "ലഓസ്",
	"Large": "വലുത്",
	"Latvia": "ലാത്വിയ",
	"Layout": "ലേഔട്ട്",
	"Layout Editor": "ലേഔട്ട് എഡിറ്റർ",
	"Lebanon": "ലെബനന്‍",
	"Lesotho": "ലെസോത്തൊ",
	"Liberia": "ലിബെറിയ",
	"Libreville": "ലിബ്രെവില്ല്",
	"Libya": "ലിബ്യ",
	"Liechtenstein": "ലീച്ടെന്സ്റ്റെയിന്‍",
	"Lima": "ലിമ",
	"Lisbon": "ലിസ്ബന്‍",
	"Lithuania": "ലിത്തുയനിയ",
	"Ljubljana": "ല്ജുബ്ല്‍ജന",
	"Loading": "സ്ഥാപിക്കുന്നു",
	"Loading...": "ലോഡുചെയ്യുന്നു…",
	"Loading…": "ലോഡുചെയ്യുന്നു…",
	"Location": "സ്ഥലം",
	"Log": "ലോഗ്",
	"Log Report": "ലോഗ് റിപ്പോർട്ട്",
	"Log after Power Up": "ഓണാക്കിയതിന് ശേഷമുള്ള ലോഗ്",
	"Log in with the authorized ID and password.": "അംഗീകൃത ID-യും പാസ്‌വേഡും ഉപയോഗിച്ച് ലോഗിൻ ചെയ്യുക.",
	"Login": "ലോഗിൻ ചെയ്യൂ",
	"Login is required.": "ലോഗിൻ ആവശ്യമാണ്.",
	"Logout": "ലോഗൗട്ട് ചെയ്യുക",
	"Lome": "ലോമേ",
	"London": "ലണ്ടന്‍",
	"Los Angeles": "ലോസ് എഞ്ജെള്‍സ്",
	"Louisville": "ലൌയിശ്വീളെ",
	"Low": "താഴ്ന്ന",
	"Luanda": "ലുവാന്‍ഡ",
	"Lubumbashi": "ലിബുംബഷീ",
	"Lusaka": "ലുസാക",
	"Luxembourg": "ലക്സെംബര്‍ഗ്",
	"MAC Address": "MAC അഡ്രസ്‌",
	"Macao": "മകഒ",
	"Macedonia": "മാസിഡോണിയ",
	"Maceió": "മകേയിഒ",
	"Madagascar": "മഡഗാസ്കര്‍",
	"Madeira": "മഡൈറ",
	"Madrid": "മ്യാഡ്രിഡ്",
	"Magadan": "മഗദന്‍",
	"Main": "മെയിൻ",
	"Malabo": "മലാബോ",
	"Malawi": "മലാവി",
	"Malaysia": "മലേഷിയാ",
	"Maldives": "മാല്‍ദീവ്സ്",
	"Mali": "മാലി",
	"Mall/QSR": "മാൾ/QSR",
	"Malta": "മല്‍റ്റ",
	"Manage": "മാനേജ് ചെയ്യുക",
	"Managua": "മനഗുയാ",
	"Manaus": "മനൌസ്",
	"Manila": "മനില",
	"Manual": "മാനുവെല്‍",
	"Maputo": "മാപുത്തോ",
	"March": "മാർച്ച്",
	"Marquesas": "മാര്‍കുഎസസ്",
	"Marriage Guide (2 Steps)": "Marriage ഗൈഡ് (2 ഘട്ടങ്ങൾ)",
	"Marriage Status": "Marriage നില",
	"Marshall Islands": "മാര്‍ഷല്‍ ദ്വീപുകള്‍",
	"Martinique": "മാര്‍ടിനികുഎ",
	"Maseru": "മസേര്",
	"Master": "മാസ്റ്റർ",
	"Mauritius": "മോറിഷൃസ്",
	"Max Backlight": "കൂടിയ ബാക്ക്‌ലൈറ്റ്",
	"Maximum": "ഉയര്‍ന്ന",
	"May": "മേയ്",
	"Mayotte": "മയോട്ടെ",
	"Mazatlán": "മജാറ്റ്ലാന്‍",
	"Mbabane": "മ്ബാബാനെ",
	"Media Library": "മീഡിയ ലൈബ്രറി",
	"Media file List": "മീഡിയ ഫയൽ ലിസ്റ്റ്",
	"Media file Upload (XXX GB available)": "മീഡിയ ഫയൽ അപ്‌ലോഡ് (XXX GB ലഭ്യമാണ്)",
	"Medium": "മീഡിയം",
	"Melbourne": "മെല്‍ബര്‍നെ",
	"Menu Language": "ഭാഷ പട്ടിക",
	"Mexico": "മെക്സികോ",
	"Mexico City": "മെക്സികോ നഗരം",
	"Micom Progress": "Micom പുരോഗമിക്കുന്നു",
	"Micom Update": "Micom അപ്‌ഡേറ്റ്",
	"Micom Version": "Micom പതിപ്പ്",
	"Min Backlight": "കുറഞ്ഞ ബാക്ക്‌ലൈറ്റ്",
	"Mini Module": "മിനി മൊഡ്യൂൾ",
	"Minimum": "കുറഞ്ഞ",
	"Minimum = XXms, Maximum = YYms, Average = ZZms": "കുറഞ്ഞത് = XXms, കൂടുതൽ = YYms, ശരാശരി = ZZms",
	"Mins": "മിനിറ്റ്",
	"Minsk": "മിന്‍സ്ക്",
	"Model Name": "മോഡല്‍ പേര്",
	"Module Calibration": "മൊഡ്യൂൾ കാലിബ്രേഷൻ",
	"Module Calibration is modified. Exit without saving?": "മൊഡ്യൂൾ കാലിബ്രേഷൻ പരിഷ്ക്കരിച്ചു. സംരക്ഷിക്കാതെ പുറത്തുകടക്കണോ?",
	"Module Size": "മൊഡ്യൂൾ വലുപ്പം",
	"Mogadishu": "മൊഗദിഷു",
	"Moldova": "മോള്ഡോവ",
	"Mon": "തിങ്കള്‍",
	"Monaco": "മൊണാകൊ",
	"Moncton": "മോങ്ക്റ്റൊന്‍",
	"Monday": "തിങ്കള്‍",
	"Mongolia": "മംഗോളിയ",
	"Monrovia": "മോണ്‍റൊവിയ",
	"Montenegro": "മോണ്ടെനെഗ്രോ",
	"Monterrey": "മോണ്ടെറേയ്",
	"Montevideo": "മോന്‍റെവിടെഒ",
	"Month": "മാസം ",
	"Montréal": "മോണ്ട്രെയാല്‍",
	"More": "കൂടുതൽ",
	"Morocco": "മൊറാക്കോ",
	"Moscow": "മോസ്കോ",
	"Motion": "മോഷൻ",
	"Mozambique": "മോജമ്പികുഎ",
	"Muscat": "മുസ്കറ്റ്",
	"Mute": "നിശബ്ദമാക്കുക",
	"Myanmar": "മ്യാന്‍മര്‍",
	"Mérida": "മെറിഡ",
	"NO": "അല്ല",
	"NOT AVAILABLE": "ലഭ്യമല്ല",
	"Nairobi": "Nairobiആനൈറോബി",
	"Name": "പേര്",
	"Namibia": "നമീബിയ",
	"Nassau": "നസ്സൌ",
	"Natural Mode": "സ്വാഭാവിക മോഡ്",
	"Natural Size": "സ്വാഭാവിക വലുപ്പം",
	"Ndjamena": "ന്ദ്ജമെന്ന",
	"Nepal": "നേപ്പാള്‍",
	"Netherlands": "നെതെര്‍ലണ്ട്",
	"Network": "നെറ്റ്വര്‍ക്ക്",
	"Network Ready": "നെറ്റ്‌വർക്ക് തയ്യാർ",
	"Network Settings": "ഓൺ സമയ ഷെഡ്യൂൾ നിലവിലില്ല.",
	"New Caledonia": "ന്യൂ കലേഡോണിയ",
	"New Password": "പുതിയ രഹസ്യകോഡ്",
	"New Password and Confirm Password do not match.": "പുതിയ പാസ്‌വേഡും സ്ഥിരീകരണ പാസ്‌വേഡും പൊരുത്തപ്പെടുന്നില്ല.",
	"New York": "ന്യൂ യോര്‍ക്",
	"New Zealand": "ന്യൂ ശെയലണ്ട്",
	"Newer Ver.": "പുതിയ പതി.",
	"Next": "അടുത്തത്",
	"Next Day": "അടുത്ത ദിവസം",
	"Niamey": "നിയമേ",
	"Nicaragua": "നികാരഗുയാ",
	"Nicosia": "നികോസിയ",
	"Niger": "നൈഗര്‍",
	"Nigeria": "നൈജീരിയ",
	"Nipigon": "നിപ്പിഗോണ്‍",
	"No": "അല്ല",
	"No Signal": "സിഗ്നല്‍ ഇല്ല",
	"No backup files exist in storage device.": "സംഭരണ ഉപകരണത്തിൽ ബാക്കപ്പ് ഫയലുകൾ നിലവിലില്ല.",
	"None": "ഇല്ല",
	"Normal": "സാധാരണം",
	"North Korea": "വടക്കന്‍ കൊറിയ",
	"Norway": "നോര്‍വേ",
	"Not Connected": "ബന്ധിച്ചിട്ടില്ല",
	"Notification": "അറിയിപ്പ്",
	"Nouméa": "നൌമേയ",
	"November": "നവംബർ",
	"Novosibirsk": "നൊവോസിബിര്‍സ്ക്",
	"Number": "നമ്പര്‍:",
	"OFF": "ഓഫ്",
	"OK": "ശരി",
	"OLED LIGHT": "OLED ലൈറ്റ്",
	"OLED Light": "OLED ലൈറ്റ്",
	"ON": "ഓണ്‍",
	"OSD Portrait Mode": "OSD പോർട്രെയ്റ്റ് മോഡ്",
	"OSD Portrait Mode is ON": "OSD പോർട്രെയിറ്റ് മോഡ് ഓണാണ്",
	"OSD Portrait Status": "OSD പോർട്രെയ്‌റ്റ് നില",
	"OSD Portrait mode is xxx": "OSD പോർട്രെയ്‌റ്റ് മോഡ് xxx ആണ്",
	"OSD Rotation is ON": "OSD റൊട്ടേഷൻ ഓണാണ്",
	"Occurrence Time": "സംഭവിച്ച സമയം",
	"October": "ഒക്‌ടോബർ",
	"Off": "ഓഫ്",
	"Off Until Reset": "പുനഃസജ്ജമാക്കുന്നതുവരെ ഓഫ്",
	"Off When Open": "തുറന്നിരിക്കുമ്പോൾ ഓഫ്",
	"Oman": "ഒമാന്‍",
	"Omsk": "ഓംസ്ക്",
	"On": "ഓണ്‍",
	"On When Open": "തുറന്നിരിക്കുമ്പോൾ ഓൺ",
	"Open Loop Fan": "തുറന്ന ലൂപ്പ് ഫാൻ",
	"OpenLoop": "ഓപ്പൺ ലൂപ്പ്",
	"Opened": "തുറന്നിരിക്കുന്നു",
	"Oranjestad": "ഒരഞ്ഞെസ്റ്റഡ്",
	"Original": "യഥാര്‍ത്ഥ",
	"Oslo": "ഓസ്ലോ",
	"Ouagadougou": "ഔഗദൌഗോ",
	"Output Window": "ഔട്ട്പുട്ട് വിൻഡോ",
	"OverHeat": "അമിത താപം",
	"Overwrite": "തിരുത്തിയെഴുതുക",
	"Overwrite xxx?": "xxx പുനരാലേഖനം ചെയ്യണോ?",
	"Overwrite?": "പുനരാലേഖനം ചെയ്യണോ?",
	"PM Mode": "PM മോഡ്",
	"Packets : Sent = XX. Received = YY. Lost = ZZ (WW% loss)": "പാക്കറ്റുകൾ : അയച്ചത് = XX. സ്വീകരിച്ചത് = YY. നഷ്‌ടപ്പെട്ടത് = ZZ (WW% നഷ്‌ടം)",
	"Pakistan": "പാകിസ്താന്‍",
	"Palau": "പലഉ",
	"Panama": "പനാമ",
	"Panama City": "പനാമ നഗരം",
	"Panel": "പാനൽ",
	"Papua New Guinea": "പാപ്യൂയ ന്യൂ ഗിനിയ",
	"Paraguay": "പറഗുയാ",
	"Paramaribo": "പരമാറീബോ",
	"Paris": "പാരിസ്",
	"Password": "രഹസ്യകോഡ്",
	"Password is incorrect. Please Try Again": "പാസ്‌വേഡ് തെറ്റാണ്. വീണ്ടും ശ്രമിക്കുക",
	"Password is incorrect. Please try again.": "പാസ്‌വേഡ് തെറ്റാണ്. വീണ്ടും ശ്രമിക്കുക.",
	"Perth": "പെര്‍ത്ത്",
	"Peru": "പേര്",
	"Philippines": "ഫിലിപ്പീനസ്",
	"Phnom Penh": "നോമ് പെന്‍ഹ്",
	"Phoenix": "ഫോഎനിക്സ്",
	"Picture": "ചിത്രം",
	"Picture Mode": "ചിത്രം മോഡ്",
	"Picture Settings": "ചിത്ര ക്രമീകരണം",
	"Ping Test": "പിംഗ് പരിശോധന",
	"Ping statistics for [X.X.X.X]": "[X.X.X.X] എന്നതിനുള്ള പിംഗ് സ്ഥിതിവിവരക്കണക്ക്",
	"Ping test failed. Invalid format of network address field.": "പിംഗ് പരിശോധന പരാജയപ്പെട്ടു. നെറ്റ്‌വർക്ക് വിലാസ ഫീൽഡ് ഫോർമാറ്റ് അസാധുവാണ്.",
	"Ping test is in progress": "പിംഗ് പരിശോധന പുരോഗമിക്കുകയാണ്",
	"Ping test result": "പിംഗ് പരിശോധനാ ഫലം",
	"Pinging [X.X.X.X] with YYY bytes of data": "YYY ബൈറ്റ് ഡാറ്റ ഉപയോഗിച്ച് [X.X.X.X] പിംഗ് ചെയ്യുന്നു",
	"Play": "കളിക്കുക ",
	"Play via URL": "URL വഴി പ്ലേ ചെയ്യൽ",
	"Please Keep this Signage on.": "ഈ സൈനേജ് ഓണാക്കി വയ്‌ക്കുക.",
	"Please check the following items and try again.": "ഇനിപ്പറയുന്ന ഇനങ്ങൾ പരിശോധിച്ച് വീണ്ടും ശ്രമിക്കുക.",
	"Please check the installation file and try again.": "ഇൻസ്റ്റലേഷൻ പരിശോധിച്ച് വീണ്ടും ശ്രമിക്കുക",
	"Please choose a file to upload": "അപ്‌ലോഡ് ചെയ്യാൻ ഒരു ഫയൽ തിരഞ്ഞെടുക്കുക",
	"Please choose a video file to upload": "അപ്‌ലോഡ് ചെയ്യാൻ ഒരു വീഡിയോ ഫയൽ തിരഞ്ഞെടുക്കുക",
	"Please don't turn off the device and wait until the installation is completed.": "ദയവായി ഉപകരണം ഓഫ് ചെയ്യരുത്, ഇൻസ്റ്റാൾ ചെയ്യൽ പൂർത്തിയാകുന്നതുവരെ കാത്തിരിക്കൂ.",
	"Please don’t turn off the device. And wait while process is completed.": "ഉപകരണം ഓഫാക്കരുത്. പ്രോസസ്സ് പൂർത്തിയാക്കുന്നതുവരെ കാത്തിരിക്കുക.",
	"Please enter the authorized ID and password.": "അംഗീകൃത ID-യും പാസ്‌വേഡും നൽകുക.",
	"Please login again.": "വീണ്ടും ലോഗിൻ ചെയ്യൂ.",
	"Please press the physical marriage button.": "ഫിസിക്കൽ Marriage ബട്ടൺ അമർത്തുക.",
	"Please restart the marriage authentication process.": "Marriage പ്രാമാണീകരണ പ്രോസസ്സ് പുനരാരംഭിക്കുക.",
	"Please select city": "നഗരം തിരഞ്ഞെടുക്കുക",
	"Please select country": "രാജ്യം തിരഞ്ഞെടുക്കുക",
	"Please upload S/W update file via PC browser.": "PC ബ്രൗസർ വഴി S/W അപ്ഡേറ്റ് ഫയൽ അപ്‌ലോഡ് ചെയ്യുക.",
	"Podgorica": "പൊദ്ഗൊരിക",
	"Poland": "പോളണ്ട്",
	"Port": "പോർട്ട്",
	"Port Louis": "പോര്ട്ട് ലൂയിസ്",
	"Port Moresby": "പോര്‍ട്ട് മോരെസ്ബി",
	"Port Number": "പോർട്ട് നമ്പർ",
	"Port Settings": "പോർട്ട് ക്രമീകരണം",
	"Port of Spain": "പോര്‍ട്ട് ഓഫ് സ്പെയ്ന്‍",
	"Port-au-Prince": "പോര്‍ട്ട്-ഔ-പ്രിന്‍സ്",
	"Porto Novo": "പോര്ട്ടോ നോവോ",
	"Porto Velho": "പോര്‍ടോ വെല്‍ഹോ",
	"Portrait": "ഛായാചിത്രം",
	"Portrait Mode": "പോർട്രെയ്‌റ്റ് മോഡ്",
	"Portugal": "പോര്ച്ചുഗല്‍",
	"Position": "സ്ഥാനം",
	"Power": "പവർ",
	"Power Off": "പവര്‍ ഓഫ്",
	"Power Off Management": "പവർ ഓഫ് മാനേജുമെന്റ്",
	"Power Off(Default)": "പവർ ഓഫ് (ഡിഫോൾട്ട്)",
	"Power Rack": "പവർ റാക്ക്",
	"Power Rack Settings": "പവർ റാക്ക് ക്രമീകരണം",
	"Prague": "പ്രാഗ്",
	"Praia": "പ്രേയ",
	"Press the physical marriage button on your master cabinet.": "നിങ്ങളുടെ മാസ്റ്റർ ക്യാബിനറ്റിലെ ഫിസിക്കൽ Marriage ബട്ടൺ അമർത്തുക.",
	"Pressing Start will give you 1 minute to perform the process.": "'ആരംഭിക്കുക' അമർത്തുന്നത്, പ്രോസസ്സ് നിർവ്വഹിക്കാൻ നിങ്ങൾക്ക് 1 മിനിറ്റ് നൽകുന്നതാണ്.",
	"Prev DAY": "മുമ്പത്തെ ദിവസം",
	"Prev.": "മുമ്പ.",
	"Preview": "പ്രിവ്യൂ നടത്തുക",
	"Priority": "മുൻഗണന",
	"Puerto Rico": "പെഊര്‍റ്റോ റികോ",
	"Pyongyang": "പ്യോങ്ഗ്യങ്",
	"Qatar": "ഖത്തര്‍",
	"Rainy River": "മഴ നദി",
	"Rearrange": "പുനഃക്രമീകരിക്കുക",
	"Reboot": "റീബൂട്ട് ചെയ്യുക",
	"Reboot?": "റീബൂട്ട് ചെയ്യണോ?",
	"Rebooting": "റീബൂട്ട് ചെയ്യുന്നു",
	"Recife": "രേകീഫെ",
	"Reference Resolution": "റഫറൻസ് റെസൊലൂഷൻ",
	"Refresh": "ഉന്മേഷം",
	"Regina": "റെജീന",
	"Regular": "ക്രമമായി",
	"Rejected": "നിരസിച്ചു",
	"Remember me": "എന്നെ ഓർത്തുവയ്‌ക്കൂ",
	"Rename": "പേരുമാറ്റുക",
	"Rename or Overwrite?": "പേരുമാറ്റണോ അല്ലെങ്കിൽ തിരുത്തിയെഴുതണോ?",
	"Rename to {{filename (2)}} or Overwrite?": "{{filename (2)}} എന്നായി പേരുമാറ്റണോ അല്ലെങ്കിൽ തിരുത്തിയെഴുതണോ?",
	"Reply from [X.X.X.X] : bytes = YY, time = ZZms, TTL = WW": "[X.X.X.X] എന്നതിൽ നിന്നുള്ള മറുപടി : ബൈറ്റ് = YY, സമയം = ZZms, TTL = WW",
	"Republic Of The Congo": "റിപ്പബ്ലിക് ഓഫ് കോങ്കോ",
	"Request timed out.": "അഭ്യർത്ഥന കാലഹരണപ്പെട്ടു.",
	"Require Network Settings": "നെറ്റ്‌വർക്ക് ക്രമീകരണം ആവശ്യമാണ്",
	"Required Marriage": "ആവശ്യമായ Marriage",
	"Reset": "പുനഃക്രമം",
	"Reset All": "എല്ലാം പുനഃസജ്ജമാക്കുക",
	"Reset Mute": "മ്യൂട്ട് പുനഃസജ്ജമാക്കൽ",
	"Reset Mute' is Needed": "മ്യൂട്ട് പുനഃസജ്ജമാക്കൽ' ആവശ്യമാണ്",
	"Reset to factory reset": "ഫാക്‌ടറി പുനഃസജ്ജമാക്കലിലേക്ക് പുനഃസജ്ജമാക്കുക",
	"Reykjavik": "റെയ്ക്ജവിക്",
	"Riga": "റിഗ",
	"Riyadh": "റിയാദ്",
	"Romania": "റോമേനിയ",
	"Rome": "റോം",
	"Rotation": "തിരിക്കൽ",
	"Row": "വരി",
	"Run Time": "പ്രവർത്തന സമയം",
	"Run Time Since Last Power Up": "അവസാനം ഓണാക്കിയതിന് ശേഷമുള്ള പ്രവർത്തന സമയം",
	"Russia": "റഷ്യ",
	"Rwanda": "റ്വാണ്ട",
	"S/W Update": "S/W അപ്‌ഡേറ്റ്",
	"S/W Update File list": "S/W അപ്‌ഡേറ്റ് ഫയൽ ലിസ്റ്റ്",
	"S/W Update file list": "S/W അപ്‌ഡേറ്റ് ഫയൽ ലിസ്റ്റ്",
	"S/W Update succeeded": "S/W അപ്‌ഡേറ്റ് വിജയകരം",
	"S/W Updating": "S/W അപ്‌ഡേറ്റ് ചെയ്യുന്നു",
	"S/W Updating......": "S/W അപ്ഡേറ്റുചെയ്യുന്നു......",
	"S/W Ver.": "S/W പതി.",
	"S/W update file does not exist.": "S/W അപ്ഡേറ്റ് ഫയൽ നിലവിലില്ല.",
	"S/W will update. Do you want to continue?": "S/W അപ്‌ഡേറ്റ് ചെയ്യും. നിങ്ങൾക്ക് തുടരണോ?",
	"SCREEN": "സ്ക്രീൻ",
	"SI App / Play via URL": "SI ആപ്പ് / URL വഴി പ്ലേ ചെയ്യൂ",
	"Saint Lucia": "സെയിന്‍റ് ലുസിയ",
	"Sakhalin": "ശാഖലിന്‍",
	"Samara": "സമര",
	"Samarkand": "സമര്‍കണ്ട്",
	"Samoa": "സമോവ",
	"San Luis": "സാൻ ലൂയിസ്",
	"San Salvador": "എസ്‌എന്‍ സല്‍വഡോര്‍",
	"Santiago": "സാന്‍റിയാഗോ",
	"Santo Domingo": "സ്യാംടൊ ഡോമിംഗൊ",
	"Sarajevo": "സരജെവോ",
	"Sat": "ശനി",
	"Saturday": "ശനി",
	"Saudi Arabia": "സൌദി അറബിയാ",
	"Save": "സേവ്",
	"Scoresbysund": "സ്കോരെസ്ബ്ബ്യ്സുണ്ട്",
	"Screen": "സ്ക്രീൻ",
	"Screen Configuration": "സ്ക്രീൻ കോൺഫിഗറേഷൻ",
	"Screen Fault Detection": "സ്ക്രീൻ പ്രശ്‌നം കണ്ടെത്തൽ",
	"Screen Off": "സ്ക്രീന്‍ ഓഫ്",
	"Screen Off & Backlight": "സ്ക്രീൻ ഓഫും ബാക്ക്‌ലൈറ്റും",
	"Screen Off & Backlight On": "സ്ക്രീൻ ഓഫും ബാക്ക്‌ലൈറ്റ് ഓണും",
	"Screen Off Always": "എപ്പോഴും സ്ക്രീൻ ഓഫ് ചെയ്യുക",
	"Screen Power Off": "സ്ക്രീൻ പവർ ഓഫ്",
	"Screen Rotation": "സ്ക്രീൻ റൊട്ടേഷൻ",
	"Screen Rotation Status": "ഉള്ളടക്ക തിരിക്കൽ നില",
	"Screen Rotation is ON": "സ്ക്രീൻ റൊട്ടേഷൻ ഓണാണ്",
	"ScreenOn": "സ്ക്രീൻ ഓൺ",
	"Select File": "ഫയൽ തിരഞ്ഞെടുക്കുക",
	"Select Input Source": "ഇൻപുട്ട് ഉറവിടം തിരഞ്ഞെടുക്കുക",
	"Select a file to upload": "അപ്‌ലോഡ് ചെയ്യാൻ ഒരു ഫയൽ തിരഞ്ഞെടുക്കുക",
	"Select media file": "മീഡിയ ഫയൽ തിരഞ്ഞെടുക്കുക",
	"Senegal": "സെനെഗല്‍",
	"Sensor": "സെൻസർ",
	"Seoul": "സിയോള്‍",
	"September": "സെപ്റ്റംബർ",
	"Serbia": "സെര്ബിയ",
	"Serial Number": "സീരിയല്‍ നമ്പര്‍",
	"Server Status": "സെർവർ നില",
	"Set": "സെറ്റ്‌ ചെയ്യുക",
	"Set Automatically": "ആട്ടോമാറ്റിക് ക്രമീകരിക്കുക",
	"Set ID": "ഈഡി ക്രമീകരിക്കുക",
	"Set Master": "മാസ്റ്റർ സജ്ജമാക്കുക",
	"Set Slave": "സ്ലേവ് സജ്ജമാക്കുക",
	"Set URL": "URL സജ്ജീകരിക്കുക",
	"Setting": "ക്രമീകരണം",
	"Show Color": "വർണ്ണം കാണിക്കുക",
	"Sierra Leone": "സീറ ലിയോനെ",
	"Sigane Name is Too Long": "സൈനേജ് പേര് ദൈർഘ്യമേറിയതാണ്",
	"Sign in": "സൈനിൻ ചെയ്യുക",
	"Signage 365 Care": "സൈനേജ് 365 കെയർ",
	"Signage 365 Care App": "സൈനേജ് 365 കെയർ ആപ്പ്",
	"Signage Name": "Signage പേര്",
	"Signal": "അടയാളം",
	"Simferopol": "സിംഫെറോപ്പോള്‍",
	"Singapore": "സിംഗപൂര്‍",
	"Size": "അളവ്",
	"Skopje": "സ്കോപ്ജെ",
	"Slave": "സ്ലേവ്",
	"Slovakia": "സ്ലോവാകിയ",
	"Slovenia": "സ്ലോവേനിയ",
	"Small": "ചെറുത്",
	"Sofia": "സോഫിയ",
	"Software Version": "സോഫ്റ്റ്വെയര്‍ പതിപ്പ്",
	"Solomon Islands": "സോളമന്‍ ദ്വീപുകള്‍",
	"Somalia": "സോമാലിയ",
	"Sound Control": "ശബ്‌ദ നിയന്ത്രണം",
	"South Africa": "ദക്ഷിണ ആഫ്രിക്ക",
	"Spain": "സ്പെയ്ന്‍",
	"Sports": "കളികള്‍",
	"Srednekolymsk": "സ്രെഡ്നെകോളിംസ്ക്",
	"Sri Lanka": "ശ്രീ ലങ്ക",
	"St. John's": "സെയിന്‍റ്. ജോണ്‍",
	"Stalled Image": "നിശ്ചലമാക്കിയ ഇമേജ്",
	"Standard": "സാധാരണ",
	"Start": "തുടക്കം ",
	"State": "സംസ്ഥാനം",
	"Status": "സ്ഥിതി",
	"Step 1. Physical Marriage": "ഘട്ടം 1. ഫിസിക്കൽ Marriage",
	"Step 2. Logical Marriage": "ഘട്ടം 2. ലോജിക്കൽ Marriage",
	"Stockholm": "സ്റ്റോക്ക്ഹോം",
	"Subnet Mask": "സബ്നെട്ട് മാസ്ക്",
	"Subnet prefix length": "സബ്‌നെറ്റ്‌ പ്രിഫിക്‌സ്‌ നീളം",
	"Success": "വിജയകരം",
	"Sudan": "സുഡാന്‍",
	"Sun": "ഞായര്‍",
	"Sunday": "ഞായര്‍",
	"SuperSign Content": "SuperSign ഉള്ളടക്കം",
	"SuperSign Contents": "SuperSign ഉള്ളടക്കം",
	"Suriname": "സൂരിനമേ",
	"Sustain Aspect Ratio": "വീക്ഷണാനുപാതം നിലനിർത്തുക",
	"Swaziland": "ശ്വജിലാണ്ട്",
	"Sweden": "സ്വീഡന്‍",
	"Swift Current": "സ്വിഫ്റ്റ് കറന്‍റ്",
	"Switzerland": "സ്വിറ്റ്സെര്‍ലാന്‍ഡ്",
	"Sydney": "സിഡ്നി",
	"Syria": "സിറിയ",
	"System": "സിസ്റ്റം",
	"System Box": "സിസ്റ്റം ബോക്‌സ്",
	"System Control": "സിസ്റ്റം കൺട്രോൾ",
	"System Controller": "സിസ്റ്റം കൺട്രോളർ",
	"System Controller Settings": "സിസ്റ്റം കൺട്രോളർ ക്രമീകരണം",
	"System Information": "സിസ്റ്റം വിവരം",
	"System Reboot": "സിസ്റ്റം റീബൂട്ട്",
	"System Settings": "സിസ്റ്റം ക്രമീകരണം",
	"System controller will restart.": "സിസ്റ്റം കൺട്രോളർ പുനരാരംഭിക്കും.",
	"System controller will restart. Do you want to continue?": "സിസ്റ്റം കൺട്രോളർ പുനരാരംഭിക്കും. നിങ്ങൾക്ക് തുടരണോ?",
	"São Paulo": "സാവോ പൌലോ",
	"Tahiti": "താഹിതി",
	"Taipei": "ടൈപ്പി",
	"Taiwan": "തൈവാന്‍",
	"Tajikistan": "താജികിസ്ഥാന്‍",
	"Tallinn": "ടളിണ്",
	"Tanzania": "ടാന്‍സാനിയ",
	"Tashkent": "ടഷ്കെന്‍റ്",
	"Tbilisi": "ട്ബിലിസി",
	"Tegucigalpa": "ടെഗുകിഗാല്‍പ",
	"Tehran": "തെഹ്രാന്‍",
	"Temperature": "താപനില",
	"Temperature history is not yet collected": "താപനില ചരിത്രം ഇതുവരെ ശേഖരിച്ചിട്ടില്ല",
	"Test Color": "ടെസ്റ്റ് വർണ്ണം",
	"Test Pattern": "ടെസ്റ്റ് പാറ്റേൺ",
	"Thailand": "തായ്ലാന്‍ഡ്",
	"The POWER remote controller key will not work during the update.": "POWER റിമോട്ട് കൺട്രോളർ കീ അപ്‌ഡേറ്റിനിടെ പ്രവർത്തിക്കില്ല.",
	"The Signage 365 care app has been deleted.": "സൈനേജ് 365 കെയർ ആപ്പ് ഇല്ലാതാക്കി.",
	"The Signage 365 care app has been successfully installed.": "സൈനേജ് 365 കെയർ ആപ്പ് വിജയകരമായി ഇൻസ്റ്റാൾ ചെയ്‌തു.",
	"The Signage 365 care app has been successfully updated.": "സൈനേജ് 365 കെയർ ആപ്പ് വിജയകരമായി അപ്‌ഡേറ്റ് ചെയ്‌തു.",
	"The URL format is invalid.": "URL ഫോർമാറ്റ് അസാധുവാണ്.",
	"The installation of the Signage 365 care app has failed.": "സൈനേജ് 365 കെയർ ആപ്പ് ഇൻസ്റ്റാൾ ചെയ്യൽ പരാജയപ്പെട്ടു.",
	"The installation of the Signage 365 care app is in progress.": "സൈനേജ് 365 കെയർ ആപ്പ് ഇൻസ്റ്റാൾ ചെയ്യൽ പുരോഗമിക്കുന്നു.",
	"The installation of the {apptitle} has failed.": "{apptitle} ഇൻസ്റ്റാളേഷൻ പരാജയപ്പെട്ടു.",
	"The installation of the {apptitle} is in progress.": "{apptitle} ഇൻസ്റ്റാളേഷൻ പുരോഗമിക്കുന്നു.",
	"The timer is reset and the marriage process must be restarted from the beginning.": "ടൈമർ പുനഃസജ്ജമാക്കി, Marriage പ്രോസസ് തുടക്കം മുതൽ പുനരാരംഭിക്കേണ്ടതുണ്ട്.",
	"The update of the Signage 365 care app has failed.": "സൈനേജ് 365 കെയർ ആപ്പ് അപ്‌ഡേറ്റ് ചെയ്യൽ പരാജയപ്പെട്ടു.",
	"The update of the Signage 365 care app is in progress.": "സൈനേജ് 365 കെയർ ആപ്പ് അപ്‌ഡേറ്റ് പുരോഗമിക്കുന്നു.",
	"The update of the {apptitle} has failed.": "{apptitle} അപ്‌ഡേറ്റ് പരാജയപ്പെട്ടു.",
	"The update of the {apptitle} is in progress.": "{apptitle} അപ്‌ഡേറ്റ് പുരോഗമിക്കുന്നു.",
	"The {apptitle} has been successfully installed.": "{apptitle} വിജയകരമായി ഇൻസ്റ്റാൾ ചെയ്തു.",
	"The {apptitle} has been successfully updated.": "{apptitle} വിജയകരമായി അപ്ഡേറ്റ് ചെയ്തു.",
	"There is a difference between your signage and the signage 365 care server in time and date.": "നിങ്ങളുടെ സൈനേജിനും സൈനേജ് 365 കെയർ സെർവറിനും ഇടയിൽ സമയത്തിലും തീയതിയിലും വ്യത്യാസമുണ്ട്.",
	"There is a difference between your signage and the {apptitle} server in time and date.": "നിങ്ങളുടെ സൈനേജിനും {apptitle}-നും ഇടയിൽ സമയത്തിലും തീയതിയിലും വ്യത്യാസമുണ്ട്.",
	"There is no list.": "ലിസ്റ്റൊന്നുമില്ല.",
	"There's No Backup file": "ബാക്കപ്പ് ഫയൽ ഒന്നുമില്ല",
	"Thimphu": "തിംഫു",
	"This pop up will be closed automatically in 5 sec.": "ഈ പോപ് അപ്പ് 5 സെക്കൻഡിൽ സ്വയമേവ അടയ്ക്കും.",
	"Thu": "വ്യാഴം",
	"Thule": "ത്തുളെ",
	"Thursday": "വ്യാഴം",
	"Tijuana": "ടിജുയന",
	"Tile ID": "ടൈൽ ID",
	"Tile Mode": "ടൈൽ മോഡ്",
	"Tile Mode Setting": "Tile Mode Setting",
	"Tile Mode Settings": "ടൈൽ മോഡ് ക്രമീകരണം",
	"Time": "സമയം",
	"Time & Date": "സമയവും തീയതിയും",
	"Time & Date Settings": "'സമയവും തീയതിയും' ക്രമീകരണം",
	"Time & Date Settings Required": "തീയതി , സമയ &amp ക്രമീകരണം ആവശ്യമാണ്",
	"Time Setting": "സമയ സജ്ജീകരണം",
	"Time Zone": "സമയ സമാനത ",
	"Timor-Leste": "ടിമോര്‍-ലെസ്റ്റെ",
	"Tint": "ചായം",
	"Tiranë": "റ്റിറാനെ",
	"To choose an AP, please use Settings App. with a remote controller.": "ഒരു AP തിരഞ്ഞെടുക്കാൻ, ഒരു റിമോട്ട് കൺട്രോളറിന്റെ സഹായത്തോടെ ക്രമീകരണ ആപ്പ് ഉപയോഗിക്കുക.",
	"To make your Password more secure. Use letters and numbers.": "നിങ്ങളുടെ പാസ്‌വേഡ് കൂടുതൽ സുരക്ഷിതമാക്കാൻ. അക്ഷരങ്ങളും അക്കങ്ങളും ഉപയോഗിക്കുക.",
	"To make your password more secure, use a mixture of mixed-case letters, numbers and special characters": "നിങ്ങളുടെ പാസ്‌വേഡ് കൂടുതൽ സുരക്ഷിതമാക്കാൻ, മിക്സഡ്-കേസ് ലെറ്ററുകളുടെയും സംഖ്യകളുടെയും പ്രത്യേക പ്രതീകങ്ങളുടെയും ഒരു മിശ്രണം ഉപയോഗിക്കുക",
	"To use Signage 365 care, you need to connect the device to the network . Do you want to set the network connection?": "സൈനേജ് 365 കെയർ ഉപയോഗിക്കാൻ, നിങ്ങൾ ഉപകരണം നെറ്റ്‌വർക്കിൽ ബന്ധിപ്പിക്കേണ്ടതുണ്ട്. നെറ്റ്‌വർക്ക് കണക്ഷൻ സജ്ജീകരിക്കണോ?",
	"To use {apptitle}, you need to connect the device to the network. Do you want to set the network connection?": "{apptitle} ഉപയോഗിക്കാൻ, നിങ്ങൾ ഉപകരണം നെറ്റ്‌വർക്കിൽ കണക്റ്റ് ചെയ്യേണ്ടതുണ്ട്. നെറ്റ്‌വർക്ക് കണക്ഷൻ സജ്ജീകരിക്കണോ?",
	"Togo": "ടോഗൊ",
	"Tokyo": "ടോക്യോ",
	"Tonga": "ടോങ്ങ",
	"Top": "മുകളിൽ",
	"Top Left": "മുകളിൽ ഇടതുഭാഗത്ത്",
	"Top Right": "മുകളിൽ വലതുഭാഗത്ത്",
	"Toronto": "ടൊറൊന്‍റോ",
	"Transportation": "ഗതാഗതം",
	"Trinidad And Tobago": "ട്രിനിഡഡ് ആന്ഡ് ടൊബാഗോ",
	"Tripoli": "ട്രിപോലി",
	"Tue": "ചൊവ്വ",
	"Tuesday": "ചൊവ്വ",
	"Tunis": "ടുനിസ്",
	"Tunisia": "ടിനിസിയ",
	"Turkey": "ടൂര്‍കി",
	"Turkmenistan": "ടൂര്ക്മെനിസ്റ്റന്‍",
	"Type": "തരം",
	"URL Loader": "URL ലോഡർ",
	"URL Setting": "URL ക്രമീകരണം",
	"Uganda": "ഉഗാണ്ട",
	"Ukraine": "ഉക്രൈന്‍",
	"Ulaanbaatar": "ഉലാന്‍ബാതര്‍",
	"Unit Calibration": "യൂണിറ്റ് കാലിബ്രേഷൻ",
	"Unit Calibration is modified. Exit without saving?": "യൂണിറ്റ് കാലിബ്രേഷൻ പരിഷ്ക്കരിച്ചു. സംരക്ഷിക്കാതെ പുറത്തുകടക്കണോ?",
	"Unit Configuration": "യൂണിറ്റ് കോൺഫിഗറേഷൻ",
	"Unit Resolution": "യൂണിറ്റ് റെസലൂഷൻ",
	"Unit Status": "യൂണിറ്റ് നില",
	"Unit Temperature": "യൂണിറ്റ് താപനില",
	"United Arab Emirates": "യുണൈറ്റഡ് അറബ് എമിറേറ്റ്സ്",
	"United Kingdom": "യുണൈറ്റഡ് കിംഗ്ഡം",
	"United States of America": "യുണൈറ്റഡ് സ്റ്റേറ്റ്സ് ഓഫ് അമേരിക്കാ",
	"Units cut left edge can not be placed in the X:0 positions.": "ഇടത് അരിക് മുറിച്ച യൂണിറ്റുകൾ X:0 പൊസിഷനുകളിൽ സ്ഥാപിക്കാനാകില്ല.",
	"Units cut right edge cannot be placed in the Y:(Cut Pixel) positions.": "വലത് അരിക് മുറിക്കുന്ന യൂണിറ്റുകൾ Y:(മുറിച്ച പിക്‌സൽ) പൊസിഷനുകളിൽ സ്ഥാപിക്കാനാകില്ല.",
	"Unsupported File type.": "ഫയൽ തരം പിന്തുണയ്‌ക്കാത്തതാണ്.",
	"Unsupported File type. Only Image/Video files are allowed.": "ഫയൽ തരം പിന്തുണയ്‌ക്കാത്തതാണ്. ഇമേജ്/വീഡിയോ ഫയലുകൾ മാത്രം അനുവദനീയം.",
	"Update": "പുതുക്കല്‍",
	"Update Failed": "അപ്ഡേറ്റ് പരാജയപ്പെട്ടു",
	"Update LED FPGA micom with xxx done": "xxx ഉപയോഗിച്ച് LED FPGA micom അപ്ഡേറ്റ് ചെയ്തു",
	"Update LED FPGA with xxx done": "xxx ഉപയോഗിച്ച് LED FPGA അപ്ഡേറ്റ് ചെയ്തു",
	"Update Progress": "അപ്‌ഡേറ്റ് പുരോഗമിക്കുന്നു",
	"Update Succeeded": "അപ്‌ഡേറ്റ് വിജയകരം",
	"Update completed. Set is rebooting now.": "അപ്‌ഡേറ്റ് പൂർത്തിയായി. സെറ്റ് ഇപ്പോൾ റീബൂട്ട് ചെയ്യുന്നു.",
	"Update completed. Signage is rebooting now.": "അപ്ഡേറ്റ് പൂർത്തിയായി. സൈനേജ് ഇപ്പോൾ റീബൂട്ടുചെയ്യുന്നു.",
	"Update fan micom with xxx done": "xxx ഉപയോഗിച്ച് ഫാൻ micom അപ്‌ഡേറ്റ് ചെയ്‌തു",
	"Update is completed.": "അപ്ഡേറ്റ് പൂർത്തിയായി.",
	"Update is in progress.": "അപ്ഡേറ്റ് പുരോഗതിയിലാണ്.",
	"Update?": "അപ്‌ഡേറ്റ് ചെയ്യണോ?",
	"Updating…": "അപ്‌ഡേറ്റ് ചെയ്യുന്നു…",
	"Upload": "അപ്‌ലോഡ് ചെയ്യുക",
	"Upload FPGA Update file (XXX GB available)": "FPGA അപ്‌ഡേറ്റ് ഫയൽ അപ്‌ലോഡ് ചെയ്യുക (XXX GB ലഭ്യമാണ്)",
	"Upload LED FPGA update file": "LED FPGA അപ്ഡേറ്റ് ഫയൽ അപ്‌ലോഡ് ചെയ്തു",
	"Upload secured S/W Update file": "സുരക്ഷിത S/W അപ്‌ഡേറ്റ് ഫയൽ അപ്‌ലോഡ് ചെയ്യുക",
	"Upload secured S/W Update file (XXX GB available)": "സുരക്ഷിത S/W അപ്‌ഡേറ്റ് ഫയൽ അപ്‌ലോഡ് ചെയ്യുക (XXX GB ലഭ്യമാണ്)",
	"Uploading": "അപ്‌ലോഡ് ചെയ്യുന്നു",
	"Uruguay": "ഉരുഗ്വേ",
	"User": "ഉപഭോക്താവ്",
	"Uzbekistan": "ഉജ്ബെകിസ്റ്റന്‍",
	"Uzhhorod": "ഉഴ്ഹോരോട്",
	"Vaduz": "വടുജ്",
	"Validation Error.": "സാധൂകരണ പിശക്.",
	"Vancouver": "വങ്കോവര്",
	"Vatican City": "വത്തിക്കാന്‍ നഗരം",
	"Venezuela": "വെന്വിസ്വല",
	"Ver": "പതിപ്പ്",
	"Version": "പതിപ്പ്",
	"Vertical": "ലംബം",
	"Video": "വീഡിയോ",
	"Video Scaler": "വീഡിയോ സ്കെയിലർ",
	"Vienna": "വിയെന്ന",
	"Vientiane": "വിഎന്‍റിയാനെ",
	"Vietnam": "വിയെട്നാം",
	"View": "കാഴ്ച",
	"View Photo": "ഫോട്ടോ കാണുക",
	"Vilnius": "വില്നിയസ്",
	"Virtual Controller": "വെർച്വൽ കൺട്രോളർ",
	"Vivid": "വിവിധമായ",
	"Vladivostok": "വ്ലാഡിവോസ്ടോക്",
	"Volgograd": "വോള്‍ഗൊഗ്രാഡ്",
	"Volume": "ശബ്ദം",
	"Waiting for Approval": "അംഗീകാരത്തിനായി കാക്കുന്നു",
	"Warm": "ഊഷ്മളം",
	"Warsaw": "വാര്‍സൊ",
	"Wed": "ബുധന്‍",
	"Wednesday": "ബുധന്‍",
	"Week": "ആഴ്ച",
	"Welcome to LG WebOS": "LG WebOS-ലേക്ക് സ്വാഗതം",
	"Width": "വീതി",
	"Windhoek": "വിന്ധോഎക്",
	"Winnipeg": "വിന്നിപെഗ്",
	"Wired": "വയെര്‍ഡ്",
	"Working": "പ്രവർത്തിക്കുന്നു",
	"XX GB free of XXGB": "XX GB-യിൽ XX GB ലഭ്യമാണ്",
	"XX of YY": "YY എന്നതിന്റെ XX",
	"YES": "അതെ",
	"Yakutsk": "യാകുട്സ്ക്",
	"Yangon": "യംഗോൺ",
	"Yekaterinburg": "യെകാടെറിന്‍ബൂര്‍ഗ്",
	"Yellowknife": "മഞ്ഞകത്തി",
	"Yemen": "യെമെന്‍",
	"Yerevan": "യേറെവന്‍",
	"Yes": "അതെ",
	"You changed IP address or DHCP status. Please reconnect to changed IP address": "നിങ്ങൾ IP വിലാസമോ DHCP നിലയോ മാറ്റി. മാറ്റിയ IP വിലാസത്തിലേക്ക് വീണ്ടും ബന്ധിപ്പിക്കൂ",
	"You did not finish the process in time.": "നിങ്ങൾ സമയബന്ധിതമായി പ്രോസസ്സ് പൂർത്തിയാക്കിയില്ല.",
	"You have failed to login 1/5 time.": "നിങ്ങൾ ലോഗിൻ ചെയ്യുന്നതിൽ 1/5 തവണ പരാജയപ്പെട്ടു.",
	"You have failed to login 5 times. Please try again after 05:00.": "നിങ്ങൾ ലോഗിൻ ചെയ്യുന്നതിൽ 5 തവണ പരാജയപ്പെട്ടു. 05:00 കഴിഞ്ഞ് വീണ്ടും ശ്രമിക്കുക.",
	"You may not be able to reconnect to web pages if you cannot find out new IP address.": "പുതിയ IP വിലാസം കണ്ടെത്താനാകുന്നില്ലെങ്കിൽ, നിങ്ങൾക്ക് വെബ് പേജുകളിലേക്ക് വീണ്ടും ബന്ധിപ്പിക്കാൻ കഴിഞ്ഞേക്കില്ല.",
	"You've entered the same password as the current one. Please enter a different password.": "നിലവിലെ ഒന്നായി നിങ്ങൾ സമാന പാസ്‌വേഡ് നൽകി. മറ്റൊരു പാസ്‌വേഡ് നൽകുക.",
	"Your Password has been changed.": "നിങ്ങളുടെ പാസ്‌വേഡ് മാറ്റി.",
	"Your device needs the correct time & date to authenticate marriage.": "marriage പ്രാമാണീകരിക്കാൻ നിങ്ങളുടെ ഉപകരണത്തിന് ശരിയായ സമയവും &amp  തീയതിയും ആവശ്യമാണ്.",
	"Zagreb": "ജഗ്രെബ്",
	"Zambia": "സാംബിയ",
	"Zaporozhye": "ജപൊറോഴ്യെ",
	"Zimbabwe": "സിംബാബ്വേ",
	"Zoom": "സൂം",
	"Zoom In": "സൂം ഇന്‍",
	"Zoom In/Out": "സൂം ഇൻ/ഔട്ട്",
	"Zoom Out": "സൂം ഔട്ട് ചെയ്യുക",
	"Zürich": "സ്യൂറിക്",
	"align": "വിന്യസിക്കുക",
	"available": "ലഭ്യമാണ്",
	"color": "വർണ്ണം",
	"full aspect ratio": "പൂർണ്ണ വീക്ഷണ അനുപാതം",
	"general": "പൊതുവായ",
	"hour": "മണിക്കൂര്‍",
	"last": "അവസാനത്തേത്",
	"min": "കുറഞ്ഞ",
	"original aspect ratio": "യഥാർത്ഥ വീക്ഷണ അനുപാതം",
	"over {period} min.": "{period} മിനിറ്റിലധികമായി.",
	"reading": "വായന",
	"save as PC Time": "PC സമയമായി സംരക്ഷിക്കുക",
	"sharpness": "മൂര്‍ച്ച ",
	"upload": "അപ്‌ലോഡ് ചെയ്യുക",
	"version": "പതിപ്പ്",
	"warning": "മുന്നറിയിപ്പ്",
	"webOS Version": "webOS പതിപ്പ്",
	"year": "വർഷം",
	"{apptitle} will be deleted.": "{apptitle} ഇല്ലാതാക്കപ്പെടും.",
	"{{filename}} already exists.": "{{filename}} നിലവിലുണ്ട്."
}
