{
	"(30,60,120,180) Min": "(30,60,120,180) منٹ",
	"10 sec": "10 سیکنڈ",
	"10 sec Auto Refresh": "10 سکنڈ خودکار تازہ کاری",
	"1Hour": "1 گھنٹہ",
	"30sec": "30سیک",
	"5 min. Refresh": "5 منٹ۔ تازہ کاری",
	"5Min": "5 منٹ",
	"Abnormally High": "غیرمعمولی طور پر اعلی",
	"Account": "اکاؤنٹ",
	"Accra": "عکرہ",
	"Activate": "فعال کریں",
	"Adak": "ادک",
	"Add Media": "میڈیا شامل کریں",
	"Add Mini Module": "منی ماڈل شامل کریں",
	"Add Slave Controller": "سلیو کنٹرولر شامل کریں",
	"Add Unit": "یونٹ جوڑیں",
	"Addis Ababa": "ادیس ابابا",
	"Adelaide": "یڈیلیڈ",
	"Aden": "عدن",
	"Advanced Options": "اعلی درجے کے اختیارات",
	"Advanced Setting": "جدید ترین ترتیبات",
	"Afghanistan": "افغانستان",
	"Africa": "افریقہ",
	"Albania": "البانیا",
	"Algeria": "الجیریا",
	"Algiers": "الجزائر",
	"All": "تمام",
	"All Units": "تمام یونٹس",
	"All settings will be reset. Do you want to continue?": "تمام ترتیبات ری سیٹ ہو جائے گی۔ کیا آپ جاری رکھنا چاہتے ہیں؟",
	"Almaty": "الماتی",
	"Amman": "عمان",
	"Amsterdam": "ایمسٹرڈیم",
	"An error occurred while submitting the form.": "فارم جمع کرنے کے دوران خرابی آئ.",
	"Anadyr": "انڈیر ",
	"Anchorage": "اینکوریج",
	"Angola": "انگولا",
	"Antananarivo": "اینٹانانیریو",
	"Apia": "اپیا",
	"Apply": "اپلائی",
	"Apply to All Units": "تمام یونٹس پر اطلاق کریں",
	"Apply?": "اطلاق کریں؟",
	"Approximate round trip in milli-seconds": "تقریباً راؤنڈ ٹرپ ملی سیکنڈز میں",
	"April": "اپریل",
	"Araguaína": "اراگوئنا",
	"Are you sure to change Settings?": "کیا آپ واقعی ترتیبات کو تبدیل کرنا چاہتے ہیں؟",
	"Are you sure to change the calibration settings of this unit?": "کیا آپ واقعی اس یونٹ کی پیمانہ بندی کی ترتیبات کو تبدیل کرنا چاہتے ہیں؟",
	"Are you sure to reboot?": "کیا آپ واقعی ری بوٹ کریں گے؟",
	"Are you sure to use": "کیا آپ واقعی استعمال کرنا چاہتے ہیں",
	"Are you sure to use Wi-Fi DHCP?": "کیا آپ واقعی Wi-Fi DHCP استعمال کرنا چاہتے ہیں؟",
	"Are you sure to use Wired DHCP?": "کیا آپ واقعی تار والا DHCP استعمال کرنا چاہتے ہیں؟",
	"Argentina": "ارجنٹینا",
	"Armenia": "آرمینیا",
	"Aruba": "اروبا",
	"Ashgabat": "اشک آباد",
	"Asia": "ایشیا",
	"Asmara": "اسمارا",
	"Aspect Ratio when rotated": "گردش کرتے وقت جانبی تناسب",
	"Asunción": "اسانسیون",
	"Athens": "ایتھنز",
	"Atikokan": "اٹیکوکن ",
	"Auckland": "آکلینڈ",
	"August": "اگست",
	"Australia": "آسٹریلیا",
	"Austria": "آسٹریا",
	"Authenticate": "تصدیق کریں",
	"Authentication Failed": "تصدیق ناکام ہو گئی",
	"Authentication completed.": "تصدیق مکمل ہو گئی۔",
	"Auto": "آٹو",
	"Auto Detect": "آٹو ڈٹیکٹ",
	"Auto Refresh": "آٹو ریفریش",
	"Automatically Assign IP Address": "دستی طور پر IP ایڈریس تفویض",
	"Available to Installation": "تنصیب کے لیے دستیاب ہے",
	"Azerbaijan": "آذربائیجان",
	"Azores": "آزورس",
	"BLU Status": "BLU صورتحال",
	"Back": "واپس",
	"Backlight": "بیکلایٹ ",
	"Backup Media Upload": "بیک اپ میڈیا اپ لوڈ",
	"Backup file Thumbnail Image": "بیک اپ فائل تھمبنیل تصویر",
	"Backup via storage": "اسٹوریج کے ذریعے بیک اپ",
	"Baghdad": "بغداد",
	"Bahamas": "بہاماز",
	"Bahrain": "بحرین",
	"Baku": "باکو",
	"Bamako": "بماکو",
	"Bangkok": "بینکاک",
	"Bangladesh": "بنگلہ دیش",
	"Bangui": "بانگوئی",
	"Banjul": "بانجول",
	"Barbados": "بارباڈوس",
	"Basic Setting": "بنیادی سیٹنگ",
	"Begin test": "ٹیسٹ شروع کریں",
	"Beijing": "بیجنگ",
	"Beirut": "بیروت",
	"Belarus": "بیلاروس",
	"Belgium": "بیلجئیم",
	"Belgrade": "بلغراد",
	"Belize": "بیلیز",
	"Belém": "بیلیم",
	"Benin": "بینن",
	"Berlin": "برلن",
	"Bermuda": "برمودا",
	"Bhutan": "بھوٹان",
	"Bishkek": "بشکیک",
	"Bissau": "بساؤ",
	"Black Level": "سیاہ سطح",
	"Blanc-Sablon": "بلانک-سبلوں ",
	"Blantyre": "بلنٹائر",
	"Boa Vista": "بوآ وسٹا",
	"Bogotá": "بوگوٹا",
	"Bolivia": "بولیویا",
	"Bootloader Version": "بوٹ لوڈر ورژن",
	"Bosnia": "بوسنیا",
	"Botswana": "بوٹسوانا",
	"Bottom": "نیچے",
	"Bottom Left": "نیچے بائیں",
	"Bottom Light": "نچلی روشنی",
	"Bottom Right": "نچلا دائيں",
	"Box Name": "باکس نام",
	"Bratislava": "بریٹیسلاوا",
	"Brazil": "برازیل",
	"Brazzaville": "برازاویلے",
	"Brightness": "چمکیلا پن",
	"Brisbane": "برسبین",
	"Browse": "براؤز کریں",
	"Browse a file to upload": "اپ لوڈ کرنے کے لیے ایک فائل براؤز کریں",
	"Brussels": "برسلز",
	"Bucharest": "بخارسٹ",
	"Budapest": "بڈاپسٹ",
	"Buenos Aires": "بیونس آئرس",
	"Bujumbura": "بجمبرا",
	"Bulgaria": "بلغاریہ",
	"Burkina Faso": "برکینا فاسو",
	"Burundi": "برنڈی",
	"CIS": "سی آئی ایس",
	"Cairo": "قاہرہ",
	"Calibrate Unit": "یونٹ کی پیمانہ بندی کریں",
	"Calibrated": "پیمانہ بندی شدہ",
	"Calibrating...": "پیمانہ بندی کر رہا ہے۔۔۔",
	"Calibration": "اشتراک",
	"Cambodia": "کمبوڈیا",
	"Cameroon": "کیمرون",
	"Campo Grande": "کیمپو گرانڈے",
	"Canada": "کینیڈا",
	"Canary Islands": "کینری جزائر",
	"Cancel": "منسوخ",
	"Cancún": "کینکن",
	"Cannot start S/W update. Check xxx file please.": "S/W اپ ڈیٹ شروع نہیں کرسکتا۔ براہ کرم xxx فائل کو چیک کریں۔",
	"Cape Verde": "کیپ ورڈی",
	"Capture time Interval": "وقت کا وقفہ کیپچر کریں",
	"Capture time interval": "Capture time interval",
	"Caracas": "کراکس",
	"Casablanca": "کاسا بلانکا",
	"Category": "زمرہ",
	"Cayman Islands": "جزائر کیمن",
	"Central African Republic": "وسطی افریقی جمہوریہ",
	"Chad": "چاڈ",
	"Change Password": "پاس ورڈ تبدیل کریں",
	"Changing Time may cause you to be logged out.": "وقت میں تبدیلی ہونے سے آپ لاگ آؤٹ ہو سکتے ہیں.",
	"Changing Time zone may cause you to be logged out.": "ٹائم زون تبدیل کرنے سے آپ لاگ آؤٹ ہو سکتے ہیں۔",
	"Charts": "چارٹس",
	"Check Temperature sensors. -40 means errors when reading Temperature sensors": "درجہ حرارت کے سینسرز کو چیک کریں۔ درجہ حرارت کو پڑھتے وقت -40 کا مطلب خرابیاں ہیں",
	"Check for Update": "اپ ڈیٹ کے لیے جانچ کریں",
	"Check whether two passwords are same": "یہ دیکھ لیں کہ دو پاس ورڈ ایک جیسے ہی ہوں",
	"Check your URL input": "اپنے URL ان پٹ چیک کریں",
	"CheckScreen": "اسکرین چیک کریں",
	"Checking for update...": "اپ ڈیٹ کے لئے جانچ ہو رہی ہے ...",
	"Chicago": "شکاگو",
	"Chihuahua": "چہواہوا",
	"Chile": "چلی",
	"China": "چین",
	"Chisinau": "چسیناؤ",
	"Christmas Island": "جزیرہ کرسمس",
	"Cinema": "سنیما",
	"City": "شہر",
	"Close": "بند",
	"Close status of cabinet doors": "کیبنٹ کے دروازوں کی اسٹیٹس بند کریں",
	"Closed": "بند",
	"Closed Loop Fan": "بند لوپ فین",
	"ClosedLoop": "بند لوپ",
	"Colombia": "کولمبیا",
	"Colombo": "کولمبو",
	"Color Temperature": "کلر درجہ حرارت",
	"ColorRead": "رنگ پڑھنا",
	"Column": "کالم",
	"Conakry": "کوناکری",
	"Confirm": " توثیق",
	"Confirm Account Number": "اکاؤنٹ نمبر کی تصدیق کریں",
	"Confirm New Password": "نئے پاس ورڈ کی توثیق کریں",
	"Confirm the account number you entered.": "آپ کے درج کردہ اکاؤنٹ نمبر کی تصدیق کریں۔",
	"Connected": "مربوط",
	"Content Rotation": "موجودہ گردش",
	"Content Rotation Status": "مواد کے گردش کی صورتحال",
	"Content Rotation is ON": "اجزاء کی گردش آن ہے",
	"Content is rotated": "مواد کو گردش دیا گیا ہے",
	"Contents rotation is ON": "مشمولات کی گردش آن ہے",
	"Continent": "براعظم",
	"Contrast": "کونٹراسٹ",
	"Control": "کنٹرول",
	"Control Item": "کنٹرول آئٹم",
	"Control Type": "کنٹرول کی قسم",
	"Cool": "پرسکون",
	"Copenhagen": "کوپن ہیگن",
	"Costa Rica": "کوسٹا ریکا",
	"Country/Territory": "ملک/ خطہ",
	"Croatia": "کروشیا",
	"Cuba": "کیوبا",
	"Cuiabá": "کیوبا",
	"Current": "برق",
	"Current Fan RPM": "موجودہ فین RPM",
	"Current Password": "موجودہ پاس ورڈ",
	"Current Picture mode does not support changing color temperature. Please select \"Expert\" of \"Calibration\" mode to adjust the color temperature.": "موجودہ تصویری موڈ رنگ کے درجہ حرارت کی تبدیلی کو تعاون نہیں کرتا۔ براہ کرم رنگ کے درجہ حرارت کو موافق بنانے کے لیے \"پیمانہ کاری\" کے موڈ کے \"ماہر\" کو منتخب کریں۔",
	"Current Ver.": "موجودہ ورژن",
	"Current Version": "موجودہ ورژن",
	"Custom": "کسٹم",
	"Cut Left Edge": "بائیں کنارے کو کاٹیں",
	"Cut Right Edge": "دائیں کنارے کو کاٹیں",
	"Cyprus": "قبرص",
	"Czech": "چیک",
	"Czech Republic": "جمہوریہ چیک",
	"Côte d'Ivoire": "آئیوری کوسٹ",
	"DHCP State": "DHCP کی صورتحال",
	"DNS Server": "DNS سرور",
	"DOWNLOAD LOG": "ڈاؤن لوڈ لاگ",
	"DOWNLOAD LOG FILE": "لاگ فائل ڈاؤن لوڈ کریں",
	"DPM (Standby Mode)": "DPM (اسٹینڈ بائی موڈ)",
	"Daisy Direction": "سلسلے وار سمت",
	"Daisy Start by": "سلسلے وار شروعات بذریعہ",
	"Dakar": "ڈاکار",
	"Damage Detection": "نقصان کا پتہ لگانا",
	"Damaged": "خراب",
	"Damascus": "دمشق ",
	"Danmarkshavn": "دانمرکشوں",
	"Darwin": "ڈارون",
	"Dashboard": "ڈیش بورڈ",
	"Data is not collected now. wait for maximum 60 seconds": "ڈیٹا ابھی جمع نہیں کیا گیا ہے. زیادہ سے زیادہ 60 سیکنڈ کا انتظار کریں",
	"Date": "تاریخ",
	"Dawson": "ڈاوسن",
	"Dawson Creek": "ڈاوسن کریک",
	"Day": "دن",
	"Daylight Saving Time": "روشن دن بچت وقت",
	"Days": "ایام",
	"December": "دسمبر",
	"Default": "ڈیفالٹ",
	"Default size": "ڈفالٹ سائز",
	"Delete": "حذف کریں",
	"Delete Mini Module": "منی ماڈل حذف کریں",
	"Delete Slave Controller": "سلیو کنٹرولر حذف کریں",
	"Delete Unit": "یونٹ حذف کریں",
	"Delete the file": "فائل کو حذف کریں",
	"Delete?": "حذف کریں؟",
	"Democratic Republic Of The Congo": "جمہوریہ کانگو",
	"Denmark": "ڈنمارک",
	"Denver": "ڈینور",
	"Details of Unit": "یونٹ کی تفصیلات",
	"Detroit": "ڈیٹرایٹ",
	"Device Control": "آلہ کا کنٹرول",
	"Dhaka": "ڈھاکہ",
	"Digital Board Reboot": "ڈیجیٹل بورڈ ری بوٹ",
	"Dili": "زبان",
	"Disconnected": "منقطع ہوگیا",
	"Display": "ڈسپلے",
	"Display & Sound": "ڈسپلے و ساؤنڈ",
	"Display & sound": "ڈسپلے اور ساؤنڈ",
	"Do not reboot in Device page.": "آلہ صفحہ میں ری بوٹ نہیں کریں.",
	"Do you want to delete the item?": "کیا آپ اس آئٹم کو حذف کرنا چاہتے ہیں؟",
	"Do you want to delete the selected file?": "کیا آپ منتخب شدہ فائل کو حذف کرنا چاہتے ہیں؟",
	"Do you want to delete this LED FPGA Update file?": "کیا آپ اس LED FPGA اپ ڈیٹ فائل کو حذف کرنا چاہتے ہیں؟",
	"Do you want to delete this S/W Update file?": "کیا آپ S/W اپ ڈیٹ فائل کو حذف کرنا چاہتے ہیں؟",
	"Do you want to install this S/W Update file?": "کیا آپ S/W اپ ڈیٹ فائل کو انسٹال کرنا چاہتے ہیں؟",
	"Do you want to proceed?": "کیا آپ آگے بڑھنا چاہتے ہیں؟",
	"Do you want to set the time & date?": "کیا آپ وقت اور تاریخ کو سیٹ کرنا چاہتے ہیں؟",
	"Do you want to set the time or date automatically?": "کیا آپ خودکار طور وقت یا تاریخ سیٹ کرنا چاہتے ہو؟",
	"Dodoma": "دودوما",
	"Doha": "دوحہ",
	"Dominica": "ڈومینیکا",
	"Dominican Republic": "ڈومینیکن ریپبلک",
	"Done": "کیا",
	"Door": "دروازہ",
	"Door Control": "ڈور کنٹرول",
	"Door Monitor": "ڈور مانیٹر",
	"Door Open": "اوپن ڈور",
	"Door Sensor": "دروازے کا سینسر",
	"Door Sensor Status": "ڈور سینسر کی صورتحال",
	"Door xxx is opened": "ڈور xxx کھلا ہوا ہے",
	"Douala": "ڈوآلا",
	"Draw": "بنائیں",
	"Dubai": "دبئی",
	"Dublin": "ڈبلن",
	"Duplicated Unit ID": "نقل کی گئی یونٹ ID",
	"Duration": "دورانیہ",
	"Dushanbe": "دوشنبہ",
	"Dynamic Brightness": "متحرک چمک",
	"Dynamic Brightness Control": "متحرک چمک کنٹرول",
	"Easter Island": "ایسٹر جزائر",
	"Ecuador": "ایکواڈور",
	"Edit": "ترمیم",
	"Edmonton": "ایڈمونٹن",
	"Education": "تعلیم",
	"Egypt": "مصر",
	"El Salvador": "ال سلواڈور",
	"Enable or disable Signage 365 Care services on this device": "اس آلہ پر سائنیج 365 care خدمات کو فعال یا غیر فعال کریں",
	"Enable or disable {apptitle} service on this device": "اس آلہ پر {apptitle} خدمت کو فعال یا غیر فعال کریں",
	"End": "ختم کریں",
	"End Time": "ختم ہونے کا وقت",
	"Energy Saving": "توانائی کی بچت",
	"Enter Account Number": "اکاؤنٹ نمبر درج کریں",
	"Enter the account number to activate Signage 365 Care.": "سائنیج 365 کیئر کو فعال کرنے کے لئے اکاؤنٹ نمبر درج کریں۔",
	"Enter the account number to activate {apptitle}.": "{apptitle} کو فعال کرنے کے لئے اکاؤنٹ نمبر درج کریں۔",
	"Enter the following": "مندرجہ ذیل درج کریں",
	"Enter the network address to ping": "پنگ کرنے کے لئے نیٹ ورک پتہ درج کریں",
	"Equatorial Guinea": "استوائی گنی",
	"Eritrea": "اریٹیریا",
	"Estonia": "ایسٹونیا",
	"Ethiopia": "ایتھوپیا",
	"Europe": "یورپ",
	"Event": "واقعہ",
	"Exit": "باہر نکلیں",
	"Expert": "ماہر",
	"Export": "برآمد کریں",
	"External": "بیرونی",
	"External Input Rotation": "باہری ان پٹ گردش",
	"External Input Rotation Status": "باہری ان پٹ گردش کا صورتحال",
	"External Input Rotation is ON": "بیرونی ان پٹ کی گردش آن ہے",
	"EyeQ sensor": "EyeQ سینسر",
	"FPGA Version": "FPGA ورژن",
	"Factory Reset": "فیکٹری ری سیٹ",
	"Fail": "ناکامی",
	"Fail Over": "ناکام",
	"Fail to update. Check xxx file please.": "اپ ڈیٹ کرنے میں ناکام. براہ کرم xxx فائل کو چیک کریں۔",
	"Failed to update LED FPGA with xxx. Check the file please": "xxx کے ساتھ LED FPGA اپ ڈیٹ کرنا ناکام۔ براہ کرم فائل کو چیک کریں",
	"Failed to update LED FPGA with xxx. Check the status of the unit controller.": "LED FPGA کو xxx سے اپ ڈیٹ کرنے میں ناکام ہوگیا۔ یونٹ کٹنرول کی صورتحال چیک کریں۔",
	"Failed to update fan micom with xxx. Check the file please": "xxx کے ساتھ فین micom اپ ڈیٹ کرنا ناکام۔  براہ کرم فائل کو چیک کریں",
	"Fan": "فین",
	"Fan Micom Version": "فین Micom ورژن",
	"Fan RPM": "پنکھے کا RPM",
	"Fan RPM history is not yet collected": "فینRPM کی ہسٹری ابھی تک جمع نہیں کی گئی ہے",
	"Fan Status": "فین کی صورتحال",
	"February": "فروری",
	"Fernando de Noronha": "فرنانڈو ڈی نورونہا",
	"Fiji": "فجی",
	"File Name": "فائل کا نام",
	"File Select": "فائل منتخب کرنا",
	"File Upload Progress": "فائل کی اپلوڈ جاری ہے",
	"File upload via mobile devices does not support.": "موبائل آلات کے ذریعے اپ لوڈ فائل تائید یافتہ نہیں ہے۔",
	"Finland": "فن لینڈ",
	"First Use": "پہلا استعمال",
	"Flash memory is not enough.": "فلیش میموری ناکافی ہے۔",
	"For your security, we recommend to change default password. Would you like to change your password now?": "آپ کی سیکورٹی کے لئے، ہم ڈیفالٹ پاس ورڈ تبدیل کرنے کی سفارش کرتے ہیں. کیا آپ اپنا پاس ورڈ ابھی تبدیل کرنا چاہتے ہیں؟",
	"Fortaleza": "فورٹالیزا",
	"Frame": "فریم",
	"France": "فرانس",
	"Freetown": "فری ٹاؤن",
	"French Polynesia": "فرانسیسی پولینیشیا",
	"Fri": "جمعہ",
	"Friday": "جمعہ",
	"Front": "فرنٹ",
	"Full": "مکمل",
	"Gabon": "گیبون",
	"Gaborone": "گیبورون",
	"Gambia": "گامبیا",
	"Gambier": "گیمبیئر",
	"Game": "کھیل ہی ",
	"Gamma": "ڈے گاما",
	"Gamut Matrix": "گاموت کی ترتیب",
	"Gateway": "گیٹ وے",
	"General": "عام",
	"Georgia": "جارجیا",
	"Germany": "جرمنی",
	"Ghana": "گھانا",
	"Gibraltar": "جبرالٹرr",
	"Glace Bay": "چیکنا بے",
	"Go To First Use": "پہلے استعمال میں جائیں",
	"Godthab": "گوڈ تھب",
	"Gov./Corp.": "حکومت/کارپوریشن",
	"Greece": "گریکے ",
	"Greenland": "گرین لینڈ",
	"Guadalcanal": "گوڈل کینال",
	"Guadeloupe": "گواڈیلوپ",
	"Guam": "گوام",
	"Guatemala": "گوئٹے مالا",
	"Guatemala City": "گوئٹے مالا سٹی",
	"Guayaquil": "گوایاکویل",
	"Guernsey": "گرنزی",
	"Guinea": "گنی",
	"Guinea Bissau": "گنی بساؤ",
	"Guyana": "گیانا",
	"Haiti": "ہیٹی",
	"Halifax": "ہیلی فیکس",
	"Harare": "ہرارے",
	"Havana": "ہاوانا",
	"Height": "لمبائی",
	"Helsinki": "ہیلسنکی",
	"Hermosillo": "ہرموسلو",
	"High": "ہائی",
	"History is not yet collected": "ہسٹری ابھی تک جمع نہیں کی گئی ہے",
	"Ho Chi Minh": "ہو چی منہ",
	"Hobart": "ہوبارٹ",
	"Home": "گھر",
	"Honduras": "ہونڈوراس",
	"Hong Kong": "ہانگ کانگ",
	"Honolulu": "ہونولولو",
	"Horizontal": "ہوریزونٹل ",
	"Hour": "قیامت",
	"Humidity": "نمی",
	"Hungary": "ہنگری",
	"ID/password": "ID/پاس ورڈ",
	"IMB Settings": "IMB ترتیبات",
	"IMB Status": "IMB صورتحال",
	"IP Address": "IP ایڈریس",
	"Iceland": "آئس لینڈ",
	"Image": "تصویر",
	"Impact": "اثر",
	"Incorrect Password entered. Please try again.": "غلط پاس ورڈ درج کیا گیا۔ براہ کرم دوبارہ کوشش کریں۔",
	"India": "بھارت",
	"Indianapolis": "انڈیاناپولس",
	"Indonesia": "انڈونیشیا",
	"Information": "معلومات",
	"Input": "ان پٹ",
	"Input 6 or more characters": "6 یا زیادہ حروف ان پٹ کریں",
	"Input Direction": "ان پٹ ڈائریکشن",
	"Input Password": "پاس ورڈ درج کریں",
	"Input Priority": "ترجيحِ اندراج",
	"Input Priority Setting": "ترجیحی ترتیبات درج کریں",
	"Input Signage Name please.": "براہ کرم Signage کا نام درج کریں۔",
	"Input Window": "انٹ پٹ ونڈو",
	"Install": "انسٹال",
	"Install Succeeded": "انسٹال کامیاب",
	"Installation Failed": "تنصیب ناکام ہوگئی",
	"Installation Menu": "انسٹالیشن مینو",
	"Installing…": "انسٹال کیا جا رہا ہے۔۔۔",
	"Internet Not available": "انٹرنیٹ دستیاب نہیں ہے",
	"Internet available": "انٹرنیٹ دستیاب ہے",
	"Invalid NEW Password. Password must be 6 characters in length.": "غلط نیا پاس ورڈ۔ پاس ورڈ کی طوالت 6 حروف ہونی چاہئے۔",
	"Invalid NEW Password. Password must be 8 characters in length.": "غلط نیا پاس ورڈ۔ پاس ورڈ کی طوالت 8 حروف ہونی چاہئے۔",
	"Invalid NEW Password. You must use a combination of letters and numbers.": "غلط نیا پاس ورڈ۔ آپ کو لازمی طور پر حروف اور اعداد کا مجموعہ استعمال کرنا چاہئے۔",
	"Invalid New password. Password must be at least 8 characters.": "غلط نیا پاس ورڈ۔ پاس ورڈ کم از کم 8 حروف کا ہونا ضروری ہے۔",
	"Invalid New password. You must use a mixture of mixed-case letters, numbers and special characters.": "غلط نیا پاس ورڈ۔ آپ کو مخلوط کیس والے حروف، اعداد اور مخصوص حروف کا ایک مرکب استعمال کرنا ضروری ہے۔",
	"Invalid day value": "ناقابل قبول دن کی قدر",
	"Invalid hour value": "ناقابل قبول گھنٹہ کی قدر",
	"Invalid minute value": "ناقابل قبول منٹ کی قدر",
	"Invalid month value": "ناقابل قبول مہینہ کی قدر",
	"Invalid value": "غلط قدر",
	"Invalid year value": "ناقابل قبول سال کی قدر",
	"Iran": "ایران",
	"Iraq": "عراق",
	"Ireland": "آئر لینڈ",
	"Irkutsk": "ارکتسک",
	"Irregular": "غیر مستقل",
	"Israel": "اسرائیل",
	"Issue History": "جاری کرنے کی تاریخ",
	"Istanbul": "استنبول",
	"Italy": "اٹلی",
	"Jakarta": "جکارتہ ",
	"Jamaica": "جمیکا",
	"January": "جنوری",
	"Japan": "جاپان",
	"Jerusalem": "جیرسالم",
	"Johannesburg": "جوہانسبرگ",
	"Jordan": "اردن",
	"July": "جولائی",
	"June": "جون",
	"Kabul": "کابل",
	"Kaliningrad": "کلیننگراڈ",
	"Kamchatka": "کمچٹکا",
	"Kampala": "کمپالا",
	"Karachi": "کراچی",
	"Katmandu": "کاٹھمنڈو",
	"Kazakhstan": "قازقستان",
	"Kenya": "کینیا",
	"Khartoum": "خرطوم",
	"Khovd": "خود",
	"Kiev": "کو",
	"Kigali": "کگالی",
	"Kingston": "کنگسٹن",
	"Kinshasa": "کنشاسا",
	"Kiribati": "کرباتی",
	"Kiritimati": "کریتیمتی",
	"Kolkata": "کولکتہ",
	"Korea": "کوریا",
	"Korea, Republic of": "کوریا، جمہوریہ",
	"Krasnoyarsk": "کراسنویرسک",
	"Kuala Lumpur": "کالا لمپور",
	"Kuching": "کوچنگ",
	"Kuwait": "کویت",
	"Kuwait City": "کویت کتے",
	"Kyrgyzstan": "کرغستان",
	"LED Assistant": "LED اسسٹنٹ",
	"LED Assistant Settings": "LED Assistant ترتیبات",
	"LED FPGA Update file list": "LED FPGA اپ ڈیٹ فائل کی فہرست",
	"LED FPGA Updating ......": "LED FPGA اپ ڈیٹ ہورہا ہے ......",
	"LED Features": "LED خصوصیات",
	"LED Film Settings": "LED فلم سیٹنگز",
	"LED Open Detection": "LED کی کھلی سراغ رسی",
	"LED Settings": "LED ترتیبات",
	"LED Unit": "LED اکائی",
	"LED Unit Status": "LED یونٹ اسٹیٹس",
	"LG ConnectedCare App": "LG ConnectedCare ایپ",
	"LG ConnectedCare app": "LG ConnectedCare ایپ",
	"LG Control Manager": "LG کنٹرول مینیجر",
	"La Paz": "لا پاز",
	"Lagos": "لاگوس",
	"Landscape": "لینڈاسکیپ",
	"Language": "زبان",
	"Laos": "لاؤس",
	"Large": "بڑا",
	"Latvia": "لٹویا",
	"Layout": "خاکہ",
	"Layout Editor": "لے آؤٹ ایڈیٹر",
	"Lebanon": "لبنان",
	"Lesotho": "لیسوتھو",
	"Liberia": "لائبیریا",
	"Libreville": "لبرویللے",
	"Libya": "لیبیا",
	"Liechtenstein": "لکٹنسٹائن",
	"Lima": "لیما",
	"Lisbon": "لزبن",
	"Lithuania": "لتھوانیا",
	"Ljubljana": "لجبلجانا",
	"Loading": "لوڈ کر رہا ہے",
	"Loading...": "لوڈ کر رہا ہے…",
	"Loading…": "لوڈ ہو رہا ہے۔۔۔",
	"Location": "مقام",
	"Log": "لاگ",
	"Log Report": "لاگ رپورٹ",
	"Log after Power Up": "پاور اپ کے بعد کا لاگ",
	"Log in with the authorized ID and password.": "اجازت یافتہ ID اور پاس ورڈ سے لاگ ان کریں۔",
	"Login": "لاگ ان",
	"Login is required.": "لاگ ان مطلوب ہے۔",
	"Logout": "لاگ آؤٹ",
	"Lome": "لوم",
	"London": "لندن",
	"Los Angeles": "لوث انگلیس",
	"Louisville": "لوئسوللے",
	"Low": "کم",
	"Luanda": "لوانڈا",
	"Lubumbashi": "لبمباشی",
	"Lusaka": "لوساکا",
	"Luxembourg": "لکسمبرگ",
	"MAC Address": "MAC ایڈریس",
	"Macao": "مکاؤ",
	"Macedonia": "مقدونیہ",
	"Maceió": "مکو ",
	"Madagascar": "مڈغاسکر",
	"Madeira": "مدیرا",
	"Madrid": "میڈرڈ",
	"Magadan": "مگدان",
	"Main": "مرکزی",
	"Malabo": "ملابو",
	"Malawi": "ملاوی",
	"Malaysia": "ملائیشیا",
	"Maldives": "مالدیپ",
	"Mali": "مالی",
	"Mall/QSR": "مال/QSR",
	"Malta": "مالٹا",
	"Manage": "نظم کریں",
	"Managua": "ماناگوا",
	"Manaus": "مانوس",
	"Manila": "منلا",
	"Manual": "مینوال",
	"Maputo": "ماپوتو",
	"March": "مارچ",
	"Marquesas": "مرقیساس",
	"Marriage Guide (2 Steps)": "Marriage گائیڈ (2 مراحل)",
	"Marriage Status": "Marriage صورتحال",
	"Marshall Islands": "جزائر مارشل",
	"Martinique": "مارٹنیک",
	"Maseru": "ماسیرو",
	"Master": "ماسٹر",
	"Mauritius": "ماریشش",
	"Max Backlight": "زیادہ سے زیادہ بیک لائٹ",
	"Maximum": "زیادہ سے زیادہ",
	"May": "مئی",
	"Mayotte": "مایوٹ",
	"Mazatlán": "مزاتلان",
	"Mbabane": "مبابنے",
	"Media Library": "Media لائبریری",
	"Media file List": "میڈیا فائل کی فہرست",
	"Media file Upload (XXX GB available)": "میڈیا فائل اپ لوڈ (XXX GB دستیاب)",
	"Medium": "درمیانہ",
	"Melbourne": "میلبورن",
	"Menu Language": "مینو زبان",
	"Mexico": "میکسیکو",
	"Mexico City": "میکسیکو کتے",
	"Micom Progress": "Micom جاری ہے",
	"Micom Update": "Micom اپ ڈیٹ",
	"Micom Version": "Micom ورژن",
	"Middle East": "مشرق وسطی",
	"Min Backlight": "کم از کم بیک لائٹ",
	"Mini Module": "منی ماڈل",
	"Minimum": "کم سے کم",
	"Minimum = XXms, Maximum = YYms, Average = ZZms": "کم از کم = XXms، زیادہ سے زیادہ = YYms، اوسط = ZZms",
	"Mins": "منٹ",
	"Minsk": "منسک",
	"Model Name": "ماڈل کا نام",
	"Module Calibration": "ماڈیول کی پیمانہ بندی",
	"Module Calibration is modified. Exit without saving?": "ماڈیول کی پیمانہ بندی میں ترمیم کردی گئی ہے۔ محفوظ کیے بغیر باہر نکلیں۔",
	"Module Size": "ماڈل سائز",
	"Mogadishu": "موگادیشو",
	"Moldova": "مالدووا",
	"Mon": "سوموار",
	"Monaco": "موناکو",
	"Moncton": "مونکتوں",
	"Monday": "پیر کے روز",
	"Mongolia": "منگولیا",
	"Monrovia": "مونروویا",
	"Montenegro": "مونٹی نیگرو",
	"Monterrey": "مونٹررے",
	"Montevideo": "مونٹیویڈیو",
	"Month": "ماہ",
	"Montréal": "مونٹریال",
	"More": "مزید",
	"Morocco": "موروککو ",
	"Moscow": "ماسکو",
	"Motion": "موشن",
	"Mozambique": "موزامبیق",
	"Muscat": "مسقط",
	"Mute": "خاموش کریں",
	"Myanmar": "میانمار",
	"Mérida": "مردہ",
	"NO": "نہیں",
	"NOT AVAILABLE": "دستیاب نہیں",
	"Nairobi": "نیروبی",
	"Name": "نام",
	"Namibia": "نامیبیا",
	"Nassau": "نساؤ",
	"Natural Mode": "قدرتی موڈ",
	"Natural Size": "قدرتی سائز",
	"Ndjamena": "ندجمینہ",
	"Nepal": "نیپال",
	"Netherlands": "نیدر لینڈز",
	"Network": "نیٹ ورک",
	"Network Ready": "نیٹ ورک تیار",
	"Network Settings": "نیٹ ورک سیٹنگز",
	"New Caledonia": "نیا کیلیڈونیا",
	"New Password": "نیا پاس ورڈ",
	"New Password and Confirm Password do not match.": "نیا پاس ورڈ اور تصدیقی پاس ورڈ مماثل نہیں ہے۔",
	"New York": "نیو یارک",
	"New Zealand": "نیا زیلنڈ",
	"Newer Ver.": "نیا ورژن",
	"Next": "اگلا",
	"Next Day": "اگلا دن",
	"Niamey": "نیامی",
	"Nicaragua": "نکاراگوا",
	"Nicosia": "نیکوسیا",
	"Niger": "نائیجر",
	"Nigeria": "نائجیریا",
	"Nipigon": "نپگوں",
	"No": "نہیں",
	"No Signal": "کوئی سگنل",
	"No backup files exist in storage device.": "اسٹوریج آلہ میں کوئی بیک فائلیں موجود نہیں ہیں۔",
	"None": "کوئی بھی نہیں",
	"Normal": "عمومی",
	"North America": "شمالی امریکہ",
	"North Korea": "نارتھ کوریا",
	"Norway": "ناروے",
	"Not Connected": "تعلق نہیں",
	"Notification": "نوٹیفیکیشن",
	"Nouméa": "نومیا",
	"November": "نومبر",
	"Novosibirsk": "نوووسبرسک",
	"Number": "نمبر",
	"OFF": "بند",
	"OK": "ٹھیک ہے",
	"OLED LIGHT": "OLED لائٹ",
	"OLED Light": "OLED لائٹ",
	"ON": "آن",
	"OSD Portrait Mode": "OSD پورٹریٹ موڈ",
	"OSD Portrait Mode is ON": "OSD پورٹریٹ موڈ آن ہے",
	"OSD Portrait Status": "OSD پورٹریٹ کی صورتحال",
	"OSD Portrait mode is xxx": "OSD پورٹریٹ موڈ xxx ہے",
	"OSD Rotation is ON": "OSD کی گردش آن ہے",
	"Occurrence Time": "رونما ہونے کا وقت",
	"Oceania": "اوشیانا",
	"October": "اکتوبر",
	"Off": "بند",
	"Off Until Reset": "ری سیٹ ہونے تک آف",
	"Off When Open": "کھلا ہونے پر آف",
	"Oman": "عمان",
	"Omsk": "امسک",
	"On": "آن",
	"On When Open": "کھلا ہونے پر آن",
	"Open Loop Fan": "کھلا لوپ فین",
	"OpenLoop": "کھلا لوپ",
	"Opened": "کھلا ہوا",
	"Oranjestad": "ورانجستاد",
	"Original": "حقیقی",
	"Oslo": "اوسلو ",
	"Ouagadougou": "اوگا ڈوگا",
	"Output Window": "آؤٹ پٹ ونڈو",
	"OverHeat": "حد سے زیادہ گرم ہوجانا",
	"Overwrite": "اووررائٹ کریں",
	"Overwrite xxx?": "xxx اووررائٹ کریں؟",
	"Overwrite?": "اووررائٹ کریں؟",
	"PM Mode": "PM موڈ",
	"Pacific": "بحرالکاحل",
	"Packets : Sent = XX. Received = YY. Lost = ZZ (WW% loss)": "پیکیٹس: بھیجے = XX. موصولہ = YY. ضائع شدہ = ZZ (WW% نقصان)",
	"Pakistan": "پاکستان",
	"Palau": "پلو",
	"Panama": "پانامہ",
	"Panama City": "پانامہ سٹی",
	"Panel": "پینل",
	"Papua New Guinea": "پاپوا نیو گنی",
	"Paraguay": "پیراگوئے",
	"Paramaribo": "پیرامیریبو",
	"Paris": "پیرس",
	"Password": "پاس ورڈ",
	"Password is incorrect. Please Try Again": "پاس ورڈ غلط ہے۔ براہ کرم دوبارہ کوشش کریں",
	"Password is incorrect. Please try again.": "پاس ورڈ غلط ہے۔ براہ کرم دوبارہ کوشش کریں۔",
	"Perth": "پرتھ",
	"Peru": "پیرو",
	"Philippines": "فلپپنس",
	"Phnom Penh": "نوم پینہ",
	"Phoenix": "فینکس",
	"Picture": "تصویر",
	"Picture Mode": "تصویر موڈ",
	"Picture Settings": "تصویر کی ترتیبات",
	"Ping Test": "پنگ ٹیسٹ",
	"Ping statistics for [X.X.X.X]": "[X.X.X.X] کے لئے پنگ کے اعداد و شمار",
	"Ping test failed. Invalid format of network address field.": "پنگ ٹیسٹ ناکام۔ نیٹ ورک پتہ فیلڈ کا غلط فارمیٹ۔",
	"Ping test is in progress": "پنگ ٹیسٹ پیش رفت میں ہے",
	"Ping test result": "پنگ ٹیسٹ کا نتیجہ",
	"Pinging [X.X.X.X] with YYY bytes of data": "YYY بائٹ ڈیٹا کے ساتھ  [X.X.X.X] پنگ ہو رہا ہے",
	"Play": "چلائیں",
	"Play via URL": "بذریعہ URL پلے کریں",
	"Please Keep this Signage on.": "براہ کرم اس سائنیج کو آن رکھیں.",
	"Please check the following items and try again.": "براہ کرم ذيل کے آئٹمز کو چیک کر کے دوبارہ کوشش کریں۔",
	"Please check the installation file and try again.": "براہ کرم تنصیب کی فائل چیک کریں اور دوبارہ کوشش کریں۔",
	"Please choose a file to upload": "اپ لوڈ کرنے کے لیے ایک فائل کا انتخاب کریں",
	"Please choose a video file to upload": "براہ کرم اپ لوڈ کرنے کے لئے ویڈیو فائل چنیں",
	"Please don't turn off the device and wait until the installation is completed.": "براہ کرم آلہ بند نہ کریں اور انسٹالیشن مکمل ہونے تک انتظار کریں۔",
	"Please don’t turn off the device. And wait while process is completed.": "براہ کرم آلہ کو بند نہ کریں۔ اور عمل کاری مکمل ہونے تک انتظار کریں۔",
	"Please enter the authorized ID and password.": "براہ کرم اجازت یافتہ ID اور پاس ورڈ درج کریں۔",
	"Please login again.": "براہ کرم دوبارہ لاگ ان کریں.",
	"Please press the physical marriage button.": "براہ کرم فزیکل Marriage بٹن دبائیں۔",
	"Please restart the marriage authentication process.": "براہ کرم Marriage کی تصدیقی کارروائی دوبارہ شروع کریں۔",
	"Please select city": "براہ کرم شہر منتخب کریں",
	"Please select country": "براہ کرم ملک منتخب کریں",
	"Please upload S/W update file via PC browser.": "براہ کرم PC براؤزر کے ذریعے S/W اپ ڈیٹ فائل اپ لوڈ کریں۔",
	"Podgorica": "پودگورکا",
	"Poland": "پولینڈ",
	"Port": "پورٹ",
	"Port Louis": "پورٹ لوئس",
	"Port Moresby": "پورٹ مورسبی",
	"Port Number": "پورٹ نمبر",
	"Port Settings": "پورٹ کی ترتیبات",
	"Port of Spain": "پورٹ آف سپین",
	"Port-au-Prince": "پورٹ او پرنس",
	"Porto Novo": "پورٹو نوو",
	"Porto Velho": "پورٹو ویلہو",
	"Portrait": "پورٹریٹ",
	"Portrait Mode": "پورٹریٹ موڈ",
	"Portugal": "پرتگال",
	"Position": "پوزیشن",
	"Power": "پاور",
	"Power Off": "پاور بند",
	"Power Off Management": "پاور آف کرنے کا نظم و نسق",
	"Power Off(Default)": "پاور آف (ڈیفالٹ)",
	"Power Rack": "پاور ریک",
	"Power Rack Settings": "پاور ریک ترتیبات",
	"Prague": "پراگ",
	"Praia": "پرائیا",
	"Press the physical marriage button on your master cabinet.": "اپنے ماسٹر کیبینیٹ پر فزیکل Marriage بٹن دبائیں۔",
	"Pressing Start will give you 1 minute to perform the process.": "شروع کریں دبانے سے کارروائي کرنے میں آپ کو 1 منٹ لگے گا۔",
	"Prev DAY": "پچھلا دن",
	"Prev.": "پچھلا",
	"Preview": "پیش منظر",
	"Priority": "ترجیح",
	"Puerto Rico": "پورٹو ریکو ",
	"Pyongyang": "پیانگ یانگ",
	"Qatar": "قطر",
	"Rainy River": "برسات کے دریا",
	"Rearrange": "دوبارہ ترتیب دیں",
	"Reboot": "ری بوٹ کریں",
	"Reboot?": "ری بوٹ کریں؟",
	"Rebooting": "ری بوٹ کرنا",
	"Recife": "ریسیف",
	"Reference Resolution": "ریفرینس ریزولوشن",
	"Refresh": "تازہ کریں",
	"Regina": "ریجنا",
	"Regular": "مستقل",
	"Rejected": "مسترد شدہ",
	"Remember me": "مجھے یاد رکھیں",
	"Rename": "نام تبدیل کریں",
	"Rename or Overwrite?": "نام تبدیل کریں یا اووررائٹ کریں؟",
	"Rename to {{filename (2)}} or Overwrite?": "{{filename (2)}} کا نام تبدیل کریں یا اووررائٹ کریں؟",
	"Reply from [X.X.X.X] : bytes = YY, time = ZZms, TTL = WW": "[X.X.X.X] کا جواب : بائٹس = YY، وقت = ZZms، TTL = WW",
	"Republic Of The Congo": "جمہوریہ کانگو",
	"Request timed out.": "درخواست کا وقت ختم ہوا۔",
	"Require Network Settings": "نیٹ ورک سیٹنگز درکار ہے",
	"Required Marriage": "درکار Marriage",
	"Reset": "ری سیٹ",
	"Reset All": "تمام کو ری سیٹ کریں",
	"Reset Mute": "خاموش کو ری سیٹ کریں",
	"Reset Mute' is Needed": "خاموش کو ری سیٹ کرنے کی ضرورت ہے",
	"Reset to factory reset": "فیکٹری ری سیٹ پر ری سیٹ کریں",
	"Reykjavik": "رکجویک",
	"Riga": "ریگا",
	"Riyadh": "ریاض",
	"Romania": "رومانیہ",
	"Rome": "روم",
	"Rotation": "گردش",
	"Row": "قطار",
	"Run Time": "رن ٹائم",
	"Run Time Since Last Power Up": "آخری بار پاور اپ کے بعد سے چلنے کا وقت",
	"Russia": "روس",
	"Rwanda": "روانڈا",
	"S/W Update": "S/W اپ ڈیٹ",
	"S/W Update File list": "S/W اپ ڈیٹ فائل کی فہرست",
	"S/W Update file list": "S/W اپ ڈیٹ فائل کی فہرست",
	"S/W Update succeeded": "S/W اپ ڈیٹ کامیاب ہو گئی",
	"S/W Updating": "S/W اپ ڈیٹنگ",
	"S/W Updating......": "S/W اپ ڈیٹ ہورہا ہے......",
	"S/W Ver.": "S/W ورژن",
	"S/W update file does not exist.": "S/W فائل موجود نہیں ہے۔",
	"S/W will update. Do you want to continue?": "S/W اپ ڈیٹ ہوگا۔ کیا آپ جاری رکھنا چاہتے ہیں؟",
	"SCREEN": "اسکرین",
	"SI App / Play via URL": "SI ایپ / بذریعہ URL پلے کریں",
	"Saint Lucia": "سینٹ لوسیا",
	"Sakhalin": "سھالن",
	"Samara": "سمارا",
	"Samarkand": "سمرقند",
	"Samoa": "ساموا",
	"San Luis": "سان لوئس",
	"San Salvador": "سان سلواڈور",
	"Santiago": "سینٹیاگو",
	"Santo Domingo": "سینٹو ڈومنگو",
	"Sarajevo": "سرائیوو",
	"Sat": "ہفتہ",
	"Saturday": "ہفتہ",
	"Saudi Arabia": "سعودی عرب",
	"Save": "محفوظ کریں",
	"Scoresbysund": "سکورسبیسند",
	"Screen": "اسکرین",
	"Screen Configuration": "اسکرین کنفیگریشن",
	"Screen Fault Detection": "اسکرین کی غلطی کا پتہ لگانا",
	"Screen Off": "سکرین آف",
	"Screen Off & Backlight": "اسکرین آف اور بیک لائٹ",
	"Screen Off & Backlight On": "اسکرین آف و بیک لائٹ آن",
	"Screen Off Always": "ہمیشہ اسکرین آف رکھیں",
	"Screen Power Off": "اسکرین پاور آف",
	"Screen Rotation": "اسکرین کی گردش",
	"Screen Rotation Status": "اسکرین گردش کا صورتحال",
	"Screen Rotation is ON": "اسکرین کی گردش آن ہے",
	"ScreenOn": "اسکرین آن",
	"Select File": "فائل منتخب کریں",
	"Select Input Source": "ان پٹ کا وسیلہ منتخب کریں",
	"Select a file to upload": "اپ لوڈ کرنے کے لیے ایک فائل منتخب کریں",
	"Select media file": "میڈیا فائل کو منتخب کریں",
	"Senegal": "سینیگال",
	"Sensor": "سینسر",
	"Seoul": "سول",
	"September": "ستمبر",
	"Serbia": "سربیا",
	"Serial Number": "سیریل نمبر",
	"Server Status": "سرور کی صورتحال",
	"Set": "سیٹ کریں",
	"Set Automatically": "خود کار طریقے سے مقرر کریں",
	"Set ID": "ID مقرر",
	"Set Master": "سیٹ ماسٹر",
	"Set Slave": "سیٹ سلیو",
	"Set URL": "URL سیٹ کریں",
	"Setting": "سیٹنز",
	"Show Color": "رنگ دکھائیں",
	"Sierra Leone": "سیرا لیون",
	"Sigane Name is Too Long": "سائنیج کا نام بہت بڑا ہے",
	"Sign in": "سائن ان کریں",
	"Signage 365 Care": "سائنیج 365 Care",
	"Signage 365 Care App": "سائنیج 365 Care ایپ",
	"Signage Name": "سائن ایج کا نام",
	"Signal": "سگنل",
	"Simferopol": "سمفروپول",
	"Singapore": "سنگاپور",
	"Size": "سائز",
	"Skopje": "سکوپجے",
	"Slave": "ذیلی",
	"Slovakia": "سلوواکیہ",
	"Slovenia": "سلووینیا",
	"Small": "چھوٹا",
	"Sofia": "صوفیہ",
	"Software Version": "سافٹ ویئر ورژن",
	"Solomon Islands": "جزائر سلیمان",
	"Somalia": "صومالیہ",
	"Sound Control": "آواز کا کنٹرول",
	"South Africa": "جنوبی افریقہ",
	"South America": "جنوبی امریکہ",
	"Spain": "سپین",
	"Sports": "کھیل",
	"Srednekolymsk": "سریڈنیکولیمسک",
	"Sri Lanka": "سری لنکا",
	"St. John's": "سینٹ جان",
	"Stalled Image": "رُکی ہوئی شکل",
	"Standard": "سٹینڈرڈ",
	"Start": "شروع کریں",
	"Start Time": "وقت آغاز",
	"State": "اسٹیٹ",
	"Status": "رتبہ",
	"Step 1. Physical Marriage": "مرحلہ 1۔ فزیکل Marriage",
	"Step 2. Logical Marriage": "مرحلہ 2۔ لاجیکل Marriage",
	"Stockholm": "سٹاکہوم",
	"Subnet Mask": "ذیلی نیٹ ماسک",
	"Subnet prefix length": "سب نیٹ سابقہ کی لمبائی",
	"Success": "کامیابی",
	"Sudan": "سوڈان",
	"Sun": "اتوار",
	"Sunday": "اتوار",
	"SuperSign Content": "SuperSign مندرجات",
	"SuperSign Contents": "SuperSign مندرجات",
	"Suriname": "سورینام",
	"Sustain Aspect Ratio": "جانبی تناسب برقرار رکھیں",
	"Swaziland": "سوازی لینڈ",
	"Sweden": "سویڈن",
	"Swift Current": "سوئفٹ موجودہ",
	"Switzerland": "سوئٹزرلینڈ",
	"Sydney": "سڈنی",
	"Syria": "شام",
	"System": "سسٹم",
	"System Box": "سسٹم باکس",
	"System Control": "سسٹم کنٹرول",
	"System Controller": "سسٹم کنٹرولر",
	"System Controller Settings": "سسٹم کنٹرولر ترتیبات",
	"System Information": "سسٹم کی معلومات",
	"System Reboot": "سسٹم روی بوٹ",
	"System Settings": "سسٹم کی ترتیبات",
	"System controller will restart.": "سسٹم کنٹرولر دوبارہ شروع ہو گا۔",
	"System controller will restart. Do you want to continue?": "سسٹم کنٹرولر دوبارہ شروع ہوگا۔ کیا آپ جاری رکھنا چاہتے ہیں؟",
	"São Paulo": "ساؤ پالو",
	"Tahiti": "تاہیتی",
	"Taipei": "تائی پے",
	"Taiwan": "تائیوان",
	"Tajikistan": "تاجکستان",
	"Tallinn": "ٹالن",
	"Tanzania": "تنزانیہ",
	"Tashkent": "تاشقند",
	"Tbilisi": "تبلیسی",
	"Tegucigalpa": "ٹیگوسیگلپا",
	"Tehran": "تہران",
	"Temperature": "درجہ حرارت",
	"Temperature history is not yet collected": "درجہ حرارت کی ہسٹری ابھی تک جمع نہیں کی گئی ہے",
	"Test Color": "رنگ کا ٹیسٹ کریں",
	"Test Pattern": "ٹیسٹ کا پیٹرن",
	"Thailand": "تھائی لینڈ",
	"The POWER remote controller key will not work during the update.": "POWER ریموٹ کنٹرولر کلید اپ ڈیٹ کے دوران کام نہیں کرے گا.",
	"The Signage 365 care app has been deleted.": "سائنیج 365 کیئر ایپ کو کامیابی کے ساتھ حذف کیا گیا۔",
	"The Signage 365 care app has been successfully installed.": "سائنیج 365 کیئر ایپ کامیابی کے ساتھ انسٹال کیا گیا۔",
	"The Signage 365 care app has been successfully updated.": "سائنیج 365 کیئر ایپ کو کامیابی کے ساتھ اپ ڈیٹ کیا گیا۔",
	"The URL format is invalid.": "URL فارمیٹ ناقابل قبول ہے.",
	"The installation of the Signage 365 care app has failed.": "سائنیج 365 کیئر ایپ کی انسٹالیشن ناکام ہو گئی۔",
	"The installation of the Signage 365 care app is in progress.": "سائنیج 365 کیئر ایپ کی انسٹالیشن عمل میں ہے۔",
	"The installation of the {apptitle} has failed.": "{apptitle} کا انسٹالیشن ناکام ہوگیا ہے۔",
	"The installation of the {apptitle} is in progress.": "{apptitle} کا انسٹالیشن جاری ہے۔",
	"The timer is reset and the marriage process must be restarted from the beginning.": "ٹائمر ری سیٹ کر دیا گیا ہے اور شروع سے Marriage کی کارروائی کو دوبارہ شروع کرنا چاہیے۔",
	"The update of the Signage 365 care app has failed.": "سائنیج 365 کیئر ایپ کی اپ ڈیٹ ناکام ہو گئی۔",
	"The update of the Signage 365 care app is in progress.": "سائنیج 365 کیئر ایپ کی اپ ڈیٹ عمل میں ہے۔",
	"The update of the {apptitle} has failed.": "{apptitle} کا اپ ڈیٹ ناکام ہو گیا ہے۔",
	"The update of the {apptitle} is in progress.": "{apptitle} کی اپ ڈیٹ جاری ہے۔",
	"The {apptitle} has been successfully installed.": "{apptitle} کو کامیابی کے ساتھ انسٹال کر دیا گیا ہے۔",
	"The {apptitle} has been successfully updated.": "{apptitle}کو کامیابی کے ساتھ اپ ڈیٹ کردیا گيا ہے۔",
	"There is a difference between your signage and the signage 365 care server in time and date.": "تاریخ اور وقت میں آپ کے سائنیج اور سائنیج 365 کیئر سرور کے درمیان فرق ہے۔",
	"There is a difference between your signage and the {apptitle} server in time and date.": "تاریخ اور وقت میں آپ کے سائنیج اور {apptitle} سرور کے درمیان فرق ہے۔",
	"There is no list.": "کوئی فہرست نہیں ہے۔",
	"There's No Backup file": "کوئی بیک اپ فائل نہیں ہے",
	"Thimphu": "تھمپو",
	"This pop up will be closed automatically in 5 sec.": "یہ پاپ اپ 5 سیکنڈ میں خود کار طریقے سے بند کردیا جائے گا۔",
	"Thu": "جمعرات",
	"Thule": "تھولے",
	"Thursday": "جمعرات",
	"Tijuana": "تیجوانا",
	"Tile ID": "ٹائل ID",
	"Tile Mode": "ٹائل موڈ",
	"Tile Mode Setting": "Tile Mode Setting",
	"Tile Mode Settings": "ٹائل موڈ سیٹنگ",
	"Time": "وقت",
	"Time & Date": "وقت اور تاریخ",
	"Time & Date Settings": "وقت اور تاریخ کی سیٹنگز",
	"Time & Date Settings Required": "وقت اورamp؛ تاریخ کی ترتیبات درکار ہے",
	"Time Setting": "وقت کی سیٹنگ",
	"Time Zone": "ٹائم زون",
	"Timor-Leste": "تیمور-لیستے",
	"Tint": "ٹنٹ",
	"Tiranë": "ٹیرین",
	"To choose an AP, please use Settings App. with a remote controller.": "AP منتخب کرنے کے لیے، براہ کرم ریموٹ کنٹرول کے ساتھ ترتیبات کے ایپ کا استعمال کریں۔",
	"To make your Password more secure. Use letters and numbers.": "اپنے پاس ورڈ کو مزید محفوظ بنانا۔ حروف اور اعداد استعمال کریں۔",
	"To make your password more secure, use a mixture of mixed-case letters, numbers and special characters": "آپ کے پاس ورڈ کو مزید محفوظ بنانے کے لئے، مخلوط کیس والے حروف، اعداد اور مخصوص حروف کا ایک مرکب استعمال کریں",
	"To use Signage 365 care, you need to connect the device to the network . Do you want to set the network connection?": "سائنیج 365 کیئر استعمال کرنے کے لئے، آپ کو آلہ نیٹ ورک کے ساتھ جوڑنے کی ضرورت ہے۔ کیا آپ نیٹ ورک کنیکشن کو سیٹ کرنا چاہتے ہیں؟",
	"To use {apptitle}, you need to connect the device to the network. Do you want to set the network connection?": "{apptitle} استعمال کرنے کے لئے، آپ کو آلہ نیٹ ورک کے ساتھ جوڑنے کی ضرورت ہے۔ کیا آپ نیٹ ورک کنیکشن کو سیٹ کرنا چاہتے ہیں؟",
	"Togo": "ٹوگو",
	"Tokyo": "ٹوکیو",
	"Tonga": "ٹونگا",
	"Top": "اوپر",
	"Top Left": "اوپر بائیں",
	"Top Right": "اوپر دائیں",
	"Toronto": "ٹورنٹو",
	"Transportation": "نقل و حمل",
	"Trinidad And Tobago": "ترینیداد اور ٹوباگو",
	"Tripoli": "طرابلس",
	"Tue": "منگل",
	"Tuesday": "منگل",
	"Tunis": "تیونس",
	"Tunisia": "تیونس",
	"Turkey": "ترکی",
	"Turkmenistan": "ترکمانستان",
	"Type": "پروپوزل کی گذارش",
	"URL Loader": "URL لوڈڑ",
	"URL Setting": "URL سیٹنگ",
	"Uganda": "یوگانڈا",
	"Ukraine": "یوکرائن",
	"Ulaanbaatar": "اولان باتر",
	"Unit Calibration": "یونٹ کی پیمانہ بندی",
	"Unit Calibration is modified. Exit without saving?": "یونٹ کی پیمانہ بندی میں ترمیم کردی گئی ہے۔ محفوظ کیے بغیر باہر نکلیں۔",
	"Unit Configuration": "یونٹ کنفیگریشن",
	"Unit Resolution": "یونٹ ریزولیوشن",
	"Unit Status": "یونٹ کی صورتحال",
	"Unit Temperature": "یونٹ کا درجہ حرارت",
	"United Arab Emirates": "متحدہ عرب امارات",
	"United Kingdom": "برطانیہ",
	"United States of America": "امریکہ",
	"Units cut left edge can not be placed in the X:0 positions.": "بائيں کنارے کو کاٹنے والی یونٹس X:0 پوزیشنز میں نہیں رکھی جاسکتی ہے۔",
	"Units cut right edge cannot be placed in the Y:(Cut Pixel) positions.": "بائيں کنارے کو کاٹنے والی یونٹس Y:(کٹ پکسل) پوزیشنز میں نہیں رکھا جا سکتا ہے۔",
	"Unsupported File type.": "غیر معاون فائل کی نوعیت۔",
	"Unsupported File type. Only Image/Video files are allowed.": "غیر معاون فائل کی نوعیت۔ صرف تصویر/ ویڈیو فائلوں کی ہی اجازت ہے۔",
	"Update": "اپ ڈیٹ",
	"Update Failed": "اپ ڈیٹ ناکام ہوگئی",
	"Update LED FPGA micom with xxx done": "xxx کے ساتھ LED FPGA micom اپ ڈیٹ کرنا مکمل ہوگیا",
	"Update LED FPGA with xxx done": "xxx کے ساتھ LED FPGA اپ ڈیٹ کرنا مکمل ہوگیا",
	"Update Progress": "اپ ڈیٹ جاری ہے",
	"Update Succeeded": "اپ ڈیٹ کامیاب",
	"Update completed. Set is rebooting now.": "اپ ڈیٹ مکمل ہو گیا. سیٹ اب ری بوٹ ہو رہا ہے.",
	"Update completed. Signage is rebooting now.": "اپ ڈیٹ مکمل شدہ۔ سائنیج ابھی ری بوٹ ہو رہا ہے۔",
	"Update fan micom with xxx done": "xxx کے ساتھ فین micom اپ ڈیٹ کرنا مکمل ہوگيا",
	"Update is completed.": "اپ ڈیٹ مکمل ہوگئی ہے۔",
	"Update is in progress.": "اپ ڈیٹ جاری ہے۔",
	"Update?": "اپ ڈیٹ کریں؟",
	"Updating…": "اپ ڈیٹ کر رہا ہے۔۔۔",
	"Upload": "اپ لوڈ کریں",
	"Upload FPGA Update file (XXX GB available)": "FPGA اپ ڈیٹ فائل (XXX GB دستیاب)",
	"Upload LED FPGA update file": "LED FPGA اپ ڈیٹ فائل اپ لوڈ کریں",
	"Upload secured S/W Update file": "محفوظ S/W اپ ڈیٹ فائل اپ لوڈ کریں",
	"Upload secured S/W Update file (XXX GB available)": "محفوظ شدہ S/W اپ ڈیٹ فائل اپ لوڈ کریں(XXX GB دستیاب ہے)",
	"Uploading": "اپ لوڈ کیا جا رہا ہے",
	"Uruguay": "یوراگوئے",
	"User": "یوسر",
	"Uzbekistan": "ازبکستان",
	"Uzhhorod": "ازھھورود",
	"Vaduz": "وڈز",
	"Validation Error.": "توثیق کاری نقص۔",
	"Vancouver": "وینکوور",
	"Vatican City": "ویٹیکن سٹی",
	"Venezuela": "وینزویلا",
	"Ver": "ورژن",
	"Version": "ورژن",
	"Vertical": "عمودی",
	"Video": "ویڈیو",
	"Video Scaler": "ویڈیو اسکیلر",
	"Vienna": "ویانا",
	"Vientiane": "وینٹیانے",
	"Vietnam": "ویتنامی",
	"View": "دیکھیں",
	"View Photo": "تصویر دیکھیں",
	"Vilnius": "ولنئوس",
	"Virtual Controller": "ورچؤئل کنٹرولر",
	"Vivid": "وشد",
	"Vladivostok": "ولادووستوک",
	"Volgograd": "وولگوگراڈ",
	"Volume": "وائس",
	"Waiting for Approval": "منظوری کا انتظار ہے",
	"Warm": "گرم",
	"Warsaw": "وارسا",
	"Wed": "بدھ",
	"Wednesday": "بدھ",
	"Week": "ہفتہ",
	"Weekday": "ہفتہ کا دن",
	"Welcome to LG WebOS": "LG WebOS میں خوش آمدید",
	"Width": "چوڑائی",
	"Windhoek": "ونڈہوک",
	"Winnipeg": "وننپیگ",
	"Wired": "وائرڈ",
	"Working": "کام کررہا ہے",
	"XX GB free of XXGB": "XX GB میں XX GB موجود",
	"XX of YY": "YY کا XX",
	"YES": "جی ہاں",
	"Yakutsk": "یاکتسک",
	"Yamoussoukro": "یاموسوکرو",
	"Yangon": "ینگون",
	"Yekaterinburg": "یکٹرینبرگ",
	"Yellowknife": "یلّوکنیفے",
	"Yemen": "یمن",
	"Yerevan": "یریوان",
	"Yes": "جی ہاں",
	"You changed IP address or DHCP status. Please reconnect to changed IP address": "آپ نے IP پتہ یا DHCP کی صورتحال تبدیل کردی ہے۔ براہ کرم تبدیل شدہ IP پتہ کے ساتھ دوبارہ مربوط کریں",
	"You did not finish the process in time.": "آپ نے وقت پر کارروائی مکمل نہيں کی۔",
	"You have failed to login 1/5 time.": "آپ 1/5 بار لاگ ان کرنے میں ناکام ہوئے ہیں۔",
	"You have failed to login 5 times. Please try again after 05:00.": "آپ 5 بار لاگ ان کرنے میں ناکام ہوئے ہیں۔ براہ کرم 05:00 کے بعد دوبارہ کوشش کریں۔",
	"You may not be able to reconnect to web pages if you cannot find out new IP address.": "اگر آپ نیا IP پتہ تلاش نہیں کرسکتے ہیں تو آپ ویب صفحات سے دوبارہ مربوط ہونے قابل نہیں ہوسکتے ہیں۔",
	"You've entered the same password as the current one. Please enter a different password.": "آپ نے موجودہ کے طور پر وہی پاس ورڈ درج کیا ہے۔ براہ کرم درست پاس ورڈ درج کریں۔",
	"Your Password has been changed.": "آپ کا پاس ورڈ تبدیل کر دیا گیا ہے.",
	"Your device needs the correct time & date to authenticate marriage.": "marriage کی تصدیق کرنے کے لئے آپ کے آلے کو درست وقت اورamp؛ تاریخ درکار ہے۔",
	"Zagreb": "زگریب",
	"Zambia": "گيمبيا",
	"Zaporozhye": "ذپوروزہے",
	"Zimbabwe": "زمبابوے",
	"Zoom": "زوم",
	"Zoom In": "زوم ان",
	"Zoom In/Out": "زوم ان/آؤٹ",
	"Zoom Out": "زوم آؤٹ",
	"Zürich": "زیورخ",
	"align": "الائن کریں",
	"available": "دستیاب",
	"color": "رنگ",
	"full aspect ratio": "مکمل پہلو کا تناسب",
	"general": "(جنرل)",
	"hour": "گھنٹہ",
	"last": "آخری",
	"min": "کمازکم",
	"original aspect ratio": "حقیقی پہلو کا تناسب",
	"over {period} min.": "{period} منٹ تک۔",
	"reading": "ریڈنگ",
	"save as PC Time": "بطور PC وقت محفوظ کریں",
	"sharpness": "تیکشنتا",
	"upload": "اپ لوڈ کریں",
	"version": "ورژن",
	"warning": "تنبیہ",
	"webOS Version": "webOS ورژن",
	"year": "سال",
	"{apptitle} will be deleted.": "{apptitle} حذف کردیا جائیگا۔",
	"{{filename}} already exists.": "{{filename}} پہلے سے موجود ہے۔"
}
