{
	"(30,60,120,180) Min": "(۳۰،۶۰،۱۲۰،۱۸۰) دقیقه",
	"10 sec": "10 ثانیه",
	"10 sec Auto Refresh": "10 دقیقه تازه سازی خودکار",
	"1Hour": "1 ساعت",
	"30sec": "30 ثانیه",
	"5 min. Refresh": "5 دقیقه تازه سازی",
	"5Min": "5 دقیقه",
	"AM": "ق.ظ",
	"Abnormally High": "غیرعادی بالا",
	"Account": "حساب کاربری",
	"Accra": "آکرا",
	"Activate": "فعال‌سازی",
	"Adak": "آداک",
	"Add Media": "افزودن رسانه",
	"Add Mini Module": "افزودن ماژول کوچک",
	"Add Slave Controller": "افزودن کنترل‌کننده فرعی",
	"Add Unit": "افزودن واحد",
	"Addis Ababa": "آدیس آبابا",
	"Adelaide": "آدلاید",
	"Aden": "عدن",
	"Advanced Options": "گزینه های پیشرفته",
	"Advanced Setting": "تنظیم پیشرفته",
	"Afghanistan": "افغانستان",
	"Africa": "آفریقا",
	"Albania": "آلبانی",
	"Algeria": "الجزیره",
	"Algiers": "الجزیره",
	"All": "همه",
	"All Units": "همه دستگاه ها",
	"All settings will be reset. Do you want to continue?": "همه تنظیمات بازنشانی می‌شود. می‌خواهید ادامه دهید؟",
	"Almaty": "آلماتی",
	"Amman": "عمان",
	"Amsterdam": "آمستردام",
	"An error occurred while submitting the form.": "ارسال فرم با خطا مواجه شد.",
	"Anadyr": "آنادیر",
	"Anchorage": "آنکورج",
	"Angola": "آنگولا",
	"Antananarivo": "آنتاناناریوو",
	"Apia": "آپیا",
	"Apply": "اعمال شود",
	"Apply to All Units": "اعمال به همه دستگاه ها",
	"Apply?": "اعمال شود؟",
	"Approximate round trip in milli-seconds": "حدود سفر به میلی‌ثانیه",
	"April": "آوریل",
	"Araguaína": "آراگواینا",
	"Are you sure to change Settings?": "آیا مطمئن هستید تنظیمات را تغییر می دهید؟",
	"Are you sure to change the calibration settings of this unit?": "آیا مطمئنید می خواهید تنظیمات کالیبراسیون این دستگاه را تغییر دهید؟",
	"Are you sure to reboot?": "مطمئنید مجدداً راه اندازی می کنید؟",
	"Are you sure to use": "مطمئنید استفاده می کنید",
	"Are you sure to use Wi-Fi DHCP?": "آیا مطمئنید می خواهید از Wi-Fi DHCP استفاده کنید؟",
	"Are you sure to use Wired DHCP?": "آیا مطمئنید می خواهید از DHCP سیمی استفاده کنید؟",
	"Argentina": "آرژانتین",
	"Armenia": "ارمنستان",
	"Aruba": "آروبا",
	"Ashgabat": "عشق آباد",
	"Asia": "آسیا",
	"Asmara": "اسمره",
	"Aspect Ratio when rotated": "نسبت ابعاد هنگامی که چرخانده شده",
	"Asunción": "آسونسیون",
	"Athens": "آتن",
	"Atikokan": "آتیکوکان",
	"Auckland": "اوکلند",
	"August": "اوت",
	"Australia": "استرالیا",
	"Austria": "اتریش",
	"Authenticate": "تأیید کردن",
	"Authentication Failed": "اعتبارسنجی ناموفق بود",
	"Authentication completed.": "اعتبارسنجی انجام شد.",
	"Auto": "خودکار",
	"Auto Detect": "شناسایی خودکار",
	"Auto Refresh": "بازخوانی خودکار",
	"Automatically Assign IP Address": "تخصیص خودکار آدرس IP",
	"Available to Installation": "در دسترس برای نصب",
	"Azerbaijan": "آذربایجان",
	"Azores": "آزورس",
	"BLU Status": "وضعیت BLU",
	"Back": "برگشت",
	"Backlight": "نور پس زمینه",
	"Backup Media Upload": "آپلود رسانه پشتیبان",
	"Backup file Thumbnail Image": "تصویر کوچک فایل پشتیبان",
	"Backup via storage": "پشتیبان گرفتن از طریق ذخیره سازی",
	"Baghdad": "بغداد",
	"Bahamas": "باهاماس",
	"Bahrain": "بحرین",
	"Baku": "باکو",
	"Bamako": "باماکو",
	"Bangkok": "بانکوک",
	"Bangladesh": "بنگلادش",
	"Bangui": "بانگویی",
	"Banjul": "بانجول",
	"Barbados": "باربادوس",
	"Basic Setting": "تنظیم ابتدایی",
	"Begin test": "شروع آزمایش",
	"Beijing": "پکن",
	"Beirut": "بیروت",
	"Belarus": "بلاروس",
	"Belgium": "بلژیک",
	"Belgrade": "بلگراد",
	"Belize": "بلیز",
	"Belém": "بلم",
	"Benin": "بنین",
	"Berlin": "برلین",
	"Bermuda": "برمودا",
	"Bhutan": "بوتان",
	"Bishkek": "بیشکک",
	"Bissau": "بیسائو",
	"Black Level": "میزان سیاهی",
	"Blanc-Sablon": "بلان-سابلون",
	"Blantyre": "بلانتیر",
	"Boa Vista": "بوا ویستا",
	"Bogotá": "بوگوتا",
	"Bolivia": "بولیوی",
	"Bootloader Version": "نسخه Bootloader",
	"Bosnia": "بوسنی",
	"Botswana": "بوتسوانا",
	"Bottom": "پایین",
	"Bottom Left": "پایین سمت چپ",
	"Bottom Light": "پایین سمت راست",
	"Bottom Right": "پایین راست",
	"Box Name": "نام کادر",
	"Bratislava": "براتیسلاوا",
	"Brazil": "برزیل",
	"Brazzaville": "برازاویل",
	"Brightness": "روشنایی",
	"Brisbane": "بریسبین",
	"Browse": "مرور",
	"Browse a file to upload": "فایلی را برای آپلود مرور کنید",
	"Brussels": "بروکسل",
	"Bucharest": "بخارست",
	"Budapest": "بوداپست",
	"Buenos Aires": "بوینس آیرس",
	"Bujumbura": "بوجومبورا",
	"Bulgaria": "بلغاری",
	"Burkina Faso": "بورکینا فاسو",
	"Burundi": "بروندی",
	"Cairo": "قاهره",
	"Calibrate Unit": "کالیبره کردن دستگاه",
	"Calibrated": "کالیبره شده",
	"Calibrating...": "در حال تنظیم...",
	"Calibration": "کالیبراسیون",
	"Cambodia": "کامبوج",
	"Cameroon": "کامرون",
	"Campo Grande": "کامپو گراند",
	"Canada": "کانادا",
	"Canary Islands": "جزایر قناری",
	"Cancel": "لغو",
	"Cancún": "کانکون",
	"Cannot start S/W update. Check xxx file please.": "نمی توان به روزرسانی S/W را شروع کرد. لطفاً فایل xxx را بررسی کنید.",
	"Cape Verde": "کیپ ورد",
	"Capture time Interval": "فاصله زمانی ضبط",
	"Capture time interval": "Capture time interval",
	"Caracas": "کاراکاس",
	"Casablanca": "کازابلانکا",
	"Category": "دسته",
	"Cayman Islands": "جزایر کایمان",
	"Central African Republic": "جمهوری آفریقای مرکزی",
	"Chad": "چاد",
	"Change Password": "تغییر رمز عبور",
	"Changing Time may cause you to be logged out.": "تغییر ساعت ممکن است باعث شود که از سیستم خارج شوید.",
	"Changing Time zone may cause you to be logged out.": "تغییر منطقه زمانی ممکن است باعث خروج شما از سیستم شود.",
	"Charts": "نمودارها",
	"Check Temperature sensors. -40 means errors when reading Temperature sensors": "حسگرهای دما را بررسی کنید. -40 به معنای خطاها در زمان خواندن حسگرهای دما است",
	"Check for Update": "بررسی برای به‌روزرسانی",
	"Check whether two passwords are same": "بررسی کنید و ببینید آیا هر دو رمز یکسان است",
	"Check your URL input": "ورودی آدرس اینترنتی خود را بررسی کنید",
	"CheckScreen": "بررسی صفحه نمایش",
	"Checking for update...": "در حال بررسی برای به‌روزرسانی...",
	"Chicago": "شیکاگو",
	"Chihuahua": "چی هواهوا",
	"Chile": "شیلی",
	"China": "چین",
	"Chisinau": "کیشینف",
	"Christmas Island": "جزیره کریسمس",
	"Cinema": "سینما",
	"City": "شهر",
	"Close": "بستن",
	"Close status of cabinet doors": "وضعیت بسته درهای کابینت",
	"Closed": "بسته شد",
	"Closed Loop Fan": "فن حلقه ای بسته",
	"ClosedLoop": "حلقه بسته",
	"Colombia": "کلمبیا",
	"Colombo": "کلمبو",
	"Color Temperature": "دمای رنگ",
	"ColorRead": "خواندن رنگ",
	"Column": "ستون",
	"Conakry": "کوناکری",
	"Confirm": "تأیید",
	"Confirm Account Number": "تأیید شماره حساب کاربری",
	"Confirm New Password": "رمز عبور جدید را تأیید کنید",
	"Confirm the account number you entered.": "شماره حسابی که وارد کرده‌اید را تأیید کنید.",
	"Connected": "وصل شوید",
	"Content Rotation": "چرخش محتوا",
	"Content Rotation Status": "وضعیت چرخش محتوا",
	"Content Rotation is ON": "حالت چرخش محتوا روشن است",
	"Content is rotated": "محتوا چرخانده می شود",
	"Contents rotation is ON": "حالت چرخش محتوا روشن است",
	"Continent": "قاره",
	"Contrast": "کنتراست",
	"Control": "کنترل",
	"Control Item": "کنترل مورد",
	"Control Type": "نوع کنترل",
	"Cool": "سرد",
	"Copenhagen": "کپنهاگ",
	"Costa Rica": "کوستا ریکا",
	"Country/Territory": "کشور/سرزمین",
	"Croatia": "کرواسی",
	"Cuba": "کوبا",
	"Cuiabá": "کوئیابا",
	"Current": "جریان الکتریکی",
	"Current Fan RPM": "Fan RPM کنونی",
	"Current Password": "رمز عبور فعلی",
	"Current Picture mode does not support changing color temperature. Please select \"Expert\" of \"Calibration\" mode to adjust the color temperature.": "حالت تصویر کنونی از تغییر دمای رنگ پشتیبانی نمی کند. لطفاً حالت «کارشناس» از «کالیبراسیون» را برای تنظیم دمای رنگ انتخاب کنید.",
	"Current Ver.": "نسخه فعلی.",
	"Current Version": "نسخه فعلی",
	"Custom": "سفارشی",
	"Cut Left Edge": "برش لبه چپ",
	"Cut Right Edge": "برش لبه راست",
	"Cyprus": "قبرس",
	"Czech": "چکی",
	"Czech Republic": "جمهوری چک",
	"Côte d'Ivoire": "ساحل عاج",
	"DHCP State": "وضعیت DHCP",
	"DNS Server": "سرور DNS",
	"DOWNLOAD LOG": "دانلود گزارش",
	"DOWNLOAD LOG FILE": "دانلود فایل گزارش",
	"DPM (Standby Mode)": "DPM (حالت آماده به کار)",
	"Daisy Direction": "جهت Daisy",
	"Daisy Start by": "شروع Daisy با",
	"Dakar": "داکار",
	"Damage Detection": "تشخیص آسیب",
	"Damaged": "آسیب‌دیده",
	"Damascus": "دمشق",
	"Danmarkshavn": "دانمارک شاون",
	"Darwin": "داروین",
	"Dashboard": "داشبورد",
	"Data is not collected now. wait for maximum 60 seconds": "داده ها هنوز جمع آوری نشده اند. حداکثر 60 ثانیه صبر کنید.",
	"Date": "تاریخ",
	"Dawson": "داوسون",
	"Dawson Creek": "داوسون کریک",
	"Day": "روز",
	"Daylight Saving Time": "ساعت تابستانی",
	"Days": "روزها",
	"December": "دسامبر",
	"Default": "پیش فرض",
	"Default size": "اندازه پیش‌فرض",
	"Delete": "حذف",
	"Delete Mini Module": "حذف ماژول کوچک",
	"Delete Slave Controller": "حذف کنترل‌کننده فرعی",
	"Delete Unit": "حذف واحد",
	"Delete the file": "حذف فایل",
	"Delete?": "حذف؟",
	"Democratic Republic Of The Congo": "جمهوری دموکراتیک کنگو",
	"Denmark": "دانمارک",
	"Denver": "دنور",
	"Details of Unit": "جزئیات دستگاه",
	"Detroit": "دترویت",
	"Device Control": "کنترل دستگاه",
	"Dhaka": "داکا",
	"Digital Board Reboot": "راه اندازی مجدد بورد دیجیتال",
	"Dili": "دیلی",
	"Disconnected": "قطع است",
	"Display": "نمایش",
	"Display & Sound": "صفحه نمایش و صدا",
	"Display & sound": "صفحه نمایش و صدا",
	"Do not reboot in Device page.": "در صفحه دستگاه راه اندازی مجدد نکنید.",
	"Do you want to delete the item?": "می‌خواهید این مورد را حذف کنید؟",
	"Do you want to delete the selected file?": "می خواهید فایل انتخابی را حذف کنید؟",
	"Do you want to delete this LED FPGA Update file?": "آیا می‌خواهید این فایل به‌روزرسانی LED FPGA را حذف کنید؟",
	"Do you want to delete this S/W Update file?": "می خواهید این فایل به روز رسانی S/W را حذف کنید؟",
	"Do you want to install this S/W Update file?": "می خواهید این فایل به روز رسانی S/W را نصب کنید؟",
	"Do you want to proceed?": "آیا می خواهید ادامه دهید؟",
	"Do you want to set the time & date?": "می خواهید زمان و تاریخ را تنظیم کنید؟",
	"Do you want to set the time or date automatically?": "می خواهید زمان یا تاریخ را به‌صورت خودکار تنظیم کنید؟",
	"Dodoma": "دودوما",
	"Doha": "دوحه",
	"Dominica": "دومنیکا",
	"Dominican Republic": "جمهوری دومنیکن",
	"Done": "انجام شد",
	"Door": "در",
	"Door Control": "کنترل در",
	"Door Monitor": "مانتیور در",
	"Door Open": "در باز",
	"Door Sensor": "حسگر درب",
	"Door Sensor Status": "وضعیت حسگر در",
	"Door xxx is opened": "درب xxx باز است",
	"Douala": "دوالا",
	"Draw": "ترسیم",
	"Dubai": "دبی",
	"Dublin": "دوبلین",
	"Duplicated Unit ID": "شناسه دستگاه تکراری",
	"Duration": "مدت زمان",
	"Dushanbe": "دوشنبه",
	"Dynamic Brightness": "روشنایی دینامیک",
	"Dynamic Brightness Control": "کنترل روشنایی دینامیک",
	"Easter Island": "جزیره ایستر",
	"Ecuador": "اکوادور",
	"Edit": "ویرایش",
	"Edmonton": "ادمونتون",
	"Education": "آموزش",
	"Egypt": "مصر",
	"El Salvador": "السالوادور",
	"Enable or disable Signage 365 Care services on this device": "سرویس های Signage 365 Care را روی این دستگاه فعال یا غیرفعال کنید",
	"Enable or disable {apptitle} service on this device": "سرویس {apptitle} را روی این دستگاه فعال یا غیرفعال کنید",
	"End": "پایان",
	"End Time": "زمان پایان",
	"Energy Saving": "صرفه جویی برق",
	"Enter Account Number": "وارد کردن شماره حساب",
	"Enter the account number to activate Signage 365 Care.": "برای فعال کردن مراقبت Signage 365، شماره حساب را وارد کنید.",
	"Enter the account number to activate {apptitle}.": "شماره حساب کاربری را جهت فعال‌سازی {apptitle} وارد کنید.",
	"Enter the following": "موارد زیر را وارد کنید",
	"Enter the network address to ping": "برای پینگ‌کردن، نشانی شبکه را وارد کنید",
	"Equatorial Guinea": "گینه استوایی",
	"Eritrea": "اریتره",
	"Estonia": "استونی",
	"Ethiopia": "اتیوپی",
	"Europe": "اروپا",
	"Event": "رویداد",
	"Exit": "خروج",
	"Expert": "ویژه",
	"Export": "صادر کردن",
	"External": "خارجی",
	"External Input Rotation": "چرخش ورودی خارجی",
	"External Input Rotation Status": "وضعیت چرخش ورودی خارجی",
	"External Input Rotation is ON": "چرخش ورودی خارجی «روشن» است",
	"EyeQ sensor": "حسگر EyeQ",
	"FPGA Version": "نسخه FPGA",
	"Factory Reset": "بازنشانی به تنظیمات کارخانه",
	"Fail": "انجام نشد",
	"Fail Over": "ناموفق",
	"Fail to update. Check xxx file please.": "به روزرسانی ناموفق بود. لطفاً فایل xxx را بررسی کنید.",
	"Failed to update LED FPGA with xxx. Check the file please": "به روزرسانی LED FPGA با xxx انجام نشد. لطفاً فایل را بررسی کنید",
	"Failed to update LED FPGA with xxx. Check the status of the unit controller.": "به روزرسانی LED FPGA با xxx انجام نشد. وضعیت واحد کنترل کننده را بررسی کنید.",
	"Failed to update fan micom with xxx. Check the file please": "به روزرسانی Fan Micom با xxx انجام نشد. لطفاً فایل را بررسی کنید",
	"Fan": "فن",
	"Fan Micom Version": "نسخه Fan Micom",
	"Fan RPM history is not yet collected": "تاریخچه Fan RPM هنوز جمع آوری نشده است",
	"Fan Status": "وضعیت Fan",
	"February": "فوریه",
	"Fernando de Noronha": "فرناندو دی نورنها",
	"Fiji": "فیجی",
	"File Name": "نام فایل",
	"File Select": "انتخاب فایل",
	"File Upload Progress": "پیشرفت آپلود فایل",
	"File upload via mobile devices does not support.": "فایل آپلود شده از طریق دستگاه‌تلفن همراه پشتیبانی نمی‌شود.",
	"Finland": "فنلاند",
	"First Use": "اولین استفاده",
	"Flash memory is not enough.": "حافظه Flash کافی نیست",
	"For your security, we recommend to change default password. Would you like to change your password now?": "برای امنیت خود، پیشنهاد می کنیم تا رمز پیش فرض را تغییر دهید. آیا مایلید هم اکنون رمز را تغییر دهید؟",
	"Fortaleza": "فورتالیزا",
	"Frame": "قاب",
	"France": "فرانسه",
	"Freetown": "فری تون",
	"French Polynesia": "پولینزی فرانسه",
	"Fri": "جمعه",
	"Friday": "جمعه",
	"Front": "جلو",
	"Full": "تمام صفحه",
	"Gabon": "گابن",
	"Gaborone": "گابورون",
	"Gambia": "گامبیا",
	"Gambier": "گامبیر",
	"Game": "بازی",
	"Gamma": "گاما",
	"Gamut Matrix": "ماتریس حیطه رنگ",
	"Gateway": "دروازه",
	"General": "عمومی",
	"Georgia": "گرجستان",
	"Germany": "آلمان",
	"Ghana": "غنا",
	"Gibraltar": "جبل الطارق",
	"Glace Bay": "خلیج گلاس",
	"Go To First Use": "رفتن به اولین استفاده",
	"Godthab": "گودتاب",
	"Gov./Corp.": "دولت/شرکت",
	"Greece": "یونان",
	"Greenland": "گرینلند",
	"Guadalcanal": "گوادال کانال",
	"Guadeloupe": "گوادلوپ",
	"Guam": "گوام",
	"Guatemala": "گواتمالا",
	"Guatemala City": "شهر گواتمالا",
	"Guayaquil": "گوایاکیل",
	"Guernsey": "گورنسی",
	"Guinea": "گینه",
	"Guinea Bissau": "گینه بیسائو",
	"Guyana": "گویان",
	"Haiti": "هاییتی",
	"Halifax": "هالیفکس",
	"Harare": "هراره",
	"Havana": "هاناوا",
	"Height": "ارتفاع",
	"Helsinki": "هلسینکی",
	"Hermosillo": "هرموسیلو",
	"High": "زیاد ",
	"History is not yet collected": "تاریخچه هنوز جمع آوری نشده است",
	"Ho Chi Minh": "هوچی مین",
	"Hobart": "هوبارت",
	"Home": "نمایش خانگی",
	"Honduras": "هندوراس",
	"Hong Kong": "هنگ کنگ",
	"Honolulu": "هونولولو",
	"Horizontal": "افقی",
	"Hour": "ساعت",
	"Hours": "ساعت",
	"Humidity": "رطوبت",
	"Hungary": "مجارستان",
	"ID": "شناسه",
	"ID/password": "شناسه/رمزعبور",
	"IMB Settings": "تنظیمات IMB",
	"IMB Status": "وضعیت IMB",
	"IP Address": "آدرس IP",
	"Iceland": "ایسلند",
	"Image": "تصویر",
	"Impact": "تأثیر",
	"Incorrect Password entered. Please try again.": "رمزعبور اشتباه وارد شده است. لطفاً دوباره امتحان کنید.",
	"India": "هند",
	"Indianapolis": "ایندیاناپولیس",
	"Indonesia": "اندونزی",
	"Information": "اطلاعات",
	"Input": "ورودی",
	"Input 6 or more characters": "لطفا 6 حرف یا بیشتر وارد کنید",
	"Input Direction": "مسیر ورودی",
	"Input Password": "ورود رمز عبور",
	"Input Priority": "اولویت ورودی",
	"Input Priority Setting": "تنظیم اولویت ورودی",
	"Input Signage Name please.": "لطفاً نام Signage را وارد کنید.",
	"Input Window": "پنجره ورودی",
	"Install": "نصب",
	"Install Succeeded": "نصب انجام شد.",
	"Installation Failed": "نصب نشد",
	"Installation Menu": "منوی نصب",
	"Installing…": "در حال نصب...",
	"Internet Not available": "اینترنت در دسترس نیست",
	"Internet available": "اینترنت در دسترس است",
	"Invalid NEW Password. Password must be 6 characters in length.": "رمزعبور جدید نامعتبر است. طول رمزعبور باید 6 نویسه باشد.",
	"Invalid NEW Password. Password must be 8 characters in length.": "رمزعبور جدید نامعتبر است. طول رمزعبور باید 8 نویسه باشد.",
	"Invalid NEW Password. You must use a combination of letters and numbers.": "رمزعبور جدید نامعتبر است. باید از ترکیب حروف و ارقام استفاده کنید.",
	"Invalid New password. Password must be at least 8 characters.": "رمزعبور جدید نامعتبر است. رمزعبور باید حداقل شامل 8 نویسه باشد.",
	"Invalid New password. You must use a mixture of mixed-case letters, numbers and special characters.": "رمزعبور جدید نامعتبر است. شما باید از ترکیبی از حروف بزرگ و کوچک، عدد و نویسه‌های خاص استفاده کنید.",
	"Invalid day value": "مقدار روز نامعتبر",
	"Invalid hour value": "مقدار ساعت نامعتبر",
	"Invalid minute value": "مقدار دقیقه نامعتبر",
	"Invalid month value": "مقدار ماه نامعتبر",
	"Invalid value": "مقدار نامعتبر",
	"Invalid year value": "مقدار سال نامعتبر",
	"Iran": "ایران",
	"Iraq": "عراق",
	"Ireland": "ایرلند",
	"Irkutsk": "ایرکوتسک",
	"Irregular": "غیرعادی",
	"Israel": "اسرائیل",
	"Issue History": "تاریخچه موضوع",
	"Istanbul": "استانبول",
	"Italy": "ایتالیا",
	"Jakarta": "جاکارتا",
	"Jamaica": "جامائیکا",
	"January": "ژانویه",
	"Japan": "ژاپن",
	"Jerusalem": "اورشلیم",
	"Johannesburg": "ژوهانسبورگ",
	"Jordan": "اردن",
	"July": "ژوئیه",
	"June": "ژوئن",
	"Kabul": "کابلی",
	"Kaliningrad": "کالینینگراد",
	"Kamchatka": "کامچاتکا",
	"Kampala": "کامپالا",
	"Karachi": "کراچی",
	"Katmandu": "کاتماندو",
	"Kazakhstan": "قزاقستان",
	"Kenya": "کنیا",
	"Khartoum": "خارطوم",
	"Khovd": "خود",
	"Kiev": "کیف",
	"Kigali": "گیگالی",
	"Kingston": "کینگستون",
	"Kinshasa": "کینشاسا",
	"Kiribati": "کیریباتی",
	"Kiritimati": "کیریتیماتی",
	"Kolkata": "کلکته",
	"Korea": "کره",
	"Korea, Republic of": "جمهوری کره",
	"Krasnoyarsk": "کراسنویارسک",
	"Kuala Lumpur": "کوالالامپور",
	"Kuching": "کوچینگ",
	"Kuwait": "کویت",
	"Kuwait City": "شهر کویت",
	"Kyrgyzstan": "قرقیزستان",
	"LED Assistant Settings": "تنظیمات LED Assistant",
	"LED FPGA Update file list": "فهرست فایل به‌روزرسانی LED FPGA",
	"LED FPGA Updating ......": "در حال به‌روزرسانی LED FPGA ......",
	"LED Features": "ویژگی های LED",
	"LED Film Settings": "تنظیمات فیلم LED",
	"LED Open Detection": "شناسایی باز LED",
	"LED Settings": "تنظیمات LED",
	"LED Unit": "واحد LED",
	"LED Unit Status": "وضعیت واحد LED",
	"LG ConnectedCare App": "برنامه LG ConnectedCare",
	"LG ConnectedCare app": "برنامه LG ConnectedCare",
	"LG Control Manager": "مدیر کنترل LG",
	"La Paz": "لاپاز",
	"Lagos": "لائوس",
	"Landscape": "افقی",
	"Language": "زبان",
	"Laos": "لائوس",
	"Large": "بزرگ",
	"Latvia": "لتونی",
	"Layout": "چیدمان",
	"Layout Editor": "ویرایشگر طرح بندی",
	"Lebanon": "لبنان",
	"Lesotho": "لسوتو",
	"Liberia": "لیبریا",
	"Libreville": "لیبرویل",
	"Libya": "لیبیا",
	"Liechtenstein": "لیختن اشتاین",
	"Lima": "لیما",
	"Lisbon": "لیسبون",
	"Lithuania": "لیتوانی",
	"Ljubljana": "لیوبلیانا",
	"Loading": "در حال بارگیری",
	"Loading...": "در حال بارگیری...",
	"Loading…": "در حال بارگیری...",
	"Location": "مکان",
	"Log": "گزارش",
	"Log Report": "گزارش ورود",
	"Log after Power Up": "گزارش پس از روشن کردن",
	"Log in with the authorized ID and password.": "با شناسه و رمزعبور مجاز وارد شوید.",
	"Login": "ورود به سیستم",
	"Login is required.": "ورود به سیستم ضروری است",
	"Logout": "خروج از سیستم",
	"Lome": "لومه",
	"London": "لندن",
	"Los Angeles": "لس آنجلس",
	"Louisville": "لوئیزویل",
	"Low": "کم",
	"Luanda": "لوآندا",
	"Lubumbashi": "لوبومباشی",
	"Lusaka": "لوزاکا",
	"Luxembourg": "لوگزامبورگ",
	"Macao": "ماکائو",
	"Macedonia": "مقدونیه",
	"Maceió": "ماسیو ",
	"Madagascar": "ماداگاسکار",
	"Madeira": "مادیرا",
	"Madrid": "مادرید",
	"Magadan": "ماگادان",
	"Main": "اصلی",
	"Malabo": "مالابو",
	"Malawi": "مالاوی",
	"Malaysia": "مالزی",
	"Maldives": "مالدیو",
	"Mali": "مالی",
	"Mall/QSR": "بازار/QSR",
	"Malta": "مالتا",
	"Manage": "مدیریت",
	"Managua": "ماناگوا",
	"Manaus": "مانائوس",
	"Manila": "مانیلا",
	"Manual": "دستی",
	"Maputo": "ماپوتو",
	"March": "مارس",
	"Marquesas": "مارکویز",
	"Marriage Guide (2 Steps)": "راهنمای Marriage (‏2 مرحله)",
	"Marriage Status": "وضعیت Marriage",
	"Marshall Islands": "جزایر مارشال",
	"Martinique": "مارتینیک",
	"Maseru": "ماسرو",
	"Master": "ارباب",
	"Mauritius": "موریتیس",
	"Max Backlight": "حداکثر نور پس زمینه",
	"Maximum": "حداکثر",
	"May": "مه",
	"Mayotte": "مایوت",
	"Mazatlán": "مازاتلن",
	"Mbabane": "مبابانه",
	"Media Library": "مجموعه رسانه",
	"Media file List": "لیست فایل رسانه",
	"Media file Upload (XXX GB available)": "آپلود فایل رسانه (XXX گیگابایت در دسترس است)",
	"Medium": "متوسط",
	"Melbourne": "ملبورن",
	"Menu Language": "زبان منو",
	"Mexico": "مکزیکو",
	"Mexico City": "مکزیکو سیتی",
	"Micom Progress": "پیشرفت Micom",
	"Micom Update": "به روزرسانی Micom",
	"Micom Version": "نسخه Micom",
	"Middle East": "خاورمیانه",
	"Min Backlight": "حداقل نور پس زمینه",
	"Mini Module": "ماژول کوچک",
	"Minimum": "حداقل",
	"Minimum = XXms, Maximum = YYms, Average = ZZms": "حداقل = XXمیلی‌ثانیه، حداکثر = YYمیلی‌ثانیه، میانگین = ZZمیلی‌ثانیه",
	"Mins": "دقیقه",
	"Minsk": "مینسک",
	"Model Name": "نام مدل",
	"Module Calibration": "کالیبراسیون ماژول",
	"Module Calibration is modified. Exit without saving?": "کالیبراسیون ماژول تغییر یافته است. بدون ذخیره خارج می شوید؟",
	"Module Size": "اندازه ماژول",
	"Modules": "ماژول ها",
	"Mogadishu": "موگادیشو",
	"Moldova": "مولدووا",
	"Mon": "دوشنبه",
	"Monaco": "موناکو",
	"Moncton": "مانکتون",
	"Monday": "دوشنبه",
	"Mongolia": "مغولستان",
	"Monrovia": "مونروویا",
	"Montenegro": "مونتگرو",
	"Monterrey": "مونتری",
	"Montevideo": "مونته ویدیو",
	"Month": "ماه",
	"Montréal": "مونترال",
	"More": "بیشتر",
	"Morocco": "مراکش",
	"Moscow": "مسکو",
	"Motion": "حرکت",
	"Mozambique": "موزامبیک",
	"Muscat": "مسقط",
	"Mute": "بی صدا",
	"Myanmar": "میانمار",
	"Mérida": "مریدا",
	"NG": "خوب نیست",
	"NO": "خیر",
	"NOT AVAILABLE": "در دسترس نیست",
	"Nairobi": "نایروبی",
	"Name": "نام",
	"Namibia": "نامیبیا",
	"Nassau": "ناسائو",
	"Natural Mode": "حالت طبیعی",
	"Natural Size": "اندازه طبیعی",
	"Ndjamena": "آنجامینا",
	"Nepal": "نپال",
	"Netherlands": "هلند",
	"Network": "شبکه",
	"Network Ready": "شبکه آماده",
	"New Caledonia": "کالدونیای جدید",
	"New Password": "رمز عبور جدید",
	"New Password and Confirm Password do not match.": "رمزعبور جدید و رمزعبور تأیید شده با هم مطابقت ندارند.",
	"New York": "نیویورک",
	"New Zealand": "نیوزلند",
	"Newer Ver.": "نسخه جدیدتر.",
	"Next": "بعدی",
	"Next Day": "روز بعد",
	"Niamey": "نیامی",
	"Nicaragua": "نیکاراگوئه",
	"Nicosia": "نیکوزیا",
	"Niger": "نیجر",
	"Nigeria": "نیجریه",
	"Nipigon": "نیپیگون",
	"No": "خیر",
	"No Signal": "بدون سیگنال",
	"No backup files exist in storage device.": "هیچ فایل پشتیبانی در حافظه دستگاه وجود ندارد.",
	"None": "هیچکدام",
	"Normal": "معمولی",
	"North America": "آمریکای شمالی",
	"North Korea": "کره شمالی",
	"Norway": "نروژ",
	"Not Connected": "وصل نیست",
	"Notification": "اعلان",
	"Nouméa": "نومیا",
	"November": "نوامبر",
	"Novosibirsk": "نووسیبریسک",
	"Number": "شماره",
	"OFF": "خاموش",
	"OK": "تأیید",
	"OLED LIGHT": "نور زمینه OLED",
	"OLED Light": "نور زمینه OLED",
	"ON": "روشن",
	"OSD Portrait Mode": "حالت افقی OSD",
	"OSD Portrait Mode is ON": "حالت عمودی OSD روشن است",
	"OSD Portrait Status": "وضعیت افقی OSD",
	"OSD Portrait mode is xxx": "حالت افقی OSD، xxx است",
	"OSD Rotation is ON": "حالت چرخش OSD روشن است",
	"Occurrence Time": "زمان وقوع",
	"Oceania": "اقیانوسیه",
	"October": "اکتبر",
	"Off": "خاموش",
	"Off Until Reset": "خاموش تا زمان بازنشانی",
	"Off When Open": "خاموش وقتی باز است",
	"Oman": "عمان",
	"Omsk": "اومسک",
	"On": "روشن",
	"On When Open": "روشن وقتی باز است",
	"Open Loop Fan": "فن حلقه ای باز",
	"OpenLoop": "حلقه باز",
	"Opened": "باز شد",
	"Oranjestad": "اورنجستاد",
	"Original": "اصلی",
	"Oslo": "اسلو",
	"Ouagadougou": "اوآگادوگو",
	"Output Window": "پنجره خروجی",
	"OverHeat": "بیش از اندازه داغ",
	"Overwrite": "جایگزینی",
	"Overwrite xxx?": "رونویسی روی xxx؟",
	"Overwrite?": "رونویسی؟",
	"PM": "ب.ظ",
	"PM Mode": "حالت PM",
	"Pacific": "اقیانوس آرام",
	"Packets : Sent = XX. Received = YY. Lost = ZZ (WW% loss)": "بسته‌ها: ارسال‌شده: XX. دریافت‌شده: YY. از دست رفته: ZZ (WW% ضرر)",
	"Pakistan": "پاکستان",
	"Palau": "پالائو",
	"Panama": "پاناما",
	"Panama City": "پاناما سیتی",
	"Panel": "پانل",
	"Papua New Guinea": "پاپوا گینه نو",
	"Paraguay": "پاراگوئه",
	"Paramaribo": "پاراماریبو",
	"Paris": "پاریس",
	"Password": "رمز ورود",
	"Password is incorrect. Please Try Again": "رمز عبور اشتباه است. لطفاً دوباره امتحان کنید.",
	"Password is incorrect. Please try again.": "رمز عبور اشتباه است. لطفاً دوباره امتحان کنید.",
	"Perth": "پرت",
	"Peru": "پرو",
	"Philippines": "فیلیپین",
	"Phnom Penh": "پنون پن",
	"Phoenix": "فوئنیکس",
	"Picture": "تصویر",
	"Picture Mode": "حالت تصویر",
	"Picture Settings": "تنظیمات عکس",
	"Ping Test": "تست پینگ",
	"Ping statistics for [X.X.X.X]": "آمار پینگ برای [X.X.X.X]",
	"Ping test failed. Invalid format of network address field.": "تست پینگ انجام نشد. قالب فیلد آدرس شبکه نامعتبر است.",
	"Ping test is in progress": "آزمایش پینگ درحال انجام است",
	"Ping test result": "نتیجه آزمایش پینگ",
	"Pinging [X.X.X.X] with YYY bytes of data": "درحال پینگ کردن [X.X.X.X] با YYY بایت داده",
	"Play": "پخش",
	"Play via URL": "پخش از طریق URL",
	"Please Keep this Signage on.": "لطفاً Signage را روشن نگه دارید.",
	"Please check the following items and try again.": "لطفاً موارد زیر را بررسی و دوباره امتحان کنید.",
	"Please check the installation file and try again.": "لطفاً فایل نصب را بررسی و دوباره امتحان کنید.",
	"Please choose a file to upload": "لطفاً فایلی را برای آپلود انتخاب کنید",
	"Please choose a video file to upload": "لطفاً فایل ویدیویی را برای آپلود انتخاب کنید",
	"Please don't turn off the device and wait until the installation is completed.": "لطفاً دستگاه را خاموش نکنید و تا تکمیل نصب صبر کنید.",
	"Please don’t turn off the device. And wait while process is completed.": "لطفاً دستگاه را خاموش نکنید. و منتظر اتمام فرآیند باشید.",
	"Please enter the authorized ID and password.": "لطفاً شناسه و رمزعبور مجاز را وارد کنید.",
	"Please login again.": "لطفاً دوباره وارد شوید.",
	"Please press the physical marriage button.": "لطفاً دکمه marriage فیزیکی را فشار دهید.",
	"Please restart the marriage authentication process.": "لطفاً فرآیند اعتبارسنجی marriage را از نو شروع کنید.",
	"Please select city": "لطفاً شهر را انتخاب کنید",
	"Please select country": "لطفاً کشور را انتخاب کنید",
	"Please upload S/W update file via PC browser.": "لطفاً فایل به‌روزرسانی S/W را به وسیله مرورگر رایانه آپلود کنید.",
	"Podgorica": "پودگوریتسا",
	"Poland": "لهستان",
	"Port": "درگاه",
	"Port Louis": "بندر لوئیس",
	"Port Moresby": "پورت مورسبی",
	"Port Number": "شماره پورت",
	"Port Settings": "تنظیمات درگاه",
	"Port of Spain": "بندر اسپانیا",
	"Port-au-Prince": "پورت و پرنس",
	"Porto Novo": "پورتو نوو",
	"Porto Velho": "پورتو ولو",
	"Portrait": "عمودی",
	"Portrait Mode": "حالت افقی",
	"Portugal": "پرتغال",
	"Position": "موقعیت",
	"Power": "روشن/خاموش",
	"Power Off": "خاموش",
	"Power Off Management": "مدیریت خاموش کردن",
	"Power Off(Default)": "خاموش (پیش فرض)",
	"Power Rack": "پاور رک",
	"Power Rack Settings": "تنظيمات پاور رک",
	"Prague": "پراگ",
	"Praia": "پرایا",
	"Press the physical marriage button on your master cabinet.": "دکمه marriage فیزیکی روی کابینت اصلی را فشار دهید.",
	"Pressing Start will give you 1 minute to perform the process.": "با فشار دادن «شروع»، 1 دقیقه به شما وقت داده می‌شود که فرآیند را انجام دهید.",
	"Prev DAY": "روز قبل",
	"Prev.": "قبلی.",
	"Preview": "پیش نمایش",
	"Priority": "اولویت",
	"Puerto Rico": "پورتوریکو",
	"Pyongyang": "پیونگ یانگ",
	"Qatar": "قطر",
	"Rainy River": "رینی ریور",
	"Rearrange": "مرتب سازی مجدد",
	"Reboot": "راه اندازی مجدد",
	"Reboot?": "راه اندازی مجدد؟",
	"Rebooting": "راه اندازی مجدد",
	"Recife": "رسیف",
	"Reference Resolution": "وضوح مرجع",
	"Refresh": "بازخوانی",
	"Regina": "رجینا",
	"Regular": "عادی",
	"Rejected": "رد شد",
	"Remember me": "یادآوری شود",
	"Rename": "تغییر نام",
	"Rename or Overwrite?": "تغییر نام داده شود یا جایگزین شود؟",
	"Rename to {{filename (2)}} or Overwrite?": "نام به {{filename (2)}} تغییر نم داده شود یا جایگزین شود؟",
	"Reply from [X.X.X.X] : bytes = YY, time = ZZms, TTL = WW": "پاسخ از طرف [X.X.X.X]: بایت = YY، زمان: ZZms، TTL = WW",
	"Republic Of The Congo": "جمهوری کنگو",
	"Request timed out.": "مهلت درخواست تمام شد.",
	"Require Network Settings": "به تنظيم شبکه نیاز است",
	"Required Marriage": "Marriage ضروری",
	"Reset": "بازنشانی",
	"Reset All": "بازنشانی همه",
	"Reset Mute": "بازنشانی بیصدا",
	"Reset Mute' is Needed": "بازنشانی بیصدا ضروری است",
	"Reset to factory reset": "بازنشانی به تنظیمات کارخانه",
	"Reykjavik": "ریکیاویک",
	"Riga": "ریگا",
	"Riyadh": "ریاض",
	"Romania": "رومانی",
	"Rome": "رم",
	"Rotation": "چرخش",
	"Row": "ردیف",
	"Run Time": "مدت اجرا",
	"Run Time Since Last Power Up": "زمان اجرا از آخرین روشن کردن",
	"Russia": "روسیه",
	"Rwanda": "رواندا",
	"S/W Update": "به روزرسانی S/W",
	"S/W Update File list": "لیست فایل به روزرسانی S/W",
	"S/W Update file list": "لیست فایل به روزرسانی S/W",
	"S/W Update succeeded": "به‌روزرسانی S/W موفق بود",
	"S/W Updating": "به روزرسانی S/W",
	"S/W Updating......": "به‌روزرسانی S/W ......",
	"S/W update file does not exist.": "فایل به‌روزرسانی S/W وجود ندارد.",
	"S/W will update. Do you want to continue?": "S/W به‌روزرسانی می‌شود. می‌خواهید ادامه دهید؟",
	"SCREEN": "صفحه نمایش",
	"SI App / Play via URL": "برنامه SI / پخش از طریق URL",
	"Saint Lucia": "سنت لوسیا",
	"Sakhalin": "ساخالین",
	"Samara": "سامارا",
	"Samarkand": "سمرقند",
	"Samoa": "ساموا",
	"San Luis": "سان لوئیس",
	"San Salvador": "سان سالوادور",
	"Santiago": "سانتیگو",
	"Santo Domingo": "سانتو دومینگو",
	"Sarajevo": "سارایوو",
	"Sat": "شنبه",
	"Saturday": "شنبه",
	"Saudi Arabia": "عربستان سعودی",
	"Save": "ذخیره",
	"Scoresbysund": "اسکورزبیسوند",
	"Screen": "صفحه نمایش",
	"Screen Configuration": "پیکربندی صفحه نمایش",
	"Screen Fault Detection": "تشخیص اشتباه صفحه",
	"Screen Off": "نمایشگر خاموش",
	"Screen Off & Backlight": "صفحه نمایش و نور پس زمینه خاموش",
	"Screen Off & Backlight On": "صفحه نمایش خاموش و نور پس زمینه روشن",
	"Screen Off Always": "همیشه صفحه خاموش",
	"Screen Power Off": "خاموش کردن صفحه نمایش",
	"Screen Rotation": "چرخش صفحه نمایش",
	"Screen Rotation Status": "وضعیت چرخش صفحه",
	"Screen Rotation is ON": "چرخش صفحه نمایش «روشن» است",
	"ScreenOn": "صفحه نمایش روشن",
	"Select File": "انتخاب فایل",
	"Select Input Source": "انتخاب منبع ورودی",
	"Select a file to upload": "فایلی را برای آپلود انتخاب کنید",
	"Select media file": "انتخاب فایل رسانه",
	"Senegal": "سنگال",
	"Sensor": "حسگر",
	"Seoul": "سئول",
	"September": "سپتامبر",
	"Serbia": "صربستان",
	"Serial Number": "شماره سریال",
	"Server Status": "وضعیت سرور",
	"Set": "تنظیم",
	"Set Automatically": "تنظیم بطور خودکار",
	"Set ID": "شناسه تنظیم",
	"Set Master": "تنظیم اصلی",
	"Set Slave": "تنظیم فرعی",
	"Set URL": "تنظیم URL",
	"Setting": "تنظیم",
	"Show Color": "نمایش رنگ",
	"Sierra Leone": "سیرالئون",
	"Sigane Name is Too Long": "نام Signage بیش از حد طولانی است",
	"Sign in": "ورود",
	"Signage 365 Care App": "برنامه Signage 365 Care",
	"Signage Name": "نام Signage",
	"Signal": "سیگنال",
	"Simferopol": "سیمفروپل",
	"Singapore": "سنگاپور",
	"Size": "اندازه",
	"Skopje": "اسکوپیه",
	"Slave": "برده",
	"Slovakia": "اسلواکی",
	"Slovenia": "اسلوونی",
	"Small": "کوچک",
	"Sofia": "صوفیه",
	"Software Version": "نسخه نرم افزار",
	"Solomon Islands": "جزایر سلیمان",
	"Somalia": "سومالی",
	"Sound Control": "کنترل صدا",
	"South Africa": "آفریقای جنوبی",
	"South America": "آمریکای جنوبی",
	"Spain": "اسپانیا",
	"Sports": "ورزش ها",
	"Srednekolymsk": "اسردنکولیمسک",
	"Sri Lanka": "سری لانکا",
	"St. John's": "سنت جونز",
	"Stalled Image": "تصویر ثابت",
	"Standard": "استاندارد",
	"Start": "شروع",
	"Start Time": "زمان شروع",
	"State": "حالت",
	"Status": "وضعیت",
	"Step 1. Physical Marriage": "مرحله 1. Marriage فیزیکی",
	"Step 2. Logical Marriage": "مرحله 2. Marriage منطقی",
	"Stockholm": "استکهلم",
	"Subnet Mask": "پوشش زیر شبکه",
	"Subnet prefix length": "طول پیشوند زیر شبکه",
	"Success": "انجام شد",
	"Sudan": "سودان",
	"Sun": "یک شنبه",
	"Sunday": "یکشنبه",
	"SuperSign Content": "محتوای SuperSign",
	"SuperSign Contents": "محتوای SuperSign",
	"Suriname": "سورینام",
	"Sustain Aspect Ratio": "حفظ نسبت ابعاد",
	"Swaziland": "سوازیلند",
	"Sweden": "سوئد",
	"Swift Current": "سوییفت کرنت",
	"Switzerland": "سوییس",
	"Sydney": "سیدنی",
	"Syria": "سوریه",
	"System": "سیستم",
	"System Box": "کادر سیستم",
	"System Control": "کنترل سیستم",
	"System Controller": "کنترل‌کننده سیستم",
	"System Controller Settings": "تنظیمات کنترل‌کننده سیستم",
	"System Information": "اطلاعات سیستم",
	"System Reboot": "راه‌اندازی مجدد سیستم",
	"System Settings": "تنظیمات سیستم",
	"System controller will restart.": "کنترل‌کننده سیستم مجدداً راه‌اندازی می‌شود.",
	"System controller will restart. Do you want to continue?": "کنترل‌کننده سیستم مجدداً راه‌اندازی می‌شود. می‌خواهید ادامه دهید؟",
	"São Paulo": "سائو پائولو",
	"Tahiti": "تاهیتی",
	"Taipei": "تایپه",
	"Taiwan": "تایوان",
	"Tajikistan": "تاجکستان",
	"Tallinn": "تالین",
	"Tanzania": "تانزانیا",
	"Tashkent": "تاشکند",
	"Tbilisi": "تفلیس",
	"Tegucigalpa": "تگوسیگالپا",
	"Tehran": "تهران",
	"Temperature": "دما",
	"Temperature history is not yet collected": "تاریخچه دما هنوز جمع آوری نشده است",
	"Test Color": "آزمایش رنگ",
	"Test Pattern": "آزمایش الگو",
	"Thailand": "تایلند",
	"The POWER remote controller key will not work during the update.": "در جریان به روز رسانی کلید POWER در کنترلگر از راه دور کار نخواهد کرد.",
	"The Signage 365 care app has been deleted.": "برنامه Signage 365 Care حذف شد.",
	"The Signage 365 care app has been successfully installed.": "برنامه Signage 365 Care با موفقیت نصب شد.",
	"The Signage 365 care app has been successfully updated.": "برنامه Signage 365 Care با موفقیت به‌روزرسانی شد.",
	"The URL format is invalid.": "فرمت URL نامعتبر است.",
	"The installation of the Signage 365 care app has failed.": "نصب برنامه Signage 365 Care انجام نشد.",
	"The installation of the Signage 365 care app is in progress.": "برنامه Signage 365 Care در حال نصب است.",
	"The installation of the {apptitle} has failed.": "نصب {apptitle} ناموفق بود.",
	"The installation of the {apptitle} is in progress.": "نصب {apptitle} در حال انجام است.",
	"The timer is reset and the marriage process must be restarted from the beginning.": "تایمر صفر می‌شود و فرآیند marriage بای از ابتدا آغاز گردد.",
	"The update of the Signage 365 care app has failed.": "به‌روزرسانی برنامه Signage 365 Care انجام نشد.",
	"The update of the Signage 365 care app is in progress.": "برنامه Signage 365 Care در حال به‌روزرسانی است.",
	"The update of the {apptitle} has failed.": "به‌روزرسانی {apptitle} ناموفق بود.",
	"The update of the {apptitle} is in progress.": "به‌روزرسانی {apptitle} در حال انجام است.",
	"The {apptitle} has been successfully installed.": "{apptitle} با موفقیت نصب شده است.",
	"The {apptitle} has been successfully updated.": "{apptitle} با موفقیت به‌روزرسانی شده است.",
	"There is a difference between your signage and the signage 365 care server in time and date.": "در تاریخ و زمان Signage شما و سرور مراقبت  Signage 365 تفاوت وجود دارد.",
	"There is a difference between your signage and the {apptitle} server in time and date.": "تاریخ و زمان Signage شما با سرور {apptitle} متفاوت است.",
	"There is no list.": "هیچ لیستی وجود ندارد.",
	"There's No Backup file": "فایل پشتیبان وجود ندارد",
	"Thimphu": "تیمفو",
	"This pop up will be closed automatically in 5 sec.": "این پنجره به طور خودکار پس از 5 ثانیه بسته خواهد شد.",
	"Thu": "پنج شنبه",
	"Thule": "تول",
	"Thursday": "پنج شنبه",
	"Tijuana": "تیجوانا",
	"Tile ID": "شناسه کاشی",
	"Tile Mode": "حالت کاشی",
	"Tile Mode Setting": "Tile Mode Setting",
	"Tile Mode Settings": "تنظیمات حالت کاشی",
	"Time": "زمان",
	"Time & Date": "زمان و تاریخ",
	"Time & Date Settings": "تنظیمات زمان و تاریخ",
	"Time & Date Settings Required": "تنظیمات زمان و تاریخ ضروری",
	"Time Setting": "تنظیم ساعت",
	"Time Zone": "منطقه زمانی",
	"Timor-Leste": "تیمور-لسته",
	"Tint": "ته رنگ",
	"Tiranë": "تیرانا",
	"To choose an AP, please use Settings App. with a remote controller.": "برای انتخاب یک AP، لطفاً از برنامه تنظیمات با یک کنترل کننده از راه دور استفاده کنید.",
	"To make your Password more secure. Use letters and numbers.": "برای امن‌تر کردن رمزعبور خود. از حروف و ارقام استفاده کنید.",
	"To make your password more secure, use a mixture of mixed-case letters, numbers and special characters": "برای امن‌تر کردن رمزعبور خود، از ترکیبی از حروف بزرگ و کوچک، عدد و نویسه‌های خاص استفاده کنید",
	"To use Signage 365 care, you need to connect the device to the network . Do you want to set the network connection?": "برای استفاده از برنامه Signage 365 Care، باید دستگاه را به شبکه اینترنت متصل کنید. می خواهید اتصال به شبکه اینترنت را تنظیم کنید؟",
	"To use {apptitle}, you need to connect the device to the network. Do you want to set the network connection?": "برای استفاده از برنامه {apptitle}، باید دستگاه را به شبکه اینترنت متصل کنید. می‌خواهید اتصال به شبکه اینترنت را تنظیم کنید؟",
	"Togo": "توگو",
	"Tokyo": "توکیو",
	"Tonga": "تونگا",
	"Top": "بالا",
	"Top Left": "بالا سمت چپ",
	"Top Right": "بالا سمت راست",
	"Toronto": "تورنتو",
	"Transportation": "حمل ونقل",
	"Trinidad And Tobago": "ترینیداد و توباگو",
	"Tripoli": "تریپولی",
	"Tue": "سه شنبه",
	"Tuesday": "سه شنبه",
	"Tunis": "تونس",
	"Tunisia": "تونس",
	"Turkey": "ترکیه",
	"Turkmenistan": "ترکمنستان",
	"Type": "نوع",
	"URL Loader": "بارگیری کننده URL",
	"URL Setting": "تنظیم آدرس اینترنتی",
	"Uganda": "اوگاندا",
	"Ukraine": "اوکراین",
	"Ulaanbaatar": "اولانباتار",
	"Unit Calibration": "کالیبراسیون دستگاه",
	"Unit Calibration is modified. Exit without saving?": "کالیبراسیون دستگاه تغییر یافته است. بدون ذخیره خارج می شوید؟",
	"Unit Configuration": "پیکربندی دستگاه",
	"Unit Resolution": "وضوح دستگاه",
	"Unit Status": "وضعیت دستگاه",
	"Unit Temperature": "دمای دستگاه",
	"United Arab Emirates": "امارات متحده عربی",
	"United Kingdom": "انگلستان",
	"United States of America": "ایالات متحده آمریکا",
	"Units cut left edge can not be placed in the X:0 positions.": "برش لبه چپ واحدها را نمی توانید در موقعیت های X:0 قرار دهید.",
	"Units cut right edge cannot be placed in the Y:(Cut Pixel) positions.": "برش لبه راست واحدها را نمی‌توان در موقعیت‌های Y:(پیکسل برش) قرار داد.",
	"Unsupported File type.": "نوع فایل پشتیبانی نشده.",
	"Unsupported File type. Only Image/Video files are allowed.": "نوع فایل پشتیبانی نشده. فقط فایل های تصویر/ویدیو مجاز هستند.",
	"Update": "به روز رسانی",
	"Update Failed": "به‌روزرسانی انجام نشد",
	"Update LED FPGA micom with xxx done": "به روزرسانی LED FPGA Micom با xxx انجام شد",
	"Update LED FPGA with xxx done": "به روزرسانی LED FPGA با xxx انجام شد",
	"Update Progress": "به روز رسانی در جریان است",
	"Update Succeeded": "به روزرسانی انجام شد",
	"Update completed. Set is rebooting now.": "به روزرسانی کامل شد. دستگاه در حال راه اندازی مجدد است.",
	"Update completed. Signage is rebooting now.": "به‌روزرسانی تکمیل شد. Signage اکنون راه‌اندازی مجدد می‌شود.",
	"Update fan micom with xxx done": "به روزرسانی Fan Micom با xxx انجام شد",
	"Update is completed.": "به‌روزرسانی کامل شد.",
	"Update is in progress.": "به‌روزرسانی درحال انجام است.",
	"Update?": "به روز رسانی؟",
	"Updating…": "در حال به‌روزرسانی...",
	"Upload": "آپلود",
	"Upload FPGA Update file (XXX GB available)": "بارگذاری فایل به روزرسانی FPGA‏ (XXX گیگابایت دردسترس است)",
	"Upload LED FPGA update file": "آپلود فایل به روزرسانی LED FPGA",
	"Upload secured S/W Update file": "آپلود فایل به روزرسانی S/W امن",
	"Upload secured S/W Update file (XXX GB available)": "آپلود فایل به روزرسانی S/W امن (XXX گیگابایت در دسترس است)",
	"Uploading": "آپلود",
	"Uruguay": "اروگوئه",
	"User": "کاربر",
	"Uzbekistan": "ازبکستان",
	"Uzhhorod": "اژورود",
	"Vaduz": "فادوتس",
	"Validation Error.": "خطای تأیید اعتبار.",
	"Vancouver": "ونکوور",
	"Vatican City": "شهر واتیکان",
	"Venezuela": "ونزوئلا",
	"Ver": "نسخه",
	"Version": "نسخه",
	"Vertical": "عمودی",
	"Video": "ویدیو",
	"Video Scaler": "اندازه گر ویدیو",
	"Vienna": "وینا",
	"Vientiane": "وینتیان",
	"Vietnam": "ویتنام",
	"View": "مشاهده",
	"View Photo": "مشاهده عکس",
	"Vilnius": "ویلنویس",
	"Virtual Controller": "کنترل کننده مجازی",
	"Vivid": "درخشان",
	"Vladivostok": "ولادیوستوک",
	"Volgograd": "ولگوگراد",
	"Volume": "میزان صدا",
	"Waiting for Approval": "انتظار برای تأیید",
	"Warm": "گرم",
	"Warsaw": "ورشو",
	"Wed": "چهارشنبه",
	"Wednesday": "چهارشنبه",
	"Week": "هفته",
	"Weekday": "روز هفته",
	"Welcome to LG WebOS": "به LG WebOS خوش آمدید",
	"Width": "عرض",
	"Windhoek": "ویندهوک",
	"Winnipeg": "وینیپگ",
	"Wired": "با سیم",
	"Working": "کار کردن",
	"XX GB free of XXGB": "XX گیگابایت از XX گیگابایت آزاد است",
	"XX of YY": "YY از XX",
	"YES": "بله",
	"Yakutsk": "یاکوتسک",
	"Yamoussoukro": "یاموسوکرو",
	"Yekaterinburg": "یکاترینبرگ",
	"Yellowknife": "یلونایف",
	"Yemen": "یمن",
	"Yerevan": "ایروان",
	"Yes": "بله",
	"You changed IP address or DHCP status. Please reconnect to changed IP address": "آدرس IP یا وضعیت DHCP را تغییر دادید. لطفاً دوباره به آدرس IP تغییر یافته متصل شوید.",
	"You did not finish the process in time.": "شما فرآیند را به موقع تمام نکردید.",
	"You have failed to login 1/5 time.": "شما 1/5 بار موفق به ورود به سیستم نشدید.",
	"You have failed to login 5 times. Please try again after 05:00.": "شما 5 بار موفق به ورود به سیستم نشدید. لطفاً پس از 05:00 دوباره امتحان کنید.",
	"You may not be able to reconnect to web pages if you cannot find out new IP address.": "اگر نتوانید آدرس IP جدید را بیابید، ممکن است نتوانید دوباره به صفحه های وب متصل شدید.",
	"You've entered the same password as the current one. Please enter a different password.": "رمزعبور وارد شده مشابه رمزعبور فعلی است. لطفاً رمز عبور متفاوتی وارد کنید.",
	"Your Password has been changed.": "رمز شما تغییر یافت.",
	"Your device needs the correct time & date to authenticate marriage.": "برای تأیید Marriage، لازم است زمان و تاریخ صحیح در دستگاه شما تنظیم شود.",
	"Zagreb": "زاگرب",
	"Zambia": "زامبیا",
	"Zaporozhye": "زاپاروژیه",
	"Zimbabwe": "زیمبابوه",
	"Zoom": "زوم",
	"Zoom In": "بزرگنمایی",
	"Zoom In/Out": "بزرگنمایی/ کوچک نمایی",
	"Zoom Out": "کوچک نمایی",
	"Zürich": "زوریخ",
	"align": "تراز کردن",
	"available": "موجود",
	"color": "رنگ",
	"full aspect ratio": "نسبت ابعاد تمام صفحه",
	"general": "موارد کلی",
	"hour": "ساعت",
	"last": "آخرین هفته ماه",
	"min": "دقیقه",
	"original aspect ratio": "نسبت ابعاد اصلی",
	"over {period} min.": "بیش از {period} دقیقه.",
	"reading": "در حال خواندن",
	"save as PC Time": "ذخیره به عنوان «زمان رایانه»",
	"sharpness": "وضوح",
	"upload": "آپلود",
	"version": "نسخه",
	"warning": "هشدار",
	"webOS Version": "نسخه webOS",
	"year": "سال",
	"{apptitle} will be deleted.": "{apptitle} حذف خواهد شد.",
	"{{filename}} already exists.": "{{filename}} از قبل وجود دارد."
}
