{
	"(30,60,120,180) Min": "(30,60,120,180) Minit",
	"10 sec": "10 saat",
	"10 sec Auto Refresh": "Segar Semula Auto 10 saat",
	"1Hour": "1Jam",
	"30sec": "30saat",
	"5 min. Refresh": "Segar semula 5 min.",
	"AM": "Pagi",
	"Abnormally High": "Kecacatan Tinggi",
	"Account": "Akaun",
	"Activate": "Aktifkan",
	"Add Media": "Tambah Media",
	"Add Mini Module": "Tambah Modul Mini",
	"Add Slave Controller": "Tambah Pengawal Hamba",
	"Add Unit": "Tambah Unit",
	"Advanced Options": "Pilihan Lanjutan",
	"Advanced Setting": "Tetapan Lanjutan",
	"Africa": "Afrika",
	"All": "Semua",
	"All Units": "Semua Unit",
	"All settings will be reset. Do you want to continue?": "Semua tetapan akan ditetapkan semula. Adakah anda mahu meneruskan?",
	"An error occurred while submitting the form.": "Ralat berlaku semasa menyerahkan borang.",
	"Apply": "Guna",
	"Apply to All Units": "Digunapakai untuk Semua Unit",
	"Apply?": "Guna?",
	"Approximate round trip in milli-seconds": "Anggaran perjalanan pergi balik milisaat",
	"Are you sure to change Settings?": "Adakah anda pasti mengubah Tetapan?",
	"Are you sure to change the calibration settings of this unit?": "Adakah anda pasti mengubah tetapan penentukur unit ini?",
	"Are you sure to reboot?": "Adakah anda pasti mahu but semula?",
	"Are you sure to use": "Adakah anda pasti mengguna",
	"Are you sure to use Wi-Fi DHCP?": "Adakah anda pasti mahu menggunakan Wi-Fi DHCP?",
	"Are you sure to use Wired DHCP?": "Adakah anda pasti mahu menggunakan DHCP Berwayar?",
	"Aspect Ratio when rotated": "Nisbah Aspek apabila dipusing",
	"August": "Ogos",
	"Authenticate": "Pengesahan",
	"Authentication Failed": "Pengesahan Gagal",
	"Authentication completed.": "Pengesahan selesai.",
	"Auto": "Automatik",
	"Auto Detect": "Kesan Auto",
	"Auto Refresh": "Segar Semula Auto",
	"Automatically Assign IP Address": "Berikan Alamat IP Secara Automatik.",
	"Available to Installation": "Sedia untuk memasang",
	"BLU Status": "Status BLU",
	"Back": "Kembali",
	"Backlight": "Cahaya latar",
	"Backup Media Upload": "Sandaran Muat Naik Media",
	"Backup file Thumbnail Image": "Fail sokongan Imej Lakaran",
	"Backup via storage": "Sokongan melalui storan",
	"Basic Setting": "Tetapan Asas",
	"Begin test": "Mulakan ujian",
	"Black Level": "Taraf Hitam",
	"Bootloader Version": "Versi Bootloader",
	"Bottom": "Bawah",
	"Bottom Left": "Bawah Kiri",
	"Bottom Light": "Lampu Bawah",
	"Bottom Right": "Bahagian Bawah Kanan",
	"Box Name": "Nama Kotak",
	"Brightness": "Kecerahan",
	"Browse": "Layar",
	"Browse a file to upload": "Layar fail untuk memuat naik",
	"CIS": "Negara Merdeka Komanwel",
	"Cairo": "Kaherah",
	"Calibrate Unit": "Unit Menentukur",
	"Calibrated": "Ditentukur",
	"Calibrating...": "Menentukur...",
	"Calibration": "Penentukuran",
	"Cambodia": "Kemboja",
	"Canada": "Kanada",
	"Canary Islands": "Kepulauan Canary",
	"Cancel": "Batal",
	"Cannot start S/W update. Check xxx file please.": "Tidak boleh mula kemaskini S/W. Sila periksa xxx fail.",
	"Capture time Interval": "Selangan Masa tangkap",
	"Capture time interval": "Capture time interval",
	"Category": "Kategori",
	"Cayman Islands": "Kepulauan Cayman",
	"Central African Republic": "Republik Afrika Tengah",
	"Change Password": "Tukar Kata Laluan",
	"Changing Time may cause you to be logged out.": "Masa Pertukaran boleh menyebabkan anda log keluar.",
	"Changing Time zone may cause you to be logged out.": "Zon Waktu Pertukaran boleh menyebabkan anda dilog keluar.",
	"Charts": "Gambarajah",
	"Check Temperature sensors. -40 means errors when reading Temperature sensors": "The service works by sending a query command to your service provider, and then extracting the used data, remaining data, and the total data from the received data SMS. -40 bermaksud ralat apabila membaca sensor Suhu",
	"Check for Update": "Semak untuk Kemas Kini",
	"Check whether two passwords are same": "Semak sama ada dua kata laluan adalah sama",
	"Check your URL input": "Periksa input URL anda",
	"CheckScreen": "Periksa Skrin",
	"Checking for update...": "Menyemak untuk Kemas Kini...",
	"Christmas Island": "Kepulauan Krismas",
	"Cinema": "Wayang",
	"City": "Bandar",
	"Close": "Tutup",
	"Close status of cabinet doors": "Tutup status pintu kabinet",
	"Closed": "Ditutup",
	"Closed Loop Fan": "Tutup Kipas Gelung",
	"ClosedLoop": "Gelung Tertutup",
	"Color Temperature": "Suhu Warna",
	"ColorRead": "Baca Warna",
	"Column": "Kolum",
	"Confirm": "Sah",
	"Confirm Account Number": "Sahkan Nombor Akaun",
	"Confirm New Password": "Sahkan Kata Laluan Baharu",
	"Confirm the account number you entered.": "Sahkan nombor akaun yang anda masukkan.",
	"Connected": "Bersambung",
	"Content Rotation": "Putaran Kandungan",
	"Content Rotation Status": "Status Pusingan Kandungan",
	"Content Rotation is ON": "Putaran Kandungan DIHIDUPKAN",
	"Content is rotated": "Kandungan diputarkan",
	"Contents rotation is ON": "Pusingan kandungan HIDUP",
	"Continent": "Benua",
	"Contrast": "Kontras",
	"Control": "Kawalan",
	"Control Item": "Kawalan Item",
	"Control Type": "Jenis Kawalan",
	"Cool": "Sejuk",
	"Country/Territory": "Negara/Wilayah",
	"Current": "Arus",
	"Current Fan RPM": "Kipas RPM Semasa",
	"Current Password": "Kata Laluan Semasa",
	"Current Picture mode does not support changing color temperature. Please select \"Expert\" of \"Calibration\" mode to adjust the color temperature.": "Mod Gambar Semasa tidak menyokong perubahan suhu warna. Sila pilih \"Pakar\" pada mod \"Penentukuran\" untuk menyesuaikan suhu warna.",
	"Current Ver.": "Versi Semasa",
	"Current Version": "Versi Semasa",
	"Custom": "Khas",
	"Cut Left Edge": "Potong Pinggir Kiri",
	"Cut Right Edge": "Potong Pinggir Kanan",
	"Czech": "Bahasa Czech",
	"Czech Republic": "Republik Czech",
	"DHCP State": "Keadaan DHCP",
	"DNS Server": "Pelayan DNS",
	"DOWNLOAD LOG": "MUAT TURUN LOG",
	"DOWNLOAD LOG FILE": "MUAT TURUN FAIL LOG",
	"DPM (Standby Mode)": "DPM (Mod Tunggu Sedia)",
	"Daisy Direction": "Arah Daisi",
	"Daisy Start by": "Mula Daisi dengan",
	"Damage Detection": "Pengesanan Kerosakan",
	"Damaged": "Telah Rosak",
	"Damascus": "Damsyik",
	"Dashboard": "Papar pemuka",
	"Data is not collected now. wait for maximum 60 seconds": "Data tidak dikumpul sekarang. tunggu maksimum selama 60 saat",
	"Date": "Tarikh",
	"Day": "Hari",
	"Daylight Saving Time": "Masa Jimat Siang",
	"Days": "Hari",
	"December": "Disember",
	"Default": "Lalai",
	"Default size": "Saiz lalai",
	"Delete": "Padam",
	"Delete Mini Module": "Padam Modul Mini",
	"Delete Slave Controller": "Padam Pengawal Hamba",
	"Delete Unit": "Padam Unit",
	"Delete the file": "Padam fail",
	"Delete?": "Padam?",
	"Democratic Republic Of The Congo": "Republik Demokratik Congo",
	"Details of Unit": "Perincian Unit",
	"Device Control": "Kawalan Peranti",
	"Digital Board Reboot": "But Semula Papan Digital",
	"Disconnected": "Diputuskan Sambungan",
	"Display": "Paparan",
	"Display & Sound": "Paparan & Bunyi",
	"Display & sound": "Paparan & bunyi",
	"Do not reboot in Device page.": "Jangan but semula dalam halaman Peranti.",
	"Do you want to delete the item?": "Adakah anda mahu memadam item?",
	"Do you want to delete the selected file?": "Adakah anda mahu memadam fail yang dipilih?",
	"Do you want to delete this LED FPGA Update file?": "Adakah anda mahu memadam fail Kemas Kini LED FPGA ini?",
	"Do you want to delete this S/W Update file?": "Adakah anda mahu memadam fail Kemas Kini S/W ini?",
	"Do you want to install this S/W Update file?": "Adakah anda mahu memasang fail Kemas Kini S/W ini?",
	"Do you want to proceed?": "Adakah anda mahu teruskan?",
	"Do you want to set the time & date?": "Adakah anda mahu menetapkan masa & tarikh?",
	"Do you want to set the time or date automatically?": "Adakah anda mahu menetapkan masa atau tarikh secara automatik?",
	"Dominican Republic": "Republik Dominica",
	"Done": "Selesai",
	"Door": "Pintu",
	"Door Control": "Kawalan Pintu",
	"Door Monitor": "Monitor Pintu",
	"Door Open": "Pintu Buka",
	"Door Sensor": "Sensor Pintu",
	"Door Sensor Status": "Status Sensor Pintu",
	"Door xxx is opened": "Pintu xxx dibuka",
	"Draw": "Lukis",
	"Duplicated Unit ID": "Duplikasi ID Unit",
	"Duration": "Tempoh",
	"Dynamic Brightness": "Kecerahan Dinamik",
	"Dynamic Brightness Control": "Kawalan Kecerahan Dinamik",
	"Easter Island": "Kepulauan Easter",
	"Education": "Pendidikan",
	"Egypt": "Mesir",
	"Enable or disable Signage 365 Care services on this device": "Mendayakan atau menyahdayakan perkhidmatan Penjagaan Papan Tanda 365 pada peranti ini",
	"Enable or disable {apptitle} service on this device": "Dayakan atau nyahdayakan perkhidmatan {apptitle} pada peranti ini",
	"End": "Tamat",
	"End Time": "Masa Tamat",
	"Energy Saving": "Penjimatan Tenaga",
	"Enter Account Number": "Masukkan Nombor Akaun",
	"Enter the account number to activate Signage 365 Care.": "Masukkan nombor akaun untuk mengaktifkan Penjagaan Papan Tanda 365.",
	"Enter the account number to activate {apptitle}.": "Masukkan nombor akaun untuk mengaktifkan {apptitle}.",
	"Enter the following": "Masukkan yang berikut",
	"Enter the network address to ping": "Masukkan alamat rangkaian untuk ping",
	"Europe": "Eropah",
	"Event": "Peristiwa",
	"Exit": "Keluar",
	"Expert": "Pakar",
	"Export": "Eksport",
	"External": "Luaran",
	"External Input Rotation": "Putaran Input Luaran",
	"External Input Rotation Status": "Status Putaran Input Luaran",
	"External Input Rotation is ON": "Putaran Input Luaran DIHIDUPKAN",
	"EyeQ sensor": "Sensor EyeQ",
	"FPGA Version": "Versi FPGA",
	"Factory Reset": "Set Semula Kilang",
	"Fail": "Gagal",
	"Fail to update. Check xxx file please.": "Gagal untuk kemas kini. Sila periksa xxx fail.",
	"Failed to update LED FPGA with xxx. Check the file please": "Gagal mengemaskini LED FPGA dengan xxx. Sila periksa fail",
	"Failed to update LED FPGA with xxx. Check the status of the unit controller.": "Gagal untuk mengemas kini LED FPGA dengan xxx. Periksa status pengawal unit.",
	"Failed to update fan micom with xxx. Check the file please": "Gagal untuk mengemaskini fan micom dengan xxx. Sila periksa fail",
	"Fan": "Kipas",
	"Fan Micom Version": "Versi Kipas Micom",
	"Fan RPM": "Kipas RPM",
	"Fan RPM history is not yet collected": "Sejarah kipas RPM tidak dikutip lagi",
	"Fan Status": "Status Kipas",
	"February": "Februari",
	"File Name": "Nama Fail",
	"File Select": "Pilihan Fail",
	"File Upload Progress": "Kemajuan Muat Naik Fail",
	"File upload via mobile devices does not support.": "Muat naik fail melalui peranti mudah alih tidak disokong.",
	"First Use": "Penggunaan Pertama",
	"Flash memory is not enough.": "Memori Flash tidah mencukupi.",
	"For your security, we recommend to change default password. Would you like to change your password now?": "Untuk keselamatan anda, kami mengesyorkan supaya mengubah kata laluan lalai. Adakah anda ingin menukar kata laluan anda sekarang?",
	"Frame": "Bingkai",
	"France": "Perancis",
	"French Polynesia": "Perancis Polinesia",
	"Fri": "Jum",
	"Friday": "Jumaat",
	"Front": "Depan",
	"Full": "Penuh",
	"Game": "Mainan",
	"Gamma": "Gama",
	"Gamut Matrix": "Matriks Gamut",
	"Gateway": "Get Laluan",
	"General": "Umum",
	"Germany": "Jerman",
	"Go To First Use": "Pergi ke Penggunaan Pertama",
	"Gov./Corp.": "Kerajaan/Perbadanan",
	"Height": "Tinggi",
	"High": "Tinggi",
	"History is not yet collected": "Sejarah tidak dikutip lagi",
	"Home": "Rumah",
	"Horizontal": "Mendatar",
	"Hour": "Jam",
	"Hours": "Jam",
	"Humidity": "Kelembapan",
	"ID/password": "ID/kata laluan",
	"IMB Settings": "Tetapan IMB",
	"IMB Status": "Status IMB",
	"IP Address": "Alamat IP",
	"Image": "Imej",
	"Impact": "Impak",
	"Incorrect Password entered. Please try again.": "Kata laluan yang salah telah dimasukkan. Sila cuba lagi.",
	"Information": "Maklumat",
	"Input 6 or more characters": "Masukkan 6 atau lebih aksara",
	"Input Direction": "Arah Input",
	"Input Password": "Masukkan Kata Laluan",
	"Input Priority": "Keutamaan Input",
	"Input Priority Setting": "Tetapan Keutamaan Masukan",
	"Input Signage Name please.": "Masukan Nama Papan Tanda.",
	"Input Window": "Tetingkap Input",
	"Install": "Pasang",
	"Install Succeeded": "Pemasangan Berjaya",
	"Installation Failed": "Pemasangan Gagal",
	"Installation Menu": "Menu Pemasangan",
	"Installing…": "Memasang…",
	"Internet Not available": "Internet Tidak tersedia",
	"Internet available": "Internet tersedia",
	"Invalid NEW Password. Password must be 6 characters in length.": "Kata Laluan BAHARU Tidak Sah. Kata laluan mesti mempunyai panjang sebanyak 6 aksara.",
	"Invalid NEW Password. Password must be 8 characters in length.": "Kata Laluan BAHARU Tidak Sah. Kata laluan mesti mempunyai panjang sebanyak 8 aksara.",
	"Invalid NEW Password. You must use a combination of letters and numbers.": "Kata Laluan BAHARU Tidak Sah. Anda mesti menggunakan kombinasi abjad dan nombor.",
	"Invalid New password. Password must be at least 8 characters.": "Kata laluan Baharu Tidak Sah. Kata laluan mesti sekurang-kurangnya 8 aksara.",
	"Invalid New password. You must use a mixture of mixed-case letters, numbers and special characters.": "Kata laluan Baharu Tidak Sah. Anda mesti menggunakan campuran huruf besar dan kecil, nombor dan aksara istimewa.",
	"Invalid day value": "Nilai hari tidak sah",
	"Invalid hour value": "Nilai jam tidak sah",
	"Invalid minute value": "Nilai minit tidak sah",
	"Invalid month value": "Nilai bulan tidak sah",
	"Invalid value": "Nilai tidak sah",
	"Invalid year value": "Nilai tahun tidak sah",
	"Irregular": "Tidak biasa",
	"Issue History": "Keluarkan Sejarah",
	"Italy": "Itali",
	"January": "Januari",
	"Japan": "Jepun",
	"July": "Julai",
	"June": "Jun",
	"Korea, Republic of": "Republik Korea",
	"LED Assistant": "Pembantu LED",
	"LED Assistant Settings": "Tetapan Penolong LED",
	"LED FPGA Update file list": "Senarai fail kemas kini LED FPGA",
	"LED FPGA Updating ......": "LED FPGA Dikemas kini ......",
	"LED Features": "Ciri-ciri LED",
	"LED Film Settings": "Tetapan Filem LED",
	"LED Open Detection": "Pengesanan Terbuka LED",
	"LED Settings": "Tetapan LED",
	"LED Unit": "Unit LED",
	"LED Unit Status": "Status Unit LED",
	"LG ConnectedCare App": "Aplikasi LG ConnectedCare",
	"LG ConnectedCare app": "Aplikasi LG ConnectedCare",
	"LG Control Manager": "Pengurus Kawalan LG",
	"Landscape": "Landskap",
	"Language": "Bahasa",
	"Large": "Besar",
	"Layout": "Susun atur",
	"Layout Editor": "Editor Susun Atur",
	"Loading": "Memuat",
	"Loading...": "Memuatkan…",
	"Loading…": "Memuat…",
	"Location": "Lokasi",
	"Log Report": "Laporan Log",
	"Log after Power Up": "Log selepas Naik Kuasa",
	"Log in with the authorized ID and password.": "Log masuk dengan ID dan kata laluan yang sah.",
	"Login": "Log masuk",
	"Login is required.": "Log masuk diperlukan",
	"Logout": "Log keluar",
	"Low": "Rendah",
	"MAC Address": "Alamat MAC",
	"Macao": "Macau",
	"Main": "Utama",
	"Mall/QSR": "Pusat Beli-Belah/QSR",
	"Manage": "Urus",
	"March": "Mac",
	"Marriage Guide (2 Steps)": "Panduan Marriage (2 Langkah)",
	"Marriage Status": "Status Marriage",
	"Marshall Islands": "Kepulauan Marshall",
	"Master": "Induk",
	"Max Backlight": "Lampu Latar Max",
	"Maximum": "Maksimum",
	"May": "Mei",
	"Media Library": "Perpustakaan Media",
	"Media file List": "Senarai fail media",
	"Media file Upload (XXX GB available)": "Muat naik fail media (XXX GB tersedia)",
	"Menu Language": "Menu Bahasa",
	"Micom Progress": "Kemaskini Micom",
	"Micom Update": "Kemaskini Micom",
	"Micom Version": "Versi Micom",
	"Middle East": "Timur Tengah",
	"Min Backlight": "Lampu Latar Min",
	"Mini Module": "Modul Mini",
	"Minimum = XXms, Maximum = YYms, Average = ZZms": "Minimum = XXms, Maksimum = YYms, Purata = ZZms",
	"Mins": "Min",
	"Model Name": "Nama Model",
	"Module Calibration": "Modul Penentukur",
	"Module Calibration is modified. Exit without saving?": "Penentukur Modul diubah. Keluar tanpa simpan?",
	"Module Size": "Saiz Modul",
	"Modules": "Modul",
	"Mon": "Isn",
	"Monday": "Isnin",
	"Month": "Bulan",
	"More": "Lagi",
	"Motion": "Gerakan",
	"Mute": "Bisu",
	"NG": "Tidak Bagus",
	"NO": "TIDAK",
	"NOT AVAILABLE": "TIDAK TERSEDIA",
	"Name": "Nama",
	"Natural Mode": "Mod Semula Jadi",
	"Natural Size": "Saiz Semula Jadi",
	"Netherlands": "Belanda",
	"Network": "Rangkaian",
	"Network Ready": "Rangkaian Sedia",
	"Network Settings": "Penetapan Rangkaian",
	"New Password": "Kata Laluan Baharu",
	"New Password and Confirm Password do not match.": "Kata Laluan Baharu dan Sahkan Kata Laluan tidak sepadan.",
	"Newer Ver.": "Versi Lebih Baharu",
	"Next": "Seterusnya",
	"Next Day": "Hari Berikutnya",
	"No": "Tidak",
	"No Signal": "Tiada Isyarat",
	"No backup files exist in storage device.": "Tiada fail sokongan wujud dalam peranti storan",
	"None": "Tiada",
	"Normal": "Biasa",
	"North America": "Amerika Utara",
	"North Korea": "Korea Utara",
	"Not Connected": "Tidak Bersambung",
	"Notification": "Pemberitahuan",
	"Number": "Nombor",
	"OFF": "MATIKAN",
	"OLED LIGHT": "Lampu OLED",
	"OLED Light": "Lampu OLED",
	"ON": "HIDUPKAN",
	"OSD Portrait Mode": "Mod Potret OSD",
	"OSD Portrait Mode is ON": "Mod Potret OSD DIHIDUPKAN",
	"OSD Portrait Status": "Status Potret OSD",
	"OSD Portrait mode is xxx": "Mod Potret OSD adalah xxx",
	"OSD Rotation is ON": "Pusingan OSD HIDUP",
	"Occurrence Time": "Masa Kejadian",
	"October": "Oktober",
	"Off": "Matikan",
	"Off Until Reset": "Mati Sehingga Set Semula",
	"Off When Open": "Mati Bila Buka",
	"On": "Hidupkan",
	"On When Open": "Hidup Bila Buka",
	"Open Loop Fan": "Buka Kipas Gelung",
	"OpenLoop": "Gelung Terbuka",
	"Opened": "Dibuka",
	"Original": "Asal",
	"Output Window": "Tetingkap Output",
	"OverHeat": "Terlampau Panas",
	"Overwrite": "Tulis ganti",
	"Overwrite xxx?": "Tulis Ganti xxx?",
	"Overwrite?": "Tulis Ganti?",
	"PM": "Petang",
	"PM Mode": "Mod PM",
	"Pacific": "Pasifik",
	"Packets : Sent = XX. Received = YY. Lost = ZZ (WW% loss)": "Paket : Hantar = XX. Terima = YY. Hilang = ZZ (WW% hilang)",
	"Password": "Kata laluan",
	"Password is incorrect. Please Try Again": "Kata laluan salah. Sila Cuba Lagi",
	"Password is incorrect. Please try again.": "Kata laluan salah. Sila cuba lagi sekali.",
	"Philippines": "Filipina",
	"Picture": "Gambar",
	"Picture Mode": "Mod Gambar",
	"Picture Settings": "Tetapan Gambar",
	"Ping Test": "Ujian Ping",
	"Ping statistics for [X.X.X.X]": "Statistik ping untuk [X.X.X.X]",
	"Ping test failed. Invalid format of network address field.": "Ujian ping gagal. Format tidak sah bagi medan alamat rangkaian.",
	"Ping test is in progress": "Ujian ping sedang dijalankan",
	"Ping test result": "Keputusan ujian ping",
	"Pinging [X.X.X.X] with YYY bytes of data": "Pinging [X.X.X.X] dengan bait data YYY",
	"Play": "Main",
	"Play via URL": "Main melalui URL",
	"Please Keep this Signage on.": "Sila Pastikan Papan Tanda ini dihidupkan.",
	"Please check the following items and try again.": "Sila semak perkara berikut dan cuba lagi.",
	"Please check the installation file and try again.": "Sila periksa fail pemasangan dan cuba lagi.",
	"Please choose a file to upload": "Sila pilih fail untuk dimuat naik",
	"Please choose a video file to upload": "Sila pilih fail video untuk muat naik",
	"Please don't turn off the device and wait until the installation is completed.": "Tolong jangan matikan peranti dan tunggu sehingga pemasangan selesai.",
	"Please don’t turn off the device. And wait while process is completed.": "Tolong jangan matikan peranti. Dan tunggu sebentar sementara proses selesai.",
	"Please enter the authorized ID and password.": "Sila masukkan ID dan kata laluan yang sah.",
	"Please login again.": "Sila log masuk semula.",
	"Please press the physical marriage button.": "Sila tekan butang marriage fizikal.",
	"Please restart the marriage authentication process.": "Sila mulakan semula proses pengesahan marriage.",
	"Please select city": "Sila pilih bandar",
	"Please select country": "Sila pilih negara",
	"Please upload S/W update file via PC browser.": "Sila muat naik fail kemas kini S/W melalui pelayar PC.",
	"Port Number": "Nombor Port",
	"Port Settings": "Tetapan Port",
	"Portrait": "Potret",
	"Portrait Mode": "Mod Potret",
	"Position": "Kedudukan",
	"Power": "Kuasa",
	"Power Off": "Kuasa Dimatikan",
	"Power Off Management": "Pengurusan Tutup Kuasa",
	"Power Off(Default)": "Tutup(Asal)",
	"Power Rack": "Rak Kuasa",
	"Power Rack Settings": "Tetapan Rak Kuasa",
	"Press the physical marriage button on your master cabinet.": "Tekan butang marriage fizikal pada kabinet induk anda.",
	"Pressing Start will give you 1 minute to perform the process.": "Menekan Mula akan memberi anda 1 minit untuk melaksanakan proses tersebut.",
	"Prev DAY": "HARI Sblmnya",
	"Prev.": "Sebelumnya",
	"Preview": "Pratonton",
	"Priority": "Keutamaan",
	"Rearrange": "Susun Semula",
	"Reboot": "But Semula",
	"Reboot?": "But semula?",
	"Rebooting": "But semula",
	"Reference Resolution": "Resolusi Rujukan",
	"Refresh": "Segarkan",
	"Regular": "Biasa",
	"Rejected": "Ditolak",
	"Remember me": "Ingat saya",
	"Rename": "Namakan semula",
	"Rename or Overwrite?": "Menamakan semula atau tulis ganti?",
	"Rename to {{filename (2)}} or Overwrite?": "Namakan semula kepada {{filename (2)}} atau tulis ganti?",
	"Reply from [X.X.X.X] : bytes = YY, time = ZZms, TTL = WW": "Balasan daripada [X.X.X.X] : bait = YY, masa = ZZms, TTL = WW",
	"Republic Of The Congo": "Republik Congo",
	"Request timed out.": "Permintaan tamat masa.",
	"Require Network Settings": "Memerlukan Tetapan Rangkaian",
	"Required Marriage": "Marriage yang Dikehendaki",
	"Reset": "Set Semula",
	"Reset All": "Set Semula Semua",
	"Reset Mute": "Set semula Senyap",
	"Reset Mute' is Needed": "Set semula Senyap Diperlukan",
	"Reset to factory reset": "Tetapkan semula kepada tetapan semula kilang",
	"Rome": "Rom",
	"Rotation": "Putaran",
	"Row": "Baris",
	"Run Time": "Jalankan Masa",
	"Run Time Since Last Power Up": "Masa berjalan sejak Naik Kuasa Akhir",
	"Russia": "Rusia",
	"S/W Update": "Kemaskini S/W",
	"S/W Update File list": "Senarai Fail Kemas Kini S/W",
	"S/W Update file list": "Senarai fail Kemaskini S/W",
	"S/W Update succeeded": "Kemas kini S/W berjaya",
	"S/W Updating": "S/W Dikemas kini",
	"S/W Updating......": "S/W Dikemas kini......",
	"S/W Ver.": "Versi S/W.",
	"S/W update file does not exist.": "Fail kemas kini S/W tidak wujud.",
	"S/W will update. Do you want to continue?": "S/W akan dikemas kini. Adakah anda mahu meneruskan?",
	"SCREEN": "SKRIN",
	"SI App / Play via URL": "Aplikasi SI / Mainkan melalui URL",
	"Sat": "Sab",
	"Saturday": "Sabtu",
	"Saudi Arabia": "Arab Saudi",
	"Save": "Simpan",
	"Screen": "Skrin",
	"Screen Configuration": "Konfigurasi Skrin",
	"Screen Fault Detection": "Pengesanan Kerosakan Skrin",
	"Screen Off": "Skrin ditutup",
	"Screen Off & Backlight": "Tutup Skrin & Lampu latar",
	"Screen Off & Backlight On": "Skrin Dimatikan & Lampu Latar Dihidupkan",
	"Screen Off Always": "Skrin Sentiasa Tutup",
	"Screen Power Off": "Kuasa Skrin Dimatikan",
	"Screen Rotation": "Putaran Skrin",
	"Screen Rotation Status": "Status Putaran Skrin",
	"Screen Rotation is ON": "Putaran Skrin DIHIDUPKAN",
	"ScreenOn": "Skrin Buka",
	"Select File": "Pilih Fail",
	"Select Input Source": "Pilih Sumber Masukan",
	"Select a file to upload": "Pilih fail untuk dimuat naik",
	"Select media file": "Pilih fail media",
	"Serial Number": "Nombor Siri",
	"Server Status": "Status Pelayan",
	"Set": "Tetapkan",
	"Set Automatically": "Tetapkan Secara Automatik",
	"Set ID": "Tetapkan ID",
	"Set Master": "Setkan Induk",
	"Set Slave": "Setkan Hamba",
	"Set URL": "Tetapkan URL",
	"Setting": "Tetapan",
	"Show Color": "Tunjuk Warna",
	"Sigane Name is Too Long": "Nama Papan Tanda Terlalu Panjang",
	"Sign in": "Log masuk",
	"Signage 365 Care": "Penjagaan Papan Tanda 365",
	"Signage 365 Care App": "Aplikasi Penjagaan Papan Tanda 365",
	"Signage Name": "Nama Papan Tanda",
	"Signal": "Isyarat",
	"Singapore": "Singapura",
	"Size": "Saiz",
	"Slave": "Hamba",
	"Small": "Kecil",
	"Software Version": "Versi Perisian",
	"Solomon Islands": "Kepulauan Solomon",
	"Sound Control": "Kawalan Suara",
	"South Africa": "Afrika Selatan",
	"South America": "Amerika Selatan",
	"Spain": "Sepanyol",
	"Sports": "Sukan",
	"Stalled Image": "Imej Terhenti",
	"Standard": "Taraf",
	"Start": "Mula",
	"Start Time": "Masa Mula",
	"State": "Negeri",
	"Step 1. Physical Marriage": "Langkah 1. Marriage Fizikal",
	"Step 2. Logical Marriage": "Langkah 2. Marriage Logik",
	"Subnet Mask": "Topeng Subnet",
	"Subnet prefix length": "Panjang prefiks subnet",
	"Success": "Berjaya",
	"Sun": "Ahd",
	"Sunday": "Ahad",
	"SuperSign Content": "Kandungan SuperSign",
	"SuperSign Contents": "Kandungan SuperSign",
	"Sustain Aspect Ratio": "Menampung Nisbah Aspek",
	"System": "Sistem",
	"System Box": "Kotak Sistem",
	"System Control": "Kawalan Sistem",
	"System Controller": "Pengawal Sistem",
	"System Controller Settings": "Tetapan Pengawal Sistem",
	"System Information": "Maklumat Sistem",
	"System Reboot": "But Semula Sistem",
	"System Settings": "Tetapan Sistem",
	"System controller will restart.": "Pengawal sistem akan ditetapkan semula.",
	"System controller will restart. Do you want to continue?": "Pengawal sistem akan ditetapkan semula. Adakah anda mahu meneruskan?",
	"Temperature": "Suhu",
	"Temperature history is not yet collected": "Sejarah suhu tidak dikutip lagi",
	"Test Color": "Ujian Warna",
	"Test Pattern": "Corak Ujian",
	"The POWER remote controller key will not work during the update.": "Kunci pengawal alat kawalan jauh POWER tidak akan berfungsi semasa kemas kini.",
	"The Signage 365 care app has been deleted.": "Aplikasi penjagaan Papan tanda 365 telah dipadamkan.",
	"The Signage 365 care app has been successfully installed.": "Aplikasi penjagaan Papan tanda 365 telah berjaya dipasang.",
	"The Signage 365 care app has been successfully updated.": "Aplikasi penjagaan Papan tanda 365 telah berjaya dikemas kini.",
	"The URL format is invalid.": "Format URL tidak sah.",
	"The installation of the Signage 365 care app has failed.": "Pemasangan aplikasi penjagaan Papan tanda 365 telah gagal.",
	"The installation of the Signage 365 care app is in progress.": "Pemasangan aplikasi penjagaan Papan tanda 365 sedang berjalan.",
	"The installation of the {apptitle} has failed.": "Pemasangan {apptitle} gagal.",
	"The installation of the {apptitle} is in progress.": "Pemasangan {apptitle} sedang berjalan.",
	"The timer is reset and the marriage process must be restarted from the beginning.": "Pemasa ditetapkan semula dan proses marriage mesti dimulakan semula dari awal.",
	"The update of the Signage 365 care app has failed.": "Kemas kini aplikasi penjagaan Papan tanda 365 telah gagal.",
	"The update of the Signage 365 care app is in progress.": "Kemasi kini aplikasi penjagaan Papan tanda 365 sedang berjalan.",
	"The update of the {apptitle} has failed.": "Kemas kini {apptitle} gagal.",
	"The update of the {apptitle} is in progress.": "Kemas kini {apptitle} sedang berjalan.",
	"The {apptitle} has been successfully installed.": "{apptitle} berjaya dipasang.",
	"The {apptitle} has been successfully updated.": "{apptitle} berjaya dikemas kini.",
	"There is a difference between your signage and the signage 365 care server in time and date.": "Terdapat perbezaan di antara pelayan papan tanda dan penjagaan papan tanda 365 anda dalam waktu dan tarikh.",
	"There is a difference between your signage and the {apptitle} server in time and date.": "Terdapat perbezaan masa dan tarikh di antara papan tanda anda dan pelayan {apptitle}.",
	"There is no list.": "Tiada senarai.",
	"There's No Backup file": "Tiada Fail Sokongan",
	"This pop up will be closed automatically in 5 sec.": "Iklan timbul ini akan ditutup secara automatik dalam masa 5 saat.",
	"Thu": "Kha",
	"Thursday": "Khamis",
	"Tile ID": "ID Jubin",
	"Tile Mode": "Mod Jubin",
	"Tile Mode Setting": "Tile Mode Setting",
	"Tile Mode Settings": "Tetapan Mod Jubin",
	"Time": "Masa",
	"Time & Date": "Masa & Tarikh",
	"Time & Date Settings": "Masa & Tetapan Tarikh",
	"Time & Date Settings Required": "Time & Tetapan Tarikh Dikehendaki",
	"Time Setting": "Tetapan Masa",
	"Time Zone": "Zon Waktu",
	"Tint": "Keserian",
	"To choose an AP, please use Settings App. with a remote controller.": "Untuk memilih AP, sila guna Aplikasi Tetapan dengan pengawal kawalan jauh.",
	"To make your Password more secure. Use letters and numbers.": "Untuk membuatkan Kata Laluan anda lebih selamat. Guna abjad dan nombor.",
	"To make your password more secure, use a mixture of mixed-case letters, numbers and special characters": "Untuk menjadikan kata laluan anda lebih selamat, gunakan campuran huruf besar dan kecil, nombor dan aksara istimewa",
	"To use Signage 365 care, you need to connect the device to the network . Do you want to set the network connection?": "Anda perlu menyambungkan peranti ke rangkaian untuk menggunakan penjagaan Papan tanda 365. Adakah anda mahu menetapkan sambungan rangkaian?",
	"To use {apptitle}, you need to connect the device to the network. Do you want to set the network connection?": "Untuk menggunakan {apptitle}, anda perlu menyambungkan peranti ke rangkaian. Adakah anda mahu menetapkan sambungan rangkaian?",
	"Top": "Atas",
	"Top Left": "Atas Kiri",
	"Top Right": "Atas Kanan",
	"Transportation": "Pengangkutan",
	"Tue": "Sel",
	"Tuesday": "Selasa",
	"Turkey": "Turki",
	"Type": "Jenis",
	"URL Loader": "Pemuat URL",
	"URL Setting": "Tetapan URL",
	"Unit Calibration": "Unit Penentukur",
	"Unit Calibration is modified. Exit without saving?": "Unit Penentukur diubah. Keluar tanpa simpan?",
	"Unit Configuration": "Konfigurasi Unit",
	"Unit Resolution": "Resolusi Unit",
	"Unit Status": "Status Unit",
	"Unit Temperature": "Unit Suhu",
	"United Arab Emirates": "Emiriah Arab Bersatu",
	"United States of America": "Amerika Syarikat",
	"Units cut left edge can not be placed in the X:0 positions.": "Unit potong pinggir kiri tidak boleh diletakkan di posisi X:0.",
	"Units cut right edge cannot be placed in the Y:(Cut Pixel) positions.": "Unit potong pinggir kanan tidak boleh diletakkan di kedudukan Y:(Potong Piksel).",
	"Unsupported File type.": "Jenis fail tidak disokong.",
	"Unsupported File type. Only Image/Video files are allowed.": "Jenis Fail Tidak Disokong. Hanya fail Gambar/Video yang dibenarkan.",
	"Update": "Kemas kini",
	"Update Failed": "Kemas Kini Gagal",
	"Update LED FPGA micom with xxx done": "Kemaskini LED FPGA micom dengan xxx selesai",
	"Update LED FPGA with xxx done": "Kemaskini LED FPGA dengan xxx selesai",
	"Update Progress": "Kemajuan Kemas Kini",
	"Update Succeeded": "Kemas Kini Berjaya",
	"Update completed. Set is rebooting now.": "Kemas kini selesai. Set dibut semula sekarang.",
	"Update completed. Signage is rebooting now.": "Kemas kini selesai. Papan tanda dibut semula sekarang.",
	"Update fan micom with xxx done": "Kemaskini kipas miom dengan xxx selesai",
	"Update is completed.": "Kemas kini selesai.",
	"Update is in progress.": "Kemas kini sedang dijalankan.",
	"Update?": "Kemas kini?",
	"Updating…": "Mengemas kini…",
	"Upload": "MUAT NAIK",
	"Upload FPGA Update file (XXX GB available)": "Muat naik fail Kemas Kini FPGA (XXX GB tersedia)",
	"Upload LED FPGA update file": "Muat naik fail kemaskini LED FPGA",
	"Upload secured S/W Update file": "Muat naik fail Kemaskini S/W yang selamat",
	"Upload secured S/W Update file (XXX GB available)": "Muat naik fail Kemaskini S/W yang selamat (XXX GB tersedia)",
	"Uploading": "Memuat naik",
	"User": "Pengguna",
	"Validation Error.": "Ralat Pengesahan.",
	"Version": "Versi",
	"Vertical": "Menegak",
	"Video Scaler": "Penskala Video",
	"View": "Lihat",
	"View Photo": "Lihat Gambar",
	"Virtual Controller": "Pengawal Maya",
	"Vivid": "Terang",
	"Volume": "Bunyi",
	"Waiting for Approval": "Menunggu Kelulusan",
	"Warm": "Hangat",
	"Wed": "Rab",
	"Wednesday": "Rabu",
	"Week": "Minggu",
	"Weekday": "Hari biasa",
	"Welcome to LG WebOS": "Selamat datang ke LG WebOS",
	"Width": "Lebar",
	"Wired": "Berwayar",
	"Working": "Berfungsi",
	"XX GB free of XXGB": "XX GB kosong daripada XX GB",
	"XX of YY": "XX daripada YY",
	"YES": "YA",
	"Yemen": "Yaman",
	"Yes": "Ya",
	"You changed IP address or DHCP status. Please reconnect to changed IP address": "Anda telah ubah alamat IP atau status DHCP. Sila sambungkan semula kepada alamat IP yang telah diubah",
	"You did not finish the process in time.": "Anda tidak menyelesaikan proses dalam tepat pada masanya.",
	"You have failed to login 1/5 time.": "Anda gagal untuk log masuk 1/5 kali.",
	"You have failed to login 5 times. Please try again after 05:00.": "Anda telah gagal log masuk sebanyak 5 kali. Sila cuba lagi sekali selepas 05:00.",
	"You may not be able to reconnect to web pages if you cannot find out new IP address.": "Anda mungkin tidak boleh menyambung semula pada halaman web jika anda tidak tahu alamat baru IP.",
	"You've entered the same password as the current one. Please enter a different password.": "Anda telah memasukkan kata laluan yang sama dengan yang terkini. Sila masukkan kata laluan yang berbeza.",
	"Your Password has been changed.": "Kata laluan anda telah ditukar.",
	"Your device needs the correct time & date to authenticate marriage.": "Peranti anda memerlukan masa & tarikh yang betul untuk mengesahkan marriage.",
	"Zoom In": "Zoom ke Dalam",
	"Zoom In/Out": "Zum Masuk/Keluar",
	"Zoom Out": "Zum Keluar",
	"align": "jajar",
	"available": "tersedia",
	"color": "warna",
	"full aspect ratio": "ratio aspek penuh",
	"general": "umum",
	"hour": "jam",
	"last": "Terakhir",
	"min": "minit",
	"original aspect ratio": "ratio aspek asal",
	"over {period} min.": "lebih {period} min.",
	"reading": "membaca",
	"save as PC Time": "simpan sebagai Masa PC",
	"sharpness": "ketajaman",
	"upload": "muat naik",
	"version": "versi",
	"warning": "amaran",
	"webOS Version": "Versi webOS",
	"year": "tahun",
	"{apptitle} will be deleted.": "{apptitle} akan dipadam.",
	"{{filename}} already exists.": "{{filename}} telah wujud."
}
