{
	"(30,60,120,180) Min": "(30,60,120,180) Bom",
	"10 sec": "10 soic",
	"10 sec Auto Refresh": "10 soic Uath Athnuachan",
	"1Hour": "1Uair",
	"30sec": "30soic",
	"5 min. Refresh": "5 bom. Athnuaigh",
	"5Min": "5Bom",
	"Abnormally High": "Mínormálta Ard",
	"Account": "Cuntas",
	"Activate": "Gníomhaigh",
	"Add Media": "Cuir Meáin Leis",
	"Add Mini Module": "Cuir Mion-Mhodúl leis",
	"Add Slave Controller": "Cuir Rialaitheoir Sclábhaí Leis",
	"Add Unit": "Cuir Aonad Leis",
	"Advanced Options": "Ardroghanna",
	"Advanced Setting": "Ardsocrú",
	"Afghanistan": "an Afganastáin",
	"Albania": "An Albáin",
	"Algeria": "An Ailgéir",
	"All": "Uilig",
	"All Units": "Aonaid Uilig",
	"All settings will be reset. Do you want to continue?": "Beidh na socruithe uilig athshocraithe. Ar mhaith leat leanúint ar aghaidh?",
	"Amsterdam": "Amstardam",
	"An error occurred while submitting the form.": "Tharla earráid le linn cuir isteach an fhoirm.",
	"Angola": "Angóla",
	"Apply": "Cuir i bhFeidhm",
	"Apply to All Units": "Cur i bhFeidhm ar na hAonaid Uilig",
	"Apply?": "Cuir i bhFeidhm?",
	"Approximate round trip in milli-seconds": "Turas fillte measta i milleasoicindí",
	"April": "Aibreán",
	"Are you sure to change Settings?": "An bhfuil tú cinnte gur mhaith leat na Socruithe a athrú?",
	"Are you sure to change the calibration settings of this unit?": "An bhfuil tú cinnte gur mhaith leat socruithe calabraithe an aonaid seo a athrú?",
	"Are you sure to reboot?": "An bhfuil tú cinnte gur mhaith leat athbhútáil?",
	"Are you sure to use": "An bhfuil tú cinnte gur mhaith leat é a úsáid",
	"Are you sure to use Wi-Fi DHCP?": "An bhfuil tú cinnte gur mhaith leat DHCP Wi-Fi a úsáid?",
	"Are you sure to use Wired DHCP?": "An bhfuil tú cinnte gur mhaith leat DHCP sreangaithe a úsáid?",
	"Argentina": "An Airgintín",
	"Armenia": "an Airméin",
	"Aspect Ratio when rotated": "Cóimheas Gné i ndiaidh rothlú",
	"Athens": "An Aithin",
	"August": "Lúnasa",
	"Australia": "An Astráil",
	"Austria": "An Ostair",
	"Authenticate": "Fíoraigh",
	"Authentication Failed": "Fíorú teipthe",
	"Authentication completed.": "Fíorú déanta.",
	"Auto": "Uathoibríoch",
	"Auto Detect": "Uath Aithin",
	"Auto Refresh": "Uath Athnuaigh",
	"Automatically Assign IP Address": "Sannaigh Seoladh IP go huathoibríoch",
	"Available to Installation": "Ar fáil le suiteáil",
	"Azerbaijan": "an Asarbaiseáin",
	"Azores": "na hAsóir",
	"BLU Status": "Stádas BLU",
	"Back": "Siar",
	"Backlight": "Cúlsolas",
	"Backup Media Upload": "Uaslódáil Meáin Chúltaca",
	"Backup file Thumbnail Image": "Mioníomha Comhaid Cúltaca",
	"Backup via storage": "Cúltaca trí stóras",
	"Bahamas": "na Bahámaí",
	"Bahrain": "Bairéin",
	"Bangladesh": "an Bhanglaidéis",
	"Barbados": "Barbadós",
	"Basic Setting": "Bunshocrú",
	"Begin test": "Tosaigh tástáil",
	"Belarus": "an Bhealarúis",
	"Belgium": "An Bheilg",
	"Belize": "an Bheilís",
	"Benin": "Beinin",
	"Bermuda": "Beirmiúda",
	"Bhutan": "an Bhútáin",
	"Black Level": "Leibhéal Dubh",
	"Bolivia": "an Bholaiv",
	"Bootloader Version": "Leagan Bootloadernet mask",
	"Bosnia": "an Bhoisnia",
	"Botswana": "an Bhotsuáin",
	"Bottom": "Bun",
	"Bottom Left": "Ar Bun Ar Chlé",
	"Bottom Light": "Bunsholas",
	"Bottom Right": "Ag an Bhun ar Dheis",
	"Box Name": "Ainm Bosca",
	"Brazil": "an Bhrasaíl",
	"Brightness": "Gileacht",
	"Browse": "Brabhsáil",
	"Browse a file to upload": "Brabhsáil comhad le huaslódáil",
	"Brussels": "an Bhruiséil",
	"Bulgaria": "An Bhulgáir",
	"Burkina Faso": "Buircíne Fasó",
	"Burundi": "an Bhurúin",
	"Calibrate Unit": "Calabraigh Aonad",
	"Calibrated": "Calabraithe",
	"Calibrating...": "Calabraithe...",
	"Cambodia": "an Chambóid",
	"Cameroon": "Camarún",
	"Canada": "Ceanada",
	"Canary Islands": "na hOileáin Chanáracha",
	"Cancel": "Ceallaigh",
	"Cannot start S/W update. Check xxx file please.": "Ní thig uasdhátú S/W a thosú. Seiceáil comhad xxx le do thoil.",
	"Cape Verde": "Rinn Verde",
	"Capture time Interval": "Glac Sos ama",
	"Capture time interval": "Capture time interval",
	"Category": "Catagóir",
	"Cayman Islands": "Oileáin Cayman",
	"Central African Republic": "Poblacht na hAfraice Láir",
	"Chad": "Sead",
	"Change Password": "Athraigh Pasfhocal",
	"Changing Time may cause you to be logged out.": "Tá seans go ndéanfaidh Athrú Ama thú a logáil amach.",
	"Changing Time zone may cause you to be logged out.": "Thiocfadh leat a bheith logáilte amach nuair athraítear crios Ama.",
	"Charts": "Cairteanna",
	"Check Temperature sensors. -40 means errors when reading Temperature sensors": "Seiceáil braiteoirí Teochta. Ciallaíonn -40 go bhfuil éarráidí ann agus braiteoirí Teochta á léamh",
	"Check for Update": "Seiceáil do Nuashonruithe",
	"Check whether two passwords are same": "Seiceáil cibé an bhfuil dhá phasfhocal mar an gcéanna",
	"Check your URL input": "Seiceáil do Ionchur URL",
	"CheckScreen": "Seiceáil Scáileáin",
	"Checking for update...": "Ag Seiceáil do Nuashonruithe...",
	"Chile": "An tSíle",
	"China": "An tSín",
	"Christmas Island": "Oileán na Nollag",
	"Cinema": "Pictiúrlann",
	"City": "Cathair",
	"Close": "Dún",
	"Close status of cabinet doors": "Dún stádás na ndoirse caibinéid",
	"Closed": "Dúnta",
	"Closed Loop Fan": "Fean Lúibe Dúnta",
	"ClosedLoop": "Lub Dúnta",
	"Colombia": "An Cholóim",
	"Color Temperature": "Teocht Datha",
	"ColorRead": "Léamh Datha",
	"Column": "Colún",
	"Conakry": "Conacraí",
	"Confirm": "Deimhnigh",
	"Confirm Account Number": "Deimhnigh Uimhir Chuntais",
	"Confirm New Password": "Deimhnigh Pasfhocal Nua",
	"Confirm the account number you entered.": "Deimhnigh an uimhir chuntais a chur tú isteach.",
	"Connected": "Ceangailte",
	"Content Rotation": "Rothlú Ábhair",
	"Content Rotation Status": "Stádas Rothlú Ábhair",
	"Content Rotation is ON": "Tá Rothlú Ábhair AR SIÚL",
	"Content is rotated": "Ta ábhar rothlaithe.",
	"Contents rotation is ON": "Tá rothlú ábhar AR SIÚL",
	"Continent": "Ilchríoch",
	"Contrast": "Codarsnacht",
	"Control": "Rialú",
	"Control Item": "Mír Rialaithe",
	"Control Type": "Cineál Rialaithe",
	"Cool": "Fionnuar",
	"Copenhagen": "Cóbanhávan",
	"Costa Rica": "Cósta Ríce",
	"Country/Territory": "Tír/Críocha",
	"Croatia": "An Chróit",
	"Cuba": "Cúba",
	"Current": "Reatha",
	"Current Fan RPM": "Fean Reatha RPM",
	"Current Password": "Pasfhocal Reatha",
	"Current Picture mode does not support changing color temperature. Please select \"Expert\" of \"Calibration\" mode to adjust the color temperature.": "Ní thacaíonn Mód Pictiúir reatha le hathrú teocht datha. Roghnaigh \"Saineolaí\" de mhód \"Calabrú” leis an teocht datha a athrú.",
	"Current Ver.": "Lgn. Reatha",
	"Current Version": "Leagan Reatha",
	"Custom": "Saincheaptha",
	"Cut Left Edge": "Gearr Imeall Ar Chlé",
	"Cut Right Edge": "Gearr Imeall Ar Dheis",
	"Cyprus": "An Chipir",
	"Czech": "Seicis",
	"Czech Republic": "Poblacht na Seice",
	"DHCP State": "Stád DHCP",
	"DNS Server": "Freastalaí DNS",
	"DOWNLOAD LOG": "ÍOSLÓDÁIL LOGA",
	"DOWNLOAD LOG FILE": "ÍOSLÓDÁIL COMHAD LOGA",
	"DPM (Standby Mode)": "DPM (Mód Fuireachais)",
	"Daisy Direction": "Treo Nóiníní",
	"Daisy Start by": "Tosaigh Nóinín le",
	"Damage Detection": "Aitheant Damáiste",
	"Damaged": "Damáistithe",
	"Damascus": "an Damaisc",
	"Dashboard": "Deais",
	"Data is not collected now. wait for maximum 60 seconds": "Níl a sonraí bailithe anois. fan feadh uasmhéid de 60 soicind",
	"Date": "Dáta",
	"Day": "Lá",
	"Daylight Saving Time": "Am Coigilte Sholas an Lae",
	"Days": "Laethanta",
	"December": "Nollaig",
	"Default": "Réamhshocrú",
	"Default size": "Méid Réamhshocraithe",
	"Delete": "Scrios",
	"Delete Mini Module": "Scrios Mion-Mhodúl",
	"Delete Slave Controller": "Scrios Rialaitheoir Sclábhaí",
	"Delete Unit": "Scrios Aonad",
	"Delete the file": "Scrios an comhad",
	"Delete?": "Scrios?",
	"Democratic Republic Of The Congo": "Poblacht Dhaonlathach an Chongó ",
	"Denmark": "An Danmhairg",
	"Details of Unit": "Sonraí Aonaid",
	"Device Control": "Rialú Gléis",
	"Digital Board Reboot": "Athbhútáil Clár Digiteach",
	"Disconnected": "Dícheangailte",
	"Display": "Léiriú",
	"Display & Sound": "Léiriú & Fuaim",
	"Display & sound": "Léiriú & fuaim",
	"Do not reboot in Device page.": "Ná déan athbhútáil ar leathanach Gléas.",
	"Do you want to delete the item?": "Ar mhaith leat an mhír a scriosadh?",
	"Do you want to delete the selected file?": "Ar mhaith leat an comhad roghnaithe a scriosadh?",
	"Do you want to delete this LED FPGA Update file?": "Ar mhaith leat an comhad Nuashonraithe LED FPGA a scriosadh?",
	"Do you want to delete this S/W Update file?": "Ar mhaith leat an comhad Nuashonrú S/W seo a scriosadh?",
	"Do you want to install this S/W Update file?": "Ar mhaith leat an comhad Nuashonrú S/W seo a shuiteáil?",
	"Do you want to proceed?": "Ar mhaith leat leanúit ar aghaidh?",
	"Do you want to set the time & date?": "Ar mhaith leat an t-am & dáta a shocrú?",
	"Do you want to set the time or date automatically?": "Ar mhaith leat an t-am nó dáta a shocrú go huathoibríoch?",
	"Dominican Republic": "an Phoblacht Dhoiminiceach",
	"Done": "Déanta",
	"Door": "Doras",
	"Door Control": "Rialú Dorais",
	"Door Monitor": "Monatóir Dorais",
	"Door Open": "Doras Oscailte",
	"Door Sensor": "Braiteoir Dorais",
	"Door Sensor Status": "Stádas Braiteoir Dorais",
	"Door xxx is opened": "Tá doras xxx oscailte",
	"Draw": "Tarraing",
	"Dublin": "Baile Átha Cliath",
	"Duplicated Unit ID": "UA Aonad Dúbailte",
	"Duration": "Fad",
	"Dynamic Brightness": "Gileacht Dinimiciúil",
	"Dynamic Brightness Control": "Rialú Gileacht Dinimiciúil",
	"Easter Island": "Oileán na Cásca",
	"Ecuador": "Eacuadór",
	"Edit": "Leasaigh",
	"Education": "Oideachas",
	"Egypt": "an Éigipt",
	"El Salvador": "an tSalvadóir",
	"Enable or disable Signage 365 Care services on this device": "Cumasaigh nó díchumasaigh seirbhísí Cúram Comharthaíocht 365 ar an ghléas seo.",
	"Enable or disable {apptitle} service on this device": "Cumasaigh nó díchumasaigh seirbhís {apptitle} ar an ghléas seo.",
	"End": "Deireadh",
	"Energy Saving": "Sábháil Cumachta",
	"Enter Account Number": "Cuir Isteach Uimhir Chuntais",
	"Enter the account number to activate Signage 365 Care.": "Cuir isteach an uimhir chuntais le Comharthaíocht Cúram 365 a ghníomhú.",
	"Enter the account number to activate {apptitle}.": "Cuir isteach an uimhir chuntais le gníomhachtú {apptitle}.",
	"Enter the following": "Cuir isteach an méid a leanas",
	"Enter the network address to ping": "Cuir isteach an seoladh líonra le pingú",
	"Equatorial Guinea": "an Ghuine Mheánchiorclach",
	"Eritrea": "an Eiritré",
	"Estonia": "an Eastóin",
	"Ethiopia": "an Aetóip",
	"Event": "Imeacht",
	"Exit": "Éalaigh",
	"Export": "Easpórtáil",
	"External": "Seachtrach",
	"External Input Rotation": "Rothlú Ionchur Seachtrach",
	"External Input Rotation Status": "Stádas Rothlú Ionchur Seachtrach",
	"External Input Rotation is ON": "Tá Rothlú Ionchuir Seachtrach AR SIÚL",
	"EyeQ sensor": "Braiteoir EyeQ",
	"FPGA Version": "Leagan FPGA",
	"Factory Reset": "Athshocrú Monarchana",
	"Fail": "Teip",
	"Fail Over": "Teipaistriú",
	"Fail to update. Check xxx file please.": "Nuashonrú teipthe. Seiceáil comhad xxx le do thoil.",
	"Failed to update LED FPGA with xxx. Check the file please": "Theip ar uasdhátú LED FPGA le xxx. Seiceáil an comhad le do thoil",
	"Failed to update LED FPGA with xxx. Check the status of the unit controller.": "Theip ar nuashonrú LED FPGA le xxx. Seiceáil stádas an rialtóir aonaid.",
	"Failed to update fan micom with xxx. Check the file please": "Theip ar uasdhátú fean micom le xxx. Seiceáil an comhad le do thoil",
	"Fan": "Fean",
	"Fan Micom Version": "Leagan Fean Micom",
	"Fan RPM": "RPM Fean",
	"Fan RPM history is not yet collected": "Níl stair Fean RPM bailithe go fóill",
	"Fan Status": "Stádas Fean",
	"February": "Feabhra",
	"Fiji": "Fidsí",
	"File Name": "Comhadainm",
	"File Select": "Roghnaigh Comhad",
	"File Upload Progress": "Dul Chun Cinn Uaslódáil Comhaid",
	"File upload via mobile devices does not support.": "Ní thacaítear le huaslódáil comhaid trí ghléasanna móibíleacha.",
	"Finland": "an Fhionlainn",
	"First Use": "Céad Úsáid",
	"Flash memory is not enough.": "Ní leor an cuimhne Flash.",
	"For your security, we recommend to change default password. Would you like to change your password now?": "Ar mhaithe le do shlándáil, molaimid do phasfhocal réamhsocraithe a athrú. Ar mhaith leat do phasfhocal a athrú anois?",
	"Frame": "Fráma",
	"France": "an Fhrainc",
	"French Polynesia": "Polainéis na Fraince",
	"Fri": "Aoi",
	"Friday": "Aoine",
	"Front": "Tosach",
	"Full": "Lán",
	"Gabon": "an Ghabúin",
	"Gambia": "an Ghaimbia",
	"Game": "Cluiche",
	"Gamma": "Gáma",
	"Gamut Matrix": "Maitrís Raon",
	"Gateway": "Geata",
	"General": "Ginearálta",
	"Georgia": "an tSeoirsia",
	"Germany": "an Ghearmáin",
	"Ghana": "Gána",
	"Gibraltar": "Giobráltar",
	"Glace Bay": "Bá Glace",
	"Go To First Use": "Téigh chuig Céad Úsáid",
	"Gov./Corp.": "Rialt./Comh.",
	"Greece": "an Ghréig",
	"Greenland": "an Ghraonlainn",
	"Guadeloupe": "Guadalúip",
	"Guatemala": "Guatamala",
	"Guatemala City": "Cathair Ghuatamala",
	"Guernsey": "Geansaí",
	"Guinea": "an Ghuine",
	"Guinea Bissau": "Guinea-Bissau",
	"Guyana": "an Ghuáin",
	"Haiti": "Háítí",
	"Height": "Airde",
	"Helsinki": "Heilsincí",
	"High": "Ard",
	"History is not yet collected": "Níl stair bailithe go fóill",
	"Home": "Baile",
	"Honduras": "Hondúras",
	"Hong Kong": "Hong Cong",
	"Horizontal": "Cothromán",
	"Hour": "Uair",
	"Hours": "Uair",
	"Humidity": "Bogthaise",
	"Hungary": "an Ungáir",
	"ID/password": "ID/Pasfhocal",
	"IMB Settings": "Socruithe IMB",
	"IMB Status": "Stádas IMB",
	"IP Address": "Seoaldh IP",
	"Iceland": "an Íoslainn",
	"Image": "Íomhá",
	"Impact": "Tuinseamh",
	"Incorrect Password entered. Please try again.": "Pasfhocal Contráilte curtha isteach. Triail arís le do thoil.",
	"India": "an Ind",
	"Indonesia": "an Indinéis",
	"Information": "Eolas",
	"Input": "Ionchur",
	"Input 6 or more characters": "Cuir isteach 6 carachtair nó níos mó",
	"Input Direction": "Cuir Treoir Isteach",
	"Input Password": "Pasfhocal le do thoil",
	"Input Priority": "Tosaíocht Ionchuir",
	"Input Priority Setting": "Socrú Tosaíocht Ionchuir",
	"Input Signage Name please.": "Cuir isteach Ainm Comharthaíochta le do thoil.",
	"Input Window": "Fuinneog Ionchuir",
	"Install": "Suiteáil",
	"Install Succeeded": "Suiteáilte",
	"Installation Failed": "Theip Ar Shuiteáil",
	"Installation Menu": "Roghchlár Suiteála",
	"Installing…": "Ag suiteáil…",
	"Internet Not available": "Níl fáil ar an Idirlíon",
	"Internet available": "Idilrlíon ar fáil",
	"Invalid NEW Password. Password must be 6 characters in length.": "Pasfhocal NUA Neamhbhailí. Caithfidh an pasfhocal a bheith 6 gcarachtar ar fhad.",
	"Invalid NEW Password. Password must be 8 characters in length.": "Pasfhocal NUA Neamhbhailí. Caithfidh an pasfhocal a bheith 8 gcarachtar ar fhad.",
	"Invalid NEW Password. You must use a combination of letters and numbers.": "Pasfhocal NUA Neamhbhailí. Caithfidh tú meascán de litreacha agus uimhreacha a úsáid.",
	"Invalid New password. Password must be at least 8 characters.": "Pasfhocal Nua Neamhbhailí. Caithfidh an pasfhocal a bheith ar a laghad 8 carachtar.",
	"Invalid New password. You must use a mixture of mixed-case letters, numbers and special characters.": "Pasfhocal Nua Neamhbhailí. Caithfidh tú meascán de chásanna éagsúla litreacha, uimhreacha agus carachtair spesialta.",
	"Invalid day value": "Luach lae neamhbhailí",
	"Invalid hour value": "Luach uaire neamhbhailí",
	"Invalid minute value": "Luach bomaite neamhbhailí",
	"Invalid month value": "Luach míosa neamhbhailí",
	"Invalid value": "Luach neamhbhailí",
	"Invalid year value": "Luach bliana neamhbhailí",
	"Iran": "an Iaráin",
	"Iraq": "an Iaráic",
	"Ireland": "Éire",
	"Irregular": "Neamhrialta",
	"Israel": "Iosrael",
	"Issue History": "Eisigh Stair",
	"Istanbul": "Iostanbúl",
	"Italy": "an Iodáil",
	"Jamaica": "Iamáice",
	"January": "Éanáir",
	"Japan": "an tSeapáin",
	"Jerusalem": "Iarúsailéim",
	"Jordan": "an Iordáin",
	"July": "Iúil",
	"June": "Meitheamh",
	"Kazakhstan": "an Chasacstáin",
	"Kenya": "an Chéinia",
	"Korea": "an Chóiré",
	"Korea, Republic of": "Poblacht na Cóiré",
	"Kuwait": "Cuáit",
	"Kuwait City": "Cathair Chuáit",
	"Kyrgyzstan": "an Chirgeastáin",
	"LED Assistant Settings": "Socruthe LED Assistant",
	"LED FPGA Update file list": "Liosta comhaid nuashonraithe LED FPGA",
	"LED FPGA Updating ......": "LED FPGA ag Nuashonrú ......",
	"LED Features": "Gnéíthe LED",
	"LED Film Settings": "Socruithe Scannán LED",
	"LED Open Detection": "Aithint Oscailte LED",
	"LED Settings": "Socruithe LED",
	"LED Unit": "Aonad LED",
	"LED Unit Status": "Stádas Aonad LED",
	"LG ConnectedCare App": "Aip LG ConnectedCare",
	"LG ConnectedCare app": "Aip LG ConnectedCare",
	"LG Control Manager": "Bainisteoir Rialaithe LG",
	"Landscape": "Tírdhreach",
	"Language": "Teanga",
	"Large": "Mór",
	"Latvia": "an Laitvia",
	"Layout": "Leagan Amach",
	"Layout Editor": "Eagathóir Leagan Amach",
	"Lebanon": "an Liobáin",
	"Liberia": "an Libéir",
	"Libya": "an Libia",
	"Liechtenstein": "Lichtinstéin",
	"Lisbon": "Liospóin",
	"Lithuania": "an Liotuáin",
	"Loading": "Ag lódáil",
	"Loading...": "Ag lódáil…",
	"Loading…": "Ag lódáil…",
	"Location": "Suíomh",
	"Log": "Loga",
	"Log Report": "Tuairisc Loga",
	"Log after Power Up": "Logáil i ndiaidh Lasadh Cumhachta",
	"Log in with the authorized ID and password.": "Logáil isteach leis an ID agus pasfhocal údáraithe.",
	"Login": "Logáil Isteach",
	"Login is required.": "Tá logáil isteach de dhíth",
	"Logout": "Logáil Amach",
	"London": "Londain",
	"Low": "Íseal",
	"Luxembourg": "Lucsamburg",
	"MAC Address": "Seoladh MAC",
	"Macedonia": "an Mhacadóin",
	"Madeira": "Maidéara",
	"Madrid": "Maidrid",
	"Main": "Príomha",
	"Malawi": "an Mhaláiv",
	"Malaysia": "an Mhalaeisia",
	"Maldives": "Oileáin Mhaildíve",
	"Mali": "Mailí",
	"Mall/QSR": "Meal/QSR",
	"Malta": "Málta",
	"Manage": "Bainistigh",
	"Manila": "Mainile",
	"Manual": "Lámhleabhar",
	"March": "Márta",
	"Marriage Guide (2 Steps)": "Treoir Marriage (2 Chéim)",
	"Marriage Status": "Marriage Stádas",
	"Marshall Islands": "Oileáin Marshall",
	"Master": "Máistir",
	"Mauritius": "Oileán Mhuirís",
	"Max Backlight": "Uas Cúlsolas",
	"Maximum": "Uasmhéid",
	"May": "Bealtaine",
	"Media Library": "Leabharlann Meáin",
	"Media file List": "Liosta comhad Meáin",
	"Media file Upload (XXX GB available)": "Uaslódáil comhad meáin (XXX GB ar fáil)",
	"Medium": "Meán",
	"Menu Language": "Teanga Roghchláir",
	"Mexico": "Meicsiceo",
	"Mexico City": "Cathair Mheicsiceo",
	"Micom Progress": "Dul Chun Cinn Micom",
	"Micom Update": "Uasdhátú Micom",
	"Micom Version": "Leagan Micom",
	"Min Backlight": "Íos Cúlsolas",
	"Mini Module": "Mion-Mhodúl",
	"Minimum": "Íosmhéid",
	"Minimum = XXms, Maximum = YYms, Average = ZZms": "Íosmhéid = XXms, Uasmhéid = YYms, Meán = ZZms",
	"Mins": "Bomaití",
	"Model Name": "Ainm Múnla",
	"Module Calibration": "Calabrú Modúil",
	"Module Calibration is modified. Exit without saving?": "Calabrú Modúil modhnaithe. Éalaigh gan sábháil?",
	"Module Size": "Méid an Mhodúil",
	"Modules": "Modúil",
	"Moldova": "an Mholdóiv",
	"Mon": "Luan",
	"Monaco": "Monacó",
	"Monday": "Luan",
	"Mongolia": "an Mhongóil",
	"Montenegro": "Montainéagró",
	"Month": "Mí",
	"More": "Níos mó",
	"Morocco": "Maracó",
	"Moscow": "Moscó",
	"Motion": "Gluaiseacht",
	"Mozambique": "Mósaimbíc",
	"Mute": "Balbhaigh",
	"Myanmar": "Maenmar",
	"NG": "GD",
	"NO": "NÍL",
	"NOT AVAILABLE": "NÍL SÉ AR FÁIL",
	"Name": "Ainm",
	"Namibia": "an Namaib",
	"Natural Mode": "Mód Nádúrtha",
	"Natural Size": "Méid Nádúrtha",
	"Nepal": "Neipeal",
	"Netherlands": "an Ísealtír",
	"Network": "Líonra",
	"Network Ready": "Líonra Réidh",
	"Network Settings": "Socruithe Líonra",
	"New Caledonia": "an Nua-Chaladóin",
	"New Password": "Pasfhocal Nua",
	"New Password and Confirm Password do not match.": "Ní hionann Pasfhocal Nua agus Deimhnigh Pasfhocal.",
	"New York": "Nua-Eabhrac",
	"New Zealand": "an Nua-Shéalainn",
	"Newer Ver.": "Lgn. Nua",
	"Next": "Ar aghaidh",
	"Next Day": "Céad Lá Eile",
	"Nicaragua": "Nicearagua",
	"Nigeria": "an Nigéir",
	"No": "Níl",
	"No Signal": "Níl Comhartha ann",
	"No backup files exist in storage device.": "Níl comhaid chúltaca ar bith ar an ghléas stórála.",
	"None": "Ceann ar bith",
	"Normal": "Normálta",
	"North Korea": "an Chóiré Thuaidh",
	"Norway": "an Iorua",
	"Not Connected": "Nil tú Ceangailte",
	"Notification": "Fógra",
	"November": "Samhain",
	"Number": "Uimhir",
	"OFF": "MÚCHTA",
	"OK": "CEART GO LEOR",
	"OLED LIGHT": "Solas OLED",
	"OLED Light": "Solas OLED",
	"ON": "AR SIÚL",
	"OSD Portrait Mode": "Mód Portráide OSD",
	"OSD Portrait Mode is ON": "Tá Mód Portráide OSD AR SIÚL",
	"OSD Portrait Status": "Stádas Portráide OSD",
	"OSD Portrait mode is xxx": "Tá mód Portáid OSD xxx",
	"OSD Rotation is ON": "Tá Rothlú OSD AR SIÚL",
	"Occurrence Time": "Am Tarlaithe",
	"October": "Deireadh Fómhair",
	"Off": "Múchta",
	"Off Until Reset": "Múchta go dtí Athshocrú",
	"Off When Open": "Múchta Fad atá Oscailte",
	"Oman": "Óman",
	"On": "Ar siúl",
	"On When Open": "Ar Siúl Fad atá Oscailte",
	"Open Loop Fan": "Fean Lúibe Oscailte",
	"OpenLoop": "Lúb Oscailte",
	"Opened": "Oscailte",
	"Original": "Bunaidh",
	"Output Window": "Fuinneog Aschuir",
	"OverHeat": "RóThéigh",
	"Overwrite": "Forscríobh",
	"Overwrite xxx?": "Forscríobh xxx?",
	"Overwrite?": "Forscríobh?",
	"PM Mode": "Mód PM",
	"Packets : Sent = XX. Received = YY. Lost = ZZ (WW% loss)": "Paicéid: Seolta = XX. Faighte = YY. Caillte = ZZ (WW% caillteanas)",
	"Pakistan": "an Phacastáin",
	"Panama City": "Panamá",
	"Panel": "Painéal",
	"Papua New Guinea": "Nua-Ghuine Phapua",
	"Paraguay": "Paragua",
	"Paris": "Páras",
	"Password": "Pasfhocal",
	"Password is incorrect. Please Try Again": "Tá an pasfhocal contráilte. Triail Arís Le Do Thoil",
	"Password is incorrect. Please try again.": "Tá an pasfhocal contráilte. Triail arís le do thoil.",
	"Peru": "Peiriú",
	"Philippines": "na hOileáin Fhilipíneacha",
	"Picture": "Pictiúr",
	"Picture Mode": "Mód Pictiúir",
	"Picture Settings": "Socruithe Pictiúir",
	"Ping Test": "Tástáil Pinge",
	"Ping statistics for [X.X.X.X]": "Staitisticí pinge do [X.X.X.X]",
	"Ping test failed. Invalid format of network address field.": "Theip ar thástáil pinge. Fomráid neamhbhailí de raon seoladh líonra.",
	"Ping test is in progress": "Tástáil pinge idir láimhe",
	"Ping test result": "Toradh tástáil pinge",
	"Pinging [X.X.X.X] with YYY bytes of data": "Pingú [X.X.X.X] le YYY beart sonraí",
	"Play": "Seinn",
	"Play via URL": "Seinn trí URL",
	"Please Keep this Signage on.": "Coinnigh an Comharthaíocht seo ar siúl le do thoil.",
	"Please check the following items and try again.": "Seiceáil na míreanna seo a leanas agus triail arís le do thoil.",
	"Please check the installation file and try again.": "Seiceáil comhad suiteáilte agus triail arís le do thoil.",
	"Please choose a file to upload": "Roghnaigh comhad le huaslódáil le do thoil",
	"Please choose a video file to upload": "Roghnaigh comhad fise le huaslódáil le do thoil",
	"Please don't turn off the device and wait until the installation is completed.": "Ná múch an gléas agus fan go dtugtar an suiteáil chun críche.",
	"Please don’t turn off the device. And wait while process is completed.": "Ná múch an gléas le do thoil. Agus fad a dtugtar an próiséas chun críche.",
	"Please enter the authorized ID and password.": "Cuir isteach do ID agus pasfhocal údaraithe.",
	"Please login again.": "Logáil isteach arís le do thoil.",
	"Please press the physical marriage button.": "Brúigh an cnaipe marriage fisiciúil le do thoil.",
	"Please restart the marriage authentication process.": "Atosaigh an próiséas fíoraithe marriage le do thoil.",
	"Please select city": "Roghnaigh cathair le do thoil",
	"Please select country": "Roghnaigh tír le do thoil",
	"Please upload S/W update file via PC browser.": "Déan nuashonrú S/W a uaslódáil trí bhrabhsálaí PC.",
	"Poland": "an Pholainn",
	"Port Number": "Portuimhir",
	"Port Settings": "Socruithe Poirt",
	"Portrait": "Portráid",
	"Portrait Mode": "Mód Portráide",
	"Portugal": "an Phortaingéil",
	"Position": "Suíomh",
	"Power": "Cumhacht",
	"Power Off": "Múch Cumhacht",
	"Power Off Management": "Bainistíocht Múchadh Cumhachta",
	"Power Off(Default)": "Cumhacht Múchta(Réamhshocraithe)",
	"Power Rack": "Raca Cumhachta",
	"Power Rack Settings": "Socruithe Raca Cumhachta",
	"Press the physical marriage button on your master cabinet.": "Brúigh an cnaipe marriage fisiciúil ar do mháistir-chaibinéad.",
	"Pressing Start will give you 1 minute to perform the process.": "Tabharfaidh brú Tosaigh 1 nóiméad a thabhairt duit leis an phróiséas a thabhairt chun críche.",
	"Prev DAY": "LÁ Roimhe",
	"Prev.": "Rmhe.",
	"Preview": "Réamhamharc",
	"Priority": "Tosaíocht",
	"Puerto Rico": "Pórtó Ríce",
	"Qatar": "Catar",
	"Rearrange": "Atheagraigh",
	"Reboot": "Athbhútáil",
	"Reboot?": "Athbhútáil?",
	"Rebooting": "Ag athbhútáil",
	"Reference Resolution": "Taifeach Tagartha",
	"Refresh": "Athnuaigh",
	"Regular": "Rialta",
	"Rejected": "Diúltaithe",
	"Remember me": "Cuimhnigh orm",
	"Rename": "Athainmnigh",
	"Rename or Overwrite?": "Athainmnigh nó forscríobh?",
	"Rename to {{filename (2)}} or Overwrite?": "Athainmnigh go {{filename (2)}} nó forscríobh?",
	"Reply from [X.X.X.X] : bytes = YY, time = ZZms, TTL = WW": "Freagra ó [X.X.X.X] : beart = YY, am = ZZms, TTL = WW",
	"Republic Of The Congo": "Poblacht an Chongó",
	"Request timed out.": "Iarratas imithe thar am.",
	"Require Network Settings": "Socruithe Líonra Riachtanach",
	"Required Marriage": "Marriage De Dhíth",
	"Reset": "Athshocraigh",
	"Reset All": "Athshocraigh Uilig",
	"Reset Mute": "Athshocraigh Balbhaigh",
	"Reset Mute' is Needed": "Tá Athshocrú Balbhaigh De Dhíth",
	"Reset to factory reset": "Athshocaigh chuig athshocrú monarchana",
	"Romania": "Rómáin",
	"Rome": "an Róimh",
	"Rotation": "Rothlú",
	"Row": "Rae",
	"Run Time": "Am Reatha",
	"Run Time Since Last Power Up": "Am Reatha Ón Lasadh Cumhachta Deireanach",
	"Russia": "an Rúis",
	"Rwanda": "Ruanda",
	"S/W Update": "Uasdhátú S/W",
	"S/W Update File list": "S/W Liosta Comhaid Uasdhátaithe",
	"S/W Update file list": "S/W Liosta comhaid Uasdhátaithe",
	"S/W Update succeeded": "Nuashonrú Bogearraí déanta",
	"S/W Updating": "Ag Nuashonrú S/W",
	"S/W Updating......": "S/W ag Nuashonrú......",
	"S/W Ver.": "Lgn. S/W",
	"S/W update file does not exist.": "Níl ann don nuashonrú S/W",
	"S/W will update. Do you want to continue?": "Beidh na bogearraí uasdhátaithe. Ar mhaith leat leanúint ar aghaidh?",
	"SCREEN": "SCÁILEÁN",
	"SI App / Play via URL": "Aip SI / Seinn trí URL",
	"Samoa": "Samó",
	"Saturday": "Satharn",
	"Saudi Arabia": "an Araib Shádach",
	"Save": "Sábháil",
	"Screen": "Scáileán",
	"Screen Configuration": "Cuimriú Scáileáin",
	"Screen Fault Detection": "Brath Earráid Scáileáin",
	"Screen Off": "Scáileán Múchta",
	"Screen Off & Backlight": "Scáileán Múchta & Cúlsolas",
	"Screen Off & Backlight On": "Scáileán Múchta & Cúlsolas Ar Siúl",
	"Screen Off Always": "Scáileán Múchta I gCónaí",
	"Screen Power Off": "Múch Scáileáin",
	"Screen Rotation": "Rothlú Scáileáin",
	"Screen Rotation Status": "Stádas Rothlú Scáileáin",
	"Screen Rotation is ON": "Tá Rothlú Scáileáin AR SIÚL",
	"ScreenOn": "Scáileán Ar Siúl",
	"Select File": "Roghnaigh Comhad",
	"Select Input Source": "Roghnaigh Foinse Ionchuir",
	"Select a file to upload": "Roghnaigh comhad le huaslódáil",
	"Select media file": "Roghaigh comhad meáin",
	"Senegal": "an tSeineagáil",
	"Sensor": "Braiteoir",
	"September": "Meán Fómhair",
	"Serbia": "an tSeirbia",
	"Serial Number": "Sraithuimhir",
	"Server Status": "Stádas Freastalaí",
	"Set": "Socraithe",
	"Set Automatically": "Socraigh go hUathoirbríoch",
	"Set ID": "Socraigh ID",
	"Set Master": "Socraigh Máistir",
	"Set Slave": "Socraigh Sclábhaí",
	"Set URL": "Socraigh URL",
	"Setting": "Socrú",
	"Show Color": "Léirigh Dath",
	"Sierra Leone": "Siarra Leon",
	"Sigane Name is Too Long": "Tá Ainm Comharthaíocht Ró-Fhada",
	"Sign in": "Sínigh Isteach",
	"Signage 365 Care": "Cúram Comharthaíocht 365",
	"Signage 365 Care App": "Aip Cúram Comharthaíocht 365",
	"Signage Name": "Ainm Comharthaíochta",
	"Signal": "Comhartha",
	"Singapore": "Singeapór",
	"Size": "Méid",
	"Slave": "Sclábh",
	"Slovakia": "an tSlóvaic",
	"Slovenia": "an tSlóivéin",
	"Small": "Beag",
	"Software Version": "Leagan Bogearra",
	"Solomon Islands": "Oileáin Sholomón",
	"Somalia": "an tSomáil",
	"Sound Control": "Rialú Fuaime",
	"South Africa": "an Afraic Theas",
	"Spain": "an Spáinn",
	"Sports": "Spóirt",
	"Sri Lanka": "Srí Lanca",
	"Stalled Image": "Íomhá Reoite",
	"Standard": "Caighdeánach",
	"Start": "Tosaigh",
	"State": "Stát",
	"Status": "Stádas",
	"Step 1. Physical Marriage": "Céim 1. Marriage Fisiciúil",
	"Step 2. Logical Marriage": "Céim 2. Marriage Loighciúil",
	"Subnet Mask": "Mascadh Folíne",
	"Subnet prefix length": "Fad rémíre folíne",
	"Success": "Déanta",
	"Sudan": "an tSúdáin",
	"Sun": "Domh",
	"Sunday": "Domhnach",
	"SuperSign Content": "Ábhar Supersign",
	"SuperSign Contents": "Ábhar Supersign",
	"Suriname": "Suranam",
	"Sustain Aspect Ratio": "Coinnigh Cóimheas Gné",
	"Swaziland": "an tSuasalainn",
	"Sweden": "an tSualainn",
	"Switzerland": "an Eilbhéis",
	"Syria": "an tSiria",
	"System": "Córas",
	"System Box": "Bosca Córais",
	"System Control": "Rialú Córais",
	"System Controller": "Rialaitheoir Córais",
	"System Controller Settings": "Socruithe Rialaitheoir Córais",
	"System Information": "Sonraí Córais",
	"System Reboot": "Athbhútáil Córais",
	"System Settings": "Socruithe Córais",
	"System controller will restart.": "Tosóidh an rialaitheoir córais arís.",
	"System controller will restart. Do you want to continue?": "Tosóidh an rialaitheoir córais arís. Ar mhaith leat leanúint ar aghaidh?",
	"Tahiti": "Taihítí",
	"Taiwan": "an Téaváin",
	"Tajikistan": "an Táidsíceastáin",
	"Tanzania": "an Tansáin",
	"Temperature": "Teocht",
	"Temperature history is not yet collected": "Níl stair Teochta bailithe go fóill",
	"Test Color": "Dath Tástála",
	"Test Pattern": "Patrún Tástála",
	"Thailand": "an Téalainn",
	"The POWER remote controller key will not work during the update.": "Ni oibreoidh an eochair chianrialtáin POWER le linn an nuahshonruithe.",
	"The Signage 365 care app has been deleted.": "Tá an aip cúram Comharthaíocht 365 scriosta.",
	"The Signage 365 care app has been successfully installed.": "Tá an aip cúram Comharthaíocht 365 suiteáilte.",
	"The Signage 365 care app has been successfully updated.": "Tá an aip cúram Comharthaíocht 365 nuashonraithe.",
	"The URL format is invalid.": "Tá an formáid URL neamhbhailí.",
	"The installation of the Signage 365 care app has failed.": "Theip ar shuiteáil den aip cúram Comharthaíocht 365.",
	"The installation of the Signage 365 care app is in progress.": "Tá suiteáil den aip cúram Comharthaíocht 365 idir láimhe.",
	"The installation of the {apptitle} has failed.": "Theip ar shuiteáil an {apptitle}.",
	"The installation of the {apptitle} is in progress.": "Tá suiteáil an {apptitle} idir láimhe.",
	"The timer is reset and the marriage process must be restarted from the beginning.": "Tá an t-amadóir athshocraithe agus caithfear an próiséas marriage a atosú ón tús.",
	"The update of the Signage 365 care app has failed.": "Theip ar nuashonrú den aip cúram Comharthaíocht 365.",
	"The update of the Signage 365 care app is in progress.": "Tá nuashonrú den aip cúram Comharthaíocht 365 idir láimhe.",
	"The update of the {apptitle} has failed.": "Theip ar nuashonrú an {apptitle}.",
	"The update of the {apptitle} is in progress.": "Tá nuashonrú an {apptitle} idir láimhe.",
	"The {apptitle} has been successfully installed.": "Tá {apptitle} suiteáilte.",
	"The {apptitle} has been successfully updated.": "Tá {apptitle} nuashonraithe.",
	"There is a difference between your signage and the signage 365 care server in time and date.": "Tá difear idir do chomharthaíocht agus an fhreastalaí comharthaíocht cúram 365 ó thaobh am agus dáta.",
	"There is a difference between your signage and the {apptitle} server in time and date.": "Tá difear idir do chomharthaíocht agus an fhreastalaí {apptitle} ó thaobh am agus dáta.",
	"There is no list.": "Níl liosta ann.",
	"There's No Backup file": "Níl aon chomhad Cúltaca ann",
	"This pop up will be closed automatically in 5 sec.": "Beidh an mír aníos seo dúnta go huathoibríoch i 5 soic.",
	"Thu": "Déa",
	"Thursday": "Déardaoin",
	"Tile ID": "UA Tíle",
	"Tile Mode": "Mód Tíle",
	"Tile Mode Setting": "Tile Mode Setting",
	"Tile Mode Settings": "Socruithe Mód Tíle",
	"Time": "Am",
	"Time & Date": "Am & Dáta",
	"Time & Date Settings": "Socruitthe Ama agus Dáta",
	"Time & Date Settings Required": "Am & Dáta Socruithe De Dhíth",
	"Time Setting": "Socrú Ama",
	"Time Zone": "Amchrios",
	"Tint": "Imir",
	"To choose an AP, please use Settings App. with a remote controller.": "Le AP a roghnú, úsáid Aip Socruithe le cianrialtán.",
	"To make your Password more secure. Use letters and numbers.": "Le do Phasfhocal a dhéanamh níos slána. Úsáid litreacha agus uimhreacha.",
	"To make your password more secure, use a mixture of mixed-case letters, numbers and special characters": "Le do phasfhocal a dhéanamh níos sláine, bain úsáid as meascán de chásanna éagsúla litreacha, uimhreacha agus carachtair spesialta",
	"To use Signage 365 care, you need to connect the device to the network . Do you want to set the network connection?": "Le cúram Comharthaíocht 365 a úsáid, caithfidh tú an gléas a cheangal leis an líonra. Ar mhaith leat an socrú líonra a shocrú?",
	"To use {apptitle}, you need to connect the device to the network. Do you want to set the network connection?": "Le {apptitle} a úsáid, caithfidh tú an gléas a cheangal leis an líonra. Ar mhaith leat an socrú líonra a shocrú?",
	"Togo": "Tóga",
	"Tokyo": "Tóiceo",
	"Top": "Barr",
	"Top Left": "Ar Barr Ar Chlé",
	"Top Right": "Ar Barr Ar Dheis",
	"Transportation": "Iompar",
	"Trinidad And Tobago": "Oileán na Tríonóide agus Tobága",
	"Tue": "Mái",
	"Tuesday": "Máirt",
	"Tunisia": "an Túinéis",
	"Turkey": "an Tuirc",
	"Turkmenistan": "an Tuircméanastáin",
	"Type": "Cineál",
	"URL Loader": "Lódálaí URL",
	"URL Setting": "Socrú URL",
	"Ukraine": "an Úcráin",
	"Unit Calibration": "Calabrú Aonaid",
	"Unit Calibration is modified. Exit without saving?": "Calabrú Aonaid modhnaithe. Éalaigh gan sábháil?",
	"Unit Configuration": "Cuimriú Aonaid",
	"Unit Resolution": "Taifeach Aonaid",
	"Unit Status": "Stádas Aonaid",
	"Unit Temperature": "Teocht Aonaid",
	"United Arab Emirates": "Aontas na nÉimíríochtaí Arabacha",
	"United Kingdom": "an Ríocht Aontaithe",
	"United States of America": "Stáit Aontaithe Meiriceá",
	"Units cut left edge can not be placed in the X:0 positions.": "Ní thig aonaid atá gearrtha ar chlé a chur sna suíomhann X:0.",
	"Units cut right edge cannot be placed in the Y:(Cut Pixel) positions.": "Ní thig aonaid atá gearrtha ar dheis a chur sna suíomhanna Y:(Gearr Picteilín).",
	"Unsupported File type.": "Cineál Comhaid neamhthacaithe.",
	"Unsupported File type. Only Image/Video files are allowed.": "Cineál Comhaid neamhthacaithe. Ní cheadaítear ach comhaid Íomhá/Físe.",
	"Update": "Nushonrú",
	"Update Failed": "Uasdhátú Teipthe",
	"Update LED FPGA micom with xxx done": "Uasdhátú LED FPGA micom le xxx déanta",
	"Update LED FPGA with xxx done": "Uasdhátú LED FPGA le xxx déanta",
	"Update Progress": "Dul Chun Cinn Uasdhátú",
	"Update Succeeded": "Nuashonruithe",
	"Update completed. Set is rebooting now.": "Nuashonrú déanta. Teilifís ag athbhútáil anois.",
	"Update completed. Signage is rebooting now.": "Nuashonraithe. Tá Comharthaíocht ag athbhútáil anois.",
	"Update fan micom with xxx done": "Uasdhátú fean micom le xxx déanta",
	"Update is completed.": "Nuashonraithe.",
	"Update is in progress.": "Uasdhátú idir láimhe.",
	"Update?": "Nuashonraigh?",
	"Updating…": "Ag nuashonrú…",
	"Upload": "UASLÓDÁIL",
	"Upload FPGA Update file (XXX GB available)": "Uaslódáil Comhad Uasdhátaithe FPGA (XXX GB fós ar fáil)",
	"Upload LED FPGA update file": "Uaslódáil comhaid uasdhátaithe LED FPGA",
	"Upload secured S/W Update file": "Uaslódáil daingnithe S/W comhad Uasdhátaithe",
	"Upload secured S/W Update file (XXX GB available)": "Uaslódáil daingnithe S/W comhad Uasdhátaithe (XXX GB ar fáil)",
	"Uploading": "Ag uaslódáil",
	"Uruguay": "Uragua",
	"User": "Úsáideoir",
	"Uzbekistan": "an Úisbéiceastáin",
	"Validation Error.": "Earráid Bailíochtaithe.",
	"Vatican City": "Cathair na Vatacáine ",
	"Venezuela": "Veiniséala",
	"Ver": "Leag",
	"Version": "Leagan",
	"Vertical": "Ingearach",
	"Video": "Físeán",
	"Video Scaler": "Scálóir Físeáin",
	"Vietnam": "Vítneam",
	"View": "Amharc",
	"View Photo": "Amharc Grianghraf",
	"Virtual Controller": "Rialaitheoir Fíorúil",
	"Vivid": "Beoga",
	"Volume": "Airde",
	"Waiting for Approval": "Ag Fanacht Ar Fhaomhadh",
	"Warm": "Teolaí",
	"Wed": "Céa",
	"Wednesday": "Céadaoin",
	"Week": "Seachtain",
	"Welcome to LG WebOS": "Fáilte go LG WebOS",
	"Width": "Leithead",
	"Wired": "Sreangaithe",
	"Working": "Ag Obair",
	"XX GB free of XXGB": "XX GB saor de XX GB",
	"XX of YY": "XX de YY",
	"YES": "TÁ",
	"Yangon": "Rangún",
	"Yemen": "Éimin",
	"Yes": "Tá",
	"You changed IP address or DHCP status. Please reconnect to changed IP address": "D’athraigh tú Seoladh IP nó stádas DHCP. Déan athcheangail chuig seoladh IP athraithe le do thoil.",
	"You did not finish the process in time.": "Níor thug tú an próiséas chun críche in am.",
	"You have failed to login 1/5 time.": "Theip ort logáil isteach 1/5 uair.",
	"You have failed to login 5 times. Please try again after 05:00.": "Theip ort logáil isteach 5 uair. Triail arís le do thoil i ndiaidh 05:00.",
	"You may not be able to reconnect to web pages if you cannot find out new IP address.": "Seans nach dtig leat athcheangail le leathanach greásáin mura dtig leat seoladh IP nua a fháil.",
	"You've entered the same password as the current one. Please enter a different password.": "Is ionann an pasfhocal a chur tú isteach agus an ceann reatha. Cuir isteach pasfhocal éagsúil le do thoil.",
	"Your Password has been changed.": "Athraíodh do phasfhocal",
	"Your device needs the correct time & date to authenticate marriage.": "Tá an t-am & dáta ceart de dhíth le marriage a fhíorú.",
	"Zambia": "an tSaimbia",
	"Zimbabwe": "an tSiombáib",
	"Zoom": "Zúmáil",
	"Zoom In": "Zúmáil Isteach",
	"Zoom In/Out": "Zúmáil Isteach/Amach",
	"Zoom Out": "Zúmáil Amach",
	"align": "ailínigh",
	"available": "ar fáil",
	"color": "dath",
	"full aspect ratio": "cóimheas treoíochta iomlán",
	"general": "ginearálta",
	"hour": "uair",
	"last": "Deiridh",
	"min": "íos",
	"original aspect ratio": "cóimheas treoíochta bunaidh",
	"over {period} min.": "thar {period} nóim.",
	"reading": "léamh",
	"save as PC Time": "sábháil mar Am Ríomhaire",
	"sharpness": "géire",
	"upload": "uaslódáil",
	"version": "leagan",
	"warning": "rabhadh",
	"webOS Version": "Leagan webOS",
	"year": "bliain",
	"{apptitle} will be deleted.": "Scriosfar {apptitle}",
	"{{filename}} already exists.": "Tá {{filename}} ann cheana féin."
}
