{
	"(30,60,120,180) Min": "(30,60,120,180) perc",
	"10 sec": "10 mp",
	"10 sec Auto Refresh": "10 mp. Automatikus frissítés",
	"1Hour": "1 óra",
	"30sec": "30 mp",
	"5 min. Refresh": "5 perc. Frissítés",
	"5Min": "5 p",
	"AM": "de.",
	"Abnormally High": "Abnormálisan magas",
	"Account": "Fiók",
	"Activate": "Aktiválás",
	"Add Media": "Média hozzáadása",
	"Add Mini Module": "Mini-modul hozzáadása",
	"Add Slave Controller": "Alvezérlő hozzáadása",
	"Add Unit": "Elem hozzáadása",
	"Addis Ababa": "Addisz-Abeba",
	"Advanced Options": "További opciók",
	"Advanced Setting": "Speciális beállítások",
	"Afghanistan": "Afganisztán",
	"Africa": "Afrika",
	"Albania": "Albánia",
	"Algeria": "Algéria",
	"Algiers": "Algír",
	"All": "Összes",
	"All Units": "Minden egység",
	"All settings will be reset. Do you want to continue?": "Az összes beállítás vissza lesz állítva. Szeretné folytatni?",
	"Almaty": "Almati",
	"Amman": "Ammán",
	"Amsterdam": "Amszterdam",
	"An error occurred while submitting the form.": "Hiba lépett fel az űrlap beküldése közben.",
	"Anadyr": "Anadir",
	"Anchorage": "Rögzítés",
	"Apply": "Alkalmazza",
	"Apply to All Units": "Alkalmazás minden egységre",
	"Apply?": "Alkalmazza?",
	"Approximate round trip in milli-seconds": "Körülbelüli köridő milliszekundumban",
	"April": "április",
	"Are you sure to change Settings?": "Biztosan módosítja a beállításokat?",
	"Are you sure to change the calibration settings of this unit?": "Biztosan módosítja az egység kalibrálási beállításait?",
	"Are you sure to reboot?": "Biztosan újra szeretné indítani?",
	"Are you sure to use": "Biztosan alkalmazza?",
	"Are you sure to use Wi-Fi DHCP?": "Biztos, hogy Wi-Fi DHCP-t kíván használni?",
	"Are you sure to use Wired DHCP?": "Biztos, hogy vezetékes DHCP-t kíván használni?",
	"Argentina": "Argentína",
	"Armenia": "Örményország",
	"Ashgabat": "Asgabat",
	"Asia": "Ázsia",
	"Aspect Ratio when rotated": "Képarány elforgatáskor",
	"Athens": "Athén",
	"August": "augusztus",
	"Australia": "Ausztrália",
	"Austria": "Ausztria",
	"Authenticate": "Hitelesítés",
	"Authentication Failed": "Hitelesítés sikertelen",
	"Authentication completed.": "Hitelesítés sikeres.",
	"Auto": "Automatikus",
	"Auto Detect": "Automatikus érzékelés",
	"Auto Refresh": "Automatikus frissítés",
	"Automatically Assign IP Address": "IP cím automatikus hozzárendelése",
	"Available to Installation": "Telepíthető",
	"Azerbaijan": "Azerbajdzsán",
	"Azores": "Azori-szigetek",
	"BLU Status": "BLU státusz",
	"Back": "Vissza",
	"Backlight": "Háttérfény",
	"Backup Media Upload": "Média feltöltése biztonsági másolat készítéséhez",
	"Backup file Thumbnail Image": "Biztonsági másolat miniatűrje",
	"Backup via storage": "Biztonsági mentés tárolóval",
	"Baghdad": "Bagdad",
	"Bahamas": "Bahama-szigetek",
	"Bahrain": "Bahrein",
	"Bangladesh": "Banglades",
	"Basic Setting": "Alapbeállítás",
	"Begin test": "Teszt indítása",
	"Beijing": "Peking",
	"Beirut": "Bejrút",
	"Belarus": "Fehéroroszország",
	"Belgrade": "Belgrád",
	"Bhutan": "Bhután",
	"Bishkek": "Biskek",
	"Black Level": "Fekete szint",
	"Bogotá": "Bogota",
	"Bolivia": "Bolívia",
	"Bootloader Version": "Rendszerbetöltő verzió",
	"Bosnia": "Bosznia",
	"Bottom": "Alsó",
	"Bottom Left": "Bal alsó",
	"Bottom Light": "Jobb alsó",
	"Bottom Right": "Jobb alsó",
	"Box Name": "Beltéri egység neve",
	"Bratislava": "Pozsony",
	"Brazil": "Brazília",
	"Brightness": "Fényerő",
	"Browse": "Tallózás",
	"Browse a file to upload": "Keresse meg a feltöltendő fájlt.",
	"Brussels": "Brüsszel",
	"Bucharest": "Bukarest",
	"Bulgaria": "Bulgária",
	"CIS": "FÁK",
	"Cairo": "Kairó",
	"Calibrate Unit": "Egység kalibrálása",
	"Calibrated": "Kalibrálva",
	"Calibrating...": "Kalibráció...",
	"Calibration": "Kalibrálás",
	"Cambodia": "Kambodzsa",
	"Cameroon": "Kamerun",
	"Canada": "Kanada",
	"Canary Islands": "Kanári-szigetek",
	"Cancel": "Mégse",
	"Cannot start S/W update. Check xxx file please.": "S/W frissítés elindítása sikertelen. Kérjük, ellenőrizze a(z) xxx fájlt.",
	"Cape Verde": "Zöld-foki Köztársaság",
	"Capture time Interval": "Rögzítési időintervallum",
	"Capture time interval": "Capture time interval",
	"Category": "Kategória",
	"Cayman Islands": "Kajmán-szigetek",
	"Central African Republic": "Közép-afrikai Köztársaság",
	"Chad": "Csád",
	"Change Password": "Jelszó megváltoztatása",
	"Changing Time may cause you to be logged out.": "Az idő módosításának hatására lehetséges, hogy a rendszer kilépteti.",
	"Changing Time zone may cause you to be logged out.": "Az időzóna megváltoztatása esetén előfordulhat, hogy ismételt bejelentkezésre lesz szükség.",
	"Charts": "Diagramok",
	"Check Temperature sensors. -40 means errors when reading Temperature sensors": "Ellenőrizze a hőmérséklet-érzékelő szenzorokat A -40 a hőmérséklet-érzékelő szenzorok leolvasási hibáját jelzi.",
	"Check for Update": "Frissítések keresése",
	"Check whether two passwords are same": "Ellenőrizze, hogy a két jelszó megegyezik-e",
	"Check your URL input": "Ellenőrizze a megadott URL-t",
	"CheckScreen": "Képernyő ellenőrzése",
	"Checking for update...": "Frissítések keresése...",
	"China": "Kína",
	"Christmas Island": "Karácsony-sziget",
	"Cinema": "Színház",
	"City": "Város",
	"Close": "Bezárás",
	"Close status of cabinet doors": "Hiba történt.",
	"Closed": "Bezárt",
	"Closed Loop Fan": "Zárt ventillátor",
	"ClosedLoop": "Zárt lánc",
	"Colombia": "Kolumbia",
	"Color Temperature": "Színhőmérséklet",
	"ColorRead": "Színbeolvasás",
	"Column": "Oszlop",
	"Confirm": "Megerősítés",
	"Confirm Account Number": "Fiókszám megerősítése",
	"Confirm New Password": "Új jelszó megerősítése",
	"Confirm the account number you entered.": "Ellenőrizze a megadott fiókszámot.",
	"Connected": "Kapcsolódva",
	"Content Rotation": "Tartalom elforgatása",
	"Content Rotation Status": "Tartalomelforgatás státusza",
	"Content Rotation is ON": "Tartalom tájolása BE",
	"Content is rotated": "A tartalom elforgatva",
	"Contents rotation is ON": "Tartalom tájolása BE",
	"Continent": "Kontinens",
	"Contrast": "Kontraszt",
	"Control": "Vezérlés",
	"Control Item": "Elem vezérlése",
	"Control Type": "Vezérlés típusa",
	"Cool": "Hűvös",
	"Copenhagen": "Koppenhága",
	"Country/Territory": "Ország/Régió",
	"Croatia": "Horvátország",
	"Cuba": "Kuba",
	"Current": "Jelenlegi",
	"Current Fan RPM": "Jelenlegi ventilátor RPM",
	"Current Password": "Aktuális jelszó",
	"Current Picture mode does not support changing color temperature. Please select \"Expert\" of \"Calibration\" mode to adjust the color temperature.": "A jelenlegi kép üzemmód nem teszi lehetővé a színhőmérséklet módosítását. Kérjük, a színhőmérséklet beállításához válassza ki a „Kalibrálás” üzemmód „Haladó” opcióját.",
	"Current Ver.": "Aktuális verzió",
	"Current Version": "Aktuális verzió",
	"Custom": "Egyedi",
	"Cut Left Edge": "Bal szél levágása",
	"Cut Right Edge": "Jobb szél levágása",
	"Cyprus": "Ciprus",
	"Czech": "Cseh",
	"Czech Republic": "Cseh Köztársaság",
	"Côte d'Ivoire": "Elefántcsontpart",
	"DHCP State": "DHCP státusz",
	"DNS Server": "DNS szerver",
	"DOWNLOAD LOG": "LETÖLTÉSI NAPLÓ",
	"DOWNLOAD LOG FILE": "LETÖLTÉSI NAPLÓFÁJL",
	"DPM (Standby Mode)": "DPM (készenléti üzemmód)",
	"Daisy Direction": "Láncba kapcsolás iránya",
	"Daisy Start by": "Láncba kapcsolás indulása",
	"Damage Detection": "Hibadetektálás",
	"Damaged": "Sérült",
	"Damascus": "Damaszkusz",
	"Dashboard": "Vezérlőpult",
	"Data is not collected now. wait for maximum 60 seconds": "Adatok összegyűjtése folyamatban. Várjon legfeljebb 60 másodpercet",
	"Date": "Dátum",
	"Day": "Nap",
	"Daylight Saving Time": "Nyári Időszámítás",
	"Days": "nap",
	"December": "december",
	"Default": "Alapbeállítás",
	"Default size": "Alapértelmezett méret",
	"Delete": "Törlés1",
	"Delete Mini Module": "Mini-modul törlése",
	"Delete Slave Controller": "Alvezérlő törlése",
	"Delete Unit": "Elem törlése",
	"Delete the file": "Fájl törlése",
	"Delete?": "Törlés?",
	"Democratic Republic Of The Congo": "Kongói Demokratikus Köztársaság",
	"Denmark": "Dánia",
	"Details of Unit": "Egység részletei",
	"Device Control": "Eszközkezelés",
	"Digital Board Reboot": "Digitális tábla újraindítása",
	"Disconnected": "Leválasztva",
	"Display": "Kijelző",
	"Display & Sound": "Képernyő és hang",
	"Display & sound": "Képernyő és hang",
	"Do not reboot in Device page.": "Ne indítson újra a Készülék oldalon.",
	"Do you want to delete the item?": "Szeretné törölni az elemet?",
	"Do you want to delete the selected file?": "Szeretné törölni a kiválasztott fájlt?",
	"Do you want to delete this LED FPGA Update file?": "Valóban törölni kívánja ezt a LED FPGA frissítési fájlt?",
	"Do you want to delete this S/W Update file?": "Szeretné törölni ezt az S/W frissítési fájlt?",
	"Do you want to install this S/W Update file?": "Szeretné telepíteni ezt az S/W frissítési fájlt?",
	"Do you want to proceed?": "Folytatja?",
	"Do you want to set the time & date?": "Be akarja automatikusan állítani az időt és a dátumot?",
	"Do you want to set the time or date automatically?": "Beállítja automatikusan az időt és a dátumot?",
	"Dominica": "Dominika",
	"Dominican Republic": "Dominikai Köztársaság",
	"Done": "Kész",
	"Door": "Lapozás",
	"Door Control": "Ajtó vezérlés",
	"Door Monitor": "Ajtó ellenőrzése",
	"Door Open": "Nyitott ajtó",
	"Door Sensor": "Ajtóérzékelő",
	"Door Sensor Status": "Ajtószenzor állapota",
	"Door xxx is opened": "Az xxx ajtó nyitva van",
	"Draw": "Áramellátás",
	"Dubai": "Dubaj",
	"Duplicated Unit ID": "Duplikált egységazonosítók",
	"Duration": "Időtartam",
	"Dushanbe": "Dusanbe",
	"Dynamic Brightness": "Dinamikus fényerő",
	"Dynamic Brightness Control": "Dinamikus fényerő szabályozója",
	"Easter Island": "Húsvét-sziget",
	"Ecuador": "Ecuadori Köztársaság",
	"Edit": "Szerkesztés",
	"Education": "Oktatás",
	"Egypt": "Egyiptom",
	"Enable or disable Signage 365 Care services on this device": "A Signage 365 támogatás szolgáltatások engedélyezése/letiltása ezen a készüléken",
	"Enable or disable {apptitle} service on this device": "A(z) {apptitle} szolgáltatás engedélyezése/letiltása ezen az eszközön",
	"End": "vége",
	"End Time": "Befejezés időpontja",
	"Energy Saving": "Energiatakarékos üzemmód",
	"Enter Account Number": "Fiókszám Megadása",
	"Enter the account number to activate Signage 365 Care.": "Adja meg a fiókszámot a Signage 365 támogatás aktiválásához.",
	"Enter the account number to activate {apptitle}.": "Adja meg a Felhasználói azonosítót a(z) {apptitle} aktiválásához.",
	"Enter the following": "Adja meg a következőket",
	"Enter the network address to ping": "Írja be a pingelni kívánt hálózat címét",
	"Equatorial Guinea": "Egyenlítői-Guinea",
	"Estonia": "Észtország",
	"Ethiopia": "Etiópia",
	"Europe": "Európa",
	"Event": "Esemény",
	"Exit": "Kilépés",
	"Expert": "Szakértő",
	"Export": "Exportálás",
	"External": "Külső",
	"External Input Rotation": "Külső bemenet forgatása",
	"External Input Rotation Status": "Külső bemenetforgatás állapota",
	"External Input Rotation is ON": "Külső bemenet forgatása BE",
	"EyeQ sensor": "EyeQ szenzor",
	"FPGA Version": "FPGA-verzió",
	"Factory Reset": "Gyári beállítások visszaállítása",
	"Fail": "Sikertelen",
	"Fail Over": "Feladatátvétel",
	"Fail to update. Check xxx file please.": "A frissítés sikertelen. Kérjük, ellenőrizze a(z) xxx fájlt.",
	"Failed to update LED FPGA with xxx. Check the file please": "LED FPGA xxx frissítése sikertelen. Kérjük, ellenőrizze a fájlt.",
	"Failed to update LED FPGA with xxx. Check the status of the unit controller.": "A LED FPGA frissítése a következővel nem sikerült: xxx. Ellenőrizze az egység vezérlőjének állapotát.",
	"Failed to update fan micom with xxx. Check the file please": "A ventilátor micom xxx frissítése sikertelen. Kérjük, ellenőrizze a fájlt.",
	"Fan": "Ventilátor",
	"Fan Micom Version": "Ventilátor Micom verzió",
	"Fan RPM": "Ventilátor fordulatszáma",
	"Fan RPM history is not yet collected": "A rendszer még nem rögzítette a ventilátor RPM adatait.",
	"Fan Status": "Ventilátor státusza",
	"February": "február",
	"Fernando de Noronha": "Fernando de Noronha-szigetcsoport",
	"Fiji": "Fidzsi-szigetek",
	"File Name": "Fájlnév",
	"File Select": "Fájlválasztás",
	"File Upload Progress": "Fájl feltöltése folyamatban",
	"File upload via mobile devices does not support.": "A rendszer nem támogatja a mobileszközökön keresztül történő feltöltést.",
	"Finland": "Finnország",
	"First Use": "Első használat",
	"Flash memory is not enough.": "Nincs elegendő flash memória.",
	"For your security, we recommend to change default password. Would you like to change your password now?": "Biztonsági okokból javasoljuk az alapértelmezett jelszó módosítását. Szeretné most módosítani a jelszavát?",
	"Frame": "Keret",
	"France": "Franciaország",
	"French Polynesia": "Francia Polinézia",
	"Fri": "Péntek",
	"Friday": "Péntek",
	"Front": "Elülső",
	"Full": "Teljes",
	"Gambier": "Gambier-szigetek",
	"Game": "Játék",
	"Gamut Matrix": "Gamut mátrix",
	"Gateway": "Átjáró",
	"General": "Általános",
	"Georgia": "Grúzia",
	"Germany": "Németország",
	"Ghana": "Ghána",
	"Gibraltar": "Gibraltár",
	"Go To First Use": "Lépjen az Első használat lehetőségre",
	"Godthab": "Nuuk",
	"Gov./Corp.": "Közig./Váll.",
	"Greece": "Görögország",
	"Greenland": "Grönland",
	"Havana": "Havanna",
	"Height": "Magasság",
	"High": "Magas képvezérlés",
	"History is not yet collected": "A rendszer még nem rögzített adatokat.",
	"Ho Chi Minh": "Ho Si Minh",
	"Home": "Otthon",
	"Hong Kong": "Hongkong",
	"Horizontal": "Vízszintes",
	"Hour": "Óra",
	"Hours": "Óra",
	"Humidity": "Páratartalom",
	"Hungary": "Magyarország",
	"ID": "Azonosító",
	"ID/password": "Azonosító/jelszó",
	"IMB Settings": "IMB-beállítások",
	"IMB Status": "IMB-állapot",
	"IP Address": "IP cím",
	"Iceland": "Izland",
	"Image": "Kép",
	"Impact": "Külső behatolás",
	"Incorrect Password entered. Please try again.": "A megadott jelszó érvénytelen. Kérjük, próbálja meg újra.",
	"Indonesia": "Indonézia",
	"Information": "Információ",
	"Input": "Bemenet",
	"Input 6 or more characters": "6 vagy több karakter megadása szükséges",
	"Input Direction": "Bemeneti irány",
	"Input Password": "Adja meg a jelszót",
	"Input Priority": "Beviteli Prioritás",
	"Input Priority Setting": "Bemeneti prioritás beállításai",
	"Input Signage Name please.": "Kérjük, adja meg a Signage nevét.",
	"Input Window": "Bemenet ablak",
	"Install": "Telepítés",
	"Install Succeeded": "Telepítés sikeres",
	"Installation Failed": "Telepítés sikertelen",
	"Installation Menu": "Telepítő menü",
	"Installing…": "Telepítés…",
	"Internet Not available": "Internet nem elérhető",
	"Internet available": "Internet elérhető",
	"Invalid NEW Password. Password must be 6 characters in length.": "Az ÚJ jelszó érvénytelen. A jelszónak legalább 6 karakterből kell állnia.",
	"Invalid NEW Password. Password must be 8 characters in length.": "Az ÚJ jelszó érvénytelen. A jelszónak legalább 8 karakterből kell állnia.",
	"Invalid NEW Password. You must use a combination of letters and numbers.": "Az ÚJ jelszó érvénytelen. A kódnak betűk és számok kombinációjából kell állnia.",
	"Invalid New password. Password must be at least 8 characters.": "Az új jelszó érvénytelen. A jelszónak legalább 8 karakter hosszúnak kell lennie.",
	"Invalid New password. You must use a mixture of mixed-case letters, numbers and special characters.": "Az új jelszó érvénytelen. Kis- és nagybetűket, számokat, valamint speciális karaktereket kell használnia.",
	"Invalid day value": "Érvénytelen napérték",
	"Invalid hour value": "Érvénytelen óraérték",
	"Invalid minute value": "Érvénytelen percérték",
	"Invalid month value": "Érvénytelen hónapérték",
	"Invalid value": "Érvénytelen érték",
	"Invalid year value": "Érvénytelen évszám",
	"Iran": "Irán",
	"Iraq": "Irak",
	"Ireland": "Írország",
	"Irkutsk": "Irkutszk",
	"Irregular": "Szabványostól eltérő",
	"Israel": "Izrael",
	"Issue History": "Hibanapló",
	"Istanbul": "Isztambul",
	"Italy": "Olaszország",
	"Jamaica": "Jamaika",
	"January": "január",
	"Japan": "Japán",
	"Jerusalem": "Jeruzsálem",
	"Jordan": "Jordánia",
	"July": "július",
	"June": "június",
	"Kaliningrad": "Kalinyingrád",
	"Kamchatka": "Kamcsatka",
	"Kazakhstan": "Kazahsztán",
	"Khartoum": "Kartúm",
	"Kiev": "Kijev",
	"Korea, Republic of": "Koreai Köztársaság",
	"Krasnoyarsk": "Krasznojarszk",
	"Kuwait": "Kuvait",
	"Kuwait City": "Kuvaitváros",
	"Kyrgyzstan": "Kirgizisztán",
	"LED Assistant Settings": "LED Assistant beállításai",
	"LED FPGA Update file list": "LED FPGA frissítési fájlok listája",
	"LED FPGA Updating ......": "LED FPGA frissítése ......",
	"LED Features": "LED-funkciók",
	"LED Film Settings": "LED filmes beállítások",
	"LED Open Detection": "LED-es ajtónyitás-érzékelés",
	"LED Settings": "LED beállítások",
	"LED Unit": "LED egység",
	"LED Unit Status": "LED-egység állapota",
	"LG ConnectedCare App": "LG ConnectedCare alkalmazás",
	"LG ConnectedCare app": "LG ConnectedCare alkalmazás",
	"LG Control Manager": "LG Vezérlőegység",
	"Landscape": "Fekvő",
	"Language": "Nyelv",
	"Laos": "Laosz",
	"Large": "Nagy",
	"Latvia": "Lettország",
	"Layout": "Elrendezés",
	"Layout Editor": "Elrendezés szerkesztő",
	"Lebanon": "Libanon",
	"Liberia": "Libéria",
	"Libya": "Líbia",
	"Lisbon": "Lisszabon",
	"Lithuania": "Litvánia",
	"Loading": "Betöltés",
	"Loading...": "Betöltés…",
	"Loading…": "Betöltés…",
	"Location": "Hely",
	"Log": "Napló",
	"Log Report": "Naplójelentés",
	"Log after Power Up": "Elindítást követő eseménynapló",
	"Log in with the authorized ID and password.": "Jelentkezzen be hitelesített azonosítót és jelszót.",
	"Login": "Bejelentkezés",
	"Login is required.": "Bejelentkezés szükséges",
	"Logout": "Kilépés",
	"Low": "Alacsony képvezérlés",
	"Luxembourg": "Luxemburg",
	"MAC Address": "MAC cím",
	"Macao": "Makaó",
	"Macedonia": "Macedónia",
	"Madagascar": "Madagaszkár",
	"Main": "Fő",
	"Malawi": "Malawi Köztársaság",
	"Malaysia": "Malajzia",
	"Maldives": "Maldív-szigetek",
	"Malta": "Málta",
	"Manage": "Kezelés",
	"Manual": "Kézi",
	"March": "március",
	"Marquesas": "Marquises-szigetek",
	"Marriage Guide (2 Steps)": "Marriage útmutató (2 lépés)",
	"Marriage Status": "Marriage-állapot",
	"Marshall Islands": "Marshall-szigetek",
	"Max Backlight": "Maximális háttérfény",
	"Maximum": "Maximális energia megtakarítás",
	"May": "május",
	"Media Library": "Médiatár",
	"Media file List": "Médiafájlok listája",
	"Media file Upload (XXX GB available)": "Médiafájl feltöltése (XXX GB elérhető)",
	"Medium": "Közepes energia megtakarítás",
	"Menu Language": "Menü nyelve",
	"Mexico": "Mexikó",
	"Mexico City": "Mexikóváros",
	"Micom Progress": "Micom folyamatban",
	"Micom Update": "Micom frissítése",
	"Micom Version": "Micom Verzió",
	"Middle East": "Közép-Kelet",
	"Min Backlight": "Minimális háttérfény",
	"Mini Module": "Mini-modul",
	"Minimum": "Minimális energia megtakarítás",
	"Minimum = XXms, Maximum = YYms, Average = ZZms": "Minimum = XXms, Maximum = YYms, Átlag = ZZms",
	"Mins": "Perc",
	"Minsk": "Minszk",
	"Model Name": "Modellnév",
	"Module Calibration": "Modulkalibrálás",
	"Module Calibration is modified. Exit without saving?": "A modul kalibrálása módosult. Kilép mentés nélkül?",
	"Module Size": "Modul mérete",
	"Modules": "Modulok",
	"Mon": "Hétfő",
	"Monday": "Hétfő",
	"Mongolia": "Mongólia",
	"Montenegro": "Montenegró",
	"Month": "Hónap",
	"More": "Tovább",
	"Morocco": "Marokkó",
	"Moscow": "Moszkva",
	"Motion": "Mozgás",
	"Mozambique": "Mozambik",
	"Muscat": "Maszkat",
	"Mute": "Némítás",
	"NG": "NJ",
	"NO": "NEM",
	"NOT AVAILABLE": "NEM ELÉRHETŐ",
	"Name": "Név",
	"Namibia": "Namíbia",
	"Natural Mode": "Természetes mód",
	"Natural Size": "Természetes Méret",
	"Ndjamena": "N’Djamena",
	"Nepal": "Nepál",
	"Netherlands": "Hollandia",
	"Network": "Hálózat",
	"Network Ready": "Hálózat kész",
	"Network Settings": "Hálózati Beállítások",
	"New Caledonia": "Új-Kaledónia",
	"New Password": "Új jelszó",
	"New Password and Confirm Password do not match.": "Az új jelszó és a megerősítő jelszó nem egyezik.",
	"New Zealand": "Új-Zéland",
	"Newer Ver.": "Újabb verzió",
	"Next": "Következő",
	"Next Day": "Következő nap",
	"Nigeria": "Nigéria",
	"No": "Nem",
	"No Signal": "Nincs jel",
	"No backup files exist in storage device.": "A tárolóeszközön nincs biztonsági másolat.",
	"None": "Nincs",
	"Normal": "Normál",
	"North America": "Észak-Amerika",
	"North Korea": "Észak-Korea",
	"Norway": "Norvégia",
	"Not Connected": "Nincs csatlakozás",
	"Notification": "Értesítés",
	"November": "november",
	"Novosibirsk": "Novoszibirszk",
	"Number": "Szám",
	"OFF": "KI",
	"OLED LIGHT": "OLED lámpa",
	"OLED Light": "OLED lámpa",
	"ON": "BE",
	"OSD Portrait Mode": "OSD álló mód",
	"OSD Portrait Mode is ON": "OSD álló mód BE",
	"OSD Portrait Status": "OSD Álló tájolás státusza",
	"OSD Portrait mode is xxx": "Az OSD álló tájolás xxx",
	"OSD Rotation is ON": "OSD tájolása BE",
	"Occurrence Time": "Esemény időpontja",
	"Oceania": "Óceánia",
	"October": "október",
	"Off": "Ki",
	"Off Until Reset": "Visszaállításig kikapcsolva",
	"Off When Open": "Nyitott állapotban kikacsolva",
	"Oman": "Omán",
	"Omsk": "Omszk",
	"On": "Be",
	"On When Open": "Nyitott állapotban bekapcsolva",
	"Open Loop Fan": "Nyitott ventillátor",
	"OpenLoop": "Nyílt lánc",
	"Opened": "Megnyitott",
	"Original": "Eredeti",
	"Output Window": "Kimenet ablak",
	"OverHeat": "Túlmelegedés",
	"Overwrite": "Felülírás",
	"Overwrite xxx?": "Felülírja ezt: xxx?",
	"Overwrite?": "Felülírja?",
	"PM": "du.",
	"PM Mode": "PM üzemmód",
	"Pacific": "Csendes-óceáni térség",
	"Packets : Sent = XX. Received = YY. Lost = ZZ (WW% loss)": "Csomagok: Elküldve = XX. Megérkezett = YY. Elveszett = ZZ (WW% veszteség)",
	"Pakistan": "Pakisztán",
	"Panama City": "Panamaváros",
	"Papua New Guinea": "Pápua Új-Guinea",
	"Paris": "Párizs",
	"Password": "Jelszó",
	"Password is incorrect. Please Try Again": "Helytelen jelszó. Kérjük, próbálja meg újra",
	"Password is incorrect. Please try again.": "Helytelen jelszó. Kérjük, próbálja meg újra.",
	"Philippines": "Fülöp-szigetek",
	"Phnom Penh": "Phnompen",
	"Picture": "Kép",
	"Picture Mode": "Kép üzemmód",
	"Picture Settings": "Képbeállítások",
	"Ping Test": "Pingteszt",
	"Ping statistics for [X.X.X.X]": "Pingstatisztika ehhez: [X.X.X.X]",
	"Ping test failed. Invalid format of network address field.": "Pingteszt sikertelen. Érvénytelen formátum hálózati cím mezőben.",
	"Ping test is in progress": "Pingteszt folyamatban",
	"Ping test result": "Pingteszt eredménye",
	"Pinging [X.X.X.X] with YYY bytes of data": "[X.X.X.X] pingelése YYY byte adattal",
	"Play": "Lejátszás",
	"Play via URL": "Lejátszás URL-ről",
	"Please Keep this Signage on.": "Kérjük, hagyja bekapcsolva a Signage-t.",
	"Please check the following items and try again.": "Ellenőrizze az következő elemeket és próbálkozzon újra.",
	"Please check the installation file and try again.": "Ellenőrizze a telepítőfájlt és próbálkozzon újra",
	"Please choose a file to upload": "Válassza ki a feltöltendő fájlt.",
	"Please choose a video file to upload": "Kérjük, válassza ki a feltöltendő videofájlt",
	"Please don't turn off the device and wait until the installation is completed.": "Kérjük, ne kapcsolja ki a készüléket. Várja meg, amíg a telepítés befejeződik.",
	"Please don’t turn off the device. And wait while process is completed.": "Kérjük, ne kapcsolja ki az eszközt. Várjon, amíg a folyamat befejeződik.",
	"Please enter the authorized ID and password.": "Adja meg a hitelesített azonosítót és jelszót.",
	"Please login again.": "Kérjük, jelentkezzen be ismét.",
	"Please press the physical marriage button.": "Nyomja meg a fizikai marriage gombot.",
	"Please restart the marriage authentication process.": "Indítsa újra a marriage hitelesítési folyamatát.",
	"Please select city": "Kérjük, válassza ki a várost",
	"Please select country": "Kérjük, válassza ki az országot",
	"Please upload S/W update file via PC browser.": "Kérjük, töltse fel az S/W frissítési fájlt a számítógép böngészőjén keresztül.",
	"Poland": "Lengyelország",
	"Port Number": "Port száma",
	"Port Settings": "Portbeállítások",
	"Portrait": "Portré",
	"Portrait Mode": "Álló tájolás",
	"Portugal": "Portugália",
	"Position": "Pozíció",
	"Power": "Be-/kikapcsolás",
	"Power Off": "Kikapcsolás",
	"Power Off Management": "Kikapcsolás kezelése",
	"Power Off(Default)": "Kikapcsolás (alapértelmezett)",
	"Power Rack": "Áramforrástartó",
	"Power Rack Settings": "Áramforrástartó beállításai",
	"Prague": "Prága",
	"Press the physical marriage button on your master cabinet.": "Nyomja meg a fizikai marriage gombot a mesterházon.",
	"Pressing Start will give you 1 minute to perform the process.": "A Kezdés lehetőség megnyomása 1 percet ad a folyamat elvégzésére.",
	"Prev DAY": "Előző NAP",
	"Prev.": "Előző",
	"Preview": "Előnézet",
	"Priority": "Prioritás",
	"Pyongyang": "Phenjan",
	"Qatar": "Katar",
	"RPM": "fordulatszám",
	"Rearrange": "Átrendezés",
	"Reboot": "Újraindítás",
	"Reboot?": "Újraindítja?",
	"Rebooting": "Újraindítás",
	"Reference Resolution": "Referencia felbontás",
	"Refresh": "Frissítés",
	"Regular": "Szabványos",
	"Rejected": "Elutasítva",
	"Remember me": "Emlékezzen",
	"Rename": "Átnevezés",
	"Rename or Overwrite?": "Átnevezi vagy felülírja?",
	"Rename to {{filename (2)}} or Overwrite?": "Átnevezi {{filename (2)}} névre vagy felülírja?",
	"Reply from [X.X.X.X] : bytes = YY, time = ZZms, TTL = WW": "Válasz ettől: [X.X.X.X] : byte = YY, idő = ZZms, TTL = WW",
	"Republic Of The Congo": "Kongói Köztársaság",
	"Request timed out.": "A kérés ideje lejárt.",
	"Require Network Settings": "Hálózati beállítások szükségesek",
	"Required Marriage": "Szükséges Marriage",
	"Reset": "Visszaállítás",
	"Reset All": "Az összes visszaállítása",
	"Reset Mute": "Némítás visszaállítása",
	"Reset Mute' is Needed": "A némítás visszaállítása szükséges",
	"Reset to factory reset": "Visszaállítás a gyári beállításokra",
	"Reykjavik": "Reykjavík",
	"Riyadh": "Rijád",
	"Romania": "Románia",
	"Rome": "Róma",
	"Rotation": "Forgatás",
	"Row": "Sor",
	"Run Time": "Játékidő",
	"Run Time Since Last Power Up": "Futási idő a legutóbbi elindítás óta",
	"Russia": "Oroszország",
	"Rwanda": "Ruanda",
	"S/W Update": "S/W frissítés",
	"S/W Update File list": "S/W frissítési fájlok listája",
	"S/W Update file list": "S/W frissítési fájlok listája",
	"S/W Update succeeded": "Szoftverfrissítés sikeres",
	"S/W Updating": "S/W frissítés",
	"S/W Updating......": "S/W frissítése......",
	"S/W Ver.": "S/W verzió",
	"S/W update file does not exist.": "Az S/W frissítési fájl nem létezik.",
	"S/W will update. Do you want to continue?": "A szoftver frissülni fog. Szeretné folytatni?",
	"SCREEN": "KÉPERNYŐ",
	"SI App / Play via URL": "SI alkalmazás / Lejátszás URL-ről",
	"Sakhalin": "Szahalin",
	"Samara": "Szamara",
	"Samarkand": "Szamarkand",
	"Samoa": "Szamoa",
	"Santiago": "Santiago de Chile",
	"Sarajevo": "Szarajevó",
	"Sat": "Szombat",
	"Saturday": "Szombat",
	"Saudi Arabia": "Szaúd-Arábia",
	"Save": "Mentés",
	"Scoresbysund": "Ittoqqortoormiit",
	"Screen": "Képernyő",
	"Screen Configuration": "Képernyő-konfigurálás",
	"Screen Fault Detection": "Képernyőhiba érzékelése",
	"Screen Off": "Képernyő ki",
	"Screen Off & Backlight": "Képernyő kikapcsolása és háttérfény",
	"Screen Off & Backlight On": "Képernyő kikapcsolása és háttérfény be",
	"Screen Off Always": "Képernyő kikapcsolása minden esetben",
	"Screen Power Off": "Képernyő kikapcsolása",
	"Screen Rotation": "Képernyő forgatása",
	"Screen Rotation Status": "Képernyőelforgatás állapota",
	"Screen Rotation is ON": "Képernyő forgatása BE",
	"ScreenOn": "Képernyő bekapcsolva",
	"Select File": "Fájl kiválasztása",
	"Select Input Source": "Bemeneti forrás kiválasztása",
	"Select a file to upload": "Válassza ki a feltöltendő fájlt.",
	"Select media file": "Médiafájl kiválasztása",
	"Senegal": "Szenegál",
	"Sensor": "Szenzor",
	"Seoul": "Szöul",
	"September": "szeptember",
	"Serbia": "Szerbia",
	"Serial Number": "Szériaszám",
	"Server Status": "Szerver állapota",
	"Set": "Beállítva",
	"Set Automatically": "Automatikus beállítás",
	"Set ID": "Azonosító beállítása",
	"Set Master": "Fővezérlő beállítása",
	"Set Slave": "Alvezérlő beállítása",
	"Set URL": "URL beállítása",
	"Setting": "Beállítás",
	"Show Color": "Szín megjelenítése",
	"Sigane Name is Too Long": "A Signage neve túl hosszú",
	"Sign in": "Bejelentkezés",
	"Signage 365 Care": "Signage 365 támogatás",
	"Signage 365 Care App": "Signage 365 támogatás alkalmazás",
	"Signage Name": "Signage neve",
	"Signal": "Jel",
	"Simferopol": "Szimferopol",
	"Singapore": "Szingapúr",
	"Size": "Pointer mérete",
	"Slovakia": "Szlovákia",
	"Slovenia": "Szlovénia",
	"Small": "Kicsi",
	"Sofia": "Szófia",
	"Software Version": "Szoftververzió",
	"Solomon Islands": "Salamon-szigetek",
	"Somalia": "Szomália",
	"Sound Control": "Hang vezérlése",
	"South Africa": "Dél-afrikai Köztársaság",
	"South America": "Dél-Amerika",
	"Spain": "Spanyolország",
	"Sports": "Sport",
	"Sri Lanka": "Srí Lanka",
	"Stalled Image": "Elakadt kép",
	"Standard": "Eredeti",
	"Start": "Kezdés",
	"Start Time": "Kezdés",
	"State": "Állam",
	"Status": "Állapot",
	"Step 1. Physical Marriage": "1. lépés Fizikai Marriage",
	"Step 2. Logical Marriage": "2. lépés Helyi Marriage",
	"Subnet Mask": "Alhálózati maszk",
	"Subnet prefix length": "Almenü előtagjának hossza",
	"Success": "Sikeres",
	"Sudan": "Szudán",
	"Sun": "Vasárnap",
	"Sunday": "Vasárnap",
	"SuperSign Content": "SuperSign tartalom",
	"SuperSign Contents": "SuperSign tartalom",
	"Sustain Aspect Ratio": "Képarány megtartása",
	"Swaziland": "Szváziföld",
	"Sweden": "Svédország",
	"Switzerland": "Svájc",
	"Syria": "Szíria",
	"System": "Rendszer",
	"System Box": "Rendszerdoboz",
	"System Control": "Rendszervezérlés",
	"System Controller": "Rendszervezérlő",
	"System Controller Settings": "Rendszervezérlő beállításai",
	"System Information": "Rendszerinformáció",
	"System Reboot": "Rendszer újraindítása",
	"System Settings": "Rendszerbeállítások",
	"System controller will restart.": "A rendszervezérlő újraindul.",
	"System controller will restart. Do you want to continue?": "A rendszervezérlő újraindul. Szeretné folytatni?",
	"Taipei": "Tajpej",
	"Taiwan": "Tajvan",
	"Tajikistan": "Tádzsikisztán",
	"Tanzania": "Tanzánia",
	"Tashkent": "Taskent",
	"Tbilisi": "Tbiliszi",
	"Tehran": "Teherán",
	"Temperature": "Hőmérséklet",
	"Temperature history is not yet collected": "A rendszer még nem rögzített hőmérsékleti adatokat.",
	"Test Color": "Szín tesztelése",
	"Test Pattern": "Minta tesztelése",
	"Thailand": "Thaiföld",
	"The POWER remote controller key will not work during the update.": "A frissítés ideje alatt a távirányító POWER gombja nem működik.",
	"The Signage 365 care app has been deleted.": "A Signage 365 támogatás alkalmazás törlésre került.",
	"The Signage 365 care app has been successfully installed.": "A Signage 365 támogatás alkalmazás telepítése sikeres.",
	"The Signage 365 care app has been successfully updated.": "A Signage 365 támogatás alkalmazás frissítése sikeres.",
	"The URL format is invalid.": "Az URL formátuma érvénytelen",
	"The installation of the Signage 365 care app has failed.": "A Signage 365 támogatás alkalmazás telepítése sikertelen.",
	"The installation of the Signage 365 care app is in progress.": "A Signage 365 támogatás alkalmazás telepítése folyamatban van.",
	"The installation of the {apptitle} has failed.": "A(z) {apptitle} telepítése sikertelen.",
	"The installation of the {apptitle} is in progress.": "A(z) {apptitle} telepítése folyamatban van.",
	"The timer is reset and the marriage process must be restarted from the beginning.": "Az időzítő visszaáll és a marriage folyamatot újra kell indítani.",
	"The update of the Signage 365 care app has failed.": "A Signage 365 támogatás alkalmazás frissítése sikertelen.",
	"The update of the Signage 365 care app is in progress.": "A Signage 365 támogatás alkalmazás frissítése folyamatban van.",
	"The update of the {apptitle} has failed.": "A(z) {apptitle} frissítése sikertelen.",
	"The update of the {apptitle} is in progress.": "A(z) {apptitle} frissítése folyamatban van.",
	"The {apptitle} has been successfully installed.": "A(z) {apptitle} telepítése sikeres.",
	"The {apptitle} has been successfully updated.": "A(z) {apptitle} frissítése sikeres.",
	"There is a difference between your signage and the signage 365 care server in time and date.": "A saját Signage dátuma és ideje eltér a Signage 365 támogatás szerverének dátumától és idejétől.",
	"There is a difference between your signage and the {apptitle} server in time and date.": "A Signage és a(z) {apptitle} kiszolgálójának dátuma és ideje eltér.",
	"There is no list.": "Nincs lista.",
	"There's No Backup file": "Nincsen biztonsági másolat fájl",
	"This pop up will be closed automatically in 5 sec.": "Ez az ablak 5 mp. múlva automatikusan bezáródik.",
	"Thu": "Csütörtök",
	"Thursday": "Csütörtök",
	"Tile ID": "Csempeazonosító",
	"Tile Mode": "Csempe Mód",
	"Tile Mode Setting": "Tile Mode Setting",
	"Tile Mode Settings": "Csempe üzemmód beállításai",
	"Time": "Idő",
	"Time & Date": "Idő és dátum",
	"Time & Date Settings": "Dátum- és időbeállítások",
	"Time & Date Settings Required": "Dátum- és időbeállítás szükséges",
	"Time Setting": "Idő beállítása",
	"Time Zone": "Időzóna",
	"Timor-Leste": "Kelet-Timor",
	"Tint": "Árnyalat",
	"Tiranë": "Tirana",
	"To choose an AP, please use Settings App. with a remote controller.": "Hozzáférési pont kiválasztásához kérjük, használja a Beállítások alkalmazást a távirányító segítségével.",
	"To make your Password more secure. Use letters and numbers.": "Ahhoz, hogy a jelszava biztonságosabb legyen, használjon betűket és számokat.",
	"To make your password more secure, use a mixture of mixed-case letters, numbers and special characters": "A jelszó biztonságosabbá tétele érdekében használjon kis- és nagybetűket, számokat, valamint speciális karaktereket",
	"To use Signage 365 care, you need to connect the device to the network . Do you want to set the network connection?": "A Signage 365 támogatás használatához csatlakoztassa az eszközt a hálózathoz. Be akarja állítani a hálózati kapcsolatot?",
	"To use {apptitle}, you need to connect the device to the network. Do you want to set the network connection?": "A(z) {apptitle} használatához csatlakoztassa az eszközt a hálózathoz. Be szeretné állítani a hálózati kapcsolatot?",
	"Tokyo": "Tokió",
	"Top": "Felső",
	"Top Left": "Bal felső",
	"Top Right": "Jobb felső",
	"Transportation": "Közlekedés",
	"Trinidad And Tobago": "Trinidad és Tobago",
	"Tue": "Kedd",
	"Tuesday": "Kedd",
	"Tunis": "Tunisz",
	"Tunisia": "Tunézia",
	"Turkey": "Törökország",
	"Turkmenistan": "Türkmenisztán",
	"Type": "Típus",
	"URL Loader": "URL betöltő",
	"URL Setting": "URL-beállítás",
	"Ukraine": "Ukrajna",
	"Ulaanbaatar": "Ulánbátor",
	"Unit Calibration": "Egységkalibrálás",
	"Unit Calibration is modified. Exit without saving?": "Az egység kalibrálása módosult. Kilép mentés nélkül?",
	"Unit Configuration": "Egység konfigurálása",
	"Unit Resolution": "Egység felbontása",
	"Unit Status": "Egység státusza",
	"Unit Temperature": "Egység hőmérséklete",
	"United Arab Emirates": "Egyesült Arab Emírségek",
	"United Kingdom": "Egyesült Királyság",
	"United States of America": "Amerikai Egyesült Államok",
	"Units cut left edge can not be placed in the X:0 positions.": "Egységek levágott bal széle nem helyezhető az X:0 pozícióba.",
	"Units cut right edge cannot be placed in the Y:(Cut Pixel) positions.": "Az egységek levágott jobb széle nem helyezhető az X:(pixellevágás) pozícióba.",
	"Unsupported File type.": "Nem támogatott fájltípus.",
	"Unsupported File type. Only Image/Video files are allowed.": "Nem támogatott fájltípus. Kizárólag kép/videófájlok engedélyezettek",
	"Update": "Frissítés",
	"Update Failed": "Frissítés sikertelen",
	"Update LED FPGA micom with xxx done": "LED FPGA micom xxx frissítése befejeződött",
	"Update LED FPGA with xxx done": "LED FPGA xxx frissítése befejeződött.",
	"Update Progress": "Frissítés folyamatban",
	"Update Succeeded": "Frissítés sikeres",
	"Update completed. Set is rebooting now.": "A frissítés befejeződött. A készülék most újraindul.",
	"Update completed. Signage is rebooting now.": "A frissítés befejeződött. A Signage ismételt betöltése folyamatban van.",
	"Update fan micom with xxx done": "A ventilátor micom xxx frissítése befejeződött",
	"Update is completed.": "A frissítés befejeződött.",
	"Update is in progress.": "Frissítés folyamatban.",
	"Update?": "Frissítés?",
	"Updating…": "Frissítés…",
	"Upload": "FELTÖLTÉS",
	"Upload FPGA Update file (XXX GB available)": "FPGA frissítésfájl feltöltése (XXX GB elérhető)",
	"Upload LED FPGA update file": "LED FPGA frissítő fájl feltöltése",
	"Upload secured S/W Update file": "Biztonságos S/W frissítő fájlok feltöltése",
	"Upload secured S/W Update file (XXX GB available)": "Biztonságos S/W frissítő fájlok feltöltése (XXX GB érhető el)",
	"Uploading": "Feltöltés",
	"User": "Felhasználó",
	"Uzbekistan": "Üzbegisztán",
	"Uzhhorod": "Ungvár",
	"Validation Error.": "Megerősítési hiba.",
	"Vatican City": "Vatikánváros",
	"Ver": "Ver.",
	"Version": "Verzió",
	"Vertical": "Függőleges",
	"Video": "Videó",
	"Video Scaler": "Videóskálázó",
	"Vienna": "Bécs",
	"Vientiane": "Vientián",
	"View": "Megtekintés",
	"View Photo": "Fénykép megtekintése",
	"Virtual Controller": "Virtuális vezérlő",
	"Vivid": "Élénk",
	"Vladivostok": "Vlagyivosztok",
	"Volgograd": "Volgográd",
	"Volume": "Hangerő",
	"Waiting for Approval": "Jóváhagyásra vár",
	"Warm": "Meleg",
	"Warsaw": "Varsó",
	"Wed": "Szerda",
	"Wednesday": "Szerda",
	"Week": "Hét",
	"Weekday": "Hétköznap",
	"Welcome to LG WebOS": "Üdvözli Önt az LG WebOS",
	"Width": "Szélesség",
	"Wired": "Vezetékes",
	"Working": "Működő",
	"XX GB free of XXGB": "XX GB szabad XX GB-ból",
	"XX of YY": "XX/YY",
	"YES": "IGEN",
	"Yakutsk": "Jakutszk",
	"Yekaterinburg": "Jekatyerinburg",
	"Yemen": "Jemen",
	"Yerevan": "Jereván",
	"Yes": "Igen",
	"You changed IP address or DHCP status. Please reconnect to changed IP address": "Módosította az IP-címet vagy a DHCP státuszt. Kérjük, csatlakozzon a módosított IP-címhez",
	"You did not finish the process in time.": "Nem fejezte be a folyamatot időben.",
	"You have failed to login 1/5 time.": "Sikertelen bejelentkezés 1/5 alkalommal.",
	"You have failed to login 5 times. Please try again after 05:00.": "Sikertelen bejelentkezés 5 alkalommal Kérjük, próbálja meg újra 05:00 után.",
	"You may not be able to reconnect to web pages if you cannot find out new IP address.": "Előfordulhat, hogy nem fog tudni újra csatlakozni a weboldalakhoz, ha nem tudja az új IP-címet.",
	"You've entered the same password as the current one. Please enter a different password.": "A jelenlegivel egyező jelszót adott meg. Kérjük, adjon meg egy másik jelszót.",
	"Your Password has been changed.": "A jelszó megváltozott.",
	"Your device needs the correct time & date to authenticate marriage.": "A Marriage hitelesítéséhez be kell állítania a megfelelő dátumot és időt az eszközén.",
	"Zagreb": "Zágráb",
	"Zaporozhye": "Zaporizzsja",
	"Zoom": "Közelítés",
	"Zoom In": "Nagyítás",
	"Zoom In/Out": "Közelítés/távolítás",
	"Zoom Out": "Távolítás",
	"align": "igazítás",
	"available": "elérhető",
	"color": "szín",
	"full aspect ratio": "teljes méretarány",
	"general": "általános",
	"hour": "óra",
	"last": "Utolsó",
	"min": "perc",
	"original aspect ratio": "eredeti méretarány",
	"over {period} min.": "{period} perc alatt.",
	"reading": "olvasás",
	"save as PC Time": "mentés PC-időként",
	"sharpness": "élesség",
	"upload": "Feltöltés",
	"version": "verzió",
	"warning": "figyelem",
	"webOS Version": "webOS Verzió",
	"year": "év",
	"{apptitle} will be deleted.": "{apptitle} törlése.",
	"{{filename}} already exists.": "{{filename}} már létezik."
}
