<svg xmlns="http://www.w3.org/2000/svg" width="25.5" height="23.5">
    <defs>
        <filter id="zdow06vvla">
            <feFlood flood-color="#A50034" flood-opacity="1" result="floodOut"/>
            <feComposite in="floodOut" in2="SourceGraphic" operator="atop" result="compOut"/>
            <feBlend in="compOut" in2="SourceGraphic"/>
        </filter>
        <filter id="zqbkv9bhub">
            <feFlood flood-color="#A50034" flood-opacity="1" result="floodOut"/>
            <feComposite in="floodOut" in2="SourceGraphic" operator="atop" result="compOut"/>
            <feBlend in="compOut" in2="SourceGraphic"/>
        </filter>
    </defs>
    <g filter="url(#zdow06vvla)">
        <path fill="#949494" fill-rule="evenodd" stroke="#A50034" d="M23.033 8.889l-1.025 2.92c-.055.156-.25.208-.376.1l-2.347-2.015c-.144-.124-.091-.358.092-.407l1.016-.272c-1.273-4.346-5.815-7.009-10.208-5.832C7.454 4.115 5.404 6.12 4.5 8.589c-.159.435-.688.598-1.059.32l-.011-.007c-.242-.182-.34-.501-.236-.785C4.246 5.235 6.639 2.894 9.826 2.04 14.959.665 20.263 3.769 21.735 8.855l1.015-.271c.183-.049.346.127.283.305zM5.411 13.602l-1.016.273c1.27 4.35 5.813 7.009 10.208 5.832 2.731-.732 4.782-2.737 5.685-5.207.159-.435.688-.598 1.059-.32l.011.008c.242.181.34.5.237.784-1.053 2.883-3.445 5.223-6.632 6.077-5.136 1.376-10.441-1.724-11.91-6.815l-1.015.272c-.183.049-.346-.127-.283-.306l1.025-2.919c.055-.156.25-.209.376-.101l2.347 2.016c.144.123.091.357-.092.406z"/>
    </g>
    <path fill="none" stroke="#A50034" d="M23.033 8.889l-1.025 2.92c-.055.156-.25.208-.376.1l-2.347-2.015c-.144-.124-.091-.358.092-.407l1.016-.272c-1.273-4.346-5.815-7.009-10.208-5.832C7.454 4.115 5.404 6.12 4.5 8.589c-.159.435-.688.598-1.059.32l-.011-.007c-.242-.182-.34-.501-.236-.785C4.246 5.235 6.639 2.894 9.826 2.04 14.959.665 20.263 3.769 21.735 8.855l1.015-.271c.183-.049.346.127.283.305zM5.411 13.602l-1.016.273c1.27 4.35 5.813 7.009 10.208 5.832 2.731-.732 4.782-2.737 5.685-5.207.159-.435.688-.598 1.059-.32l.011.008c.242.181.34.5.237.784-1.053 2.883-3.445 5.223-6.632 6.077-5.136 1.376-10.441-1.724-11.91-6.815l-1.015.272c-.183.049-.346-.127-.283-.306l1.025-2.919c.055-.156.25-.209.376-.101l2.347 2.016c.144.123.091.357-.092.406z"/>
    <g filter="url(#zqbkv9bhub)">
        <path fill="#949494" fill-rule="evenodd" d="M11.206 14.821c.047.006.094.008.142.008.283 0 .561-.098.781-.279l.934-.769 3.704-3.051c.417-.344.475-.959.129-1.374-.346-.414-.965-.472-1.383-.128l-4.03 3.32-.008.006-.972-1.288c-.325-.43-.941-.518-1.375-.195-.434.324-.521.935-.196 1.366l1.44 1.907c.199.265.503.439.834.477z"/>
    </g>
</svg>
