<svg xmlns="http://www.w3.org/2000/svg" width="40" height="40">
    <path fill="#EE5DFF" fill-opacity="0" fill-rule="evenodd" d="M0 0h40v40H0V0z"/>
    <path fill-rule="evenodd" d="M20 0c11.046 0 20 8.954 20 20s-8.954 20-20 20S0 31.046 0 20 8.954 0 20 0z" opacity=".302"/>
    <path fill="#FFF" fill-rule="evenodd" d="M29.042 29.794H11.793c-.411 0-.745-.338-.745-.756v-7.704c0-.418.334-.757.745-.757s.744.339.744.757v6.947h15.76v-6.947c0-.418.334-.757.745-.757s.745.339.745.757v7.704c0 .418-.334.756-.745.756zm-8.082-3.989c-.141.152-.337.238-.543.238-.205 0-.401-.086-.542-.238l-4.464-4.835c-.281-.304-.266-.783.034-1.069.298-.285.77-.271 1.052.034l3.176 3.44V11.786c0-.418.333-.756.744-.756.412 0 .745.338.745.756v11.589l3.176-3.44c.283-.305.752-.319 1.052-.034.3.286.315.765.033 1.069l-4.463 4.835z"/>
</svg>
