<svg xmlns="http://www.w3.org/2000/svg" width="24" height="24">
    <defs>
        <filter id="ef1ila273a">
            <feFlood flood-color="#A50034" flood-opacity="1" result="floodOut"/>
            <feComposite in="floodOut" in2="SourceGraphic" operator="atop" result="compOut"/>
            <feBlend in="compOut" in2="SourceGraphic"/>
        </filter>
        <filter id="5syf5ynhbb">
            <feFlood flood-color="#A50034" flood-opacity="1" result="floodOut"/>
            <feComposite in="floodOut" in2="SourceGraphic" operator="atop" result="compOut"/>
            <feBlend in="compOut" in2="SourceGraphic"/>
        </filter>
    </defs>
    <g fill-rule="evenodd" filter="url(#ef1ila273a)">
        <path fill="#949494" d="M13 6H4V4h7V2h2v2h7v2h-7zm-2 3v8H9V9h2zm4 0v8h-2V9h2zm-8 9c0 .554.458 1 1 1h8c.542 0 1-.446 1-1V8h2v10c0 1.108-1.917 3-3 3H8c-1.084 0-3-1.892-3-3V8h2v10z"/>
        <g filter="url(#5syf5ynhbb)">
            <path fill="#949494" d="M13 6H4V4h7V2h2v2h7v2h-7zm-2 3v8H9V9h2zm4 0v8h-2V9h2zm-8 9c0 .554.458 1 1 1h8c.542 0 1-.446 1-1V8h2v10c0 1.108-1.917 3-3 3H8c-1.084 0-3-1.892-3-3V8h2v10z"/>
        </g>
    </g>
</svg>
