<svg xmlns="http://www.w3.org/2000/svg" width="25" height="21">
    <path fill="#333" fill-rule="evenodd" d="M2 9h21v2.031H2V9z"/>
    <path fill="none" fill-rule="evenodd" stroke="#333" stroke-width="2" d="M10.005 18.527l-8.439-8.44 8.439-8.439"/>
</svg>
