<svg xmlns="http://www.w3.org/2000/svg" width="160" height="160">
    <path fill="#969696" fill-rule="evenodd" d="M134.782 106.67c-2.613 1.287-5.68 1.003-8.007-.725l-14.603-10.863v8.876c0 11.059-9.119 20.057-20.326 20.057h-47.53c-11.207 0-20.325-8.998-20.325-20.057V57.06c0-11.06 9.118-20.059 20.325-20.059h47.53c11.207 0 20.326 8.999 20.326 20.059v8.877l14.599-10.862c2.331-1.73 5.398-2.012 8.011-.728 2.609 1.283 4.23 3.869 4.23 6.746v38.83c0 2.878-1.621 5.464-4.23 6.747zm-30.569-49.61c0-6.729-5.547-12.204-12.367-12.204h-47.53c-6.819 0-12.366 5.475-12.366 12.204v46.898c0 6.73 5.547 12.203 12.366 12.203h47.53c6.82 0 12.367-5.473 12.367-12.203V57.06zm26.84 4.665l-25.25 18.785 25.25 18.783V61.725zm-70.714 5.354l23.573 13.43-23.573 13.429V67.079z"/>
</svg>
