<svg xmlns="http://www.w3.org/2000/svg" width="28" height="28">
    <path fill="#383838" fill-rule="evenodd" d="M23.162 22.149h-5.511V17.56h6.298v3.824c0 .423-.353.765-.787.765zm-3.149-6.119h-2.362V11.441h5.511c.434 0 .787.342.787.765V16.03h-3.936zm-6.297 6.119h-3.149c-.435 0-.787-.342-.787-.765V17.56h6.297V22.149h-2.361zm1.574-6.119H5.844c-.435 0-.787-.342-.787-.765V7.617c0-.423.352-.765.787-.765h9.446c.435 0 .787.342.787.765v7.648c0 .423-.352.765-.787.765zm-.787-7.649H6.631v6.12h7.872v-6.12z"/>
</svg>
