<svg xmlns="http://www.w3.org/2000/svg" width="26" height="26">
    <path fill="#F0F" fill-opacity="0" fill-rule="evenodd" d="M0 0h24v24H0V0z"/>
    <path fill="#FFF" fill-rule="evenodd" stroke="#298026" stroke-width="4" d="M2 2h20v20H2V2z"/>
</svg>
