<svg xmlns="http://www.w3.org/2000/svg" width="28" height="28">
    <path fill="#383838" fill-rule="evenodd" d="M18.998 24.807c-3.429 0-6.218-2.716-6.218-6.054s2.789-6.054 6.218-6.054 6.218 2.716 6.218 6.054-2.789 6.054-6.218 6.054zm0-10.905c-2.748 0-4.983 2.176-4.983 4.851s2.235 4.852 4.983 4.852c2.748 0 4.983-2.177 4.983-4.852 0-2.675-2.235-4.851-4.983-4.851zm2.723 7.191c-.059 0-.121-.008-.181-.026l-2.958-.883c-.262-.078-.44-.317-.436-.584l.065-3.886c.006-.329.281-.591.617-.591h.011c.341.006.612.279.607.611l-.058 3.433 2.514.75c.326.098.51.434.409.751-.081.259-.325.425-.59.425zM8.781 17.24c-.16.156-.368.243-.593.243-.226 0-.434-.087-.594-.243-.161-.151-.249-.359-.249-.578 0-.214.088-.428.249-.578.308-.307.873-.307 1.187 0 .16.15.25.364.25.578 0 .219-.09.422-.25.578zm-.273-5.602c-.101.041-.208.064-.32.064-.226 0-.44-.087-.594-.243-.161-.156-.249-.358-.249-.578 0-.214.088-.428.249-.578.308-.307.878-.307 1.187 0 .16.15.25.364.25.578 0 .22-.09.422-.25.578-.077.081-.172.139-.273.179zm.273 2.711c-.077.081-.172.139-.273.18-.101.04-.208.063-.32.063-.226 0-.44-.086-.594-.243-.161-.15-.249-.358-.249-.578 0-.052.005-.109.017-.162.012-.052.03-.104.047-.15.024-.052.048-.098.078-.144.03-.041.065-.087.107-.122.308-.306.878-.306 1.187 0 .042.035.078.081.107.122.03.046.053.092.077.144.018.046.036.098.048.15.012.053.018.11.018.162 0 .22-.09.422-.25.578zm8.302-5.347H6.417v9.635c0 .658.55 1.194 1.227 1.194h3.86c.062.404.153.798.28 1.177h-4.14c-1.343 0-2.436-1.064-2.436-2.371V7.172c0-1.308 1.093-2.371 2.436-2.371h8.213c1.343 0 2.436 1.063 2.436 2.371v4.34c-.415.031-.818.097-1.21.192V9.002zm-6.817 8.479c-.465 0-.841-.367-.841-.819 0-.453.376-.82.841-.82h1.774c-.233.518-.401 1.067-.505 1.639h-1.269zm-.841-6.6c0-.452.376-.819.841-.819h4.75c.465 0 .841.367.841.819 0 .452-.376.819-.841.819h-4.75c-.465 0-.841-.367-.841-.819zm3.339 3.71h-2.498c-.465 0-.841-.367-.841-.82 0-.452.376-.819.841-.819h4.127c-.627.46-1.178 1.012-1.629 1.639z"/>
</svg>
