<svg xmlns="http://www.w3.org/2000/svg" width="24" height="24">
    <defs>
        <filter id="xfotfaaq4a">
            <feFlood flood-color="#F2F2F2" flood-opacity="1" result="floodOut"/>
            <feComposite in="floodOut" in2="SourceGraphic" operator="atop" result="compOut"/>
            <feBlend in="compOut" in2="SourceGraphic"/>
        </filter>
    </defs>
    <g filter="url(#xfotfaaq4a)">
        <path fill="#FFF" fill-rule="evenodd" d="M24 12c0-6.627-5.373-12-12-12S0 5.373 0 12s5.373 12 12 12 12-5.373 12-12z"/>
    </g>
    <path fill="#1F357E" fill-rule="evenodd" d="M12 0C9.502 0 7.182.765 5.262 2.072v6.537H.499C.186 9.68.017 10.811.017 11.983c0 1.17.168 2.3.481 3.369h4.764v6.542c1.92 1.307 4.24 2.072 6.738 2.072v-8.614h11.502c.313-1.069.481-2.199.481-3.369 0-1.172-.169-2.303-.482-3.374H12V0z"/>
</svg>
