<svg xmlns="http://www.w3.org/2000/svg" width="24" height="24">
    <path fill="#555" fill-rule="evenodd" d="M19.232 19.166c-.157.127-.344.189-.529.189-.249 0-.495-.111-.662-.325-.292-.372-.232-.916.132-1.214 1.64-1.339 2.581-3.33 2.581-5.464 0-2.133-.941-4.125-2.581-5.463-.364-.299-.424-.842-.132-1.215.292-.373.824-.434 1.191-.135 2.043 1.668 3.215 4.152 3.215 6.813 0 2.661-1.172 5.145-3.215 6.814zm-2.359-1.726c-.15.112-.325.166-.498.166-.261 0-.519-.124-.685-.356-.275-.385-.192-.926.186-1.207 1.156-.86 1.847-2.24 1.847-3.691 0-1.451-.691-2.831-1.847-3.691-.378-.281-.461-.822-.186-1.207.276-.386.805-.471 1.183-.19 1.592 1.185 2.543 3.087 2.543 5.088s-.951 3.904-2.543 5.088zm-2.422-1.753c-.13.074-.271.109-.41.109-.297 0-.586-.161-.741-.445-.227-.418-.079-.944.33-1.175.659-.373 1.068-1.072 1.068-1.824s-.409-1.451-1.068-1.823c-.409-.232-.557-.758-.33-1.175.227-.417.743-.569 1.151-.337 1.197.677 1.94 1.955 1.94 3.335s-.743 2.658-1.94 3.335zm-2.738 4.411c-.196.097-.404.145-.612.145-.308 0-.613-.105-.868-.309l-.001-.001-4.374-3.509c-.352-.282-.561-.727-.561-1.191V9.471c0-.464.209-.909.561-1.191l4.374-3.509c.428-.343.995-.406 1.481-.165.505.251.818.77.818 1.355v12.782c0 .585-.313 1.105-.818 1.355zm-.875-13.615L6.99 9.57v5.564l3.848 3.087V6.483zm-6.729 9.346H2.731c-.304 0-.551-.284-.551-.635V9.51c0-.351.247-.635.551-.635h1.378c.305 0 .552.284.552.635v5.684c0 .351-.247.635-.552.635z"/>
</svg>
