<svg xmlns="http://www.w3.org/2000/svg" width="24" height="24">
    <path fill="#CB1D23" fill-rule="evenodd" d="M24 12c0 6.627-5.373 12-12 12S0 18.627 0 12 5.373 0 12 0s12 5.373 12 12z"/>
    <path fill="#F7DE29" fill-rule="evenodd" d="M17.846 8.912l-.536 1.202-.157-1.344-1.121-.249 1.02-.591-.155-1.352.792.975 1.02-.591-.533 1.203.79.982-1.12-.235zm-.337 2.931l.354 1.295H19l-.916.804.345 1.295-.92-.797-.917.797.346-1.295-.917-.804h1.138l.35-1.295zm-2.606-6.652l-.141 1.352-.554-1.188-1.114.249.773-.996-.548-1.189 1.029.577.776-.996-.135 1.351 1.026.584-1.112.256zm-5.286 8.872l-2.526-2.199-2.532 2.199.958-3.557-2.518-2.213 3.12-.007.975-3.55.969 3.55 3.122.014-2.522 2.206.954 3.557zm3.644 1.921l1.056.512.732-1.046-.079 1.359 1.054.512-1.103.335L14.839 19l-.604-1.145-1.101.32.727-1.039-.6-1.152z"/>
</svg>
