<svg xmlns="http://www.w3.org/2000/svg" width="24" height="24">
    <defs>
        <linearGradient id="6pfhkkt27a" x1="0%" x2="0%" y1="0%" y2="100%">
            <stop offset="33%"/>
            <stop offset="33%" stop-color="#E1001F"/>
            <stop offset="66%" stop-color="#E1001F"/>
            <stop offset="66%" stop-color="#F6D928"/>
        </linearGradient>
    </defs>
    <path fill-rule="evenodd" d="M24 12c0 6.627-5.373 12-12 12-6.628 0-12-5.373-12-12S5.372 0 12 0c6.627 0 12 5.373 12 12z"/>
    <path fill="url(#6pfhkkt27a)" d="M24 12c0 6.627-5.373 12-12 12-6.628 0-12-5.373-12-12S5.372 0 12 0c6.627 0 12 5.373 12 12z"/>
</svg>
