<svg xmlns="http://www.w3.org/2000/svg" width="14" height="14">
    <path fill="#999" fill-rule="evenodd" d="M10.483 13.45c-1.494.461-3.169.679-4.741.389-.389.101-.808-.052-1.017-.425-.253-.451-.1-1.03.945-1.293-.413.679-.202-.136-.001.049l.05-.344c1.228.326 2.581.274 3.769-.506 2.384-1.384 3.204-4.445 1.832-6.836C9.947 2.93 6.902 1.277 4.518 2.662c-1.108.643-1.846 1.657-2.213 2.789.03.359-.133.721-.456.913-.444.265-1.012.109-1.268-.194-.11-.351-.131-.571-.098-.78l-.229-.064C.696 3.547 1.819 1.94 3.528.95c3.336.033 7.597-.794 9.932 2.546 1.507 3.34.359 7.615-2.977 9.954z"/>
</svg>
