<svg xmlns="http://www.w3.org/2000/svg" width="42.75" height="41.25">
    <path fill="none" fill-rule="evenodd" stroke="#FFF" stroke-width="2.5" d="M36.25 24v5c0 1.657-1.343 3-3 3h-25c-1.657 0-3-1.343-3-3v-5"/>
    <path fill="none" fill-rule="evenodd" stroke="#FFF" stroke-width="2.5" d="M30.237 26.144l5.013-5.157 5.012 5.157M5.25 16v-5c0-1.657 1.343-3 3-3h25c1.657 0 3 1.343 3 3v5"/>
    <path fill="none" fill-rule="evenodd" stroke="#FFF" stroke-width="2.5" d="M11.263 13.856L6.25 19.013l-5.012-5.157"/>
    <path fill="#FFF" fill-rule="evenodd" d="M26.183 14.822l-4.012 4.013 4.012-4.013-3.206 6.412-.26-.086c-.107.326-.282.636-.542.896-.885.885-2.318.887-3.201.004s-.881-2.316.004-3.202c.257-.257.563-.431.886-.539l-.093-.279 6.412-3.206z"/>
</svg>
