<svg xmlns="http://www.w3.org/2000/svg" width="40" height="40">
    <path fill="#AFAFAF" fill-rule="evenodd" d="M36.789 17.798l-6.079 13.62c-.124.33-.436.548-.785.548H8.208c-.589 0-.995-.597-.785-1.154l6.078-13.62c.124-.33.437-.548.785-.548h21.718c.588 0 .994.597.785 1.154zm-2.926-2.402H13.194c-.397 0-.753.249-.894.625l-4.511 9.832c-.189.414-.8.277-.8-.179V10.686c0-.941.752-1.703 1.679-1.703H16.7c.498 0 .971.225 1.29.613l1.793 2.18c.319.388.791.612 1.29.612h11.951c.927 0 1.679.762 1.679 1.703v.454c0 .47-.376.851-.84.851z"/>
</svg>
