<svg 
 xmlns="http://www.w3.org/2000/svg"
 xmlns:xlink="http://www.w3.org/1999/xlink"
 width="40px" height="40px">
<defs>
<filter id="Filter_0">
    <feFlood flood-color="rgb(255, 255, 255)" flood-opacity="1" result="floodOut" />
    <feComposite operator="atop" in="floodOut" in2="SourceGraphic" result="compOut" />
    <feBlend mode="normal" in="compOut" in2="SourceGraphic" />
</filter>

</defs>
<path fill-rule="evenodd"  opacity="0" fill="rgb(255, 0, 255)"
 d="M0.000,0.000 L40.000,0.000 L40.000,40.000 L0.000,40.000 L0.000,0.000 Z"/>
<g filter="url(#Filter_0)">
<path fill-rule="evenodd"  fill="rgb(255, 0, 255)"
 d="M30.675,25.505 C30.459,25.736 30.168,25.854 29.875,25.854 C29.607,25.854 29.339,25.755 29.127,25.558 C28.686,25.142 28.663,24.447 29.075,24.002 C31.032,21.898 32.110,19.164 32.110,16.304 C32.110,13.443 31.032,10.709 29.075,8.605 C28.663,8.161 28.686,7.465 29.127,7.050 C29.570,6.636 30.262,6.658 30.675,7.102 C33.012,9.616 34.299,12.884 34.299,16.304 C34.299,19.724 33.012,22.991 30.675,25.505 ZM26.334,23.161 C26.132,23.323 25.890,23.402 25.650,23.402 C25.329,23.402 25.012,23.260 24.795,22.990 C24.417,22.516 24.494,21.823 24.965,21.443 C26.531,20.183 27.428,18.311 27.428,16.304 C27.428,14.298 26.531,12.425 24.966,11.166 C24.494,10.786 24.417,10.094 24.795,9.620 C25.172,9.146 25.861,9.068 26.333,9.448 C28.420,11.127 29.618,13.626 29.618,16.304 C29.618,18.982 28.420,21.481 26.334,23.161 ZM22.780,34.250 L17.206,34.250 C16.726,34.250 16.365,33.811 16.454,33.338 L19.036,19.565 C17.651,19.149 16.634,17.873 16.634,16.345 C16.634,14.481 18.138,12.969 19.993,12.969 C21.848,12.969 23.352,14.481 23.352,16.345 C23.352,17.873 22.335,19.149 20.950,19.565 L23.532,33.338 C23.621,33.811 23.260,34.250 22.780,34.250 ZM15.021,21.443 C15.492,21.823 15.569,22.516 15.191,22.990 C14.974,23.260 14.657,23.402 14.336,23.402 C14.096,23.402 13.854,23.323 13.652,23.161 C11.566,21.481 10.369,18.982 10.369,16.304 C10.369,13.626 11.566,11.127 13.653,9.448 C14.126,9.068 14.815,9.146 15.191,9.620 C15.569,10.094 15.492,10.786 15.020,11.166 C13.455,12.425 12.558,14.298 12.558,16.304 C12.558,18.311 13.455,20.183 15.021,21.443 ZM7.877,16.304 C7.877,19.164 8.954,21.898 10.911,24.002 C11.324,24.447 11.300,25.142 10.859,25.558 C10.647,25.755 10.379,25.854 10.111,25.854 C9.818,25.854 9.527,25.737 9.311,25.505 C6.974,22.991 5.687,19.724 5.687,16.304 C5.687,12.884 6.974,9.616 9.311,7.102 C9.724,6.658 10.416,6.636 10.859,7.050 C11.300,7.465 11.324,8.161 10.911,8.605 C8.954,10.709 7.877,13.443 7.877,16.304 Z"/>
</g>
</svg>