<svg xmlns="http://www.w3.org/2000/svg" width="40" height="40">
    <defs>
        <filter id="sh62vfx8ta">
            <feFlood flood-color="#FFF" flood-opacity="1" result="floodOut"/>
            <feComposite in="floodOut" in2="SourceGraphic" operator="atop" result="compOut"/>
            <feBlend in="compOut" in2="SourceGraphic"/>
        </filter>
    </defs>
    <g filter="url(#sh62vfx8ta)">
        <path fill="#AFAFAF" fill-rule="evenodd" d="M34.179 13.47l-7.268 3.789c-.175.091-.367.136-.559.136-.248 0-.494-.076-.703-.225L15.265 9.738l-7.203 5.053c-.543.38-1.293.253-1.677-.288-.383-.54-.253-1.287.29-1.668l7.904-5.544c.418-.295.98-.292 1.396.007l10.477 7.497 6.61-3.445c.588-.305 1.316-.081 1.625.505.309.584.081 1.307-.508 1.615zM9.851 21.757c.942 0 1.705.758 1.705 1.696v7.853c0 .937-.763 1.696-1.705 1.696-.943 0-1.706-.759-1.706-1.696v-7.853c0-.938.763-1.696 1.706-1.696zm7.096-5.984c.943 0 1.706.759 1.706 1.696v13.837c0 .937-.763 1.696-1.706 1.696-.942 0-1.705-.759-1.705-1.696V17.469c0-.937.763-1.696 1.705-1.696zm7.096 6.433c.942 0 1.705.758 1.705 1.695v7.405c0 .937-.763 1.696-1.705 1.696-.943 0-1.706-.759-1.706-1.696v-7.405c0-.937.763-1.695 1.706-1.695zm7.095-3.665c.943 0 1.706.758 1.706 1.695v11.07c0 .937-.763 1.696-1.706 1.696-.942 0-1.705-.759-1.705-1.696v-11.07c0-.937.763-1.695 1.705-1.695z"/>
    </g>
</svg>
