<svg xmlns="http://www.w3.org/2000/svg" width="40" height="40">
    <path fill="#AFAFAF" fill-rule="evenodd" d="M20 35c-8.272 0-15-6.729-15-15S11.728 5 20 5c8.271 0 15 6.729 15 15s-6.729 15-15 15zm0-28C12.832 7 7 12.832 7 20s5.832 13 13 13 13-5.832 13-13S27.168 7 20 7zm-2.253 18.2c-.667.385-1.5-.096-1.5-.866v-8.668c0-.77.833-1.251 1.5-.866l7.507 4.334c.667.385.667 1.347 0 1.732L17.747 25.2z"/>
</svg>
