<svg 
 xmlns="http://www.w3.org/2000/svg"
 xmlns:xlink="http://www.w3.org/1999/xlink"
 width="40px" height="40px">
<path fill-rule="evenodd"  opacity="0" fill="rgb(255, 0, 255)"
 d="M-0.000,-0.000 L40.000,-0.000 L40.000,40.000 L-0.000,40.000 L-0.000,-0.000 Z"/>
<path fill-rule="evenodd"  fill="rgb(255, 255, 255)"
 d="M38.791,26.279 L38.046,27.040 C37.777,27.314 37.340,27.314 37.071,27.040 L35.577,25.515 L35.577,29.186 C35.577,30.742 34.342,32.002 32.818,32.002 L8.162,32.002 C6.639,32.002 5.403,30.742 5.403,29.186 L5.403,23.972 L7.837,23.972 L7.837,29.186 C7.837,29.370 7.983,29.519 8.162,29.519 L32.818,29.519 C32.998,29.519 33.144,29.370 33.144,29.186 L33.144,25.521 L31.801,26.891 C31.532,27.166 31.095,27.166 30.826,26.891 L30.081,26.131 C29.812,25.856 29.812,25.410 30.081,25.135 L33.503,21.643 C33.978,21.158 34.749,21.158 35.224,21.643 L38.791,25.284 C39.061,25.559 39.061,26.004 38.791,26.279 ZM22.842,20.547 C21.770,22.287 19.840,23.195 18.623,22.264 L18.319,21.953 C17.407,20.712 18.297,18.742 20.002,17.648 C21.591,16.628 25.558,14.875 25.558,14.875 C25.558,14.875 23.841,18.924 22.842,20.547 ZM33.144,10.812 C33.144,10.628 32.998,10.479 32.818,10.479 L8.162,10.479 C7.983,10.479 7.837,10.628 7.837,10.812 L7.837,14.477 L9.179,13.107 C9.448,12.832 9.885,12.832 10.154,13.107 L10.899,13.867 C11.169,14.142 11.169,14.588 10.899,14.863 L7.477,18.355 C7.002,18.840 6.232,18.840 5.757,18.355 L2.189,14.714 C1.920,14.439 1.920,13.994 2.189,13.719 L2.934,12.958 C3.203,12.683 3.640,12.683 3.909,12.958 L5.403,14.483 L5.403,10.812 C5.403,9.256 6.639,7.996 8.162,7.996 L32.818,7.996 C34.342,7.996 35.577,9.256 35.577,10.812 L35.577,16.025 L33.144,16.025 L33.144,10.812 Z"/>
</svg>