<svg 
 xmlns="http://www.w3.org/2000/svg"
 xmlns:xlink="http://www.w3.org/1999/xlink"
 width="40px" height="40px">
<defs>
<filter id="Filter_0">
    <feFlood flood-color="rgb(255, 255, 255)" flood-opacity="1" result="floodOut" />
    <feComposite operator="atop" in="floodOut" in2="SourceGraphic" result="compOut" />
    <feBlend mode="normal" in="compOut" in2="SourceGraphic" />
</filter>

</defs>
<path fill-rule="evenodd"  opacity="0" fill="rgb(255, 0, 255)"
 d="M0.000,0.000 L40.000,0.000 L40.000,40.000 L0.000,40.000 L0.000,0.000 Z"/>
<g filter="url(#Filter_0)">
<path fill-rule="evenodd"  fill="rgb(51, 52, 56)"
 d="M20.489,34.989 C12.496,34.989 5.993,28.486 5.993,20.493 C5.993,12.499 12.496,5.996 20.489,5.996 C28.483,5.996 34.986,12.499 34.986,20.493 C34.986,28.486 28.483,34.989 20.489,34.989 ZM25.896,31.770 C26.942,31.267 27.908,30.622 28.770,29.862 C28.778,29.854 28.786,29.846 28.795,29.839 C29.469,29.241 30.055,28.555 30.587,27.826 C29.858,27.418 29.054,27.061 28.195,26.755 C27.655,28.716 26.869,30.426 25.896,31.770 C25.896,31.770 25.896,31.770 25.896,31.770 ZM26.283,26.189 C24.780,25.820 23.159,25.599 21.476,25.536 L21.476,32.850 C23.546,32.219 25.326,29.653 26.283,26.189 ZM27.033,20.493 C27.033,19.232 26.925,18.012 26.734,16.856 C25.080,17.258 23.308,17.499 21.476,17.563 L21.476,23.422 C23.308,23.487 25.080,23.727 26.734,24.130 C26.925,22.973 27.033,21.753 27.033,20.493 ZM19.502,32.850 L19.502,25.536 C17.819,25.599 16.198,25.820 14.696,26.189 C15.652,29.653 17.433,32.219 19.502,32.850 ZM12.209,29.862 C13.071,30.622 14.036,31.267 15.083,31.770 C15.083,31.770 15.083,31.770 15.083,31.770 C14.110,30.426 13.324,28.716 12.784,26.755 C11.924,27.061 11.121,27.418 10.392,27.826 C10.924,28.555 11.510,29.241 12.184,29.839 C12.192,29.846 12.201,29.854 12.209,29.862 ZM9.284,14.959 C9.256,15.017 9.219,15.069 9.192,15.128 C9.153,15.209 9.111,15.288 9.074,15.371 C8.854,15.857 8.661,16.359 8.504,16.877 C8.486,16.938 8.474,17.002 8.456,17.064 C8.327,17.513 8.228,17.974 8.150,18.442 C8.127,18.580 8.105,18.718 8.086,18.857 C8.016,19.394 7.967,19.937 7.967,20.493 C7.967,21.048 8.016,21.592 8.086,22.128 C8.105,22.267 8.127,22.406 8.150,22.544 C8.228,23.011 8.327,23.472 8.456,23.921 C8.474,23.983 8.486,24.047 8.504,24.109 C8.661,24.626 8.854,25.128 9.074,25.615 C9.111,25.697 9.153,25.777 9.192,25.858 C9.219,25.916 9.256,25.969 9.284,26.026 C10.209,25.503 11.233,25.052 12.333,24.678 C12.106,23.355 11.972,21.957 11.972,20.493 C11.972,19.028 12.106,17.631 12.333,16.308 C11.233,15.933 10.209,15.482 9.284,14.959 ZM12.209,11.124 C12.201,11.131 12.192,11.139 12.184,11.147 C11.510,11.744 10.924,12.431 10.392,13.159 C11.121,13.567 11.924,13.924 12.784,14.231 C13.324,12.270 14.110,10.559 15.083,9.215 C14.036,9.719 13.070,10.364 12.209,11.124 ZM19.502,8.136 C17.433,8.767 15.652,11.333 14.696,14.797 C16.198,15.165 17.819,15.386 19.502,15.449 L19.502,8.136 ZM14.245,16.856 C14.054,18.013 13.946,19.232 13.946,20.493 C13.946,21.753 14.054,22.973 14.245,24.130 C15.899,23.727 17.671,23.487 19.502,23.422 L19.502,17.563 C17.671,17.499 15.899,17.258 14.245,16.856 ZM21.476,8.136 L21.476,15.449 C23.159,15.386 24.780,15.165 26.283,14.796 C25.326,11.333 23.546,8.766 21.476,8.136 ZM28.795,11.147 C28.786,11.139 28.778,11.131 28.770,11.124 C27.908,10.364 26.942,9.719 25.896,9.215 C26.869,10.559 27.655,12.270 28.195,14.230 C29.054,13.924 29.858,13.567 30.587,13.159 C30.055,12.431 29.469,11.744 28.795,11.147 ZM32.829,18.442 C32.751,17.974 32.652,17.513 32.523,17.064 C32.505,17.002 32.493,16.938 32.475,16.877 C32.318,16.359 32.125,15.857 31.904,15.371 C31.867,15.288 31.826,15.209 31.787,15.128 C31.759,15.069 31.723,15.016 31.694,14.959 C30.769,15.482 29.745,15.933 28.646,16.308 C28.873,17.630 29.007,19.028 29.007,20.493 C29.007,21.957 28.873,23.355 28.646,24.678 C29.745,25.053 30.769,25.503 31.694,26.027 C31.723,25.969 31.759,25.916 31.787,25.858 C31.826,25.777 31.867,25.697 31.904,25.615 C32.125,25.128 32.318,24.626 32.475,24.109 C32.493,24.047 32.505,23.983 32.523,23.921 C32.652,23.472 32.751,23.011 32.829,22.544 C32.852,22.406 32.874,22.267 32.892,22.128 C32.963,21.592 33.012,21.048 33.012,20.493 C33.012,19.937 32.963,19.394 32.892,18.857 C32.874,18.718 32.852,18.580 32.829,18.442 Z"/>
</g>
</svg>