<svg xmlns="http://www.w3.org/2000/svg" width="15" height="12">
    <path fill="#383838" fill-rule="evenodd" d="M14.007 2.905L7.96 9.479l-.331-.36-.33.36-6.047-6.574L2.26 1.81l5.37 5.838L13 1.81l1.007 1.095z" opacity=".8"/>
</svg>
