<svg xmlns="http://www.w3.org/2000/svg" width="12" height="12">
    <defs>
        <filter id="crjrz5eg4a">
            <feFlood flood-color="#FFF" flood-opacity="1" result="floodOut"/>
            <feComposite in="floodOut" in2="SourceGraphic" operator="atop" result="compOut"/>
            <feBlend in="compOut" in2="SourceGraphic"/>
        </filter>
    </defs>
    <g filter="url(#crjrz5eg4a)">
        <path fill="#B5B5B5" fill-rule="evenodd" d="M10.364 6.211l-3.425 4.72c-.393.487-1.264.543-1.723.125-.459-.417-.562-1.226-.169-1.712l2.425-3.155-2.369-3.093c-.387-.491-.247-1.35.218-1.761.465-.41 1.257-.343 1.644.15l3.399 4.726z"/>
    </g>
</svg>
