<svg xmlns="http://www.w3.org/2000/svg" width="28" height="27">
    <path fill="#FFF" fill-rule="evenodd" d="M25.514 10.235l-2.243-.007c-.281 2.223-1.666 3.734-3.323 3.741l-8.223.011c-1.995.007-3.71-1.091-4.477-2.725-1.391.786-2.344 2.257-2.344 3.962 0 2.519 2.058 4.569 4.587 4.569h8.254c.707 0 1.28.57 1.28 1.274 0 .704-.573 1.275-1.28 1.275H9.491c-3.94 0-7.146-3.194-7.146-7.118 0-3.012 1.89-5.587 4.548-6.625.367-2.268 2.361-4.011 4.793-4.019l8.269.009c1.653 0 3.01 1.795 3.308 4.009l2.246.007h.002c.491 0 .858.296.86.775.002.48-.364.86-.857.862zm-4.943-1.64l1.113.008c-.246-1.4-1.029-2.45-1.746-2.45h-.003c-.859.003-1.893 1.399-1.885 3.26.008 1.858 1.05 3.247 1.909 3.247.528-.002.95-.522 1.107-.746.311-.443.521-1.021.626-1.648l-1.104.002c-.49-.002-.888-.387-.891-.865-.001-.48.381-.806.874-.808z"/>
</svg>
