<svg xmlns="http://www.w3.org/2000/svg" width="59" height="28">
    <path fill="#FFF" fill-rule="evenodd" d="M38.025 11.082c-.002.46-.142.887-.404 1.221-.125.168-.286.325-.473.447-.191.118-.41.199-.649.204H31.597c-.515-.005-.972-.238-1.292-.598-.323-.367-.512-.86-.514-1.397V5.62c0-.478.152-.917.43-1.254.279-.333.684-.543 1.131-.566l.076-.002c.106 0 .208.01.309.031l4.876.776h.012c.444.091.79.381 1.024.73.237.352.376.79.376 1.247v4.463l.003.022-.003.015zM26.709 24.295l-4.903 2.026s-1.237.485-2.153-.057c-1.002-.595-.859-1.853-.859-1.853V16.902c0-.753.337-1.428.853-1.899.51-.478 1.205-.824 1.959-.841h4.907s1.966.017 1.966 2.014l.01 5.62v.004c-.004.56-.195 1.101-.51 1.542-.313.441-.753.789-1.27.953zm-.024-11.326H21.458c-1.392.017-2.647-.947-2.662-2.366l-.002-7.387c0-.545.204-1.035.555-1.372.35-.338.811-.526 1.319-.558.289-.019.588.016.895.098h.005l5.233 1.754c.967.289 1.666 1.262 1.678 2.309v5.51c0 1.049-.775 1.992-1.794 2.012zm1.062-7.488c.01-.675-.543-1.451-1.175-1.612l-.012-.001-5.211-1.767c-.244-.064-.47-.09-.681-.074-.373.022-.674.154-.871.347-.199.202-.317.449-.319.805v7.411c0 .447.211.866.568 1.181.365.315.874.51 1.412.5H26.685c.584-.012 1.057-.633 1.062-1.295V5.481zm3.752 8.688h4.877c.452-.007.878.156 1.174.464.301.306.473.734.473 1.209v4.473c-.006.915-.471 1.683-1.219 1.907l-.015.005-5.183 1.034c-.141.041-.28.061-.417.056h-.005c-.397-.012-.763-.197-1.002-.494-.248-.296-.383-.691-.383-1.134v-5.527c0-1.033.719-1.966 1.7-1.993zm-.99 7.591c.017.605.307.852.632.862l.211-.029.015-.002 5.339-1.07c.296-.091.647-.521.642-1.179v-4.556c-.018-.596-.378-.905-.858-.91h-5.032c-.234 0-.466.141-.65.359-.183.21-.308.517-.308.865l.009 5.66z"/>
</svg>
