<svg xmlns="http://www.w3.org/2000/svg" width="59" height="25">
    <path fill="#FFF" fill-rule="evenodd" d="M38.538 11.505c0 .456-.046.902-.111 1.342.956.565 2.196.965 2.5 1.057-.293 1.359-.83 2.623-1.56 3.755-.286-.154-1.441-.745-2.513-1.017-.532.724-1.169 1.364-1.896 1.895.274 1.071.867 2.227 1.017 2.513-1.129.731-2.395 1.267-3.753 1.56-.094-.306-.492-1.548-1.059-2.504-.438.068-.885.116-1.341.116-.456 0-.901-.046-1.339-.116-.566.956-.966 2.198-1.058 2.504-1.36-.293-2.625-.829-3.754-1.56.151-.286.743-1.442 1.017-2.512-.727-.531-1.365-1.172-1.896-1.896-1.074.272-2.228.866-2.514 1.017-.729-1.132-1.267-2.396-1.56-3.755.305-.092 1.547-.492 2.501-1.059-.068-.438-.114-.882-.114-1.34 0-.456.046-.901.114-1.34-.954-.568-2.196-.966-2.501-1.058.293-1.359.831-2.625 1.56-3.756.288.153 1.44.746 2.514 1.019.531-.727 1.169-1.365 1.896-1.896-.274-1.074-.866-2.228-1.017-2.515C24.799 1.23 26.065.692 27.425.4c.09.304.49 1.546 1.058 2.501.438-.067.882-.112 1.339-.112.456 0 .903.045 1.341.112.569-.955.967-2.196 1.059-2.501 1.359.293 2.625.83 3.753 1.559-.15.287-.741 1.441-1.017 2.515.727.531 1.366 1.171 1.896 1.896 1.072-.273 2.227-.865 2.513-1.019.732 1.131 1.268 2.397 1.56 3.756-.303.092-1.544.49-2.5 1.058.065.439.111.884.111 1.34zm-8.716-4.909c-2.71 0-4.908 2.198-4.908 4.91 0 2.711 2.198 4.908 4.908 4.908 2.71 0 4.909-2.197 4.909-4.908 0-2.712-2.199-4.91-4.909-4.91zm0 6.409c-.828 0-1.499-.672-1.499-1.5 0-.827.671-1.498 1.499-1.498.829 0 1.5.671 1.5 1.498 0 .828-.671 1.5-1.5 1.5z"/>
</svg>
