{
	"(30,60,120,180) Min": "(30,60,120,180) นาที",
	"10 sec": "10 วินาที",
	"10 sec Auto Refresh": "รีเฟรชอัตโนมัติทุก 10 วินาที",
	"1Hour": "1 ชั่วโมง",
	"30sec": "30 วินาที",
	"5 min. Refresh": "รีเฟรชทุก 5 นาที",
	"5Min": "5 นาที",
	"Abnormally High": "สูงผิดปกติ",
	"Account": "บัญชี",
	"Accra": "อักกรา",
	"Activate": "เปิดใช้งาน",
	"Adak": "เอดัก",
	"Add Media": "เพิ่มสื่อ",
	"Add Mini Module": "เพิ่มมินิโมดูล",
	"Add Slave Controller": "เพิ่มตัวควบคุมรอง",
	"Add Unit": "เพิ่มหน่วย",
	"Addis Ababa": "แอดดิสอาบาบา",
	"Adelaide": "แอดิเลด",
	"Aden": "เอเดน",
	"Advanced Options": "ตัวเลือกขั้นสูง",
	"Advanced Setting": "การตั้งค่าขั้นสูง",
	"Afghanistan": "อัฟกานิสถาน",
	"Africa": "แอฟริกา",
	"Albania": "แอลเบเนีย",
	"Algeria": "แอลจีเรีย",
	"Algiers": "แอลเจียส์",
	"All": "ทั้งหมด",
	"All Units": "ทุกเครื่อง",
	"All settings will be reset. Do you want to continue?": "การตั้งค่าทั้งหมดจะถูกรีเซ็ต คุณต้องการดำเนินการต่อหรือไม่",
	"Almaty": "อัลมาตี",
	"Amman": "อัมมาน",
	"Amsterdam": "อัมสเตอร์ดัม",
	"An error occurred while submitting the form.": "เกิดข้อผิดพลาดขณะส่งฟอร์ม",
	"Anadyr": "อนาเดียร์",
	"Anchorage": "แองเคอร์เรจ",
	"Angola": "แองโกลา",
	"Antananarivo": "แอนตานานาริโว",
	"Apia": "เอเปีย",
	"Apply": "ใช้",
	"Apply to All Units": "ใช้กับทุกเครื่อง",
	"Apply?": "ใช้หรือไม่",
	"Approximate round trip in milli-seconds": "เวลาไปกลับโดยประมาณเป็นมิลลิวินาที",
	"April": "เมษายน",
	"Araguaína": "อารากวานา",
	"Are you sure to change Settings?": "คุณต้องการเปลี่ยนการตั้งค่าหรือไม่",
	"Are you sure to change the calibration settings of this unit?": "คุณต้องการเปลี่ยนการตั้งค่าการปรับตั้งของเครื่องนี้หรือไม่",
	"Are you sure to reboot?": "คุณต้องการเริ่มต้นใหม่หรือไม่",
	"Are you sure to use": "คุณต้องการใช้",
	"Are you sure to use Wi-Fi DHCP?": "ต้องการใช้ Wi-Fi เพื่อรับไอพีอัตโนมัติ (DHCP) หรือไม่",
	"Are you sure to use Wired DHCP?": "ต้องการใช้สายเพื่อรับไอพีอัตโนมัติ (DHCP) หรือไม่",
	"Argentina": "อาร์เจนตินา",
	"Armenia": "อาร์เมเนีย",
	"Aruba": "อารูบา",
	"Ashgabat": "อาชกาบัต",
	"Asia": "เอเชีย",
	"Asmara": "อัสมารา",
	"Aspect Ratio when rotated": "อัตราส่วนภาพเมื่อหมุน",
	"Asunción": "อะซุนซิออง",
	"Athens": "เอเธนส์",
	"Atikokan": "อาติโคคัน",
	"Auckland": "โอ๊คแลนด์",
	"August": "สิงหาคม",
	"Australia": "ออสเตรเลีย",
	"Austria": "ออสเตรีย",
	"Authenticate": "ตรวจสอบสิทธิ์",
	"Authentication Failed": "การตรวจสอบสิทธิ์ล้มเหลว",
	"Authentication completed.": "การตรวจสอบสิทธิ์เสร็จสมบูรณ์",
	"Auto": "อัตโนมัติ",
	"Auto Detect": "ตรวจหาอัตโนมัติ",
	"Auto Refresh": "รีเฟรชอัตโนมัติ",
	"Automatically Assign IP Address": "กำหนด IP Address โดยอัตโนมัติ",
	"Available to Installation": "สามารถติดตั้งได้",
	"Azerbaijan": "อาเซอร์ไบจาน",
	"Azores": "อะโซร์ส",
	"BLU Status": "สถานะ BLU",
	"Back": "ย้อนกลับ",
	"Backlight": "แสงสว่างพื้นหลัง",
	"Backup Media Upload": "การอัปโหลดสื่อการสำรอง",
	"Backup file Thumbnail Image": "ไฟล์สำรองข้อมูล รูปภาพขนาดย่อ",
	"Backup via storage": "สำรองข้อมูลผ่านอุปกรณ์จัดเก็บข้อมูล",
	"Baghdad": "แบกแดด",
	"Bahamas": "บาฮามาส",
	"Bahrain": "บาห์เรน",
	"Baku": "บากู",
	"Bamako": "บามาโก",
	"Bangkok": "กรุงเทพ",
	"Bangladesh": "บังกลาเทศ",
	"Bangui": "บังกี",
	"Banjul": "บันจูล",
	"Barbados": "บาร์เบโดส",
	"Basic Setting": "การตั้งค่าพื้นฐาน",
	"Begin test": "เริ่มต้นการทดสอบ",
	"Beijing": "ปักกิ่ง",
	"Beirut": "เบรุต",
	"Belarus": "เบลารุส",
	"Belgium": "เบลเยียม",
	"Belgrade": "เบลเกรด",
	"Belize": "เบลีซ",
	"Belém": "เบเลง",
	"Benin": "เบนิน",
	"Berlin": "เบอร์ลิน",
	"Bermuda": "เบอร์มิวดา",
	"Bhutan": "ภูฏาน",
	"Bishkek": "บิชเคก",
	"Bissau": "บิสเซา",
	"Black Level": "ระดับสีดำ",
	"Blanc-Sablon": "บลองค์-ซาบลอน",
	"Blantyre": "บลันไทร์",
	"Boa Vista": "บัววีชตา",
	"Bogotá": "โบโกตา",
	"Bolivia": "โบลิเวีย",
	"Bootloader Version": "เวอร์ชันของ Bootloader",
	"Bosnia": "บอสเนีย",
	"Botswana": "บอตสวานา",
	"Bottom": "ล่างสุด",
	"Bottom Left": "ล่างซ้าย",
	"Bottom Light": "ล่างขวา",
	"Bottom Right": "ด้านล่างขวา",
	"Box Name": "ชื่อกล่อง",
	"Bratislava": "บราติสลาวา",
	"Brazil": "บราซิล",
	"Brazzaville": "บราซซาวิล",
	"Brightness": "ปรับความสว่าง",
	"Brisbane": "บริสเบน",
	"Browse": "เรียกดู",
	"Browse a file to upload": "เรียกดูไฟล์ที่จะอัปโหลด",
	"Brussels": "บรัสเซลส์",
	"Bucharest": "บูคาเรสต์",
	"Budapest": "บูดาเปสต์",
	"Buenos Aires": "บัวโนสไอเรส",
	"Bujumbura": "บูจุมบูรา",
	"Bulgaria": "บัลแกเรีย",
	"Burkina Faso": "บูร์กินาฟาโซ",
	"Burundi": "บุรุนดี",
	"CIS": "กลุ่มประเทศเครือเอกราช",
	"Cairo": "ไคโร",
	"Calibrate Unit": "ปรับตั้งเครื่อง",
	"Calibrated": "ปรับตั้ง",
	"Calibrating...": "กำลังปรับตั้ง...",
	"Calibration": "การปรับตั้ง",
	"Cambodia": "กัมพูชา",
	"Cameroon": "แคเมอรูน",
	"Campo Grande": "กัมปูกรันดี",
	"Canada": "แคนาดา",
	"Canary Islands": "หมู่เกาะคะเนรี",
	"Cancel": "ยกเลิก",
	"Cancún": "แคนคูน",
	"Cannot start S/W update. Check xxx file please.": "ไม่สามารถเริ่มต้นการอัปเดตซอฟต์แวร์ โปรดตรวจสอบไฟล์ xxx",
	"Cape Verde": "เคปเวิร์ด",
	"Capture time Interval": "ช่วงเวลาของการเก็บภาพ",
	"Capture time interval": "Capture time interval",
	"Caracas": "การากัส",
	"Casablanca": "คาซาบลังก้า",
	"Category": "ประเภท",
	"Cayman Islands": "หมู่เกาะเคย์แมน",
	"Central African Republic": "สาธารณรัฐแอฟริกากลาง",
	"Chad": "ชาด",
	"Change Password": "เปลี่ยนรหัสผ่าน",
	"Changing Time may cause you to be logged out.": "การเปลี่ยนเวลาอาจทำให้คุณออกจากระบบ",
	"Changing Time zone may cause you to be logged out.": "การเปลี่ยนโซนเวลาอาจทำให้คุณออกจากระบบ",
	"Charts": "แผนภูมิ",
	"Check Temperature sensors. -40 means errors when reading Temperature sensors": "ตรวจสอบเซนเซอร์อุณหภูมิ -40 หมายถึงเกิดข้อผิดพลาดขณะอ่านเซนเซอร์อุณหภูมิ",
	"Check for Update": "ตรวจหาการอัปเดต",
	"Check whether two passwords are same": "ตรวจสอบว่าทั้งสองรหัสผ่านเหมือนกันหรือไม่",
	"Check your URL input": "ตรวจสอบข้อมูล URL ของคุณ",
	"CheckScreen": "ตรวจสอบหน้าจอ",
	"Checking for update...": "กำลังตรวจหาการอัปเดต...",
	"Chicago": "ชิคาโก",
	"Chihuahua": "ชีวาวา",
	"Chile": "ชิลี",
	"China": "จีน",
	"Chisinau": "คีชีเนา",
	"Christmas Island": "เกาะคริสต์มาส",
	"Cinema": "ภาพยนตร์",
	"City": "เมือง",
	"Close": "ปิด",
	"Close status of cabinet doors": "ปิดสถานะของประตูตู้",
	"Closed": "ปิด",
	"Closed Loop Fan": "พัดลมวงจรปิด",
	"ClosedLoop": "การวนซ้ำแบบปิด",
	"Colombia": "โคลอมเบีย",
	"Colombo": "โคลัมโบ",
	"Color Temperature": "โทนสี",
	"ColorRead": "อ่านสี",
	"Column": "คอลัมน์",
	"Conakry": "โคนาครี",
	"Confirm": "ยืนยัน",
	"Confirm Account Number": "ยืนยันหมายเลขบัญชี",
	"Confirm New Password": "ยืนยันรหัสผ่านใหม่",
	"Confirm the account number you entered.": "ยืนยันหมายเลขบัญชีที่คุณป้อน",
	"Connected": "เชื่อมต่อแล้ว",
	"Content Rotation": "การหมุนเนื้อหา",
	"Content Rotation Status": "สถานะการหมุนเนื้อหา",
	"Content Rotation is ON": "การหมุนเนื้อหาเปิดอยู่",
	"Content is rotated": "หมุนเนื้อหาแล้ว",
	"Contents rotation is ON": "การหมุนเวียนเนื้อหาเปิดอยู่",
	"Continent": "ทวีป",
	"Contrast": "ปรับความเข้ม",
	"Control": "การควบคุม",
	"Control Item": "รายการควบคุม",
	"Control Type": "ประเภทการควบคุม",
	"Cool": "เย็น",
	"Copenhagen": "โคเปนเฮเกน",
	"Costa Rica": "คอสตาริกา",
	"Country/Territory": "ประเทศ/พื้นที่",
	"Croatia": "โครเอเชีย",
	"Cuba": "คิวบา",
	"Cuiabá": "กุยาบา",
	"Current": "ปัจจุบัน",
	"Current Fan RPM": "RPM ปัจจุบันของพัดลม",
	"Current Password": "รหัสผ่านปัจจุบัน",
	"Current Picture mode does not support changing color temperature. Please select \"Expert\" of \"Calibration\" mode to adjust the color temperature.": "โหมดรูปภาพปัจจุบันไม่สนับสนุนการเปลี่ยนแปลงอุณหภูมิของสี โปรดเลือก \"ผู้เชี่ยวชาญ\" จากโหมด \"การปรับตั้ง\" เพื่อปรับอุณหภูมิของสี",
	"Current Ver.": "เวอร์ชันปัจจุบัน",
	"Current Version": "เวอร์ชันปัจจุบัน",
	"Custom": "กำหนดเอง",
	"Cut Left Edge": "ตัดขอบซ้าย",
	"Cut Right Edge": "ตัดขอบขวา",
	"Cyprus": "ไซปรัส",
	"Czech": "เช็ก",
	"Czech Republic": "สาธารณรัฐเช็ก",
	"Côte d'Ivoire": "โกตดิวัวร์",
	"DHCP State": "สถานะ DHCP",
	"DOWNLOAD LOG": "ดาวน์โหลดบันทึก",
	"DOWNLOAD LOG FILE": "ดาวน์โหลดไฟล์บันทึก",
	"DPM (Standby Mode)": "DPM (โหมดสแตนด์บาย)",
	"Daisy Direction": "ทิศทางการเวียน",
	"Daisy Start by": "เริ่มต้นการเวียนตาม",
	"Dakar": "ดาการ์",
	"Damage Detection": "การตรวจจับความเสียหาย",
	"Damaged": "เสียหาย",
	"Damascus": "ดามัสกัส",
	"Danmarkshavn": "ดานมาร์กสฮาวน์",
	"Darwin": "ดาร์วิน",
	"Dashboard": "แดชบอร์ด",
	"Data is not collected now. wait for maximum 60 seconds": "ไม่ได้เก็บข้อมูลในขณะนี้ รอเป็นเวลาสูงสุด 60 วินาที",
	"Date": "วันที่",
	"Dawson": "ดอว์สัน",
	"Dawson Creek": "ดอว์สันครีก",
	"Day": "กลางวัน",
	"Daylight Saving Time": "การปรับเวลาตามฤดูกาล",
	"Days": "วัน",
	"December": "ธันวาคม",
	"Default": "ค่าเริ่มต้น",
	"Default size": "ขนาดเริ่มต้น",
	"Delete": "ลบ",
	"Delete Mini Module": "ลบมินิโมดูล",
	"Delete Slave Controller": "ลบตัวควบคุมรอง",
	"Delete Unit": "ลบหน่วย",
	"Delete the file": "ลบไฟล์",
	"Delete?": "ลบหรือไม่",
	"Democratic Republic Of The Congo": "สาธารณรัฐประชาธิปไตยคองโก",
	"Denmark": "เดนมาร์ก",
	"Denver": "เดนเวอร์",
	"Details of Unit": "รายละเอียดของเครื่อง",
	"Detroit": "ดีทรอยต์",
	"Device Control": "การควบคุมอุปกรณ์",
	"Dhaka": "ธากา",
	"Digital Board Reboot": "เริ่มต้นบอร์ดดิจิตัลใหม่",
	"Dili": "ดิลี",
	"Disconnected": "ตัดการเชื่อมต่อแล้ว",
	"Display": "แสดง",
	"Display & Sound": "การแสดงผลและเสียง",
	"Display & sound": "การแสดงผลและเสียง",
	"Do not reboot in Device page.": "โปรดอย่าเริ่มต้นใหม่ในหน้าอุปกรณ์",
	"Do you want to delete the item?": "คุณต้องการลบรายการใช่ไหม",
	"Do you want to delete the selected file?": "คุณต้องลบไฟล์ที่เลือกหรือไม่",
	"Do you want to delete this LED FPGA Update file?": "คุณต้องการลบไฟล์การอัพเดต LED FPGA นี้หรือไม่",
	"Do you want to delete this S/W Update file?": "คุณต้องการลบไฟล์อัปเดตซอฟต์แวร์นี้หรือไม่",
	"Do you want to install this S/W Update file?": "คุณต้องการติดตั้งไฟล์อัปเดตซอฟต์แวร์นี้หรือไม่",
	"Do you want to proceed?": "คุณต้องการดำเนินการต่อหรือไม่",
	"Do you want to set the time & date?": "คุณต้องการตั้งเวลา & วันที่ใช่ไหม",
	"Do you want to set the time or date automatically?": "คุณต้องการตั้งเวลาหรือวันที่โดยอัตโนมัติหรือไม่",
	"Dodoma": "โดโดมา",
	"Doha": "โดฮา",
	"Dominica": "โดมินิกา",
	"Dominican Republic": "สาธารณรัฐโดมินิกัน",
	"Done": "เสร็จ",
	"Door": "ประตู",
	"Door Control": "การควบคุมประตู",
	"Door Monitor": "มอนิเตอร์ประตู",
	"Door Open": "เปิดประตู",
	"Door Sensor": "เซนเซอร์ประตู",
	"Door Sensor Status": "สถานะเซนเซอร์ประตู",
	"Door xxx is opened": "ประตู xxx เปิด",
	"Douala": "ดูอาลา",
	"Draw": "วาด",
	"Dubai": "ดูไบ",
	"Dublin": "ดับลิน",
	"Duplicated Unit ID": "ID ของเครื่องที่ทำซ้ำ",
	"Duration": "ระยะเวลา",
	"Dushanbe": "ดูชานเบ",
	"Dynamic Brightness": "ความสว่างแบบไดนามิก",
	"Dynamic Brightness Control": "การควบคุมความสว่างแบบไดนามิก",
	"Easter Island": "เกาะอีสต์เตอร์",
	"Ecuador": "เอกวาดอร์",
	"Edit": "แก้ไข",
	"Edmonton": "เอดมันตัน",
	"Education": "การศึกษา",
	"Egypt": "อียิปต์",
	"El Salvador": "เอลซัลวาดอร์",
	"Enable or disable Signage 365 Care services on this device": "เปิดใช้หรือปิดใช้บริการ Signage 365 Care ในอุปกรณ์นี้",
	"Enable or disable {apptitle} service on this device": "เปิดหรือปิดบริการ {apptitle} บนอุปกรณ์นี้",
	"End": "สิ้นสุด",
	"End Time": "เวลาสิ้นสุด",
	"Energy Saving": "ประหยัดพลังงาน",
	"Enter Account Number": "ป้อนหมายเลขบัญชี",
	"Enter the account number to activate Signage 365 Care.": "ป้อนหมายเลขบัญชีเพื่อเปิดใช้การดูแล 365 ของ Signage",
	"Enter the account number to activate {apptitle}.": "ป้อนหมายเลขบัญชีเพื่อเปิดใช้งาน {apptitle}",
	"Enter the following": "ป้อนข้อมูลต่อไปนี้",
	"Enter the network address to ping": "ป้อนที่อยู่เครือข่ายที่จะปิง",
	"Equatorial Guinea": "อิเควทอเรียลกินี",
	"Eritrea": "เอริเทรีย",
	"Estonia": "เอสโตเนีย",
	"Ethiopia": "เอธิโอเปีย",
	"Europe": "ยุโรป",
	"Event": "เหตุการณ์",
	"Exit": "ออก",
	"Expert": "ผู้เชี่ยวชาญ",
	"Export": "ส่งออก",
	"External": "ภายนอก",
	"External Input Rotation": "การหมุนอินพุตภายนอก",
	"External Input Rotation Status": "สถานะการหมุนอินพุตภายนอก",
	"External Input Rotation is ON": "การหมุนอินพุตภายนอกทำงาน",
	"EyeQ sensor": "เซนเซอร์ EyeQ",
	"FPGA Version": "เวอร์ชันของ FPGA",
	"Factory Reset": "รีเซ็ตเป็นค่าจากโรงงาน",
	"Fail": "ล้มเหลว",
	"Fail Over": "เริ่มต้นใหม่เมื่อล้มเหลว",
	"Fail to update. Check xxx file please.": "ไม่สามารถอัปเดต โปรดตรวจสอบไฟล์ xxx",
	"Failed to update LED FPGA with xxx. Check the file please": "ไม่สามารถอัปเดต LED FPGA ด้วย xxx โปรดตรวจสอบไฟล์",
	"Failed to update LED FPGA with xxx. Check the status of the unit controller.": "ไม่สามารถอัปเดต LED FPGA ด้วย xxx ตรวจสอบสถานะของเครื่องควบคุมอุปกรณ์",
	"Failed to update fan micom with xxx. Check the file please": "ไม่สามารถอัปเดต micom พัดลมด้วย xxx โปรดตรวจสอบไฟล์",
	"Fan": "พัดลม",
	"Fan Micom Version": "เวอร์ชันของ Micom",
	"Fan RPM": "RPM พัดลม",
	"Fan RPM history is not yet collected": "ยังไม่ได้เก็บข้อมูลประวัติ RPM พัดลม",
	"Fan Status": "สถานะพัดลม",
	"February": "กุมภาพันธ์",
	"Fernando de Noronha": "เฟอร์นันโด เดอ โนรอนฮ่า",
	"Fiji": "ฟิจิ",
	"File Name": "ชื่อไฟล์",
	"File Select": "เลือกไฟล์",
	"File Upload Progress": "ความคืบหน้าของการอัปโหลดไฟล์",
	"File upload via mobile devices does not support.": "ไม่มีการสนับสนุนการอัปโหลดไฟล์ผ่านอุปกรณ์เคลื่อนที่",
	"Finland": "ฟินแลนด์",
	"First Use": "การใช้งานครั้งแรก",
	"Flash memory is not enough.": "หน่วยความจำแฟลชไม่เพียงพอ",
	"For your security, we recommend to change default password. Would you like to change your password now?": "เพื่อความปลอดภัย เราขอแนะนำให้เปลี่ยนรหัสผ่านเริ่มต้น คุณต้องการเปลี่ยนรหัสผ่านทันทีหรือไม่",
	"Fortaleza": "ฟอร์ตาเลซา",
	"Frame": "เฟรม",
	"France": "ฝรั่งเศส",
	"Freetown": "ฟรีทาวน์",
	"French Polynesia": "เฟรนช์โปลินีเซีย",
	"Fri": "ศุกร์",
	"Friday": "วันศุกร์",
	"Front": "ด้านหน้า",
	"Full": "เต็ม",
	"Gabon": "กาบอง",
	"Gaborone": "กาโบโรเน",
	"Gambia": "แกมเบีย",
	"Gambier": "แกมบิเยอร์",
	"Game": "เกมส์",
	"Gamut Matrix": "เมตริกซ์กามุต",
	"General": "ทั่วไป",
	"Georgia": "จอร์เจีย",
	"Germany": "เยอรมนี",
	"Ghana": "กานา",
	"Gibraltar": "ยิบรอลตาร์",
	"Glace Bay": "เกรซเบย์",
	"Go To First Use": "ไปที่การใช้งานครั้งแรก",
	"Godthab": "กอดแธบ",
	"Gov./Corp.": "รัฐบาล/บริษัท",
	"Greece": "กรีซ",
	"Greenland": "กรีนแลนด์",
	"Guadalcanal": "กัวดอลคาแนล",
	"Guadeloupe": "กวาเดอลูป",
	"Guam": "กวม",
	"Guatemala": "กัวเตมาลา",
	"Guatemala City": "กัวเตมาลาซิตี",
	"Guayaquil": "กัวยาควิล",
	"Guernsey": "เกิร์นซีย์",
	"Guinea": "กินี",
	"Guinea Bissau": "กินีบิสเซา",
	"Guyana": "กายอานา",
	"Haiti": "เฮติ",
	"Halifax": "แฮลิแฟกซ์",
	"Harare": "ฮาราเร",
	"Havana": "ฮาวานา",
	"Height": "ความสูง",
	"Helsinki": "เฮลซิงกิ",
	"Hermosillo": "เอร์โมซีโย",
	"High": "สูง",
	"History is not yet collected": "ยังไม่ได้เก็บข้อมูลประวัติ",
	"Ho Chi Minh": "โฮจิมินห์",
	"Hobart": "โฮบาร์ต",
	"Home": "ใช้ในบ้าน",
	"Honduras": "ฮอนดูรัส",
	"Hong Kong": "ฮ่องกง",
	"Honolulu": "โฮโนลูลู",
	"Horizontal": "แนวนอน",
	"Hour": "ชั่วโมง",
	"Hours": "ชั่วโมง",
	"Humidity": "ความชื้น",
	"Hungary": "ฮังการี",
	"ID/password": "ID/รหัสผ่าน",
	"IMB Settings": "การตั้งค่า IMB",
	"IMB Status": "สถานะ IMB",
	"Iceland": "ไอซ์แลนด์",
	"Image": "ภาพ",
	"Impact": "อิมแพคท์",
	"Incorrect Password entered. Please try again.": "รหัสผ่านที่ป้อนไม่ถูกต้อง โปรดลองอีกครั้ง",
	"India": "อินเดีย",
	"Indianapolis": "อินเดียแนโพลิส",
	"Indonesia": "อินโดนีเซีย",
	"Information": "ข้อมูล",
	"Input": "สัญญาณเข้า",
	"Input 6 or more characters": "ป้อนอย่างน้อย 6 อักขระ",
	"Input Direction": "ทิศทางการป้อนข้อมูล",
	"Input Password": "ป้อนรหัสผ่าน",
	"Input Priority": "ลำดับความสำคัญของสัญญาณเข้า",
	"Input Priority Setting": "การตั้งค่าลำดับความสำคัญของอินพุต",
	"Input Signage Name please.": "กรุณาป้อนชื่อ Signage",
	"Input Window": "หน้าต่างอินพุต",
	"Install": "ติดตั้ง",
	"Install Succeeded": "ติดตั้งสำเร็จแล้ว",
	"Installation Failed": "การติดตั้งล้มเหลว",
	"Installation Menu": "เมนูการติดตั้ง",
	"Installing…": "กำลังติดตั้ง…",
	"Internet Not available": "อินเทอร์เน็ตไม่สามารถใช้ได้",
	"Internet available": "อินเทอร์เน็ตสามารถใช้ได้",
	"Invalid NEW Password. Password must be 6 characters in length.": "รหัสผ่านใหม่ไม่ถูกต้อง รหัสผ่านต้องมีความยาว 6 ตัวอักษร",
	"Invalid NEW Password. Password must be 8 characters in length.": "รหัสผ่านใหม่ไม่ถูกต้อง รหัสผ่านต้องมีความยาว 8 ตัวอักษร",
	"Invalid NEW Password. You must use a combination of letters and numbers.": "รหัสผ่านใหม่ไม่ถูกต้อง คุณต้องใช้ตัวอักษรและตัวเลขผสมกัน",
	"Invalid New password. Password must be at least 8 characters.": "รหัสผ่านใหม่ไม่ถูกต้อง รหัสผ่านจะต้องมีความยาวอย่างน้อย 8 อักขระ",
	"Invalid New password. You must use a mixture of mixed-case letters, numbers and special characters.": "รหัสผ่านใหม่ไม่ถูกต้อง คุณต้องใช้ตัวอักษรพิมพ์เล็กและพิมพ์ใหญ่ ตัวเลข และอักขระพิเศษผสมกัน",
	"Invalid day value": "ค่าวันไม่ถูกต้อง",
	"Invalid hour value": "ค่าชั่วโมงไม่ถูกต้อง",
	"Invalid minute value": "ค่านาทีไม่ถูกต้อง",
	"Invalid month value": "ค่าเดือนไม่ถูกต้อง",
	"Invalid value": "ค่าไม่ถูกต้อง",
	"Invalid year value": "ค่าปีไม่ถูกต้อง",
	"Iran": "อิหร่าน",
	"Iraq": "อิรัก",
	"Ireland": "ไอร์แลนด์",
	"Irkutsk": "อีร์คูตสค์",
	"Irregular": "ไม่ปกติ",
	"Israel": "อิสราเอล",
	"Issue History": "ประวัติปัญหา",
	"Istanbul": "อิสตันบูล",
	"Italy": "อิตาลี",
	"Jakarta": "จาการ์ตา",
	"Jamaica": "จาเมกา",
	"January": "มกราคม",
	"Japan": "ญี่ปุ่น",
	"Jerusalem": "เยรูซาเลม",
	"Johannesburg": "โจฮันเนสเบิร์ก",
	"Jordan": "จอร์แดน",
	"July": "กรกฎาคม",
	"June": "มิถุนายน",
	"Kabul": "คาบูล",
	"Kaliningrad": "คาลินินกราด",
	"Kamchatka": "คัมชัตคา",
	"Kampala": "กัมปาลา",
	"Karachi": "คาราชิ",
	"Katmandu": "กาฐมาณฑุ",
	"Kazakhstan": "คาซัคสถาน",
	"Kenya": "เคนยา",
	"Khartoum": "คาร์ทูม",
	"Khovd": "โค็ฟด์",
	"Kiev": "เคียฟ",
	"Kigali": "คิกาลี",
	"Kingston": "คิงส์ตัน",
	"Kinshasa": "กินชาซา",
	"Kiribati": "คิริบาตี",
	"Kiritimati": "คิริสมาส",
	"Kolkata": "กัลกัตตา",
	"Korea": "เกาหลี",
	"Korea, Republic of": "สาธารณรัฐเกาหลี",
	"Krasnoyarsk": "ครัสโนยาสค์",
	"Kuala Lumpur": "กัวลาลัมเปอร์",
	"Kuching": "กูชิง",
	"Kuwait": "คูเวต",
	"Kuwait City": "คูเวตซิตี",
	"Kyrgyzstan": "คีร์กีซสถาน",
	"LED Assistant Settings": "การตั้งค่า LED Assistant",
	"LED FPGA Update file list": "รายการไฟล์การอัพเดต LED FPGA",
	"LED FPGA Updating ......": "กำลังอัพเดต LED FPGA ......",
	"LED Features": "คุณสมบัติของ LED",
	"LED Film Settings": "การตั้งค่าฟิล์ม LED",
	"LED Open Detection": "การตรวจหาการเปิด LED",
	"LED Settings": "การตั้งค่า LED",
	"LED Unit": "อุปกรณ์ LED",
	"LED Unit Status": "สถานะของอุปกรณ์ LED",
	"LG ConnectedCare App": "แอป LG ConnectedCare",
	"LG ConnectedCare app": "แอป LG ConnectedCare",
	"LG Control Manager": "โปรแกรมจัดการการควบคุมของ LG",
	"La Paz": "ลาปาซ",
	"Lagos": "เลกอส",
	"Landscape": "แนวนอน",
	"Language": "ภาษา",
	"Laos": "ลาว",
	"Large": "ใหญ่",
	"Latvia": "ลัตเวีย",
	"Layout": "เลย์เอาต์",
	"Layout Editor": "เครื่องมือแก้ไขเลย์เอาต์",
	"Lebanon": "เลบานอน",
	"Lesotho": "เลโซโท",
	"Liberia": "ไลบีเรีย",
	"Libreville": "ลีเบรอวิล",
	"Libya": "ลิเบีย",
	"Liechtenstein": "ลิกเตนสไตน์",
	"Lima": "ลิมา",
	"Lisbon": "ลิสบอน",
	"Lithuania": "ลิทัวเนีย",
	"Ljubljana": "ลูบลิยานา",
	"Loading": "กำลังโหลด",
	"Loading...": "กำลังโหลด…",
	"Loading…": "กำลังโหลด…",
	"Location": "ตำแหน่ง",
	"Log": "บันทึก",
	"Log Report": "รายงานการบันทึก",
	"Log after Power Up": "บันทึกหลังจากเปิดเครื่อง",
	"Log in with the authorized ID and password.": "เข้าสู่ระบบด้วย ID และรหัสผ่านที่ได้รับอนุญาต",
	"Login": "ล็อกอิน",
	"Login is required.": "ต้องมีล็อกอิน",
	"Logout": "ออกจากระบบ",
	"Lome": "โลเม",
	"London": "ลอนดอน",
	"Los Angeles": "ลอสแองเจลิส",
	"Louisville": "หลุยส์วิลล์",
	"Low": "ต่ำ",
	"Luanda": "ลูอันดา",
	"Lubumbashi": "ลูบุมบาชี",
	"Lusaka": "ลูซากา",
	"Luxembourg": "ลักเซมเบิร์ก",
	"Macao": "มาเก๊า",
	"Macedonia": "มาซิโดเนีย",
	"Maceió": "มาเซโอ ",
	"Madagascar": "มาดากัสการ์",
	"Madeira": "มาเดรา",
	"Madrid": "มาดริด",
	"Magadan": "มากาดาน",
	"Main": "หลัก",
	"Malabo": "มาลาโบ",
	"Malawi": "มาลาวี",
	"Malaysia": "มาเลเซีย",
	"Maldives": "มัลดีฟส์",
	"Mali": "มาลี",
	"Mall/QSR": "ศูนย์การค้า/QSR",
	"Malta": "มอลตา",
	"Manage": "จัดการ",
	"Managua": "มานากัว",
	"Manaus": "มาเนาส์",
	"Manila": "มะนิลา",
	"Manual": "ด้วยตนเอง",
	"Maputo": "มาปูโต",
	"March": "มีนาคม",
	"Marquesas": "มาร์เกซัส",
	"Marriage Guide (2 Steps)": "คำแนะนำ Marriage (2 ขั้นตอน)",
	"Marriage Status": "สถานะของ Marriage",
	"Marshall Islands": "หมู่เกาะมาร์แชลล์",
	"Martinique": "มาร์ตินีก",
	"Maseru": "มาเซรู",
	"Master": "หลัก",
	"Mauritius": "มอริเชียส",
	"Max Backlight": "ไฟส่องสว่างสูงสุด",
	"Maximum": "สูงสุด",
	"May": "พฤษภาคม",
	"Mayotte": "มายอต",
	"Mazatlán": "มาซาตลัน",
	"Mbabane": "อัมบาบาเน",
	"Media Library": "ไลบรารีสื่อ",
	"Media file List": "รายการไฟล์สื่อ",
	"Media file Upload (XXX GB available)": "การอัปโหลดไฟล์สื่อ (ใช้ได้ XXX GB)",
	"Medium": "ปานกลาง",
	"Melbourne": "เมลเบิร์น",
	"Menu Language": "ภาษาเมนู",
	"Mexico": "เม็กซิโก",
	"Mexico City": "เม็กซิโกซิตี",
	"Micom Progress": "ความคืบหน้าของ Micom",
	"Micom Update": "การอัปเดต Micom",
	"Micom Version": "เวอรชันของ Micom",
	"Middle East": "ตะวันออกกลาง",
	"Min Backlight": "ไฟส่องสว่างต่ำสุด",
	"Mini Module": "มินิโมดูล",
	"Minimum": "ต่ำสุด",
	"Minimum = XXms, Maximum = YYms, Average = ZZms": "ต่ำสุด = XXms, สูงสุด = YYms, เฉลี่ย = ZZms",
	"Mins": "นาที",
	"Minsk": "มินสก์",
	"Model Name": "ชื่อรุ่น",
	"Module Calibration": "การปรับตั้งโมดูล",
	"Module Calibration is modified. Exit without saving?": "การปรับตั้งโมดูลมีการแก้ไขแล้ว ต้องการออกโดยไม่บันทึกข้อมูลหรือไม่",
	"Module Size": "ขนาดโมดูล",
	"Modules": "โมดูล",
	"Mogadishu": "โมกาดิชู",
	"Moldova": "มอลโดวา",
	"Mon": "จันทร์",
	"Monaco": "โมนาโก",
	"Moncton": "มองค์ตัน",
	"Monday": "วันจันทร์",
	"Mongolia": "มองโกเลีย",
	"Monrovia": "มันโรเวีย",
	"Montenegro": "มอนเตเนโกร",
	"Monterrey": "มอนเตร์เรย์",
	"Montevideo": "มอนเตวิเดโอ",
	"Month": "เดือน",
	"Montréal": "มอนทรีออล",
	"More": "เพิ่มเติม",
	"Morocco": "โมร็อกโก",
	"Moscow": "มอสโก",
	"Motion": "ความเคลื่อนไหว",
	"Mozambique": "โมซัมบิก",
	"Muscat": "มัสกัต",
	"Mute": "ปิดเสียง",
	"Myanmar": "พม่า",
	"Mérida": "เมรีดา",
	"NG": "ไม่ดี",
	"NO": "ไม่",
	"NOT AVAILABLE": "ไม่สามารถใช้ได้",
	"Nairobi": "ไนโรบี",
	"Name": "ชื่อ",
	"Namibia": "นามิเบีย",
	"Nassau": "แนสซอ",
	"Natural Mode": "โหมดธรรมชาติ",
	"Natural Size": "ขนาดทั่วๆไป",
	"Ndjamena": "เอ็นจาเมนา",
	"Nepal": "เนปาล",
	"Netherlands": "เนเธอร์แลนด์",
	"Network": "เครือข่าย",
	"Network Ready": "ความพร้อมของเครือข่าย",
	"Network Settings": "การตั้งค่าเครือข่าย",
	"New Caledonia": "นิวแคลิโดเนีย",
	"New Password": "รหัสผ่านใหม่",
	"New Password and Confirm Password do not match.": "รหัสผ่านใหม่และรหัสผ่านยืนยันไม่ตรงกัน",
	"New York": "นิวยอร์ก",
	"New Zealand": "นิวซีแลนด์",
	"Newer Ver.": "เวอร์ชันใหม่",
	"Next": "ถัดไป",
	"Next Day": "วันถัดไป",
	"Niamey": "นีอาเม",
	"Nicaragua": "นิการากัว",
	"Nicosia": "นิโคเซีย",
	"Niger": "ไนเจอร์",
	"Nigeria": "ไนจีเรีย",
	"Nipigon": "นิปิกอน",
	"No": "ไม่",
	"No Signal": "ไม่มีสัญญาณ",
	"No backup files exist in storage device.": "ไม่มีไฟล์สำรองอยู่ในอุปกรณ์จัดเก็บข้อมูล",
	"None": "ไม่มี",
	"Normal": "ปกติ",
	"North America": "อเมริกาเหนือ",
	"North Korea": "เกาหลีเหนือ",
	"Norway": "นอร์เวย์",
	"Not Connected": "ไม่มีการเชื่อมต่อ",
	"Notification": "การแจ้งเตือน",
	"Nouméa": "นูเมอา",
	"November": "พฤศจิกายน",
	"Novosibirsk": "โนโวซีบีสค์",
	"Number": "หมายเลข",
	"OFF": "ปิด",
	"OLED LIGHT": "ไฟ OLED",
	"OLED Light": "ไฟ OLED",
	"ON": "เปิด",
	"OSD Portrait Mode": "โหมด OSD แนวตั้ง",
	"OSD Portrait Mode is ON": "OSD โหมดแนวตั้งทำงาน",
	"OSD Portrait Status": "สถานะแนวตั้งของ OSD",
	"OSD Portrait mode is xxx": "โหมดแนวตั้ง OSD คือ xxx",
	"OSD Rotation is ON": "การหมุนเวียน OSD เปิดอยู่",
	"Occurrence Time": "เวลาที่เกิด",
	"Oceania": "โอเชียเนีย",
	"October": "ตุลาคม",
	"Off": "ปิด",
	"Off Until Reset": "ปิดจนกว่าจะรีเซ็ต",
	"Off When Open": "ปิดเครื่องเมื่อเปิด",
	"Oman": "โอมาน",
	"Omsk": "ออมสค์",
	"On": "เปิด",
	"On When Open": "เปิดเครื่องเมื่อเปิด",
	"Open Loop Fan": "พัดลมวงจรเปิด",
	"OpenLoop": "การวนซ้ำแบบเปิด",
	"Opened": "เปิด",
	"Oranjestad": "โอรันเยสตัด",
	"Original": "ต้นฉบับ",
	"Oslo": "ออสโล",
	"Ouagadougou": "วากาดูกู",
	"Output Window": "หน้าต่างเอาต์พุต",
	"OverHeat": "ความร้อนสูง",
	"Overwrite": "เขียนทับ",
	"Overwrite xxx?": "เขียนทับ xxx หรือไม่",
	"Overwrite?": "เขียนทับหรือไม่",
	"PM Mode": "โหมด PM",
	"Pacific": "แปซิฟิก",
	"Packets : Sent = XX. Received = YY. Lost = ZZ (WW% loss)": "แพ็คเก็ต: ส่ง = XX ได้รับ = YY สูญหาย = ZZ (WW% สูญหาย)",
	"Pakistan": "ปากีสถาน",
	"Palau": "ปาเลา",
	"Panama": "ปานามา",
	"Panama City": "ปานามาซิตี",
	"Panel": "จอภาพ",
	"Papua New Guinea": "ปาปัวนิวกินี",
	"Paraguay": "ปารากวัย",
	"Paramaribo": "ปารามาริโบ",
	"Paris": "ปารีส",
	"Password": "รหัสผ่าน",
	"Password is incorrect. Please Try Again": "รหัสผ่านไม่ถูกต้อง โปรดลองอีกครั้ง",
	"Password is incorrect. Please try again.": "รหัสผ่านไม่ถูกต้อง โปรดลองอีกครั้ง",
	"Perth": "เพิร์ท",
	"Peru": "เปรู",
	"Philippines": "ฟิลิปปินส์",
	"Phnom Penh": "พนมเปญ",
	"Phoenix": "ฟินิกซ์",
	"Picture": "ภาพ",
	"Picture Mode": "โหมดภาพ",
	"Picture Settings": "การตั้งค่ารูปภาพ",
	"Ping Test": "ทดสอบการปิง",
	"Ping statistics for [X.X.X.X]": "สถิติการปิงสำหรับ [X.X.X.X]",
	"Ping test failed. Invalid format of network address field.": "ทดสอบการปิงไม่สำเร็จ ฟิลด์ที่อยู่เครือข่ายมีรูปแบบไม่ถูกต้อง",
	"Ping test is in progress": "อยู่ระหว่างการปิงทดสอบ",
	"Ping test result": "ผลทดสอบการปิง",
	"Pinging [X.X.X.X] with YYY bytes of data": "ปิง [X.X.X.X] ด้วยข้อมูล YYY ไบต์",
	"Play": "เล่น",
	"Play via URL": "เล่นผ่าน URL",
	"Please Keep this Signage on.": "โปรดเปิด Signage นี้ค้างไว้",
	"Please check the following items and try again.": "โปรดตรวจสอบแล้วลองอีกครั้ง",
	"Please check the installation file and try again.": "โปรดตรวจสอบไฟล์การติดตั้งและลองอีกครั้ง",
	"Please choose a file to upload": "โปรดเลือกไฟล์ที่จะอัปโหลด",
	"Please choose a video file to upload": "โปรดเลือกไฟล์วิดีโอที่จะอัปโหลด",
	"Please don't turn off the device and wait until the installation is completed.": "โปรดอย่าปิดอุปกรณ์ และรอให้กระบวนการติดตั้งเสร็จสมบูรณ์",
	"Please don’t turn off the device. And wait while process is completed.": "โปรดอย่าปิดอุปกรณ์ และรอให้กระบวนการเสร็จสมบูรณ์",
	"Please enter the authorized ID and password.": "โปรดใส่ ID และรหัสผ่านที่ได้รับอนุญาต",
	"Please login again.": "โปรดล็อกอินอีกครั้ง",
	"Please press the physical marriage button.": "โปรดกดปุ่ม physical marriage",
	"Please restart the marriage authentication process.": "โปรดเริ่มขั้นตอนการตรวจสอบสิทธิ์ marriage อีกครั้ง",
	"Please select city": "โปรดเลือกเมือง",
	"Please select country": "โปรดเลือกประเทศ",
	"Please upload S/W update file via PC browser.": "โปรดอัปโหลดไฟล์อัพเดตซอฟต์แวร์ผ่านเบราว์เซอร์ของคอมพิวเตอร์",
	"Podgorica": "พอดกอรีตซา",
	"Poland": "โปแลนด์",
	"Port": "พอร์ต",
	"Port Louis": "พอร์ตหลุยส์",
	"Port Moresby": "พอร์ตมอร์สบี",
	"Port Number": "หมายเลขพอร์ต",
	"Port Settings": "การตั้งค่าพอร์ต",
	"Port of Spain": "พอร์ตออฟสเปน",
	"Port-au-Prince": "ปอร์โตแปรงซ์",
	"Porto Novo": "ปอร์โต โนโว",
	"Porto Velho": "ปอร์ตูเวลโย",
	"Portrait": "แนวตั้ง",
	"Portrait Mode": "โหมดแนวตั้ง",
	"Portugal": "โปรตุเกส",
	"Position": "ตำแหน่ง",
	"Power": "เปิด/ปิดเครื่อง",
	"Power Off": "ปิด",
	"Power Off Management": "การจัดการการปิดเครื่อง",
	"Power Off(Default)": "ปิดเครื่อง (เริ่มต้น)",
	"Power Rack": "เพาเวอร์แร็ค",
	"Power Rack Settings": "การตั้งค่าเพาเวอร์แร็ค",
	"Prague": "ปราก",
	"Press the physical marriage button on your master cabinet.": "กดปุ่ม physical marriage บนตู้ต้นแบบของคุณ",
	"Pressing Start will give you 1 minute to perform the process.": "การกดปุ่ม เริ่ม จะให้เวลาคุณ 1 นาทีเพื่อดำเนินการ",
	"Prev DAY": "วันก่อนหน้า",
	"Prev.": "ก่อนหน้า",
	"Preview": "แสดงตัวอย่าง",
	"Priority": "ลำดับความสำคัญ",
	"Puerto Rico": "เปอร์โตริโก",
	"Pyongyang": "เปียงยาง",
	"Qatar": "กาตาร์",
	"Rainy River": "เรนนี่ริเวอร์",
	"Rearrange": "จัดเรียง",
	"Reboot": "เริ่มต้นใหม่",
	"Reboot?": "เริ่มต้นใหม่?",
	"Rebooting": "กำลังเริ่มต้นใหม่",
	"Recife": "เรซีเฟ",
	"Reference Resolution": "ความละเอียดอ้างอิง",
	"Refresh": "รีเฟรช",
	"Regina": "ริไจนา",
	"Regular": "ปกติ",
	"Rejected": "ปฏิเสธ",
	"Remember me": "จดจำฉัน",
	"Rename": "เปลี่ยนชื่อ",
	"Rename or Overwrite?": "เปลี่ยนชื่อหรือเขียนทับ",
	"Rename to {{filename (2)}} or Overwrite?": "เปลี่ยนชื่อเป็น {{filename (2)}} หรือเขียนทับหรือไม่",
	"Reply from [X.X.X.X] : bytes = YY, time = ZZms, TTL = WW": "คำตอบจาก [X.X.X.X] : ไบต์ = YY, เวลา = ZZms, TTL = WW",
	"Republic Of The Congo": "สาธารณรัฐคองโก",
	"Request timed out.": "คำขอหมดเวลา",
	"Require Network Settings": "ต้องมีการตั้งค่าเครือข่าย",
	"Required Marriage": "ต้องมี Marriage",
	"Reset": "รีเซ็ต",
	"Reset All": "รีเซ็ตทั้งหมด",
	"Reset Mute": "รีเซ็ตโดยปิดเสียง",
	"Reset Mute' is Needed": "ต้องรีเซ็ตโดยปิดเสียง",
	"Reset to factory reset": "รีเซ็ตเป็นค่าเริ่มต้นจากโรงงาน",
	"Reykjavik": "เรคยาวิก",
	"Riga": "ริกา",
	"Riyadh": "ริยาด",
	"Romania": "โรมาเนีย",
	"Rome": "โรม",
	"Rotation": "การหมุน",
	"Row": "แถว",
	"Run Time": "เวลารัน",
	"Run Time Since Last Power Up": "รันไทม์นับจากการเปิดเครื่องล่าสุด",
	"Russia": "รัสเซีย",
	"Rwanda": "รวันดา",
	"S/W Update": "อัปเดตซอฟต์แวร์",
	"S/W Update File list": "รายการไฟล์การอัปเดตซอฟต์แวร์",
	"S/W Update file list": "รายการไฟล์การอัปเดตซอฟต์แวร์",
	"S/W Update succeeded": "อัปเดตซอฟต์แวร์เสร็จสมบูรณ์",
	"S/W Updating": "กำลังอัปเดตซอฟต์แวร์",
	"S/W Updating......": "กำลังอัพเดตซอฟต์แวร์......",
	"S/W Ver.": "เวอร์ชัน S/W",
	"S/W update file does not exist.": "ไม่มีไฟล์อัพเดตซอฟต์แวร์",
	"S/W will update. Do you want to continue?": "ซอฟต์แวร์จะอัพเดต คุณต้องการดำเนินการต่อหรือไม่",
	"SCREEN": "หน้าจอ",
	"SI App / Play via URL": "แอป SI / เล่นผ่าน URL",
	"Saint Lucia": "เซนต์ลูเซีย",
	"Sakhalin": "ซักการิน",
	"Samara": "ซามารา",
	"Samarkand": "ซามักร์แคนด์",
	"Samoa": "ซามัว",
	"San Luis": "ซานหลุยส์",
	"San Salvador": "ซันซัลวาดอร์",
	"Santiago": "ซันติอาโก",
	"Santo Domingo": "ซันโตโดมิงโก",
	"Sarajevo": "ซาราเยโว",
	"Sat": "เสาร์",
	"Saturday": "วันเสาร์",
	"Saudi Arabia": "ซาอุดีอาระเบีย",
	"Save": "บันทึก",
	"Scoresbysund": "สกอเรสไบซันด์",
	"Screen": "หน้าจอ",
	"Screen Configuration": "การกำหนดค่าหน้าจอ",
	"Screen Fault Detection": "การตรวจหาข้อผิดพลาดของหน้าจอ",
	"Screen Off": "ปิดหน้าจอ",
	"Screen Off & Backlight": "ปิดหน้าจอและไฟส่องสว่าง",
	"Screen Off & Backlight On": "ปิดหน้าจอและเปิดไฟส่องสว่าง",
	"Screen Off Always": "ปิดหน้าจอเสมอ",
	"Screen Power Off": "ปิดหน้าจอ",
	"Screen Rotation": "การหมุนหน้าจอ",
	"Screen Rotation Status": "สถานะการหมุนหน้าจอ",
	"Screen Rotation is ON": "การหมุนหน้าจอทำงาน",
	"ScreenOn": "เปิดหน้าจอ",
	"Select File": "เลือกไฟล์",
	"Select Input Source": "เลือกที่มาของอินพุต",
	"Select a file to upload": "เลือกไฟล์ที่จะอัปโหลด",
	"Select media file": "เลือกไฟล์สื่อ",
	"Senegal": "เซเนกัล",
	"Sensor": "เซนเซอร์",
	"Seoul": "โซล",
	"September": "กันยายน",
	"Serbia": "เซอร์เบีย",
	"Serial Number": "หมายเลขประจำเครื่อง",
	"Server Status": "สถานะเซิร์ฟเวอร์",
	"Set": "ตั้งค่า",
	"Set Automatically": "ตั้งค่าโดยอัตโนมัติ",
	"Set ID": "ตั้ง ID",
	"Set Master": "ตั้งค่าหลัก",
	"Set Slave": "ตั้งค่ารอง",
	"Set URL": "ตั้งค่า URL",
	"Setting": "การตั้งค่า",
	"Show Color": "แสดงสี",
	"Sierra Leone": "เซียร์ราลีโอน",
	"Sigane Name is Too Long": "ชื่อ Signage ยาวเกินไป",
	"Sign in": "เข้าสู่ระบบ",
	"Signage 365 Care App": "แอป Signage 365 Care",
	"Signage Name": "ชื่อ Signage",
	"Signal": "สัญญาณ",
	"Simferopol": "ซิมเฟโรโพล",
	"Singapore": "สิงคโปร์",
	"Size": "ขนาด",
	"Skopje": "สโกเปีย",
	"Slave": "รอง",
	"Slovakia": "สโลวะเกีย",
	"Slovenia": "สโลวีเนีย",
	"Small": "เล็ก",
	"Sofia": "โซเฟีย",
	"Software Version": "เวอร์ชันของซอฟต์แวร์",
	"Solomon Islands": "หมู่เกาะโซโลมอน",
	"Somalia": "โซมาเลีย",
	"Sound Control": "การควบคุมเสียง",
	"South Africa": "แอฟริกาใต้",
	"South America": "อเมริกาใต้",
	"Spain": "สเปน",
	"Sports": "กีฬา",
	"Sri Lanka": "ศรีลังกา",
	"St. John's": "เซนต์จอนส์",
	"Stalled Image": "ภาพค้าง",
	"Standard": "มาตรฐาน",
	"Start": "เริ่ม",
	"Start Time": "เวลาเริ่มต้น",
	"State": "รัฐ",
	"Status": "สถานะ",
	"Step 1. Physical Marriage": "ขั้นที่ 1. Physical Marriage",
	"Step 2. Logical Marriage": "ขั้นที่ 2. Logical Marriage",
	"Stockholm": "สตอกโฮล์ม",
	"Subnet prefix length": "ความยาวของคำนำหน้า Subnet",
	"Success": "สำเร็จ",
	"Sudan": "ซูดาน",
	"Sun": "อาทิตย์",
	"Sunday": "วันอาทิตย์",
	"SuperSign Content": "เนื้อหา SuperSign",
	"SuperSign Contents": "เนื้อหา SuperSign",
	"Suriname": "ซูรินาเม",
	"Sustain Aspect Ratio": "รักษาอัตราส่วนภาพ",
	"Swaziland": "สวาซิแลนด์",
	"Sweden": "สวีเดน",
	"Swift Current": "เลื่อนรายการปัจจุบัน",
	"Switzerland": "สวิตเซอร์แลนด์",
	"Sydney": "ซิดนีย์",
	"Syria": "ซีเรีย",
	"System": "ระบบ",
	"System Box": "กล่องระบบ",
	"System Control": "การควบคุมระบบ",
	"System Controller": "ตัวควบคุมระบบ",
	"System Controller Settings": "การตั้งค่าตัวควบคุมระบบ",
	"System Information": "ข้อมูลระบบ",
	"System Reboot": "เริ่มต้นระบบใหม่",
	"System Settings": "การตั้งค่าระบบ",
	"System controller will restart.": "ตัวควบคุมระบบจะเริ่มต้นใหม่",
	"System controller will restart. Do you want to continue?": "ตัวควบคุมระบบจะเริ่มต้นใหม่ คุณต้องการดำเนินการต่อหรือไม่",
	"São Paulo": "เซาเปาลู",
	"Tahiti": "ตาฮิติ",
	"Taipei": "ไทเป",
	"Taiwan": "ไต้หวัน",
	"Tajikistan": "ทาจิกิสถาน",
	"Tallinn": "ทาลลินน์",
	"Tanzania": "แทนซาเนีย",
	"Tashkent": "ทาชเคนต์",
	"Tbilisi": "ทบิลิซิ",
	"Tegucigalpa": "เตกูซิกัลปา",
	"Tehran": "เตหะราน",
	"Temperature": "อุณหภูมิ",
	"Temperature history is not yet collected": "ยังไม่ได้เก็บข้อมูลประวัติอุณหภูมิ",
	"Test Color": "สีทดสอบ",
	"Test Pattern": "รูปแบบทดสอบ",
	"Thailand": "ไทย",
	"The POWER remote controller key will not work during the update.": "ปุม POWER ของรีโมทคอนโทรลจะไม่ทำงานระหว่างการอัปเดต",
	"The Signage 365 care app has been deleted.": "ลบแอป Signage 365 Care แล้ว",
	"The Signage 365 care app has been successfully installed.": "ติดตั้งแอป Signage 365 Care สำเร็จแล้ว",
	"The Signage 365 care app has been successfully updated.": "แอป Signage 365 Care ได้รับการอัปเดตสำเร็จแล้ว",
	"The URL format is invalid.": "รูปแบบ URL ไม่ถูกต้อง",
	"The installation of the Signage 365 care app has failed.": "การติดตั้งแอป Signage 365 Care ล้มเหลว",
	"The installation of the Signage 365 care app is in progress.": "การติดตั้งแอป Signage 365 Care อยู่ระหว่างดำเนินการ",
	"The installation of the {apptitle} has failed.": "ติดตั้ง {apptitle} ไม่สำเร็จ",
	"The installation of the {apptitle} is in progress.": "อยู่ระหว่างดำเนินการติดตั้ง {apptitle}",
	"The timer is reset and the marriage process must be restarted from the beginning.": "รีเซ็ตตัวจับเวลาใหม่และขั้นตอนของ marriage จะต้องเริ่มใหม่ตั้งแต่ต้น",
	"The update of the Signage 365 care app has failed.": "การอัปเดตแอป Signage 365 Care ล้มเหลว",
	"The update of the Signage 365 care app is in progress.": "การอัปเดตแอป Signage 365 Care อยู่ระหว่างดำเนินการ",
	"The update of the {apptitle} has failed.": "อัปเดต {apptitle} ไม่สำเร็จ",
	"The update of the {apptitle} is in progress.": "อยู่ระหว่างดำเนินการอัปเดต {apptitle}",
	"The {apptitle} has been successfully installed.": "ติดตั้ง {apptitle} สำเร็จแล้ว",
	"The {apptitle} has been successfully updated.": "อัปเดต {apptitle} สำเร็จแล้ว",
	"There is a difference between your signage and the signage 365 care server in time and date.": "มีความต่างระหว่าง Signage และเซิร์ฟเวอร์การดูแล 365 ของ Signage สำหรับวันที่และเวลา",
	"There is a difference between your signage and the {apptitle} server in time and date.": "มีความแตกต่างระหว่าง signage ของคุณและเซิร์ฟเวอร์ {apptitle} เกี่ยวกับเวลาและวันที่",
	"There is no list.": "ไม่มีรายการ",
	"There's No Backup file": "ไม่มีไฟล์การสำรอง",
	"Thimphu": "ทิมพู",
	"This pop up will be closed automatically in 5 sec.": "ป๊อปอัปนี้จะปิดโดยอัตโนมัติใน 5 วินาที",
	"Thu": "พฤหัสบดี",
	"Thule": "ทูเลอ",
	"Thursday": "วันพฤหัสบดี",
	"Tijuana": "ติฮัวนา",
	"Tile ID": "ไทล์ ID",
	"Tile Mode": "ไทล์โหมด",
	"Tile Mode Setting": "Tile Mode Setting",
	"Tile Mode Settings": "การตั้งค่าโหมดไทล์",
	"Time": "เวลา",
	"Time & Date": "เวลาและวันที่",
	"Time & Date Settings": "การตั้งเวลาและวันที่",
	"Time & Date Settings Required": "ต้องมีการตั้งค่าเวลาและวันที่",
	"Time Setting": "การตั้งค่าเวลา",
	"Time Zone": "โซนเวลา",
	"Timor-Leste": "ติมอร์-เลสเต",
	"Tint": "ปรับโหมดสี",
	"Tiranë": "ติรานา",
	"To choose an AP, please use Settings App. with a remote controller.": "ในการเลือก AP โปรดใช้แอปพลิเคชันการตั้งค่า โดยใช้รีโมทคอนโทรล",
	"To make your Password more secure. Use letters and numbers.": "การทำให้รหัสผ่านปลอดภัยมากขึ้น ใช้ตัวอักษรและตัวเลข",
	"To make your password more secure, use a mixture of mixed-case letters, numbers and special characters": "เพื่อให้รหัสผ่านของคุณปลอดภัยยิ่งขึ้น ให้ใช้ตัวอักษรพิมพ์เล็กและพิมพ์ใหญ่ ตัวเลข และอักขระพิเศษผสมกัน",
	"To use Signage 365 care, you need to connect the device to the network . Do you want to set the network connection?": "ในการใช้ Signage 365 Care คุณจะต้องเชื่อมต่ออุปกรณ์เข้ากับเครือข่าย คุณต้องการตั้งค่าการเชื่อมต่อเครือข่ายหรือไม่",
	"To use {apptitle}, you need to connect the device to the network. Do you want to set the network connection?": "หากต้องการใช้ {apptitle} คุณต้องเชื่อมต่ออุปกรณ์กับเครือข่าย คุณต้องการตั้งค่าการเชื่อมต่อเครือข่ายหรือไม่",
	"Togo": "โตโก",
	"Tokyo": "โตเกียว",
	"Tonga": "ตองกา",
	"Top": "บนสุด",
	"Top Left": "บนซ้าย",
	"Top Right": "บนขวา",
	"Toronto": "โทรอนโต",
	"Transportation": "การขนส่ง",
	"Trinidad And Tobago": "ตรินิแดดและโตเบโก",
	"Tripoli": "ตริโปลี",
	"Tue": "อังคาร",
	"Tuesday": "วันอังคาร",
	"Tunis": "ตูนิส",
	"Tunisia": "ตูนิเซีย",
	"Turkey": "ตุรกี",
	"Turkmenistan": "เติร์กเมนิสถาน",
	"Type": "ประเภท",
	"URL Loader": "ตัวโหลด URL",
	"URL Setting": "การตั้งค่า URL",
	"Uganda": "ยูกันดา",
	"Ukraine": "ยูเครน",
	"Ulaanbaatar": "อูลานบาตอร์",
	"Unit Calibration": "การปรับตั้งเครื่อง",
	"Unit Calibration is modified. Exit without saving?": "การปรับตั้งเครื่องมีการแก้ไข ต้องการออกโดยไม่บันทึกข้อมูลหรือไม่",
	"Unit Configuration": "การกำหนดค่าเครื่อง",
	"Unit Resolution": "ความละเอียดของเครื่อง",
	"Unit Status": "สถานะเครื่อง",
	"Unit Temperature": "อุณหภูมิของเครื่อง",
	"United Arab Emirates": "สหรัฐอาหรับเอมิเรตส์",
	"United Kingdom": "สหราชอาณาจักร",
	"United States of America": "สหรัฐอเมริกา",
	"Units cut left edge can not be placed in the X:0 positions.": "อุปกรณ์ที่ตัดขอบซ้ายไม่สามารถอยู่ในตำแหน่ง X:0",
	"Units cut right edge cannot be placed in the Y:(Cut Pixel) positions.": "อุปกรณ์ที่ตัดขอบขวาไม่สามารถอยู่ในตำแหน่ง Y:(พิกเซลที่ตัด)",
	"Unsupported File type.": "ไม่สนับสนุนประเภทไฟล์",
	"Unsupported File type. Only Image/Video files are allowed.": "ไม่สนับสนุนประเภทไฟล์ ใช้ได้เฉพาะไฟล์รูปภาพ/วิดีโอเท่านั้น",
	"Update": "อัปเดต",
	"Update Failed": "การอัปเดตล้มเหลว",
	"Update LED FPGA micom with xxx done": "อัปเดต LED FPGA micom ด้วย xxx แล้ว",
	"Update LED FPGA with xxx done": "อัปเดต LED FPGA ด้วย xxx แล้ว",
	"Update Progress": "ความคืบหน้าของการอัปเดต",
	"Update Succeeded": "อัปเดตสำเร็จแล้ว",
	"Update completed. Set is rebooting now.": "การอัปเดตเสร็จสมบูรณ์ อุปกรณ์จะเริ่มต้นใหม่ในตอนนี้",
	"Update completed. Signage is rebooting now.": "การอัพเดตเสร็จสมบูรณ์ Signage กำลังเริ่มต้นใหม่ในตอนนี้",
	"Update fan micom with xxx done": "อัปเดต micom พัดลมด้วย xxx แล้ว",
	"Update is completed.": "การอัปเดตเสร็จสมบูรณ์",
	"Update is in progress.": "การอัปเดตอยู่ระหว่างดำเนินการ",
	"Update?": "อัปเดตหรือไม่",
	"Updating…": "กำลังอัปเดต…",
	"Upload": "อัปโหลด",
	"Upload FPGA Update file (XXX GB available)": "อัปโหลดไฟล์อัปเดต FPGA (มีที่ว่าง XXX GB)",
	"Upload LED FPGA update file": "อัปโหลดไฟล์การอัปเดต LED FPGA",
	"Upload secured S/W Update file": "อัปโหลดไฟล์การอัปเดตซอฟต์แวร์ที่ปลอดภัย",
	"Upload secured S/W Update file (XXX GB available)": "อัปโหลดไฟล์การอัปเดตซอฟต์แวร์ที่ปลอดภัย (พื้นที่ว่าง XXX GB)",
	"Uploading": "กำลังอัปโหลด",
	"Uruguay": "อุรุกวัย",
	"User": "ผู้ใช้",
	"Uzbekistan": "อุซเบกิสถาน",
	"Uzhhorod": "อุซโฮรอด",
	"Vaduz": "วาดุซ",
	"Validation Error.": "เกิดข้อผิดพลาดในการตรวจสอบ",
	"Vancouver": "แวนคูเวอร์",
	"Vatican City": "นครรัฐวาติกัน",
	"Venezuela": "เวเนซุเอลา",
	"Ver": "เวอร์ชัน",
	"Version": "เวอร์ชัน",
	"Vertical": "แนวตั้ง",
	"Video": "วิดีโอ",
	"Video Scaler": "เครื่องมือปรับสเกลวิดีโอ",
	"Vienna": "เวียนนา",
	"Vientiane": "เวียงจันทน์",
	"Vietnam": "เวียดนาม",
	"View": "มุมมอง",
	"View Photo": "ดูรูปภาพ",
	"Vilnius": "วิลนีอุส",
	"Virtual Controller": "ตัวควบคุมเสมือนจริง",
	"Vivid": "สดใส",
	"Vladivostok": "วลาดิวอสต็อก",
	"Volgograd": "โวลกอกราด",
	"Volume": "ระดับเสียง",
	"Waiting for Approval": "รอการอนุมัติ",
	"Warm": "อบอุ่น",
	"Warsaw": "วอร์ซอ",
	"Wed": "พุธ",
	"Wednesday": "วันพุธ",
	"Week": "สัปดาห์",
	"Weekday": "วันธรรมดา",
	"Welcome to LG WebOS": "ยินดีต้อนรับสู่ LG WebOS",
	"Width": "ความกว้าง",
	"Windhoek": "วินด์ฮุก",
	"Winnipeg": "วินนิเพก",
	"Wired": "แบบมีสาย",
	"Working": "กำลังทำงาน",
	"XX GB free of XXGB": "ว่าง XX GB จาก XX GB",
	"XX of YY": "XX จาก YY",
	"YES": "ใช่",
	"Yakutsk": "ยาคุตสค์",
	"Yangon": "ย่างกุ้ง",
	"Yekaterinburg": "เยกาเตรนเบิร์ก",
	"Yellowknife": "เยลโลว์ไนฟ์",
	"Yemen": "เยเมน",
	"Yerevan": "เยเรวาน",
	"Yes": "ใช่",
	"You changed IP address or DHCP status. Please reconnect to changed IP address": "คุณได้เปลี่ยนที่อยู่ IP หรือสถานะ DHCP แล้ว โปรดเชื่อมต่อกับที่อยู่ IP ที่เปลี่ยนแปลงอีกครั้ง",
	"You did not finish the process in time.": "คุณดำเนินการไม่เสร็จตามกำหนดเวลา",
	"You have failed to login 1/5 time.": "คุณล็อกอินไม่สำเร็จ 1/5 ครั้ง",
	"You have failed to login 5 times. Please try again after 05:00.": "คุณล็อกอินไม่สำเร็จ 5 ครั้ง โปรดลองอีกครั้งหลังจาก 05:00",
	"You may not be able to reconnect to web pages if you cannot find out new IP address.": "คุณอาจเชื่อมต่อกับเว็บเพจอีกครั้งไม่ได้ ถ้าคุณไม่ทราบที่อยู่ IP ใหม่",
	"You've entered the same password as the current one. Please enter a different password.": "คุณป้อนรหัสผ่านเดียวกับรหัสผ่านปัจจุบัน โปรดป้อนรหัสผ่านอื่น",
	"Your Password has been changed.": "เปลี่ยนรหัสผ่านของคุณแล้ว",
	"Your device needs the correct time & date to authenticate marriage.": "อุปกรณ์ของคุณต้องมีเวลาและวันที่ที่ถูกต้องเพื่อที่จะตรวจสอบสิทธิ์ Marriage",
	"Zagreb": "ซาเกร็บ",
	"Zambia": "แซมเบีย",
	"Zaporozhye": "ซาโปโรซี",
	"Zimbabwe": "ซิมบับเว",
	"Zoom": "ซูม",
	"Zoom In": "ซูมเข้า",
	"Zoom In/Out": "ซูมเข้า/ออก",
	"Zoom Out": "ซูมออก",
	"Zürich": "ซูริก",
	"align": "จัดแนว",
	"available": "ใช้ได้",
	"color": "สี",
	"full aspect ratio": "อัตราส่วนแบบเต็ม",
	"general": "ทั่วไป",
	"hour": "ชั่วโมง",
	"last": "สุดท้าย",
	"min": "นาที",
	"original aspect ratio": "อัตราส่วนดั้งเดิม",
	"over {period} min.": "ภายใน {period} นาที",
	"reading": "การอ่าน",
	"save as PC Time": "บันทึกเป็นเวลาของ PC",
	"sharpness": "ปรับความคมชัด",
	"upload": "อัปโหลด",
	"version": "เวอร์ชัน",
	"warning": "คำเตือน",
	"webOS Version": "เวอร์ชันของ webOS",
	"year": "ปี",
	"{apptitle} will be deleted.": "{apptitle} จะถูกลบ",
	"{{filename}} already exists.": "{{filename}} มีอยู่แล้ว"
}
