{
	"All": "Lock All",
	"Capture time interval": "Capture time Interval",
	"Input Password": "Enter Password",
	"LG ConnectedCare App": "LG ConnectedCare app",
	"Loading...": "Loading…",
	"Maceió": "Maceió ",
	"OLED LIGHT": "OLED Light",
	"SuperSign Contents": "SuperSign Content",
	"Tile Mode Setting": "Tile mode Setting",
	"Upload": "UPLOAD"
}
