>get_property,"{""id"": ""1""}",$success
>set_property,"{""duplexSet"": [{""id"": ""1"", ""ip"": ""192.168.0.101"", ""setTime"": """", ""isMaster"": true}]}",$success
>set_property,!third,$success
>get undefined property,!forth,$success
,,$failed
