{
	"(30,60,120,180) Min": "(30, 60,120,180) min",
	"10 sec": "10 s",
	"10 sec Auto Refresh": "10 s automatické obnovení",
	"1Hour": "1 hod.",
	"1st": "první",
	"2nd": "druhý",
	"30sec": "30 s",
	"3rd": "třetí",
	"4th": "čtvrtý",
	"5 min. Refresh": "5 min. obnovení",
	"5Min": "5 min.",
	"AM": "DOP",
	"Abnormally High": "Abnormálně vysoká",
	"Account": "Účet",
	"Activate": "Aktivovat",
	"Add Media": "Přidat média",
	"Add Mini Module": "Přidat mini modul",
	"Add Slave Controller": "Přidat podřízenou řídicí jednotku",
	"Add Unit": "Přidat jednotku",
	"Addis Ababa": "Addis Abeba",
	"Advanced Options": "Pokročilé možnosti",
	"Advanced Setting": "Pokročilé nastavení",
	"Afghanistan": "Afghánistán",
	"Africa": "Afrika",
	"Albania": "Albánie",
	"Algeria": "Alžírsko",
	"Algiers": "Alžír",
	"All": "Vše",
	"All Units": "Všechny jednotky",
	"All settings will be reset. Do you want to continue?": "Všechna nastavení budou resetována. Chcete pokračovat?",
	"Amman": "Ammán",
	"Amsterdam": "Amsterodam",
	"An error occurred while submitting the form.": "Při odesílání formuláře došlo k chybě.",
	"Apply": "Použít",
	"Apply to All Units": "Použít pro všechny jednotky",
	"Apply?": "Použít?",
	"Approximate round trip in milli-seconds": "Přibližná doba do přijetí odezvy v milisekundách",
	"April": "Duben",
	"Are you sure to change Settings?": "Opravdu chcete změnit nastavení?",
	"Are you sure to change the calibration settings of this unit?": "Opravdu chcete změnit nastavení kalibrace této jednotky?",
	"Are you sure to reboot?": "Opravdu chcete provést restart?",
	"Are you sure to use": "Opravdu chcete použít",
	"Are you sure to use Wi-Fi DHCP?": "Opravdu chcete použít Wi-Fi DHCP?",
	"Are you sure to use Wired DHCP?": "Opravdu chcete použít kabelové DHCP?",
	"Armenia": "Arménie",
	"Ashgabat": "Ašchabad",
	"Asia": "Asie",
	"Aspect Ratio when rotated": "Poměr stran při otáčení",
	"Athens": "Atény",
	"August": "Srpen",
	"Australia": "Austrálie",
	"Austria": "Rakousko",
	"Authenticate": "Ověřit",
	"Authentication Failed": "Ověření se nezdařilo",
	"Authentication completed.": "Ověřování dokončeno.",
	"Auto Detect": "Automaticky rozpoznat",
	"Auto Refresh": "Automatické obnovení",
	"Automatically Assign IP Address": "Automaticky přiřadit IP adresu",
	"Available to Installation": "Připraveno k instalaci",
	"Azerbaijan": "Ázerbájdžán",
	"Azores": "Azory",
	"BLU Status": "Stav BLU",
	"Back": "Zpět",
	"Backlight": "Podsvícení",
	"Backup Media Upload": "Nahrání zálohovacího média",
	"Backup file Thumbnail Image": "Obrázek miniatury záložního souboru",
	"Backup via storage": "Zálohovat pomocí úložiště",
	"Baghdad": "Bagdád",
	"Bahamas": "Bahamy",
	"Bahrain": "Bahrajn",
	"Bangladesh": "Bangladéš",
	"Basic Setting": "Základní nastavení",
	"Begin test": "Spustit test",
	"Beijing": "Peking",
	"Beirut": "Bejrút",
	"Belarus": "Bělorusko",
	"Belgium": "Belgie",
	"Belgrade": "Bělehrad",
	"Berlin": "Berlín",
	"Bermuda": "Bermudy",
	"Bhutan": "Bhútán",
	"Bishkek": "Biškek",
	"Black Level": "Úroveň černé",
	"Bolivia": "Bolívie",
	"Bootloader Version": "Verze bootloaderu",
	"Bosnia": "Bosna",
	"Bottom": "Dolní",
	"Bottom Left": "Vlevo dole",
	"Bottom Light": "Vpravo dole",
	"Bottom Right": "Vpravo dole",
	"Box Name": "Název boxu",
	"Brazil": "Brazílie",
	"Brightness": "Jas",
	"Browse": "Procházet",
	"Browse a file to upload": "Přejděte k souboru, který chcete nahrát",
	"Brussels": "Brusel",
	"Bucharest": "Bukurešť",
	"Budapest": "Budapešť",
	"Bulgaria": "Bulharsko",
	"CIS": "Společenství nezávislých států",
	"Cairo": "Káhira",
	"Calibrate Unit": "Kalibrovat jednotku",
	"Calibrated": "Kalibrováno",
	"Calibrating...": "Probíhá kalibrace...",
	"Calibration": "Kalibrace",
	"Cambodia": "Kambodža",
	"Cameroon": "Kamerun",
	"Canada": "Kanada",
	"Canary Islands": "Kanárské ostrovy",
	"Cancel": "Zrušit",
	"Cannot start S/W update. Check xxx file please.": "Aktualizaci softwaru nelze spustit. Vyberte soubor xxx.",
	"Cape Verde": "Zelený mys",
	"Capture time Interval": "Zachytit časový interval",
	"Capture time interval": "Zachytit časový interval",
	"Category": "Kategorie",
	"Cayman Islands": "Kajmanské ostrovy",
	"Central African Republic": "Středoafrická republika",
	"Chad": "Čad",
	"Change Password": "Změnit heslo",
	"Changing Time may cause you to be logged out.": "Změna času může vyžadovat, abyste se odhlásili.",
	"Changing Time zone may cause you to be logged out.": "Při změně časového pásma můžete být odhlášeni.",
	"Charts": "Grafy",
	"Check Temperature sensors. -40 means errors when reading Temperature sensors": "Zkontrolujte snímače teploty. -40 znamená chybu při čtení snímačů teploty",
	"Check for Update": "Zkontrolovat aktualizace",
	"Check the account number you entered.": "Zkontrolujte zadané číslo účtu.",
	"Check whether two passwords are same": "Zkontrolujte, zda se obě hesla shodují",
	"Check your URL input": "Zkontrolujte adresu URL",
	"CheckScreen": "Kontrola obrazovky",
	"Checking for update...": "Probíhá kontrola aktualizací...",
	"China": "Čína",
	"Chisinau": "Kišiněv",
	"Christmas Island": "Vánoční ostrov",
	"Cinema": "Kino",
	"City": "Město",
	"Close": "Zavřít",
	"Close status of cabinet doors": "Stav uzavření dveří skříňky",
	"Closed": "Zavřeno",
	"Closed Loop Fan": "Ventilátor s uzavřenou smyčkou",
	"ClosedLoop": "Uzavřená smyčka",
	"Colombia": "Kolumbie",
	"Colombo": "Kolombo",
	"Color Temperature": "Teplota barvy",
	"ColorRead": "Čtení barvy",
	"Column": "Sloupec",
	"Confirm": "Potvrdit",
	"Confirm Account Number": "Potvrdit číslo účtu",
	"Confirm New Password": "Potvrdit nové heslo",
	"Confirm the account number you entered.": "Potvrďte zadané číslo účtu.",
	"Connected": "Připojeno",
	"Content Rotation": "Rotace obsahu",
	"Content Rotation Status": "Stav otáčení obsahu",
	"Content Rotation is ON": "Rotace obsahu je ZAPNUTA",
	"Content is rotated": "Obsah je otočený",
	"Contents rotation is ON": "Rotace obsahu je ZAPNUTA",
	"Continent": "Kontinent",
	"Contrast": "Kontrast",
	"Control": "Ovládání",
	"Control Item": "Položka ovládání",
	"Control Type": "Typ ovládání",
	"Cool": "Chladná",
	"Copenhagen": "Kodaň",
	"Costa Rica": "Kostarika",
	"Country/Territory": "Země/území",
	"Croatia": "Chorvatsko",
	"Cuba": "Kuba",
	"Current": "Proud",
	"Current Fan RPM": "Aktuální otáčky ventilátoru",
	"Current Password": "Aktuální heslo",
	"Current Picture mode does not support changing color temperature. Please select \"Expert\" of \"Calibration\" mode to adjust the color temperature.": "Aktuální režim obrazu nepodporuje změnu teploty barev. Chcete-li upravit teplotu barev, vyberte režim „Expert“ nebo „Kalibrace“.",
	"Current Ver.": "Aktuální ver.",
	"Current Version": "Aktuální verze",
	"Custom": "Vlastní",
	"Cut Left Edge": "Odříznout levou hranu",
	"Cut Right Edge": "Odříznout pravou hranu",
	"Cyprus": "Kypr",
	"Czech": "Čeština",
	"Czech Republic": "Česká republika",
	"Côte d'Ivoire": "Pobřeží slonoviny",
	"DHCP State": "Stav DHCP",
	"DNS Server": "DNS server",
	"DOWNLOAD LOG": "STÁHNOUT PROTOKOL",
	"DOWNLOAD LOG FILE": "STÁHNOUT SOUBOR PROTOKOLU",
	"DPM (Standby Mode)": "DPM (pohotovostní režim)",
	"Daisy Direction": "Směr řetězce",
	"Daisy Start by": "Řetězec začíná od",
	"Damage Detection": "Detekce poškození",
	"Damaged": "Poškozené",
	"Damascus": "Damašek",
	"Dashboard": "Ovládací panel",
	"Data is not collected now. wait for maximum 60 seconds": "Data nyní nejsou shromažďována. počkejte maximálně 60 sekund",
	"Date": "Datum",
	"Day": "Den",
	"Daylight Saving Time": "Letní čas",
	"Days": "Dny",
	"December": "Prosinec",
	"Default": "Výchozí",
	"Default size": "Výchozí velikost",
	"Delete": "Odstranit",
	"Delete Mini Module": "Odstranit mini modul",
	"Delete Slave Controller": "Odstranit podřízenou řídicí jednotku",
	"Delete Unit": "Odstranit jednotku",
	"Delete the file": "Odstranit soubor",
	"Delete?": "Odstranit?",
	"Democratic Republic Of The Congo": "Demokratická republika Kongo",
	"Denmark": "Dánsko",
	"Details of Unit": "Podrobnosti o jednotce",
	"Device Control": "Ovládání zařízení",
	"Dhaka": "Dháka",
	"Digital Board Reboot": "Restart desky digitálních obvodů",
	"Dili": "Dillí",
	"Disconnected": "Odpojeno",
	"Display": "Zobrazení",
	"Display & Sound": "Obrazovka a zvuk",
	"Display & sound": "Obrazovka a zvuk",
	"Do not reboot in Device page.": "Na stránce Zařízení neprovádějte restart.",
	"Do you want to delete the item?": "Přejete si položku odstranit?",
	"Do you want to delete the selected file?": "Chcete odstranit vybraný soubor?",
	"Do you want to delete this LED FPGA Update file?": "Chcete odstranit tento soubor aktualizace LED FPGA?",
	"Do you want to delete this S/W Update file?": "Opravdu chcete odstranit tento soubor aktualizace softwaru?",
	"Do you want to install this S/W Update file?": "Opravdu chcete nainstalovat tento soubor aktualizace softwaru?",
	"Do you want to proceed?": "Chcete pokračovat?",
	"Do you want to set the time & date?": "Chcete nastavit datum a čas?",
	"Do you want to set the time or date automatically?": "Chcete nastavit čas a datum automaticky?",
	"Doha": "Dauhá",
	"Dominica": "Dominika",
	"Dominican Republic": "Dominikánská republika",
	"Done": "Hotovo",
	"Door": "Překlopení",
	"Door Control": "Ovládání dvířek",
	"Door Monitor": "Dvířka monitoru",
	"Door Open": "Otevřená dvířka",
	"Door Sensor": "Snímač dveří",
	"Door Sensor Status": "Stav snímače dvířek",
	"Door xxx is opened": "Jsou otevřena dvířka xxx",
	"Draw": "Nakreslit",
	"Dubai": "Dubaj",
	"Duplicated Unit ID": "ID duplikované jednotky",
	"Duration": "Délka",
	"Dushanbe": "Dušanbe",
	"Dynamic Brightness": "Dynamický jas",
	"Dynamic Brightness Control": "Ovládání dynamického jasu",
	"Easter Island": "Velikonoční ostrov",
	"Ecuador": "Ekvádor",
	"Edit": "Upravit",
	"Education": "Vzdělávání",
	"El Salvador": "Salvador",
	"Enable or disable Signage 365 Care services on this device": "Zapnout či vypnout službu neustálé péče o zařízení signage na tomto zařízení",
	"Enable or disable {apptitle} service on this device": "Zapnout či vypnout službu aplikace {apptitle} na tomto zařízení",
	"End": "Konec",
	"End Time": "Čas konce",
	"Energy Saving": "Úspora energie",
	"Enter Account Number": "Zadat Číslo Účtu",
	"Enter the account number to activate Signage 365 Care.": "Zadejte číslo účtu a aktivujte program neustálé péče o zařízení Signage.",
	"Enter the account number to activate {apptitle}.": "Zadejte číslo účtu a aktivujte {apptitle}.",
	"Enter the following": "Zadejte následující",
	"Enter the network address to ping": "Zadejte síťovou adresu pro test odezvy.",
	"Equatorial Guinea": "Rovníková Guinea",
	"Estonia": "Estonsko",
	"Ethiopia": "Etiopie",
	"Europe": "Evropa",
	"Event": "Událost",
	"Exit": "Konec",
	"Export": "Exportovat",
	"External": "Externí",
	"External Input Rotation": "Otočení externího vstupu",
	"External Input Rotation Status": "Stav otočení externího vstupu",
	"External Input Rotation is ON": "Otáčení externího vstupu je ZAPNUTO.",
	"EyeQ sensor": "Snímač EyeQ",
	"FPGA Version": "Verze FPGA",
	"Factory Reset": "Obnovení továrního nastavení",
	"Fail": "Nezdařilo se",
	"Fail Over": "Převzetí služeb při selhání",
	"Fail to update. Check xxx file please.": "Aktualizace se nezdařila. Zkontrolujte soubor xxx.",
	"Failed to update LED FPGA with xxx. Check the file please": "Aktualizace LED FPGA pomocí xxx se nezdařila. Zkontrolujte soubor",
	"Failed to update LED FPGA with xxx. Check the status of the unit controller.": "Nepodařilo se aktualizovat LED FPGA pomocí xxx. Zkontrolujte stav řídicí jednotky.",
	"Failed to update fan micom with xxx. Check the file please": "Aktualizace ventilátoru micom pomocí xxx se nezdařila. Zkontrolujte soubor",
	"Fan": "Ventilátor",
	"Fan Micom Version": "Verze ventilátoru Micom",
	"Fan RPM": "Otáčky ventilátoru",
	"Fan RPM history is not yet collected": "Historie otáček ventilátoru dosud nebyla shromážděna",
	"Fan Status": "Stav ventilátoru",
	"February": "Únor",
	"Fiji": "Fidži",
	"File Name": "Název souboru",
	"File Select": "Výběr souboru",
	"File Upload Progress": "Průběh nahrávání souboru",
	"File upload via mobile devices does not support.": "Nahrávání souboru prostřednictvím mobilních zařízení není podporováno.",
	"Finland": "Finsko",
	"First Use": "První použití",
	"Flash memory is not enough.": "Paměť flash nestačí.",
	"For your security, we recommend to change default password. Would you like to change your password now?": "Z bezpečnostních důvodů doporučujeme změnit výchozí heslo. Chcete nyní změnit heslo?",
	"Frame": "Snímek",
	"France": "Francie",
	"French Polynesia": "Francouzská Polynésie",
	"Fri": "Pá",
	"Friday": "Pátek",
	"Front": "Přední část",
	"Full": "Plný",
	"Gambia": "Gambie",
	"Game": "Hra",
	"Gamma": "Korekce gamma",
	"Gamut Matrix": "Matice gamutu",
	"Gateway": "Brána",
	"General": "Obecné",
	"Georgia": "Gruzie",
	"Germany": "Německo",
	"Go To First Use": "Přejít do nabídky První použití",
	"Gov./Corp.": "Vládní org./Firem.",
	"Greece": "Řecko",
	"Greenland": "Grónsko",
	"Guatemala City": "Ciudad de Guatemala",
	"Height": "Výška",
	"Helsinki": "Helsinky",
	"High": "Vysoká",
	"History is not yet collected": "Historie dosud nebyla shromážděna",
	"Ho Chi Minh": "Ho Či Minovo Město",
	"Home": "Domů",
	"Hong Kong": "Hongkong",
	"Horizontal": "Horizontální",
	"Hour": "Hodina",
	"Hours": "Hodiny",
	"Humidity": "Vlhkost",
	"Hungary": "Maďarsko",
	"ID/password": "ID/heslo",
	"IMB Settings": "Nastavení IMB",
	"IMB Status": "Stav IMB",
	"IP Address": "IP adresa",
	"Iceland": "Island",
	"Image": "Obrázek",
	"Impact": "Náraz",
	"Incorrect Password entered. Please try again.": "Zadáno nesprávné heslo. Opakujte akci.",
	"India": "Indie",
	"Indonesia": "Indonésie",
	"Information": "Informace",
	"Input": "Vstup",
	"Input 6 or more characters": "Zadejte nejméně 6 znaků",
	"Input Direction": "Směr vstupu",
	"Input Password": "Zadejte heslo",
	"Input Priority": "Priorita vstupu",
	"Input Priority Setting": "Nastavení priority vstupů",
	"Input Signage Name please.": "Zadejte název LG Signage.",
	"Input Window": "Okno vstupu",
	"Install": "Instalovat",
	"Install Succeeded": "Instalace úspěšně dokončena",
	"Installation Failed": "Chyba instalace",
	"Installation Menu": "Nabídka instalace",
	"Installing…": "Probíhá instalace...",
	"Internet Not available": "Internet není k dispozici",
	"Internet available": "Internet je k dispozici",
	"Invalid NEW Password. Password must be 6 characters in length.": "Neplatné NOVÉ heslo. Heslo musí být dlouhé 6 znaků.",
	"Invalid NEW Password. Password must be 8 characters in length.": "Neplatné NOVÉ heslo. Heslo musí být dlouhé 8 znaků.",
	"Invalid NEW Password. You must use a combination of letters and numbers.": "Neplatné NOVÉ heslo. Musíte použít kombinaci písmen a čísel.",
	"Invalid New password. Password must be at least 8 characters.": "Neplatné nové heslo. Heslo musí mít alespoň 8 znaků.",
	"Invalid New password. You must use a mixture of mixed-case letters, numbers and special characters.": "Neplatné nové heslo. Musíte použít kombinaci malých i velkých písmen, čísel a speciálních znaků.",
	"Invalid day value": "Den má neplatnou hodnotu",
	"Invalid hour value": "Hodina má neplatnou hodnotu",
	"Invalid minute value": "Minuta má neplatnou hodnotu",
	"Invalid month value": "Rok má neplatnou hodnotu",
	"Invalid value": "Neplatná hodnota",
	"Invalid year value": "Měsíc má neplatnou hodnotu",
	"Iran": "Írán",
	"Iraq": "Irák",
	"Ireland": "Irsko",
	"Irregular": "Nepravidelné",
	"Israel": "Izrael",
	"Issue History": "Historie vydání",
	"Italy": "Itálie",
	"Jakarta": "Džakarta",
	"Jamaica": "Jamajka",
	"January": "Leden",
	"Japan": "Japonsko",
	"Jerusalem": "Jeruzalém",
	"Jordan": "Jordán",
	"July": "Červenec",
	"June": "Červen",
	"Kabul": "Kábul",
	"Kamchatka": "Kamčatka",
	"Karachi": "Karáčí",
	"Katmandu": "Káthmándú",
	"Kazakhstan": "Kazachstán",
	"Kenya": "Keňa",
	"Khartoum": "Chartúm",
	"Kiev": "Kyjev",
	"Kolkata": "Kalkata",
	"Korea, Republic of": "Jihokorejská republika",
	"Krasnoyarsk": "Krasnojarsk",
	"Kuwait": "Kuvajt",
	"Kuwait City": "Město Kuvajt",
	"Kyrgyzstan": "Kyrgyzstán",
	"LED Assistant Settings": "Nastavení LED Assistant",
	"LED FPGA Update file list": "Seznam souborů aktualizace LED FPGA",
	"LED FPGA Updating ......": "Aktualizace LED FPGA...",
	"LED Features": "Funkce LED jednotky",
	"LED Film Settings": "Nastavení filmu LED",
	"LED Open Detection": "Detekce otevření LED",
	"LED Settings": "Nastavení LED",
	"LED Unit": "Jednotka LED",
	"LED Unit Status": "Stav LED jednotky",
	"LG ConnectedCare App": "Aplikace LG ConnectedCare",
	"LG ConnectedCare app": "Aplikace LG ConnectedCare",
	"LG Control Manager": "LG správce ovládání",
	"Landscape": "Na šířku",
	"Language": "Jazyk",
	"Large": "Velké",
	"Last": "Poslední",
	"Latvia": "Lotyšsko",
	"Layout": "Uspořádání",
	"Layout Editor": "Editor rozvržení",
	"Lebanon": "Libanon",
	"Liberia": "Libérie",
	"Libya": "Libye",
	"Liechtenstein": "Lichtenštejnsko",
	"Lisbon": "Lisabon",
	"Lithuania": "Litva",
	"Ljubljana": "Lublaň",
	"Loading": "Probíhá načítání",
	"Loading...": "Probíhá načítání...",
	"Loading…": "Probíhá načítání…",
	"Location": "Místo",
	"Log": "Protokol",
	"Log Report": "Zpráva protokolu",
	"Log after Power Up": "Protokol po zapnutí",
	"Log in with the authorized ID and password.": "Přihlaste se pomocí autorizovaného ID a hesla.",
	"Login": "Přihlásit",
	"Login is required.": "Je vyžadováno přihlášení.",
	"Logout": "Odhlásit se",
	"London": "Londýn",
	"Low": "Nízké",
	"Luxembourg": "Lucembursko",
	"MAC Address": "MAC adresa",
	"Macedonia": "Makedonie",
	"Madagascar": "Madagaskar",
	"Main": "Hlavní",
	"Malaysia": "Malajsie",
	"Maldives": "Maledivy",
	"Mall/QSR": "Nákupní středisko/QSR",
	"Manage": "Správa",
	"Manual": "Ručně",
	"March": "Březen",
	"Marriage Guide (2 Steps)": "Průvodce procesem ověření Marriage (2 kroky)",
	"Marriage Status": "Stav Marriage",
	"Marshall Islands": "Marshallovy ostrovy",
	"Martinique": "Martinik",
	"Mauritius": "Mauricius",
	"Max Backlight": "Max. podsvícení",
	"May": "Květen",
	"Media Library": "Knihovna médií",
	"Media file List": "Seznam multimediálních souborů",
	"Media file Upload (XXX GB available)": "Nahrávání multimediálních souborů (k dispozici XXX GB)",
	"Medium": "Střední",
	"Menu Language": "Jazyk nabídky",
	"Mexico": "Mexiko",
	"Mexico City": "Ciudad de México",
	"Micom Progress": "Průběh ventilátoru Micom",
	"Micom Update": "Aktualizace Micom",
	"Micom Version": "Verze Micom",
	"Middle East": "Střední východ",
	"Min Backlight": "Min. podsvícení",
	"Mini Module": "Mini modul",
	"Minimum = XXms, Maximum = YYms, Average = ZZms": "Minimální = XX ms, maximální = YY ms, průměrná = ZZ ms",
	"Mins": "Min.",
	"Model Name": "Název modelu",
	"Module Calibration": "Kalibrace modulu",
	"Module Calibration is modified. Exit without saving?": "Kalibrace modulu je změněna. Ukončit bez uložení?",
	"Module Size": "Velikost modulu",
	"Modules": "Moduly",
	"Mogadishu": "Mogadišo",
	"Moldova": "Moldávie",
	"Mon": "Po",
	"Monaco": "Monako",
	"Monday": "Pondělí",
	"Mongolia": "Mongolsko",
	"Montenegro": "Černá Hora",
	"Month": "Měsíc",
	"More": "Více",
	"Morocco": "Maroko",
	"Moscow": "Moskva",
	"Motion": "Pohyb",
	"Mozambique": "Mozambik",
	"Mute": "Ztlumení",
	"NG": "NEG.",
	"NO": "NE",
	"NOT AVAILABLE": "NENÍ K DISPOZICI",
	"Name": "Název",
	"Namibia": "Namibie",
	"Natural Mode": "Přirozený režim",
	"Natural Size": "Přirozená velikost",
	"Ndjamena": "N'Djamena",
	"Nepal": "Nepál",
	"Netherlands": "Nizozemsko",
	"Network": "Síť",
	"Network Ready": "Síť připravena",
	"Network Settings": "Nastavení sítě",
	"New Caledonia": "Nová Kaledonie",
	"New Password": "Nové heslo",
	"New Password and Confirm Password do not match.": "Nové heslo a potvrzení hesla se neshodují.",
	"New Zealand": "Nový Zéland",
	"Newer Ver.": "Novější ver.",
	"Next": "Další",
	"Next Day": "Další den",
	"Nicaragua": "Nikaragua",
	"Nicosia": "Nikósie",
	"Nigeria": "Nigérie",
	"No": "Ne",
	"No Signal": "Žádný signál",
	"No backup files exist in storage device.": "V úložném zařízení nejsou žádné záložní soubory.",
	"None": "Žádné",
	"Normal": "Normální",
	"North America": "Severní Amerika",
	"North Korea": "Severní Korea",
	"Norway": "Norsko",
	"Not Connected": "Není připojeno",
	"Notification": "Upozornění",
	"November": "Listopad",
	"Number": "Číslo",
	"OFF": "VYPNUTO",
	"OLED LIGHT": "Světlo OLED",
	"OLED Light": "Světlo OLED",
	"ON": "ZAPNUTO",
	"OSD Portrait Mode": "OSD režim na výšku",
	"OSD Portrait Mode is ON": "Režim OSD na výšku je ZAPNUTÝ",
	"OSD Portrait Status": "Stav OSD zobrazení na výšku",
	"OSD Portrait mode is xxx": "OSD režimu zobrazení na výšku je xxx",
	"OSD Rotation is ON": "Rotace OSD je zapnuta",
	"Occurrence Time": "Čas výskytu",
	"Oceania": "Oceánie",
	"October": "Říjen",
	"Off": "Vypnuto",
	"Off Until Reset": "Vypnuto do resetu",
	"Off When Open": "Vypnuto při otevření",
	"Oman": "Omán",
	"On": "Zap.",
	"On When Open": "Zapnuto při otevření",
	"Open Loop Fan": "Ventilátor s otevřenou smyčkou",
	"OpenLoop": "Otevřená smyčka",
	"Opened": "Otevřeno",
	"Original": "Originální",
	"Output Window": "Okno výstupu",
	"OverHeat": "Přehřívání",
	"Overwrite": "Přepsat",
	"Overwrite xxx?": "Přepsat xxx?",
	"Overwrite?": "Přepsat?",
	"PM": "ODP",
	"PM Mode": "Režim PM",
	"PSU": "ZDROJ",
	"Pacific": "Pacifik",
	"Packets : Sent = XX. Received = YY. Lost = ZZ (WW% loss)": "Pakety: Odeslané = XX. Přijaté = YY. Ztracené = ZZ (WW % ztracených paketů)",
	"Pakistan": "Pákistán",
	"Panama City": "Ciudad de Panamá",
	"Papua New Guinea": "Papua-Nová Guinea",
	"Paris": "Paříž",
	"Password": "Heslo",
	"Password is incorrect. Please Try Again": "Heslo je nesprávné. Opakujte akci",
	"Password is incorrect. Please try again.": "Heslo je nesprávné. Opakujte akci.",
	"Philippines": "Filipíny",
	"Phnom Penh": "Phnompenh",
	"Picture": "Obraz",
	"Picture Mode": "Obrazový režim",
	"Picture Settings": "Nastavení obrazu",
	"Ping Test": "Test odezvy",
	"Ping statistics for [X.X.X.X]": "Statistiky odezvy pro [X.X.X.X]",
	"Ping test failed. Invalid format of network address field.": "Test odezvy se nezdařil. Neplatný formát pole síťové adresy.",
	"Ping test is in progress": "Probíhá test odezvy.",
	"Ping test result": "Výsledek testu odezvy",
	"Pinging [X.X.X.X] with YYY bytes of data": "Probíhá test odezvy [X.X.X.X] s YYY bajty dat.",
	"Play": "Přehrát",
	"Play via URL": "Přehrávání z adresy URL",
	"Please Keep this Signage on.": "Nechte toto zařízení LG Signage zapnuté.",
	"Please check the following items and try again.": "Zkontrolujte následující položky a opakujte akci.",
	"Please check the installation file and try again.": "Zkontrolujte prosím instalační soubor a zkuste to znovu.",
	"Please choose a file to upload": "Vyberte soubor, který chcete nahrát",
	"Please choose a video file to upload": "Vyberte soubor videa, který chcete nahrát",
	"Please don't turn off the device and wait until the installation is completed.": "Nevypínejte zařízení a počkejte, dokud nebude instalace dokončena.",
	"Please don’t turn off the device. And wait while process is completed.": "Nevypínejte prosím zařízení. Vyčkejte, dokud se proces nedokončí.",
	"Please enter the authorized ID and password.": "Zadejte autorizované ID a heslo.",
	"Please login again.": "Znovu se přihlaste.",
	"Please press the physical marriage button.": "Stiskněte tlačítko fyzického ověření Marriage.",
	"Please restart the marriage authentication process.": "Restartujte proces ověření Marriage.",
	"Please select city": "Vyberte město",
	"Please select country": "Vyberte zemi",
	"Please upload S/W update file via PC browser.": "Nahrajte soubor aktualizace softwaru pomocí prohlížeče v počítači.",
	"Poland": "Polsko",
	"Port Number": "Číslo portu",
	"Port Settings": "Nastavení portu",
	"Portrait": "Na výšku",
	"Portrait Mode": "Režim zobrazení na výšku",
	"Portugal": "Portugalsko",
	"Position": "Pozice",
	"Power": "Napájení",
	"Power Off": "Vypnout",
	"Power Off Management": "Řízení vypnutí",
	"Power Off(Default)": "Vypnout (výchozí)",
	"Power Rack Settings": "Nastavení Power Rack",
	"Prague": "Praha",
	"Press the physical marriage button on your master cabinet.": "Stiskněte tlačítko fyzického ověření Marriage na hlavní skříňce.",
	"Pressing Start will give you 1 minute to perform the process.": "Po stisknutí tlačítka Start budeme mít na provedení procesu 1 minutu.",
	"Prev DAY": "Předchozí den",
	"Prev.": "Předch.",
	"Preview": "Náhled",
	"Priority": "Priorita",
	"Puerto Rico": "Portoriko",
	"Pyongyang": "Pchongjang",
	"Qatar": "Katar",
	"RPM": "Otáčky",
	"Rearrange": "Znovu uspořádat",
	"Reboot": "Restartovat",
	"Reboot?": "Restartovat?",
	"Rebooting": "Probíhá restart",
	"Reference Resolution": "Nativní rozlišení",
	"Refresh": "Obnovit",
	"Regular": "Pravidelné",
	"Rejected": "Zamítnuto",
	"Remember me": "Pamatovat si mě",
	"Rename": "Přejmenovat",
	"Rename or Overwrite?": "Přejmenovat nebo přepsat?",
	"Rename to {{filename (2)}} or Overwrite?": "Přejmenovat na {{filename (2)}} nebo přepsat?",
	"Reply from [X.X.X.X] : bytes = YY, time = ZZms, TTL = WW": "Odpověď od [X.X.X.X]: bajty = YY, čas = ZZ ms, TTL = WW",
	"Republic Of The Congo": "Republika Kongo",
	"Request timed out.": "Časový limit požadavku vypršel.",
	"Require Network Settings": "Vyžaduje se nastavení sítě",
	"Required Marriage": "Požadované Marriage",
	"Reset All": "Resetovat všechny",
	"Reset Mute": "Reset ztlumení",
	"Reset Mute' is Needed": "Je vyžadován reset ztlumení",
	"Reset to factory reset": "Obnovit tovární nastavení",
	"Reykjavik": "Reykjavík",
	"Riyadh": "Rijád",
	"Romania": "Rumunsko",
	"Rome": "Řím",
	"Rotation": "Směr otáčení",
	"Row": "Řádek",
	"Run Time": "Doba provozu",
	"Run Time Since Last Power Up": "Doba provozu od posledního zapnutí",
	"Russia": "Rusko",
	"S/W Update": "Aktualizace softwaru",
	"S/W Update File list": "Seznam souboru aktualizace softwaru",
	"S/W Update file list": "Seznam souboru aktualizace softwaru",
	"S/W Update succeeded": "Aktualizace softwaru úspěšně dokončena.",
	"S/W Updating": "Probíhá aktualizace softwaru",
	"S/W Updating......": "Aktualizace softwaru...",
	"S/W Ver.": "Ver. softwaru",
	"S/W update file does not exist.": "Soubor aktualizace softwaru neexistuje.",
	"S/W will update. Do you want to continue?": "Software se aktualizuje. Chcete pokračovat?",
	"SCREEN": "OBRAZOVKA",
	"SI App / Play via URL": "Aplikace SI / Play prostřednictvím URL",
	"Saint Lucia": "Svatá Lucie",
	"Sakhalin": "Sachalin",
	"Sat": "So",
	"Saturday": "Sobota",
	"Saudi Arabia": "Saúdská Arábie",
	"Save": "Uložit",
	"Screen": "Obrazovka",
	"Screen Configuration": "Konfigurace obrazovky",
	"Screen Fault Detection": "Detekce poruchy obrazovky",
	"Screen Off": "Vypnout obrazovku",
	"Screen Off & Backlight": "Vypnout obrazovku a podsvícení",
	"Screen Off & Backlight On": "Vypnout obrazovku a zapnout podsvícení",
	"Screen Off Always": "Vždy vypnout obrazovku",
	"Screen Power Off": "Vypnutí obrazovky",
	"Screen Rotation": "Otočení obrazovky",
	"Screen Rotation Status": "Stav otočení obrazovky",
	"Screen Rotation is ON": "Otáčení obrazovky je ZAPNUTO.",
	"ScreenOn": "Obrazovka zapnuta",
	"Select File": "Vyberte soubor",
	"Select Input Source": "Vyberte vstupní zdroj",
	"Select a file to upload": "Vyberte soubor, který chcete nahrát",
	"Select media file": "Vyberte multimediální soubor",
	"Sensor": "Snímač",
	"Seoul": "Soul",
	"September": "Září",
	"Serbia": "Srbsko",
	"Serial Number": "Sériové číslo",
	"Server Status": "Stav serveru",
	"Set": "Nastaveno",
	"Set Automatically": "Nastavit automaticky",
	"Set ID": "Nastavit ID",
	"Set Master": "Nastavit jako hlavní",
	"Set Slave": "Nastavit jako podřízenou",
	"Set URL": "Nastavit adresu URL",
	"Setting": "Nastavení",
	"Show Color": "Zobrazovat barvy",
	"Sigane Name is Too Long": "Název profesionálního monitoru je příliš dlouhý.",
	"Sign in": "Přihlásit se",
	"Signage 365 Care": "Neustálá péče o zařízení signage",
	"Signage 365 Care App": "Aplikace Neustálá péče o zařízení signage",
	"Signage Name": "Název zařízení Signage",
	"Signal": "Signál",
	"Singapore": "Singapur",
	"Size": "Velikost",
	"Slovakia": "Slovensko",
	"Slovenia": "Slovinsko",
	"Small": "Malé",
	"Sofia": "Sofie",
	"Software Version": "Verze softwaru",
	"Solomon Islands": "Šalamounovy ostrovy",
	"Somalia": "Somálsko",
	"Sound Control": "Ovládání zvuku",
	"South Africa": "Jižní Afrika",
	"South America": "Jižní Amerika",
	"Spain": "Španělsko",
	"Sports": "Sport",
	"Sri Lanka": "Srí Lanka",
	"St. John's": "Sv. Jan",
	"Stalled Image": "Zaseknutý obraz",
	"Standard": "Standardní",
	"Start": "Spustit",
	"Start Time": "Čas začátku",
	"State": "Stát",
	"Status": "Stav",
	"Step 1. Physical Marriage": "Krok 1. Fyzický proces ověření Marriage",
	"Step 2. Logical Marriage": "Krok 2. Logický proces ověření Marriage",
	"Storage": "Úložné zařízení",
	"Subnet Mask": "Maska podsítě",
	"Subnet prefix length": "Délka předvolby podsítě",
	"Success": "Úspěšně dokončeno!",
	"Sudan": "Súdán",
	"Sun": "Ne",
	"Sunday": "Neděle",
	"SuperSign Content": "Obsah SuperSign",
	"SuperSign Contents": "Obsah SuperSign",
	"Suriname": "Surinam",
	"Sustain Aspect Ratio": "Zachování poměru stran",
	"Swaziland": "Svazijsko",
	"Sweden": "Švédsko",
	"Switzerland": "Švýcarsko",
	"Syria": "Sýrie",
	"System": "Systém",
	"System Box": "Skříňka se systémem",
	"System Control": "Ovládání systému",
	"System Controller": "Řídicí jednotka systému",
	"System Controller Settings": "Nastavení řídicí jednotky systému",
	"System Information": "Informace o systému",
	"System Reboot": "Restartovat systém",
	"System Settings": "Nastavení systému",
	"System controller will restart.": "Řídicí jednotka systému se restartuje.",
	"System controller will restart. Do you want to continue?": "Řídicí jednotka systému se restartuje. Chcete pokračovat?",
	"Taipei": "Tchaj-pej",
	"Taiwan": "Tchaj-wan",
	"Tajikistan": "Tádžikistán",
	"Tanzania": "Tanzanie",
	"Tashkent": "Taškent",
	"Tehran": "Teherán",
	"Temperature": "Teplota",
	"Temperature history is not yet collected": "Historie teploty dosud nebyla shromážděna",
	"Test Color": "Test barev",
	"Test Pattern": "Zkušební obrazec",
	"Thailand": "Thajsko",
	"The POWER remote controller key will not work during the update.": "Během aktualizace nebude fungovat klávesa POWER na dálkovém ovladači.",
	"The Signage 365 care app has been deleted.": "Aplikace Signage 365 Care byla odstraněna.",
	"The Signage 365 care app has been successfully installed.": "Aplikace Signage 365 Care byla úspěšně nainstalována.",
	"The Signage 365 care app has been successfully updated.": "Aplikace Signage 365 Care byla úspěšně aktualizována.",
	"The URL format is invalid.": "Formát adresy URL je neplatný.",
	"The installation of the Signage 365 care app has failed.": "Instalace aplikace Signage 365 Care selhala.",
	"The installation of the Signage 365 care app is in progress.": "Instalace aplikace Signage 365 Care právě probíhá.",
	"The installation of the {apptitle} has failed.": "Instalace aplikace {apptitle} se nezdařila.",
	"The installation of the {apptitle} is in progress.": "Právě probíhá instalace aplikace {apptitle}.",
	"The timer is reset and the marriage process must be restarted from the beginning.": "Časovač je resetován a proces ověření Marriage musí být spuštěn znovu od začátku.",
	"The update of the Signage 365 care app has failed.": "Aktualizace aplikace Signage 365 Care selhala.",
	"The update of the Signage 365 care app is in progress.": "Aktualizace aplikace Signage 365 Care právě probíhá.",
	"The update of the {apptitle} has failed.": "Aktualizace aplikace {apptitle} se nezdařila.",
	"The update of the {apptitle} is in progress.": "Právě probíhá aktualizace aplikace {apptitle}.",
	"The {apptitle} has been successfully installed.": "Aplikace {apptitle} byla úspěšně nainstalována.",
	"The {apptitle} has been successfully updated.": "Aplikace {apptitle} byla úspěšně aktualizována.",
	"There is a difference between your signage and the signage 365 care server in time and date.": "Existuje rozdíl v datu a čase mezi vaším zařízením Signage a serverem neustálé péče o zařízení Signage.",
	"There is a difference between your signage and the {apptitle} server in time and date.": "Existuje rozdíl v datu a čase mezi vaším zařízením signage a serverem aplikace {apptitle}.",
	"There is no list.": "Neexistuje žádný seznam.",
	"There's No Backup file": "Záložní soubor neexistuje",
	"This pop up will be closed automatically in 5 sec.": "Toto vyskakovací okno se zavře automaticky za 5 sekund.",
	"Thu": "Čt",
	"Thule": "Thúlé",
	"Thursday": "Čtvrtek",
	"Tile ID": "ID dlaždice",
	"Tile Mode": "Režim dlaždice",
	"Tile Mode Setting": "Nastavení režimu dlaždic",
	"Tile Mode Settings": "Nastavení režimu dlaždic",
	"Time": "Čas",
	"Time & Date": "Datum a čas",
	"Time & Date Settings": "Nastavení data a času",
	"Time & Date Settings Required": "Nastavení data a času je povinné",
	"Time Setting": "Nastavení času",
	"Time Zone": "Časové pásmo",
	"Timor-Leste": "Východní Timor",
	"Tint": "Odstín",
	"Tiranë": "Tirana",
	"To choose an AP, please use Settings App. with a remote controller.": "Přístupový bod vyberte dálkovým ovladačem pomocí aplikace Nastavení",
	"To make your Password more secure. Use letters and numbers.": "Aby bylo vaše heslo bezpečnější. Použijte písmena a čísla.",
	"To make your password more secure, use a mixture of mixed-case letters, numbers and special characters": "Aby bylo vaše heslo bezpečnější, použijte kombinaci malých i velkých písmen, číslic a speciálních znaků",
	"To use Signage 365 care, you need to connect the device to the network . Do you want to set the network connection?": "Chcete-li používat aplikaci Signage 365 Care, musíte zařízen připojit k síti. Chcete nastavit síťové připojení?",
	"To use {apptitle}, you need to connect the device to the network. Do you want to set the network connection?": "Chcete-li používat aplikaci {apptitle}, musíte zařízení připojit k síti. Chcete nastavit síťové připojení?",
	"Tokyo": "Tokio",
	"Top": "Horní",
	"Top Left": "Vlevo nahoře",
	"Top Right": "Vpravo nahoře",
	"Transportation": "Doprava",
	"Trinidad And Tobago": "Trinidad a Tobago",
	"Tripoli": "Tripolis",
	"Tue": "Út",
	"Tuesday": "Úterý",
	"Tunisia": "Tunisko",
	"Turkey": "Turecko",
	"Turkmenistan": "Turkmenistán",
	"Type": "Typ",
	"URL Loader": "Zavaděč adresy URL",
	"URL Setting": "Nastavení URL",
	"Ukraine": "Ukrajina",
	"Ulaanbaatar": "Ulánbátar",
	"Unit Calibration": "Kalibrace jednotky",
	"Unit Calibration is modified. Exit without saving?": "Kalibrace jednotky je změněna. Ukončit bez uložení?",
	"Unit Configuration": "Konfigurace jednotky",
	"Unit Resolution": "Rozlišení jednotky",
	"Unit Status": "Stav jednotky",
	"Unit Temperature": "Teplota jednotky",
	"United Arab Emirates": "Spojené arabské emiráty",
	"United Kingdom": "Spojené království",
	"United States of America": "Spojené státy americké",
	"Units cut left edge can not be placed in the X:0 positions.": "Jednotky odříznuté levým okrajem nelze umístit do polohy X: 0.",
	"Units cut right edge cannot be placed in the Y:(Cut Pixel) positions.": "Jednotky odříznuté pravým okrajem nelze umístit do polohy Y:(Odříznout pixel).",
	"Unsupported File type.": "Nepodporovaný typ souboru.",
	"Unsupported File type. Only Image/Video files are allowed.": "Nepodporovaný typ souboru. Jsou povoleny pouze soubory obrázků/videa.",
	"Update": "Aktualizovat",
	"Update Failed": "Chyba aktualizace",
	"Update LED FPGA micom with xxx done": "Aktualizace LED FPGA micom pomocí xxx dokončena",
	"Update LED FPGA with xxx done": "Aktualizace LED FPGA pomocí xxx dokončena",
	"Update Progress": "Průběh aktualizace",
	"Update Succeeded": "Aktualizace úspěšně dokončena",
	"Update completed. Set is rebooting now.": "Aktualizace dokončena. Přístroj se nyní restartuje.",
	"Update completed. Signage is rebooting now.": "Aktualizace dokončena. Profesionální monitor je nyní restartován.",
	"Update fan micom with xxx done": "Aktualizace ventilátoru micom pomocí xxx dokončena",
	"Update is completed.": "Aktualizace je dokončena.",
	"Update is in progress.": "Probíhá aktualizace.",
	"Update?": "Aktualizovat?",
	"Updating…": "Probíhá aktualizace...",
	"Upload": "NAHRÁNÍ",
	"Upload FPGA Update file (XXX GB available)": "Nahrát soubor aktualizace FPGA (k dispozici XXX GB)",
	"Upload LED FPGA update file": "Nahrát soubor aktualizace LED FPGA",
	"Upload secured S/W Update file": "Nahrát zabezpečený soubor aktualizace softwaru",
	"Upload secured S/W Update file (XXX GB available)": "Nahrát zabezpečený soubor aktualizace softwaru (k dispozici XXX GB)",
	"Uploading": "Nahrávání",
	"User": "Uživatel",
	"Uzbekistan": "Uzbekistán",
	"Uzhhorod": "Užhorod",
	"Validation Error.": "Chyba ověření pravosti.",
	"Vatican City": "Vatikán",
	"Ver": "Verze",
	"Version": "Verze",
	"Vertical": "Vertikální",
	"Video Scaler": "Převodník videa",
	"Vienna": "Vídeň",
	"View": "Zobrazení",
	"View Photo": "Zobrazit fotografii",
	"Virtual Controller": "Virtuální ovladač",
	"Vivid": "Živý",
	"Volume": "Hlasitost",
	"Waiting for Approval": "Čekání na schválení",
	"Warm": "Horké",
	"Warsaw": "Varšava",
	"Wed": "St",
	"Wednesday": "Středa",
	"Week": "Týden",
	"Weekday": "Pracovní den",
	"Welcome to LG WebOS": "Vítejte v LG WebOS",
	"Width": "Šířka",
	"Wired": "Pevné",
	"Working": "Pracovní",
	"XX GB free of XXGB": "XX GB volných z XX GB",
	"XX of YY": "XX z YY",
	"YES": "ANO",
	"Yakutsk": "Jakutsk",
	"Yekaterinburg": "Jekatěrinburg",
	"Yemen": "Jemen",
	"Yerevan": "Jerevan",
	"Yes": "Ano",
	"You changed IP address or DHCP status. Please reconnect to changed IP address": "Změnili jste adresu IP nebo stav DHCP. Zkuste se znovu připojit ke změněné adrese IP.",
	"You did not finish the process in time.": "Nestihli jste proces dokončit včas.",
	"You have failed to login 1/5 time.": "Počet nezdařených pokusů o přihlášení: 1 z 5.",
	"You have failed to login 5 times. Please try again after 05:00.": "Počet nezdařených pokusů o přihlášení: 5. Zkuste to znovu za 05:00.",
	"You may not be able to reconnect to web pages if you cannot find out new IP address.": "Pokud se vám nepodaří najít novou adresu IP, možná se nebudete moci znovu připojit k webovým stránkám.",
	"You've entered the same password as the current one. Please enter a different password.": "Zadali jste heslo, které se shoduje se stávajícím heslem. Zadejte jiné heslo.",
	"Your Password has been changed.": "Heslo bylo změněno.",
	"Your device needs the correct time & date to authenticate marriage.": "Vaše zařízení potřebuje k ověření Marriage správný čas a datum.",
	"Zagreb": "Záhřeb",
	"Zambia": "Zambie",
	"Zaporozhye": "Záporoží",
	"Zoom": "Přiblížit",
	"Zoom In": "Přiblížit",
	"Zoom In/Out": "Přiblížit/Oddálit",
	"Zoom Out": "Oddálit",
	"Zürich": "Curych",
	"align": "vyrovnat",
	"available": "k dispozici",
	"color": "barva",
	"full aspect ratio": "na celou obrazovku",
	"general": "obecné",
	"hour": "hodinu",
	"last": "Poslední",
	"original aspect ratio": "původní poměr stran",
	"over {period} min.": "po dobu {period} min.",
	"reading": "čtení",
	"save as PC Time": "uložit jako čas PC",
	"sharpness": "ostrost",
	"upload": "nahrát",
	"version": "verze",
	"warning": "varování",
	"webOS Version": "Verze webOS",
	"year": "rok",
	"{apptitle} will be deleted.": "{apptitle} bude odstraněna.",
	"{{filename}} already exists.": "{{filename}} již existuje."
}
