{
	"(30,60,120,180) Min": "(30,60,120,180)分",
	"10 sec": "10 秒",
	"10 sec Auto Refresh": "10秒。自動更新",
	"1Hour": "1時間",
	"1st": "第一",
	"2nd": "第二",
	"30sec": "30秒",
	"3rd": "第三",
	"4th": "第四",
	"5 min. Refresh": "5分。更新",
	"5Min": "5分",
	"Abnormally High": "異常に高い",
	"Account": "アカウント",
	"Accra": "アクラ",
	"Activate": "アクティブ化",
	"Adak": "アダック",
	"Add Media": "メディアの追加",
	"Add Mini Module": "ミニモジュールの追加",
	"Add Slave Controller": "スレーブコントローラーの追加",
	"Add Unit": "装置の追加",
	"Addis Ababa": "アジスアベバ",
	"Adelaide": "アデレード",
	"Aden": "アデン",
	"Advanced Options": "詳細オプション",
	"Advanced Setting": "詳細設定",
	"Afghanistan": "アフガニスタン",
	"Africa": "アフリカ",
	"Albania": "アルバニア",
	"Algeria": "アルジェリア",
	"Algiers": "アルジェ",
	"All": "すべて",
	"All Units": "すべての装置",
	"All settings will be reset. Do you want to continue?": "すべての設定がリセットされます。続行しますか？",
	"Almaty": "アルマトイ",
	"Amman": "アンマン",
	"Amsterdam": "アムステルダム",
	"An error occurred while submitting the form.": "フォームの送信中にエラーが発生しました。",
	"Anadyr": "アナディリ",
	"Anchorage": "アンカレッジ",
	"Angola": "アンゴラ",
	"Antananarivo": "アンタナナリボ",
	"Apia": "アピア",
	"Apply": "適用",
	"Apply to All Units": "すべての装置に適用",
	"Apply?": "適用しますか？",
	"Approximate round trip in milli-seconds": "ラウンドトリップの概算時間（ミリ秒）",
	"April": "4月",
	"Araguaína": "アラグァイーナ",
	"Are you sure to change Settings?": "設定を変更しますか？",
	"Are you sure to change the calibration settings of this unit?": "この装置の調整設定を変更しますか？",
	"Are you sure to reboot?": "再起動します。よろしいですか？",
	"Are you sure to use": "使用しますか",
	"Are you sure to use Wi-Fi DHCP?": "Wi-FiのDHCPを使用します。よろしいですか？",
	"Are you sure to use Wired DHCP?": "有線のDHCPを使用します。よろしいですか？",
	"Argentina": "アルゼンチン",
	"Armenia": "アルメニア",
	"Aruba": "アルバ",
	"Ashgabat": "アシガバート",
	"Asia": "アジア",
	"Asmara": "アスマラ",
	"Aspect Ratio when rotated": "回転時の画面サイズ",
	"Asunción": "アスンシオン",
	"Athens": "アテネ",
	"Atikokan": "アティコカン",
	"Auckland": "オークランド",
	"August": "8月",
	"Australia": "オーストラリア",
	"Austria": "オーストリア",
	"Authenticate": "認証",
	"Authentication Failed": "認証が失敗しました",
	"Authentication completed.": "認証が完了しました。",
	"Auto": "自動",
	"Auto Detect": "自動検出",
	"Auto Refresh": "自動更新",
	"Automatically Assign IP Address": "IPアドレス自動設定",
	"Available to Installation": "インストール可能",
	"Azerbaijan": "アゼルバイジャン",
	"Azores": "アゾレス",
	"BLU Status": "BLUの状態",
	"Back": "戻る",
	"Backlight": "バックライト",
	"Backup Media Upload": "バックアップメディアのアップロード",
	"Backup file Thumbnail Image": "バックアップファイルのサムネイルイメージ",
	"Backup via storage": "ストレージにバックアップする",
	"Baghdad": "バグダッド",
	"Bahamas": "バハマ",
	"Bahrain": "バーレーン",
	"Baku": "バクー",
	"Bamako": "バマコ",
	"Bangkok": "バンコク",
	"Bangladesh": "バングラデシュ",
	"Bangui": "バンギ",
	"Banjul": "バンジュル",
	"Barbados": "バルバドス",
	"Basic Setting": "基本設定",
	"Begin test": "テストを開始",
	"Beijing": "北京",
	"Beirut": "ベイルート",
	"Belarus": "ベラルーシ",
	"Belgium": "ベルギー",
	"Belgrade": "ベルグラード",
	"Belize": "ベリーズ",
	"Belém": "ベレン",
	"Benin": "ベナン",
	"Berlin": "ベルリン",
	"Bermuda": "バミューダ",
	"Bhutan": "ブータン",
	"Bishkek": "ビシュケク",
	"Bissau": "ビサウ",
	"Black Level": "黒レベル",
	"Blanc-Sablon": "ブランサブロン",
	"Blantyre": "ブランタイヤ",
	"Boa Vista": "ボアビスタ",
	"Bogotá": "ボゴタ",
	"Bolivia": "ボリビア",
	"Bootloader Version": "ブートローダーのバージョン",
	"Bosnia": "ボスニア",
	"Botswana": "ボツワナ",
	"Bottom": "下",
	"Bottom Left": "左下",
	"Bottom Light": "右下",
	"Bottom Right": "右下",
	"Box Name": "ボックス名",
	"Bratislava": "ブラチスラバ",
	"Brazil": "ブラジル",
	"Brazzaville": "ブラザビル",
	"Brightness": "明るさ",
	"Brisbane": "ブリスベン",
	"Browse": "参照",
	"Browse a file to upload": "アップロードするファイルを選択",
	"Brussels": "ブリュッセル",
	"Bucharest": "ブカレスト",
	"Budapest": "ブダペスト",
	"Buenos Aires": "ブエノスアイレス",
	"Bujumbura": "ブジュンブラ",
	"Bulgaria": "ブルガリア",
	"Burkina Faso": "ブルキナファソ",
	"Burundi": "ブルンジ",
	"Cairo": "カイロ",
	"Calibrate Unit": "装置の調整",
	"Calibrated": "調整済み",
	"Calibrating...": "調整中...",
	"Calibration": "補正",
	"Cambodia": "カンボジア",
	"Cameroon": "カメルーン",
	"Campo Grande": "カンポグランデ",
	"Canada": "カナダ",
	"Canary Islands": "カナリア諸島",
	"Cancel": "キャンセル",
	"Cancún": "カンクン",
	"Cannot start S/W update. Check xxx file please.": "S/Wのアップデートを開始できません。xxxファイルを確認してください。",
	"Cape Verde": "カーボベルデ",
	"Capture time Interval": "キャプチャ間隔",
	"Capture time interval": "キャプチャ間隔",
	"Caracas": "カラカス",
	"Casablanca": "カサブランカ",
	"Category": "カテゴリ",
	"Cayman Islands": "ケイマン諸島",
	"Central African Republic": "中央アフリカ共和国",
	"Chad": "チャド",
	"Change Password": "パスワードの変更",
	"Changing Time may cause you to be logged out.": "時刻を変更すると、ログアウトする場合があります。",
	"Changing Time zone may cause you to be logged out.": "タイムゾーンを変更すると、ログアウトする場合があります。",
	"Charts": "グラフ",
	"Check Temperature sensors. -40 means errors when reading Temperature sensors": "温度センサーを確認してください。-40は、温度センサーの読み取り時にエラーが発生したことを意味します。",
	"Check for Update": "最新版を確認",
	"Check the account number you entered.": "入力した口座番号を確認してください。",
	"Check whether two passwords are same": "2つのパスワードが一致していることを確認してください。",
	"Check your URL input": "入力したURLを確認してください",
	"CheckScreen": "画面の確認",
	"Checking for update...": "更新を確認中...",
	"Chicago": "シカゴ",
	"Chihuahua": "チワワ",
	"Chile": "チリ",
	"China": "中国",
	"Chisinau": "キシナウ",
	"Christmas Island": "クリスマス島",
	"Cinema": "シネマ",
	"City": "都市",
	"Close": "閉じる",
	"Close status of cabinet doors": "キャビネットドアのクローズ状態",
	"Closed": "クローズ",
	"Closed Loop Fan": "クローズループファン",
	"ClosedLoop": "クローズループ",
	"Colombia": "コロンビア",
	"Colombo": "コロンボ",
	"Color Temperature": "色温度",
	"ColorRead": "色の読み取り",
	"Column": "列",
	"Conakry": "コナクリ",
	"Confirm": "確認",
	"Confirm Account Number": "アカウント番号の確認",
	"Confirm New Password": "新しいパスワードの確認",
	"Confirm the account number you entered.": "入力したアカウント番号を確認します。",
	"Connected": "接続されました。",
	"Content Rotation": "コンテンツの回転",
	"Content Rotation Status": "コンテンツの回転状態",
	"Content Rotation is ON": "コンテンツの回転がオンになっています",
	"Content is rotated": "コンテンツを回転しました。",
	"Contents rotation is ON": "コンテンツの回転がオンになっています",
	"Continent": "大陸",
	"Contrast": "コントラスト",
	"Control": "コントロール",
	"Control Item": "操作項目",
	"Control Type": "コントロールのタイプ",
	"Cool": "高",
	"Copenhagen": "コペンハーゲン",
	"Costa Rica": "コスタリカ",
	"Country/Territory": "国/地域",
	"Croatia": "クロアチア",
	"Cuba": "キューバ",
	"Cuiabá": "クイアバ",
	"Current": "電流",
	"Current Fan RPM": "ファンの現在のRPM",
	"Current Password": "現在のパスワード",
	"Current Picture mode does not support changing color temperature. Please select \"Expert\" of \"Calibration\" mode to adjust the color temperature.": "現在の映像モードでは、色温度を変更できません。色温度を調整するには、調整モードで[エキスパート]を選択してください。",
	"Current Ver.": "現在バージョン",
	"Current Version": "現在のバージョン",
	"Custom": "カスタム",
	"Cut Left Edge": "左端をカット",
	"Cut Right Edge": "右端をカット",
	"Cyprus": "キプロス",
	"Czech": "チェコ語",
	"Czech Republic": "チェコ共和国",
	"Côte d'Ivoire": "コートジボワール",
	"DHCP State": "DHCPの状態",
	"DNS Server": "DNSサーバー",
	"DOWNLOAD LOG": "ログのダウンロード",
	"DOWNLOAD LOG FILE": "ログファイルのダウンロード",
	"DPM (Standby Mode)": "DPM（スタンバイモード）",
	"Daisy Direction": "デイジーの方向",
	"Daisy Start by": "デイジーの開始",
	"Dakar": "ダカール",
	"Damage Detection": "損傷検出",
	"Damaged": "破損",
	"Damascus": "ダマスカス",
	"Danmarkshavn": "デンマークシャウン",
	"Darwin": "ダーウィン",
	"Dashboard": "ダッシュボード",
	"Data is not collected now. wait for maximum 60 seconds": "現在データを収集していません。60秒ほどお待ちください。",
	"Date": "日付",
	"Dawson": "ドーソン",
	"Dawson Creek": "ドーソンクリーク",
	"Day": "日",
	"Daylight Saving Time": "サマータイム",
	"Days": "日",
	"December": "12月",
	"Default": "デフォルト",
	"Default size": "デフォルトサイズ",
	"Delete": "削除",
	"Delete Mini Module": "ミニモジュールの削除",
	"Delete Slave Controller": "スレーブコントローラーの削除",
	"Delete Unit": "装置の削除",
	"Delete the file": "ファイルの削除",
	"Delete?": "削除しますか？",
	"Democratic Republic Of The Congo": "コンゴ民主共和国",
	"Denmark": "デンマーク",
	"Denver": "デンバー",
	"Details of Unit": "装置の詳細",
	"Detroit": "デトロイト",
	"Device Control": "デバイス管理",
	"Dhaka": "ダッカ",
	"Digital Board Reboot": "デジタルボードの再起動",
	"Dili": "ディリ",
	"Disconnected": "切断",
	"Display": "表示",
	"Display & Sound": "ディスプレイと音声",
	"Display & sound": "ディスプレイと音声",
	"Do not reboot in Device page.": "[デバイス]ページで再起動しないでください。",
	"Do you want to delete the item?": "アイテムを削除しますか？",
	"Do you want to delete the selected file?": "選択したファイルを削除しますか？",
	"Do you want to delete this LED FPGA Update file?": "このLED FPGAアップデートファイルを削除しますか？",
	"Do you want to delete this S/W Update file?": "このソフトウェアのアップデートファイルを削除しますか？",
	"Do you want to install this S/W Update file?": "ソフトウェアのアップデートファイルをインストールしますか？",
	"Do you want to proceed?": "続行しますか？",
	"Do you want to set the time & date?": "日時を自動的にを設定しますか？",
	"Do you want to set the time or date automatically?": "時刻または日付を自動設定にしますか？",
	"Dodoma": "ドドマ",
	"Doha": "ドーハ",
	"Dominica": "ドミニカ",
	"Dominican Republic": "ドミニカ共和国",
	"Done": "完了",
	"Door": "ドア",
	"Door Control": "ドアコントロール",
	"Door Monitor": "ドアモニター",
	"Door Open": "ドアが開いている",
	"Door Sensor": "ドアセンサー",
	"Door Sensor Status": "ドアセンサーの状態",
	"Door xxx is opened": "ドアxxxが開いています。",
	"Douala": "ドゥアラ",
	"Draw": "ドロー",
	"Dubai": "ドバイ",
	"Dublin": "ダブリン",
	"Duplicated Unit ID": "装置IDの重複",
	"Duration": "時間",
	"Dushanbe": "ドゥシャンベ",
	"Dynamic Brightness": "自動輝度",
	"Dynamic Brightness Control": "自動輝度調整",
	"Easter Island": "イースター島",
	"Ecuador": "エクアドル",
	"Edit": "編集",
	"Edmonton": "エドモントン",
	"Education": "教育",
	"Egypt": "エジプト",
	"El Salvador": "エルサルバドル",
	"Enable or disable Signage 365 Care services on this device": "このデバイスでサイネージ365ケアサービスを有効または無効にする",
	"Enable or disable {apptitle} service on this device": "このデバイスで{apptitle}サービスを有効または無効にする",
	"End": "終了",
	"End Time": "終了時刻",
	"Energy Saving": "映像省エネ設定",
	"Enter Account Number": "アカウント番号の入力",
	"Enter the account number to activate Signage 365 Care.": "アカウント番号を入力して、サイネージ365ケアを有効にします。",
	"Enter the account number to activate {apptitle}.": "アカウント番号を入力して{apptitle}を有効にします。",
	"Enter the following": "次の情報を入力してください",
	"Enter the network address to ping": "pingを実行するネットワークアドレスを入力してください",
	"Equatorial Guinea": "赤道ギニア",
	"Eritrea": "エリトリア",
	"Estonia": "エストニア",
	"Ethiopia": "エチオピア",
	"Europe": "ヨーロッパ",
	"Event": "イベント",
	"Exit": "終了",
	"Expert": "シネマ",
	"Export": "エクスポート",
	"External": "外部",
	"External Input Rotation": "外部入力の回転",
	"External Input Rotation Status": "外部入力の回転状態",
	"External Input Rotation is ON": "外部入力の回転がオンになっています。",
	"EyeQ sensor": "EyeQセンサー",
	"FPGA Version": "FPGAのバージョン",
	"Factory Reset": "初期化",
	"Fail": "失敗",
	"Fail Over": "フェイルオーバー",
	"Fail to update. Check xxx file please.": "アップデートに失敗しました。xxxファイルを確認してください。",
	"Failed to update LED FPGA with xxx. Check the file please": "LED FPGAをxxxでアップデートできませんでした。ファイルを確認してください。",
	"Failed to update LED FPGA with xxx. Check the status of the unit controller.": "LED FPGAをxxxでアップデートできませんでした。装置のコントローラーの状態を確認してください。",
	"Failed to update fan micom with xxx. Check the file please": "ファンのマイコンをxxxでアップデートできませんでした。ファイルを確認してください。",
	"Fan": "ファン",
	"Fan Micom Version": "ファンマイコンのバージョン",
	"Fan RPM": "ファンのRPM",
	"Fan RPM history is not yet collected": "ファンのRPM履歴データが収集されていません。",
	"Fan Status": "ファンの状態",
	"February": "2月",
	"Fernando de Noronha": "フェルナンドデノローニャ",
	"Fiji": "フィジー",
	"File Name": "ファイル名",
	"File Select": "ファイルの選択",
	"File Upload Progress": "ファイルをアップロード中",
	"File upload via mobile devices does not support.": "モバイルデバイスからファイルのアップロードはできません。",
	"Finland": "フィンランド",
	"First Use": "はじめての設定",
	"Flash memory is not enough.": "フラッシュメモリーに十分な空き容量がありません。",
	"For your security, we recommend to change default password. Would you like to change your password now?": "セキュリティ上の理由から、既定のパスワードを変更することをおすすめします。パスワードを今すぐ変更しますか？",
	"Fortaleza": "フォルタレザ",
	"Frame": "フレーム",
	"France": "フランス",
	"Freetown": "フリータウン",
	"French Polynesia": "フランス領ポリネシア",
	"Fri": "金",
	"Friday": "金曜",
	"Front": "前面",
	"Full": "フル",
	"Gabon": "ガボン",
	"Gaborone": "ハボローネ",
	"Gambia": "ガンビア",
	"Gambier": "ガンビア",
	"Game": "ゲーム",
	"Gamma": "ガンマ",
	"Gamut Matrix": "色域のマトリックス",
	"Gateway": "ゲートウェイ",
	"General": "機器設定",
	"Georgia": "グルジア",
	"Germany": "ドイツ",
	"Ghana": "ガーナ",
	"Gibraltar": "ジブラルタル",
	"Glace Bay": "グレースベイ",
	"Go To First Use": "First Useに移動",
	"Godthab": "ゴットホープ",
	"Gov./Corp.": "官公庁/企業",
	"Greece": "ギリシャ",
	"Greenland": "グリーンランド",
	"Guadalcanal": "ガダルカナル",
	"Guadeloupe": "グアダルーペ",
	"Guam": "グアム",
	"Guatemala": "グァテマラ",
	"Guatemala City": "グァテマラシティ",
	"Guayaquil": "グアヤキル",
	"Guernsey": "ガーンジー",
	"Guinea": "ギニア",
	"Guinea Bissau": "ギニアビサウ",
	"Guyana": "ガイアナ",
	"Haiti": "ハイチ",
	"Halifax": "ハリファックス",
	"Harare": "ハラレ",
	"Havana": "ハバナ",
	"Height": "高さ",
	"Helsinki": "ヘルシンキ",
	"Hermosillo": "エルモシージョ",
	"High": "高",
	"History is not yet collected": "履歴データが収集されていません。",
	"Ho Chi Minh": "ホーチミン",
	"Hobart": "ホバート",
	"Home": "ホーム",
	"Honduras": "ホンジュラス",
	"Hong Kong": "香港",
	"Honolulu": "ホノルル",
	"Horizontal": "水平",
	"Hour": "時間",
	"Hours": "時間",
	"Humidity": "湿度",
	"Hungary": "ハンガリー",
	"ID/password": "ID/パスワード",
	"IMB Settings": "IMBの設定",
	"IMB Status": "IMBの状態",
	"IP Address": "IPアドレス",
	"Iceland": "アイスランド",
	"Image": "画像",
	"Impact": "影響",
	"Incorrect Password entered. Please try again.": "無効なパスワードが入力されました。もう一度お試しください。",
	"India": "インド",
	"Indianapolis": "インディアナポリス",
	"Indonesia": "インドネシア",
	"Information": "情報",
	"Input": "入力切換",
	"Input 6 or more characters": "6文字以上を入力してください。",
	"Input Direction": "入力方法",
	"Input Password": "パスワードの入力",
	"Input Priority": "入力の優先度",
	"Input Priority Setting": "入力の優先度",
	"Input Signage Name please.": "サイネージ名を入力してください。",
	"Input Window": "入力ウィンドウ",
	"Install": "インストール",
	"Install Succeeded": "インストールに成功しました。",
	"Installation Failed": "インストール失敗",
	"Installation Menu": "インストールメニュー",
	"Installing…": "インストール中…",
	"Internet Not available": "インターネットが使用できません。",
	"Internet available": "インターネットが使用できます。",
	"Invalid NEW Password. Password must be 6 characters in length.": "新しいパスワードが無効です。パスワードは6文字にする必要があります。",
	"Invalid NEW Password. Password must be 8 characters in length.": "新しいパスワードが無効です。パスワードは8文字にする必要があります。",
	"Invalid NEW Password. You must use a combination of letters and numbers.": "新しいパスワードが無効です。文字と数字を組み合わせる必要があります。",
	"Invalid New password. Password must be at least 8 characters.": "新しいパスワードが無効です。パスワードは、8文字以上にしてください。",
	"Invalid New password. You must use a mixture of mixed-case letters, numbers and special characters.": "新しいパスワードが無効です。大文字、小文字、数字、特殊文字を組み合わせて使用してください。",
	"Invalid day value": "日の値が無効です。",
	"Invalid hour value": "時間の値が無効です。",
	"Invalid minute value": "分の値が無効です。",
	"Invalid month value": "月の値が無効です。",
	"Invalid value": "値が無効です。",
	"Invalid year value": "年の値が無効です。",
	"Iran": "イラン",
	"Iraq": "イラク",
	"Ireland": "アイルランド",
	"Irkutsk": "イルクーツク",
	"Irregular": "不定",
	"Israel": "イスラエル",
	"Issue History": "問題の履歴",
	"Istanbul": "イスタンブール",
	"Italy": "イタリア",
	"Jakarta": "ジャカルタ",
	"Jamaica": "ジャマイカ",
	"January": "1月",
	"Japan": "日本",
	"Jerusalem": "エルサレム",
	"Johannesburg": "ヨハネスブルグ",
	"Jordan": "ヨルダン",
	"July": "7月",
	"June": "6月",
	"Kabul": "カブール",
	"Kaliningrad": "カリーニングラード",
	"Kamchatka": "カムチャッカ",
	"Kampala": "カンパラ",
	"Karachi": "カラチ",
	"Katmandu": "カトマンズ",
	"Kazakhstan": "カザフスタン",
	"Kenya": "ケニア",
	"Khartoum": "ハルツーム",
	"Khovd": "ホブド",
	"Kiev": "キエフ",
	"Kigali": "キガリ",
	"Kingston": "キングストン",
	"Kinshasa": "キンシャサ",
	"Kiribati": "キリバス",
	"Kiritimati": "キリスィマスィ",
	"Kolkata": "コルカタ",
	"Korea": "韓国",
	"Korea, Republic of": "大韓民国",
	"Krasnoyarsk": "クラスノヤルスク",
	"Kuala Lumpur": "クアラルンプール",
	"Kuching": "クチン",
	"Kuwait": "クウェート",
	"Kuwait City": "クウェートシティ",
	"Kyrgyzstan": "キルギスタン",
	"LED Assistant": "LEDアシスタント",
	"LED Assistant Settings": "LEDアシスタントの設定",
	"LED FPGA Update file list": "LED FPGAアップデートファイルリスト",
	"LED FPGA Updating ......": "LED FPGAをアップデート中......",
	"LED Features": "LEDの機能",
	"LED Film Settings": "LEDフィルム設定",
	"LED Open Detection": "LEDオープン検出",
	"LED Settings": "LEDの設定",
	"LED Unit": "LED装置",
	"LED Unit Status": "LEDの状態",
	"LG ConnectedCare App": "LG ConnectedCareアプリ",
	"LG ConnectedCare app": "LG ConnectedCareアプリ",
	"LG Control Manager": "LGコントロールマネージャー",
	"La Paz": "ラパス",
	"Lagos": "ラゴス",
	"Landscape": "横向き",
	"Language": "言語",
	"Laos": "ラオス",
	"Large": "大",
	"Last": "第五",
	"Latvia": "ラトビア",
	"Layout": "レイアウト",
	"Layout Editor": "レイアウトエディター",
	"Lebanon": "レバノン",
	"Lesotho": "レソト",
	"Liberia": "リベリア",
	"Libreville": "リーブルビル",
	"Libya": "リビア",
	"Liechtenstein": "リヒテンシュタイン",
	"Lima": "リマ",
	"Lisbon": "リスボン",
	"Lithuania": "リトアニア",
	"Ljubljana": "リュブリャナ",
	"Loading": "読み込み中",
	"Loading...": "読み込み中...",
	"Loading…": "読み込み中…",
	"Location": "地域設定",
	"Log": "ログ",
	"Log Report": "ログレポート",
	"Log after Power Up": "起動後にログに記録",
	"Log in with the authorized ID and password.": "許可されたIDとパスワードでログインします。",
	"Login": "ログイン",
	"Login is required.": "ログインが必要です。",
	"Logout": "ログアウト",
	"Lome": "ロメ",
	"London": "ロンドン",
	"Los Angeles": "ロサンゼルス",
	"Louisville": "ルイビル",
	"Low": "低",
	"Luanda": "ルアンダ",
	"Lubumbashi": "ルブンバシ",
	"Lusaka": "ルサカ",
	"Luxembourg": "ルクセンブルグ",
	"MAC Address": "MACアドレス",
	"Macao": "マカオ",
	"Macedonia": "マケドニア",
	"Maceió": "マセイオ ",
	"Madagascar": "マダガスカル",
	"Madeira": "マデイラ",
	"Madrid": "マドリード",
	"Magadan": "マガダン",
	"Main": "メイン",
	"Malabo": "マラボ",
	"Malawi": "マラウィ",
	"Malaysia": "マレーシア",
	"Maldives": "モルディブ",
	"Mali": "マリ",
	"Mall/QSR": "モール/QSR",
	"Malta": "マルタ",
	"Manage": "管理",
	"Managua": "マナグア",
	"Manaus": "マナウス",
	"Manila": "マニラ",
	"Manual": "手動",
	"Maputo": "マプト",
	"March": "3月",
	"Marquesas": "マルケサス",
	"Marriage Guide (2 Steps)": "Marriage番組表（2ステップ）",
	"Marriage Status": "Marriageの状態",
	"Marshall Islands": "マーシャル諸島",
	"Martinique": "マルティニーク",
	"Maseru": "マセル",
	"Master": "マスター",
	"Mauritius": "モーリシャス",
	"Max Backlight": "バックライト最大",
	"Maximum": "最大",
	"May": "5月",
	"Mayotte": "マヨット",
	"Mazatlán": "マサトラン",
	"Mbabane": "ムババーネ",
	"Media Library": "メディアライブラリ",
	"Media file List": "メディアファイルリスト",
	"Media file Upload (XXX GB available)": "メディアファイルのアップロード（XXX GB使用可能）",
	"Medium": "中",
	"Melbourne": "メルボルン",
	"Menu Language": "メニュー言語",
	"Mexico": "メキシコ",
	"Mexico City": "メキシコシティ",
	"Micom Progress": "Micomのアップデート中",
	"Micom Update": "マイコンのアップデート",
	"Micom Version": "マイコンのバージョン",
	"Middle East": "中東",
	"Min Backlight": "バックライト最小",
	"Mini Module": "ミニモジュール",
	"Minimum": "最小",
	"Minimum = XXms, Maximum = YYms, Average = ZZms": "最小 = XXms、最大 = YYms、平均 = ZZms",
	"Mins": "分",
	"Minsk": "ミンスク",
	"Model Name": "モデル名",
	"Module Calibration": "モジュールの調整",
	"Module Calibration is modified. Exit without saving?": "モジュールの調整が変更されました。保存せずに終了しますか？",
	"Module Size": "モジュールサイズ",
	"Modules": "モジュール",
	"Mogadishu": "モガディシオ",
	"Moldova": "モルドバ",
	"Mon": "月",
	"Monaco": "モナコ",
	"Moncton": "モンクトン",
	"Monday": "月曜",
	"Mongolia": "モンゴル",
	"Monrovia": "モンロビア",
	"Montenegro": "モンテネグロ",
	"Monterrey": "モントレー",
	"Montevideo": "モンテビデオ",
	"Month": "月",
	"Montréal": "モントリオール",
	"More": "その他",
	"Morocco": "モロッコ",
	"Moscow": "モスクワ",
	"Motion": "モーション",
	"Mozambique": "モザンビーク",
	"Muscat": "マスカット",
	"Mute": "ミュート",
	"Myanmar": "ミャンマー",
	"Mérida": "メリダ",
	"NO": "いいえ",
	"NOT AVAILABLE": "使用できません。",
	"Nairobi": "ナイロビ",
	"Name": "名前",
	"Namibia": "ナミビア",
	"Nassau": "ナッソー",
	"Natural Mode": "ナチュラルモード",
	"Natural Size": "通常サイズ",
	"Ndjamena": "ンジャメナ",
	"Nepal": "ネパール",
	"Netherlands": "オランダ",
	"Network": "ネットワーク",
	"Network Ready": "ネットワーク準備完了",
	"Network Settings": "ネットワーク設定",
	"New Caledonia": "ニューカレドニア",
	"New Password": "新しいパスワード",
	"New Password and Confirm Password do not match.": "新しいパスワードと確認用のパスワードが一致しません。",
	"New York": "ニューヨーク",
	"New Zealand": "ニュージーランド",
	"Newer Ver.": "新しいバージョン",
	"Next": "次へ",
	"Next Day": "翌日",
	"Niamey": "ニアメ",
	"Nicaragua": "ニカラグア",
	"Nicosia": "ニコシア",
	"Niger": "ニジェール",
	"Nigeria": "ナイジェリア",
	"Nipigon": "ニピゴン",
	"No": "いいえ",
	"No Signal": "信号なし",
	"No backup files exist in storage device.": "ストレージデバイスにバックアップファイルが存在しません。",
	"None": "なし",
	"Normal": "標準",
	"North America": "北米",
	"North Korea": "北朝鮮",
	"Norway": "ノルウェー",
	"Not Connected": "接続されていません。",
	"Notification": "お知らせ",
	"Nouméa": "ヌメア",
	"November": "11月",
	"Novosibirsk": "ノボシビルスク",
	"Number": "番号",
	"OFF": "オフ",
	"OK": "決定",
	"OLED LIGHT": "OLED輝度",
	"OLED Light": "OLED輝度",
	"ON": "オン",
	"OSD Portrait Mode": "OSD縦モード",
	"OSD Portrait Mode is ON": "OSDポートレートモードが有効です",
	"OSD Portrait Status": "OSD縦モードの状態",
	"OSD Portrait mode is xxx": "OSD縦モードはxxxです。",
	"OSD Rotation is ON": "OSDの回転がオンになっています",
	"Occurrence Time": "発生時間",
	"Oceania": "オセアニア",
	"October": "10月",
	"Off": "オフ",
	"Off Until Reset": "リセットするまでオフ",
	"Off When Open": "オープン時にオフ",
	"Oman": "オマーン",
	"Omsk": "オムスク",
	"On": "オン",
	"On When Open": "オープン時にオン",
	"Open Loop Fan": "オープンループファン",
	"OpenLoop": "オープンループ",
	"Opened": "オープン",
	"Oranjestad": "オラニエスタッド",
	"Original": "オリジナル",
	"Oslo": "オスロ",
	"Ouagadougou": "ワガドゥグー",
	"Output Window": "出力ウィンドウ",
	"OverHeat": "過熱状態",
	"Overwrite": "上書き",
	"Overwrite xxx?": "xxxを上書きしますか？",
	"Overwrite?": "上書きしますか？",
	"PM Mode": "PMモード",
	"Pacific": "太平洋",
	"Packets : Sent = XX. Received = YY. Lost = ZZ (WW% loss)": "パケット: 送信 = XX.受信 = YY.損失 = ZZ（WW%の損失）",
	"Pakistan": "パキスタン",
	"Palau": "パラオ",
	"Panama": "パナマ",
	"Panama City": "パナマシティ",
	"Panel": "パネル",
	"Papua New Guinea": "パプアニューギニア",
	"Paraguay": "パラグアイ",
	"Paramaribo": "パラマリボ",
	"Paris": "パリ",
	"Password": "パスワード",
	"Password is incorrect. Please Try Again": "パスワードが間違っています。もう一度お試しください。",
	"Password is incorrect. Please try again.": "パスワードが間違っています。もう一度お試しください。",
	"Perth": "パース",
	"Peru": "ペルー",
	"Philippines": "フィリピン",
	"Phnom Penh": "プノンペン",
	"Phoenix": "フェニックス",
	"Picture": "映像",
	"Picture Mode": "映像モード",
	"Picture Settings": "映像設定",
	"Ping Test": "pingテスト",
	"Ping statistics for [X.X.X.X]": "[X.X.X.X]のping統計",
	"Ping test failed. Invalid format of network address field.": "pingテストに失敗しました。ネットワークアドレスの形式が無効です。",
	"Ping test is in progress": "pingテストの実行中",
	"Ping test result": "pingテストの結果",
	"Pinging [X.X.X.X] with YYY bytes of data": "YYYバイトのデータで[X.X.X.X]にpingを実行中",
	"Play": "再生",
	"Play via URL": "URL経由で再生",
	"Please Keep this Signage on.": "このサイネージをオンにしてください。",
	"Please check the following items and try again.": "次の項目を確認して、もう一度お試しください。",
	"Please check the installation file and try again.": "インストールファイルを確認して、もう一度お試しください。",
	"Please choose a file to upload": "アップロードするファイルを選択してください。",
	"Please choose a video file to upload": "アップロードする動画を選択してください。",
	"Please don't turn off the device and wait until the installation is completed.": "インストールが完了するまでデバイスをオフにしないでください。",
	"Please don’t turn off the device. And wait while process is completed.": "デバイスの電源をオフにしないでください。処理が完了するまでお待ちください。",
	"Please enter the authorized ID and password.": "許可されたIDとパスワードを入力してください。",
	"Please login again.": "もう一度ログインしてください。",
	"Please press the physical marriage button.": "[物理的Marriage]ボタンを押してください。",
	"Please restart the marriage authentication process.": "Marriage認証処理を再開してください。",
	"Please select city": "都市を選択してください。",
	"Please select country": "国を選択してください。",
	"Please upload S/W update file via PC browser.": "PCのブラウザーを使用して、S/Wアップデートファイルをアップロードしてください。",
	"Podgorica": "ポドゴリツァ",
	"Poland": "ポーランド",
	"Port": "ポート",
	"Port Louis": "ポートルイス",
	"Port Moresby": "ポートモレスビー",
	"Port Number": "ポート番号",
	"Port Settings": "ポートの設定",
	"Port of Spain": "ポートオブスペイン",
	"Port-au-Prince": "ポルトープランス",
	"Porto Novo": "ポルトノボ",
	"Porto Velho": "ポルトベーリョ",
	"Portrait": "縦向き",
	"Portrait Mode": "縦モード",
	"Portugal": "ポルトガル",
	"Position": "位置",
	"Power": "電源",
	"Power Off": "電源オフ",
	"Power Off Management": "電源オフの管理",
	"Power Off(Default)": "電源オフ（既定）",
	"Power Rack": "電源ラック",
	"Power Rack Settings": "電源ラックの設定",
	"Prague": "プラハ",
	"Praia": "プライア",
	"Press the physical marriage button on your master cabinet.": "マスターキャビネット上の[物理的Marriage]ボタンを押します。",
	"Pressing Start will give you 1 minute to perform the process.": "[開始]を押すと、処理を実行するために、1分間が与えられます。",
	"Prev DAY": "前日",
	"Prev.": "前",
	"Preview": "プレビュー",
	"Priority": "優先度",
	"Puerto Rico": "プエルトリコ",
	"Pyongyang": "平壌",
	"Qatar": "カタール",
	"Rainy River": "レイニーリバー",
	"Rearrange": "再配置",
	"Reboot": "再起動",
	"Reboot?": "再起動しますか？",
	"Rebooting": "再起動しています",
	"Recife": "レシフェ",
	"Reference Resolution": "参考解像度",
	"Refresh": "更新",
	"Regina": "レジャイナ",
	"Regular": "一定",
	"Rejected": "却下",
	"Remember me": "この情報を記憶する",
	"Rename": "名前の変更",
	"Rename or Overwrite?": "名前を変更するか、上書きしますか？",
	"Rename to {{filename (2)}} or Overwrite?": "{{filename (2)}}に名前を変更するか、上書きしますか？",
	"Reply from [X.X.X.X] : bytes = YY, time = ZZms, TTL = WW": "[X.X.X.X]からの応答: バイト数 = YY、時間 = ZZms、TTL = WW",
	"Republic Of The Congo": "コンゴ共和国",
	"Request timed out.": "リクエストがタイムアウトしました。",
	"Require Network Settings": "必要なネットワーク設定",
	"Required Marriage": "必要なMarriage",
	"Reset": "初期化",
	"Reset All": "すべてリセット",
	"Reset Mute": "ミュートのリセット",
	"Reset Mute' is Needed": "ミュートのリセットが必要です。",
	"Reset to factory reset": "工場出荷時の設定に戻す",
	"Reykjavik": "レイキャビク",
	"Riga": "リガ",
	"Riyadh": "リャド",
	"Romania": "ルーマニア",
	"Rome": "ローマ",
	"Rotation": "回転",
	"Row": "行",
	"Run Time": "実行時間",
	"Run Time Since Last Power Up": "前回の起動時からの実行時間",
	"Russia": "ロシア",
	"Rwanda": "ルワンダ",
	"S/W Update": "S/Wのアップデート",
	"S/W Update File list": "ソフトウェアアップデートのファイルリスト",
	"S/W Update file list": "S/Wアップデートファイルリスト",
	"S/W Update succeeded": "ソフトウェアのアップデートに成功しました。",
	"S/W Updating": "ソフトウェアのアップデート中",
	"S/W Updating......": "S/Wをアップデート中......",
	"S/W Ver.": "ソフトウェアバージョン",
	"S/W update file does not exist.": "S/Wアップデートファイルが存在しません。",
	"S/W will update. Do you want to continue?": "ソフトウェアをアップデートします。続けますか？",
	"SCREEN": "画面",
	"SI App / Play via URL": "SIアプリ/URL経由の再生",
	"Saint Lucia": "セントルシア",
	"Sakhalin": "サハリン",
	"Samara": "サマラ",
	"Samarkand": "サマルカンド",
	"Samoa": "サモア",
	"San Luis": "サン・ルイス",
	"San Salvador": "サンサルバドル",
	"Santiago": "サンティアゴ",
	"Santo Domingo": "サントドミンゴ",
	"Sarajevo": "サラエボ",
	"Sat": "土",
	"Saturday": "土曜",
	"Saudi Arabia": "サウジアラビア",
	"Save": "保存",
	"Scoresbysund": "スコルズビスーン",
	"Screen": "画面",
	"Screen Configuration": "画面設定",
	"Screen Fault Detection": "画面エラーの検出",
	"Screen Off": "映像オフ",
	"Screen Off & Backlight": "画面オフ/バックライト",
	"Screen Off & Backlight On": "画面オフ/バックライトオン",
	"Screen Off Always": "常に画面オフ",
	"Screen Power Off": "画面オフ",
	"Screen Rotation": "画面の回転",
	"Screen Rotation Status": "画面の回転状態",
	"Screen Rotation is ON": "画面の回転がオンになっています。",
	"ScreenOn": "画面オン",
	"Select File": "ファイルの選択",
	"Select Input Source": "入力源の選択",
	"Select a file to upload": "アップロードするファイルを選択",
	"Select media file": "メディアファイルを選択してください。",
	"Senegal": "セネガル",
	"Sensor": "センサー",
	"Seoul": "ソウル",
	"September": "9月",
	"Serbia": "セルビア",
	"Serial Number": "シリアルナンバー",
	"Server Status": "サーバーの状態",
	"Set": "設定",
	"Set Automatically": "自動で設定",
	"Set ID": "IDの設定",
	"Set Master": "マスターに設定",
	"Set Slave": "スレーブに設定",
	"Set URL": "URLの設定",
	"Setting": "設定",
	"Show Color": "色の表示",
	"Sierra Leone": "シエラレオネ",
	"Sigane Name is Too Long": "サイネージ名が長すぎます。",
	"Sign in": "ログイン",
	"Signage 365 Care": "サイネージ365ケア",
	"Signage 365 Care App": "サイネージ365ケアアプリ",
	"Signage Name": "サイネージ名",
	"Signal": "放送の種類",
	"Simferopol": "シンフェロポリ",
	"Singapore": "シンガポール",
	"Size": "サイズ",
	"Skopje": "スコピエ",
	"Slave": "スレーブ",
	"Slovakia": "スロバキア",
	"Slovenia": "スロベニア",
	"Small": "小",
	"Sofia": "ソフィア",
	"Software Version": "ソフトウェアバージョン",
	"Solomon Islands": "ソロモン諸島",
	"Somalia": "ソマリア",
	"Sound Control": "サウンド管理",
	"South Africa": "南アフリカ",
	"South America": "南米",
	"Spain": "スペイン",
	"Sports": "スポーツ",
	"Srednekolymsk": "スレドネコリムスク",
	"Sri Lanka": "スリランカ",
	"St. John's": "セントジョーンズ",
	"Stalled Image": "静止画",
	"Standard": "標準",
	"Start": "開始",
	"Start Time": "開始時刻",
	"State": "状態",
	"Status": "ステータス",
	"Step 1. Physical Marriage": "ステップ1.物理的Marriage",
	"Step 2. Logical Marriage": "ステップ2.論理的Marriage",
	"Stockholm": "ストックホルム",
	"Storage": "ストレージ",
	"Subnet Mask": "サブネットマスク",
	"Subnet prefix length": "サブネットのプレフィックス長",
	"Success": "成功",
	"Sudan": "スーダン",
	"Sun": "日",
	"Sunday": "日曜",
	"SuperSign Content": "SuperSignコンテンツ",
	"SuperSign Contents": "SuperSignコンテンツ",
	"Suriname": "スリナム",
	"Sustain Aspect Ratio": "画面サイズの維持",
	"Swaziland": "スワジランド",
	"Sweden": "スウェーデン",
	"Swift Current": "スイフトカレント",
	"Switzerland": "スイス",
	"Sydney": "シドニー",
	"Syria": "シリア",
	"System": "システム",
	"System Box": "システムボックス",
	"System Control": "システムコントロール",
	"System Controller": "システムコントローラー",
	"System Controller Settings": "システムコントローラーの設定",
	"System Information": "システム情報",
	"System Reboot": "システムの再起動",
	"System Settings": "システム設定",
	"System controller will restart.": "システムコントローラーを再起動します。",
	"System controller will restart. Do you want to continue?": "システムコントローラーを再起動します。続けますか？",
	"São Paulo": "サンパウロ",
	"Tahiti": "タヒチ",
	"Taipei": "台北",
	"Taiwan": "台湾",
	"Tajikistan": "タジキスタン",
	"Tallinn": "タリン",
	"Tanzania": "タンザニア",
	"Tashkent": "タシケント",
	"Tbilisi": "トビリシ",
	"Tegucigalpa": "テグシガルパ",
	"Tehran": "テヘラン",
	"Temperature": "温度",
	"Temperature history is not yet collected": "温度の履歴データが収集されていません。",
	"Test Color": "色のテスト",
	"Test Pattern": "テストパターン",
	"Thailand": "タイ",
	"The POWER remote controller key will not work during the update.": "アップデート中、リモコンの POWERキーは使用できません。",
	"The Signage 365 care app has been deleted.": "サイネージ365ケアアプリは正常に削除されました。",
	"The Signage 365 care app has been successfully installed.": "サイネージ365ケアアプリは正常にインストールされました。",
	"The Signage 365 care app has been successfully updated.": "サイネージ365ケアアプリは正常に更新されました。",
	"The URL format is invalid.": "URLの形式が無効です。",
	"The installation of the Signage 365 care app has failed.": "サイネージ365ケアアプリのインストールに失敗しました。",
	"The installation of the Signage 365 care app is in progress.": "サイネージ365ケアアプリのインストールが進行中です。",
	"The installation of the {apptitle} has failed.": "{apptitle}のインストールに失敗しました。",
	"The installation of the {apptitle} is in progress.": "{apptitle}をインストールしています。",
	"The timer is reset and the marriage process must be restarted from the beginning.": "タイマーがリセットされ、Marriage処理を最初から再開する必要があります。",
	"The update of the Signage 365 care app has failed.": "サイネージ365ケアアプリの更新に失敗しました。",
	"The update of the Signage 365 care app is in progress.": "サイネージ365ケアアプリの更新が進行中です。",
	"The update of the {apptitle} has failed.": "{apptitle}の更新に失敗しました。",
	"The update of the {apptitle} is in progress.": "{apptitle}を更新しています。",
	"The {apptitle} has been successfully installed.": "{apptitle}が正常にインストールされました。",
	"The {apptitle} has been successfully updated.": "{apptitle}が正常に更新されました。",
	"There is a difference between your signage and the signage 365 care server in time and date.": "お使いのサイネージとサイネージ365ケアの間に時刻と日付について差異があります。",
	"There is a difference between your signage and the {apptitle} server in time and date.": "お使いのサイネージと{apptitle}サーバーの間に時刻と日付について差異があります。",
	"There is no list.": "リストがありません。",
	"There's No Backup file": "バックアップファイルがありません。",
	"Thimphu": "ティンプー",
	"This pop up will be closed automatically in 5 sec.": "このポップアップは5秒後に自動的に閉じます。",
	"Thu": "木",
	"Thule": "ツーレ",
	"Thursday": "木曜",
	"Tijuana": "ティファナ",
	"Tile ID": "タイルID",
	"Tile Mode": "タイルモード",
	"Tile Mode Setting": "タイルモードの設定",
	"Tile Mode Settings": "タイルモードの設定",
	"Time": "時刻",
	"Time & Date": "時刻設定",
	"Time & Date Settings": "日時設定",
	"Time & Date Settings Required": "時刻設定が必要です",
	"Time Setting": "時刻設定",
	"Time Zone": "タイムゾーン",
	"Timor-Leste": "東ティモール",
	"Tint": "色合い",
	"Tiranë": "ティラナ",
	"To choose an AP, please use Settings App. with a remote controller.": "APを選択するには、リモコンを使用して設定アプリで選択してください。",
	"To make your Password more secure. Use letters and numbers.": "より安全なパスワードを使用してください。文字と数字を使用してください。",
	"To make your password more secure, use a mixture of mixed-case letters, numbers and special characters": "より安全なパスワードにするため、大文字、小文字、数字、特殊文字を組み合わせて使用してください",
	"To use Signage 365 care, you need to connect the device to the network . Do you want to set the network connection?": "サイネージ365を使用するには、デバイスをネットワークに接続する必要があります。ネットワーク接続を設定しますか？",
	"To use {apptitle}, you need to connect the device to the network. Do you want to set the network connection?": "{apptitle}を使用するには、デバイスをネットワークに接続する必要があります。ネットワーク接続を設定しますか？",
	"Togo": "トーゴ",
	"Tokyo": "東京",
	"Tonga": "トンガ",
	"Top": "上",
	"Top Left": "左上",
	"Top Right": "右上",
	"Toronto": "トロント",
	"Transportation": "交通",
	"Trinidad And Tobago": "トリニダードトバゴ",
	"Tripoli": "トリポリ",
	"Tue": "火",
	"Tuesday": "火曜",
	"Tunis": "チュニス",
	"Tunisia": "チュニジア",
	"Turkey": "トルコ",
	"Turkmenistan": "トルクメニスタン",
	"Type": "タイプ",
	"URL Loader": "URLローダー",
	"URL Setting": "URLの設定",
	"Uganda": "ウガンダ",
	"Ukraine": "ウクライナ",
	"Ulaanbaatar": "ウランバートル",
	"Unit Calibration": "装置の調整",
	"Unit Calibration is modified. Exit without saving?": "装置の調整が変更されました。保存せずに終了しますか？",
	"Unit Configuration": "装置の設定",
	"Unit Resolution": "装置の解像度",
	"Unit Status": "装置の状態",
	"Unit Temperature": "装置の温度",
	"United Arab Emirates": "アラブ首長国連邦",
	"United Kingdom": "イギリス",
	"United States of America": "アメリカ",
	"Units cut left edge can not be placed in the X:0 positions.": "左端のカット位置をX:0に設定することはできません。",
	"Units cut right edge cannot be placed in the Y:(Cut Pixel) positions.": "左端のカット位置をY:（ピクセルカット）に設定することはできません。",
	"Unsupported File type.": "サポートされていないファイルタイプです。",
	"Unsupported File type. Only Image/Video files are allowed.": "サポートされていないファイルタイプです。使用できるのは、画像/動画ファイルだけです。",
	"Update": "アップデート",
	"Update Failed": "更新失敗",
	"Update LED FPGA micom with xxx done": "LED FPGAのマイコンをxxxでアップデートしました。",
	"Update LED FPGA with xxx done": "LED FPGAをxxxでアップデートしました。",
	"Update Progress": "アップデート中",
	"Update Succeeded": "更新に成功しました",
	"Update completed. Set is rebooting now.": "アップデートが完了しました。再起動しています。",
	"Update completed. Signage is rebooting now.": "アップデートが完了しました。サイネージが再起動しています。",
	"Update fan micom with xxx done": "ファンのマイコンをxxxでアップデートしました。",
	"Update is completed.": "更新が完了しました。",
	"Update is in progress.": "更新中です。",
	"Update?": "アップデートしますか？",
	"Updating…": "更新中…",
	"Upload": "アップロード",
	"Upload FPGA Update file (XXX GB available)": "FPGAアップデートファイルのアップロード(XXX GB使用可能)",
	"Upload LED FPGA update file": "LED FPGAのアップデートファイルをアップロードしてください。",
	"Upload secured S/W Update file": "安全なソフトウェアアップデートファイルをアップロード",
	"Upload secured S/W Update file (XXX GB available)": "安全なS/Wアップデートファイルをアップロード（XXX GB使用可能）",
	"Uploading": "アップロードしています。",
	"Uruguay": "ウルグアイ",
	"User": "ユーザー",
	"Uzbekistan": "ウズベキスタン",
	"Uzhhorod": "ウージュホロド",
	"Vaduz": "ファドゥーツ",
	"Validation Error.": "認証エラー",
	"Vancouver": "バンクーバー",
	"Vatican City": "バチカン市国",
	"Venezuela": "ベネズエラ",
	"Ver": "バージョン",
	"Version": "バージョン",
	"Vertical": "垂直",
	"Video": "動画",
	"Video Scaler": "ビデオスケール",
	"Vienna": "ウィーン",
	"Vientiane": "ビエンチャン",
	"Vietnam": "ベトナム",
	"View": "表示",
	"View Photo": "写真を見る",
	"Vilnius": "ビリニュス",
	"Virtual Controller": "仮想リモコン",
	"Vivid": "あざやか",
	"Vladivostok": "ウラジオストック",
	"Volgograd": "ボルゴグラード",
	"Volume": "音量",
	"Waiting for Approval": "承認待ち",
	"Warm": "暖色",
	"Warsaw": "ワルシャワ",
	"Wed": "水",
	"Wednesday": "水曜",
	"Week": "週",
	"Weekday": "曜日",
	"Welcome to LG WebOS": "LG WebOSへようこそ",
	"Width": "幅",
	"Windhoek": "ウィントフック",
	"Winnipeg": "ウィニペグ",
	"Wired": "有線ネットワーク接続",
	"Working": "作動中",
	"XX GB free of XXGB": "XX GB空き(XX GB中)",
	"XX of YY": "YYのXX",
	"YES": "はい",
	"Yakutsk": "ヤクーツク",
	"Yamoussoukro": "ヤムスクロ",
	"Yangon": "ヤンゴン",
	"Yekaterinburg": "エカテリンブルグ",
	"Yellowknife": "イエローナイフ",
	"Yemen": "イエメン",
	"Yerevan": "エレバン",
	"Yes": "はい",
	"You changed IP address or DHCP status. Please reconnect to changed IP address": "IPアドレスまたはDHCPの状態が変更されました。変更後のIPアドレスに再度接続してください。",
	"You did not finish the process in time.": "処理を時間内に完了しませんでした。",
	"You have failed to login 1/5 time.": "ログインに1回失敗しました。",
	"You have failed to login 5 times. Please try again after 05:00.": "ログインに5回失敗しました。5:00以降にもう一度お試しください。",
	"You may not be able to reconnect to web pages if you cannot find out new IP address.": "新しいIPアドレスが見つからないと、Webページに再接続できません。",
	"You've entered the same password as the current one. Please enter a different password.": "現在と同じパスワードが入力されました。別のパスワードを入力してください。",
	"Your Password has been changed.": "パスワードが変更されました。",
	"Your device needs the correct time & date to authenticate marriage.": "デバイスは、Marriageを認証するために、正しい日時を必要とします。",
	"Zagreb": "ザグレブ",
	"Zambia": "ザンビア",
	"Zaporozhye": "ザポリージャ",
	"Zimbabwe": "ジンバブエ",
	"Zoom": "ズーム",
	"Zoom In": "ズームイン",
	"Zoom In/Out": "ズームイン/ズームアウト",
	"Zoom Out": "ズームアウト",
	"Zürich": "チューリッヒ",
	"align": "調整",
	"available": "使用可能",
	"color": "色",
	"full aspect ratio": "フル画面サイズ",
	"general": "一般",
	"hour": "時間",
	"last": "最終",
	"min": "分",
	"original aspect ratio": "元の画面サイズ",
	"over {period} min.": "{period}分以上",
	"reading": "読み取り",
	"save as PC Time": "PC時間として保存",
	"sharpness": "シャープネス",
	"upload": "アップロード",
	"version": "バージョン",
	"warning": "警告",
	"webOS Version": "webOSバージョン",
	"year": "年",
	"{apptitle} will be deleted.": "{apptitle}が削除されます。",
	"{{filename}} already exists.": "{{filename}}は、既に存在します。"
}
