{
	"(30,60,120,180) Min": "(30,60,120,180) мин",
	"10 sec": "10 сек",
	"10 sec Auto Refresh": "Автоматично обновяване на всеки 10 секунди",
	"1Hour": "1 час",
	"30sec": "30 сек",
	"5 min. Refresh": "Обновяване на 5 мин.",
	"5Min": "5 мин",
	"AM": "Сутрин",
	"Abnormally High": "Необичайно високо",
	"Account": "Номер",
	"Accra": "Акра",
	"Activate": "Активиране",
	"Adak": "Адак",
	"Add Media": "Добавяне на мултимедия",
	"Add Slave Controller": "Добавяне на зависим контролер",
	"Add Unit": "Добавяне на модул",
	"Addis Ababa": "Адис Абеба",
	"Adelaide": "Аделаида",
	"Aden": "Аден",
	"Advanced Options": "Разширени опции",
	"Advanced Setting": "Разширени настройки",
	"Afghanistan": "Афганистан",
	"Africa": "Африка",
	"Albania": "Албания",
	"Algeria": "Алжир",
	"Algiers": "Алжир",
	"All": "Всички",
	"All Units": "Всички модули",
	"All settings will be reset. Do you want to continue?": "Всички настройки ще бъдат нулирани. Искате ли да продължите?",
	"Almaty": "Алмати",
	"Amman": "Аман",
	"Amsterdam": "Амстердам",
	"An error occurred while submitting the form.": "Възникна грешка при изпращането на формуляра.",
	"Anadyr": "Анадир",
	"Anchorage": "Анкъридж",
	"Angola": "Ангола",
	"Antananarivo": "Антананариво",
	"Apia": "Апия",
	"Apply": "Прилагане",
	"Apply to All Units": "Прилагане за всички модули",
	"Apply?": "Прилагане?",
	"Approximate round trip in milli-seconds": "Приблизително време на отиване и връщане в милисекунди",
	"April": "април",
	"Araguaína": "Арагуаина",
	"Are you sure to change Settings?": "Сигурни ли сте, че искате ли да промените настройките?",
	"Are you sure to change the calibration settings of this unit?": "Сигурни ли сте, че искате да промените настройките за калибриране на този модул?",
	"Are you sure to reboot?": "Сигурни ли сте, че искате да рестартирате?",
	"Are you sure to use": "Сигурни ли сте, че искате да използвате",
	"Are you sure to use Wi-Fi DHCP?": "Сигурни ли сте, че искате да използвате Wi-Fi DHCP?",
	"Are you sure to use Wired DHCP?": "Сигурни ли сте, че искате да използвате кабелна DHCP?",
	"Argentina": "Аржентина",
	"Armenia": "Армения",
	"Aruba": "Аруба",
	"Ashgabat": "Ашгабат",
	"Asia": "Азия",
	"Asmara": "Асмара",
	"Aspect Ratio when rotated": "Пропорция при завъртане",
	"Asunción": "Асунсион",
	"Athens": "Атина",
	"Atikokan": "Атикокан",
	"Auckland": "Оукланд",
	"August": "август",
	"Australia": "Австралия",
	"Austria": "Австрия",
	"Authenticate": "Идентифициране",
	"Authentication Failed": "Неуспешно удостоверяване",
	"Authentication completed.": "Удостоверяването приключи.",
	"Auto": "Автоматично",
	"Auto Detect": "Автоматично откриване",
	"Auto Refresh": "Автоматично обновяване",
	"Automatically Assign IP Address": "Автоматично задаване на IP адрес",
	"Available to Installation": "Налично за инсталиране",
	"Azerbaijan": "Азербайджан",
	"Azores": "Азорски острови",
	"BLU Status": "Състояние на BLU",
	"Back": "Назад",
	"Backlight": "Задно осветление",
	"Backup Media Upload": "Качване на носител за архивиране",
	"Backup file Thumbnail Image": "Изображение за миниатюра на архивирания файл",
	"Backup via storage": "Архивиране чрез устройство за съхранение",
	"Baghdad": "Багдад",
	"Bahamas": "Бахамски острови",
	"Bahrain": "Бахрейн",
	"Baku": "Баку",
	"Bamako": "Бамако",
	"Bangkok": "Банкок",
	"Bangladesh": "Бангладеш",
	"Bangui": "Банги",
	"Banjul": "Банджул",
	"Barbados": "Барбадос",
	"Basic Setting": "Основна настройка",
	"Begin test": "Стартиране на теста",
	"Beijing": "Пекин",
	"Beirut": "Бейрут",
	"Belarus": "Беларус",
	"Belgium": "Белгия",
	"Belgrade": "Белград",
	"Belize": "Белиз",
	"Belém": "Белен",
	"Benin": "Бенин",
	"Berlin": "Берлин",
	"Bermuda": "Бермудски острови",
	"Bhutan": "Бутан",
	"Bishkek": "Бишкек",
	"Bissau": "Бисау",
	"Black Level": "Ниво на черното",
	"Blanc-Sablon": "Блан-Саблон",
	"Blantyre": "Блантайр",
	"Boa Vista": "Боа Виста",
	"Bogotá": "Богота",
	"Bolivia": "Боливия",
	"Bootloader Version": "Версия на Bootloader",
	"Bosnia": "Босна",
	"Botswana": "Ботсвана",
	"Bottom": "Долу",
	"Bottom Left": "Долу вляво",
	"Bottom Light": "Долу вдясно",
	"Bottom Right": "Долу вдясно",
	"Box Name": "Име на поле",
	"Bratislava": "Братислава",
	"Brazil": "Бразилия",
	"Brazzaville": "Бразавил",
	"Brightness": "Яркост",
	"Brisbane": "Брисбейн",
	"Browse": "Преглеждане",
	"Browse a file to upload": "Прегледайте и изберете файл за качване",
	"Brussels": "Брюксел",
	"Bucharest": "Букурещ",
	"Budapest": "Будапеща",
	"Buenos Aires": "Буенос Айрес",
	"Bujumbura": "Бужумбура",
	"Bulgaria": "България",
	"Burkina Faso": "Буркина Фасо",
	"Burundi": "Бурунди",
	"CIS": "ОНД",
	"Cairo": "Кайро",
	"Calibrate Unit": "Калибриране на модула",
	"Calibrated": "Калибриране",
	"Calibrating...": "Калибриране...",
	"Calibration": "Калибриране",
	"Cambodia": "Камбоджа",
	"Cameroon": "Камерун",
	"Campo Grande": "Кампо Гранде",
	"Canada": "Канада",
	"Canary Islands": "Канарски острови",
	"Cancel": "Отказ",
	"Cancún": "Канкун",
	"Cannot start S/W update. Check xxx file please.": "Актуализацията на софтуера не може да бъде стартирана. Моля, проверете файла xxx.",
	"Cape Verde": "Кабо Верде",
	"Capture time Interval": "Времеви интервал на заснемане",
	"Capture time interval": "Capture time interval",
	"Caracas": "Каракас",
	"Casablanca": "Казабланка",
	"Category": "Категория",
	"Cayman Islands": "Кайманови острови",
	"Central African Republic": "Централноафриканска република",
	"Chad": "Чад",
	"Change Password": "Смяна на паролата",
	"Changing Time may cause you to be logged out.": "Промяната на часа може да причини излизане от системата.",
	"Changing Time zone may cause you to be logged out.": "Промяната на часовата зона може да причини излизане от системата.",
	"Charts": "Диаграми",
	"Check Temperature sensors. -40 means errors when reading Temperature sensors": "Проверете сензорите за температура. -40 означава, че има грешки при отчитането на сензорите за температура",
	"Check for Update": "Проверка за актуализации",
	"Check whether two passwords are same": "Проверете дали двете пароли не са еднакви",
	"Check your URL input": "Проверете вашия URL вход",
	"CheckScreen": "Проверете екрана",
	"Checking for update...": "Проверка за актуализации...",
	"Chicago": "Чикаго",
	"Chihuahua": "Чихуахуа",
	"Chile": "Чили",
	"China": "Китай",
	"Chisinau": "Кишинев",
	"Christmas Island": "Остров Рождество",
	"Cinema": "Кино",
	"City": "Град",
	"Close": "Затваряне",
	"Close status of cabinet doors": "Затворено състояние на кутията",
	"Closed": "Затворен",
	"Closed Loop Fan": "Вентилатор със затворена система",
	"ClosedLoop": "Затворена верига",
	"Colombia": "Колумбия",
	"Colombo": "Коломбо",
	"Color Temperature": "Цветна топлина",
	"ColorRead": "Четене на цветове",
	"Column": "Колона",
	"Conakry": "Конакри",
	"Confirm": "Потвърждение",
	"Confirm New Password": "Потвърждаване на новата парола",
	"Confirm the account number you entered.": "Потвърдете номера на акаунта, който сте въвели.",
	"Connected": "Свързан",
	"Content Rotation": "Завъртане на съдържанието",
	"Content Rotation Status": "Състояние на завъртане на съдържанието",
	"Content Rotation is ON": "Завъртане на съдържанието е ВКЛ.",
	"Content is rotated": "Съдържанието е завъртяно",
	"Contents rotation is ON": "Завъртане на съдържанието на дисплея е АКТИВИРАНО",
	"Continent": "Континент",
	"Contrast": "Контраст",
	"Control": "Управление",
	"Control Item": "Контролен елемент",
	"Control Type": "Вид контрол",
	"Cool": "Студена",
	"Copenhagen": "Копенхаген",
	"Costa Rica": "Коста Рика",
	"Country/Territory": "Държава/територия",
	"Croatia": "Хърватия",
	"Cuba": "Куба",
	"Cuiabá": "Куяба",
	"Current": "Текущ",
	"Current Fan RPM": "Текущи обороти на вентилатора",
	"Current Password": "Текуща парола",
	"Current Picture mode does not support changing color temperature. Please select \"Expert\" of \"Calibration\" mode to adjust the color temperature.": "Текущият режим на картината не поддържа промяна на цветната температура. Моля, изберете режим „Експерт“ или „Калибриране“, за да регулирате цветната температура.",
	"Current Ver.": "Настояща версия.",
	"Current Version": "Текуща версия",
	"Custom": "Потребителски",
	"Cut Left Edge": "Изрежи левия ъгъл",
	"Cut Right Edge": "Изрежи десния ъгъл",
	"Cyprus": "Кипър",
	"Czech": "Чешки",
	"Czech Republic": "Чешка република",
	"Côte d'Ivoire": "Кот д'Ивоар",
	"DHCP State": "Състояние на DHCP",
	"DNS Server": "DNS сървър",
	"DOWNLOAD LOG": "ИЗТЕГЛЯНЕ НА РЕГИСТРАЦИОНЕН ФАЙЛ",
	"DOWNLOAD LOG FILE": "ИЗТЕГЛЯНЕ НА РЕГИСТРАЦИОНЕН ФАЙЛ",
	"DPM (Standby Mode)": "DPM (режим на готовност)",
	"Daisy Direction": "Посока на последователното свързване",
	"Daisy Start by": "Последователното свързване е стартирано от",
	"Dakar": "Дакар",
	"Damage Detection": "Откриване на повреди",
	"Damaged": "Повредено",
	"Damascus": "Дамаск",
	"Danmarkshavn": "Денмарксхавн",
	"Darwin": "Даруин",
	"Dashboard": "Табло",
	"Data is not collected now. wait for maximum 60 seconds": "Данните не са събрани в момента. Изчакайте максимум 60 секунди",
	"Date": "Дата",
	"Dawson": "Доусън",
	"Dawson Creek": "Доусън Крийк",
	"Day": "Ден",
	"Daylight Saving Time": "Лятно/зимно часово време",
	"Days": "Дни",
	"December": "декември",
	"Default": "По подразбиране",
	"Default size": "Размер по подразбиране",
	"Delete": "Изтриване",
	"Delete Slave Controller": "Изтриване на зависим контролер",
	"Delete Unit": "Изтриване на модул",
	"Delete the file": "Изтриване на файла",
	"Delete?": "Изтриване?",
	"Democratic Republic Of The Congo": "Демократична република Конго",
	"Denmark": "Дания",
	"Denver": "Денвър",
	"Details of Unit": "Подробности за модула",
	"Detroit": "Детройт",
	"Device Control": "Контрол на устройството",
	"Dhaka": "Дака",
	"Digital Board Reboot": "Рестартиране на цифровото табло",
	"Dili": "Дили",
	"Disconnected": "Прекъсната връзка",
	"Display": "Дисплей",
	"Display & Sound": "Дисплей и звук",
	"Display & sound": "Дисплей и звук",
	"Do not reboot in Device page.": "Не рестартирайте от страницата „Устройство“.",
	"Do you want to delete the item?": "Искате ли да изтриете елемента?",
	"Do you want to delete the selected file?": "Искате ли да изтриете избрания файл?",
	"Do you want to delete this LED FPGA Update file?": "Искате ли да изтриете този файл с LED FPGA актуализация?",
	"Do you want to delete this S/W Update file?": "Искате ли да изтриете този файл с актуализация на софтуера?",
	"Do you want to install this S/W Update file?": "Искате ли да инсталирате този файл с актуализация на софтуера?",
	"Do you want to proceed?": "Искате ли да продължите?",
	"Do you want to set the time & date?": "Искате ли да зададете часа & датата?",
	"Do you want to set the time or date automatically?": "Искате ли автоматично да зададете часа или датата?",
	"Dodoma": "Додома",
	"Doha": "Доха",
	"Dominica": "Доминика",
	"Dominican Republic": "Доминиканска република",
	"Done": "Готово",
	"Door": "Врата",
	"Door Control": "Контрол на вратата",
	"Door Monitor": "Монитор на вратата",
	"Door Open": "Отворена врата",
	"Door Sensor": "Датчик за врата",
	"Door Sensor Status": "Състояние на сензора на вратата",
	"Door xxx is opened": "Вратата xxx е отворена",
	"Douala": "Дуала",
	"Draw": "Рисуване",
	"Dubai": "Дубай",
	"Dublin": "Дъблин",
	"Duplicated Unit ID": "Дублиран идентификатор на модул",
	"Duration": "Продължителност",
	"Dushanbe": "Душанбе",
	"Dynamic Brightness": "Динамична яркост",
	"Dynamic Brightness Control": "Контрол на динамичната яркост",
	"Easter Island": "Великденски острови",
	"Ecuador": "Еквадор",
	"Edit": "Редактиране",
	"Edmonton": "Едмънтън",
	"Education": "Образование",
	"Egypt": "Египет",
	"El Salvador": "Салвадор",
	"Enable or disable Signage 365 Care services on this device": "Активиране или деактивиране на услугите Signage Грижа 365 на това устройство",
	"Enable or disable {apptitle} service on this device": "Активиране или деактивиране на услугата {apptitle} на това устройство",
	"End": "Край",
	"End Time": "Краен час",
	"Energy Saving": "Икономия на енергия",
	"Enter Account Number": "Въвеждане На Номер На Акаунт",
	"Enter the account number to activate Signage 365 Care.": "Въведете номера на акаунта, за да активирате Signage 365 грижа.",
	"Enter the account number to activate {apptitle}.": "Въведете номера на акаунт, за да активирате {apptitle}.",
	"Enter the following": "Въведете следното",
	"Enter the network address to ping": "Въведете мрежовия адрес за тест с програмата Ping",
	"Equatorial Guinea": "Екваториална Гвинея",
	"Eritrea": "Еритрея",
	"Estonia": "Естония",
	"Ethiopia": "Етиопия",
	"Europe": "Европа",
	"Event": "Събитие",
	"Exit": "Изход",
	"Expert": "Експерт",
	"Export": "Експортиране",
	"External": "Външен",
	"External Input Rotation": "Завъртане на външния вход",
	"External Input Rotation Status": "Състояние на завъртане на външния вход",
	"External Input Rotation is ON": "Завъртане на външния вход – включено",
	"EyeQ sensor": "Сензор EyeQ",
	"FPGA Version": "Версия на FPGA",
	"Factory Reset": "Нулиране до фабричните настройки",
	"Fail": "Неуспешно",
	"Fail Over": "Преместване при отказ",
	"Fail to update. Check xxx file please.": "Неуспешно актуализиране. Моля, проверете файла xxx.",
	"Failed to update LED FPGA with xxx. Check the file please": "Неуспешно актуализиране на LED FPGA с/ъс xxx. Моля, проверете файла",
	"Failed to update LED FPGA with xxx. Check the status of the unit controller.": "Неуспешна актуализация на LED FPGA с xxx. Проверете състоянието на контролера на единици.",
	"Failed to update fan micom with xxx. Check the file please": "Неуспешно актуализиране на вентилатора на micom с/ъс xxx. Моля, проверете файла",
	"Fan": "Вентилатор",
	"Fan Micom Version": "Версия на вентилатора на Micom",
	"Fan RPM": "Обороти на вентилатора",
	"Fan RPM history is not yet collected": "Историята на оборотите на вентилатора все още не е събрана",
	"Fan Status": "Състояние на вентилатора",
	"February": "февруари",
	"Fernando de Noronha": "Фернандо ди Нороня",
	"Fiji": "Фиджи",
	"File Name": "Име на файл",
	"File Select": "Избор на файл",
	"File Upload Progress": "Ход на изпълнение на качването на файла",
	"File upload via mobile devices does not support.": "Не се поддържа качване на файлове чрез мобилни устройства.",
	"Finland": "Финландия",
	"Flash memory is not enough.": "Флаш паметта не е достатъчна.",
	"For your security, we recommend to change default password. Would you like to change your password now?": "За ваша защита ви препоръчваме да промените паролата по подразбиране. Искате ли да промените паролата си сега?",
	"Fortaleza": "Форталеза",
	"Frame": "Рамка",
	"France": "Франция",
	"Freetown": "Фрийтаун",
	"French Polynesia": "Френска Полинезия",
	"Fri": "Пет",
	"Friday": "Петък",
	"Front": "Отпред",
	"Full": "Цял",
	"Gabon": "Габон",
	"Gaborone": "Габороне",
	"Gambia": "Гамбия",
	"Gambier": "Гамбе",
	"Game": "Игра",
	"Gamma": "Гама",
	"Gamut Matrix": "Матрица на гамата",
	"Gateway": "Шлюз",
	"General": "Общи",
	"Georgia": "Грузия",
	"Germany": "Германия",
	"Ghana": "Гана",
	"Gibraltar": "Гибралтар",
	"Glace Bay": "Глейс Бей",
	"Go To First Use": "Към „Първо използване“",
	"Godthab": "Нуук",
	"Gov./Corp.": "Правит./Корп.",
	"Greece": "Гърция",
	"Greenland": "Гренландия",
	"Guadalcanal": "Гуадалканал",
	"Guadeloupe": "Гуаделупе",
	"Guam": "Гуам",
	"Guatemala": "Гватемала",
	"Guatemala City": "Гватемала",
	"Guayaquil": "Гуаякил",
	"Guernsey": "Гърнси",
	"Guinea": "Гвинея",
	"Guinea Bissau": "Гвинея Бисау",
	"Guyana": "Гвиана",
	"Haiti": "Хаити",
	"Halifax": "Халифакс",
	"Harare": "Хараре",
	"Havana": "Хавана",
	"Height": "Височина",
	"Helsinki": "Хелзинки",
	"Hermosillo": "Ермосильо",
	"High": "Високо",
	"History is not yet collected": "Историята все още не е събрана",
	"Ho Chi Minh": "Хошимин",
	"Hobart": "Хоубарт",
	"Home": "Дом",
	"Honduras": "Хондурас",
	"Hong Kong": "Хонконг",
	"Honolulu": "Хонолулу",
	"Horizontal": "Хоризонтално",
	"Hour": "Час",
	"Hours": "Часа",
	"Humidity": "Влажност",
	"Hungary": "Унгария",
	"ID": "Идентификатор",
	"ID/password": "Идентификатор/парола",
	"IMB Settings": "IMB настройки",
	"IMB Status": "Състояние на IMB",
	"IP Address": "IP адрес",
	"Iceland": "Исландия",
	"Image": "Изображение",
	"Impact": "Въздействие",
	"Incorrect Password entered. Please try again.": "Въведена е неправилна парола. Моля, опитайте отново.",
	"India": "Индия",
	"Indianapolis": "Индианаполис",
	"Indonesia": "Индонезия",
	"Information": "Информация",
	"Input": "Вход",
	"Input 6 or more characters": "Въведете 6 или повече знака",
	"Input Direction": "Посока на въвеждане",
	"Input Password": "Въвеждане на парола",
	"Input Priority": "Приоритет на входа",
	"Input Priority Setting": "Настройка за приоритет на вход",
	"Input Signage Name please.": "Моля, въведете име на Signage.",
	"Input Window": "Прозорец за вход",
	"Install": "Инстал.",
	"Install Succeeded": "Успешно инсталиране",
	"Installation Failed": "Неуспешна инсталация",
	"Installation Menu": "Меню за инсталиране",
	"Internet Not available": "Неналичен интернет",
	"Internet available": "Наличен интернет",
	"Invalid NEW Password. Password must be 6 characters in length.": "Невалидна НОВА парола. Паролата трябва да бъде с дължина 6 знака.",
	"Invalid NEW Password. Password must be 8 characters in length.": "Невалидна НОВА парола. Паролата трябва да бъде с дължина 8 знака.",
	"Invalid NEW Password. You must use a combination of letters and numbers.": "Невалидна НОВА парола. Трябва да използвате комбинация от букви и цифри.",
	"Invalid New password. Password must be at least 8 characters.": "Невалидна нова парола. Паролата трябва да бъде поне 8 знака.",
	"Invalid New password. You must use a mixture of mixed-case letters, numbers and special characters.": "Невалидна нова парола. Трябва да използвате комбинация от големи и малки букви, числа и специални символи.",
	"Invalid day value": "Невалидна стойност за ден",
	"Invalid hour value": "Невалидна стойност за час",
	"Invalid minute value": "Невалидна стойност за минути",
	"Invalid month value": "Невалидна стойност за месец",
	"Invalid value": "Невалидна стойност",
	"Invalid year value": "Невалидна стойност за година",
	"Iran": "Иран",
	"Iraq": "Ирак",
	"Ireland": "Ирландия",
	"Irkutsk": "Иркутск",
	"Irregular": "Нестандартна",
	"Israel": "Израел",
	"Issue History": "История на изданията",
	"Istanbul": "Истанбул",
	"Italy": "Италия",
	"Jakarta": "Джакарта",
	"Jamaica": "Ямайка",
	"January": "януари",
	"Japan": "Япония",
	"Jerusalem": "Йерусалим",
	"Johannesburg": "Йоханесбург",
	"Jordan": "Йордания",
	"July": "юли",
	"June": "юни",
	"Kabul": "Кабул",
	"Kaliningrad": "Калининград",
	"Kamchatka": "Камчатка",
	"Kampala": "Кампала",
	"Karachi": "Карачи",
	"Katmandu": "Катманду",
	"Kazakhstan": "Казахстан",
	"Kenya": "Кения",
	"Khartoum": "Хартум",
	"Khovd": "Ховд",
	"Kiev": "Киев",
	"Kigali": "Кигали",
	"Kingston": "Кингстън",
	"Kinshasa": "Киншаса",
	"Kiribati": "Кирибати",
	"Kiritimati": "Киритимати",
	"Kolkata": "Колката",
	"Korea": "Корея",
	"Korea, Republic of": "Република Корея",
	"Krasnoyarsk": "Красноярск",
	"Kuala Lumpur": "Куала Лумпур",
	"Kuching": "Кучинг",
	"Kuwait": "Кувейт",
	"Kuwait City": "Кувейт",
	"Kyrgyzstan": "Киргизстан",
	"LED Assistant Settings": "Настройки на LED Assistant",
	"LED FPGA Update file list": "Списък с файлове с LED FPGA актуализация",
	"LED FPGA Updating ......": "LED FPGA се актуализира...",
	"LED Features": "LED функции",
	"LED Film Settings": "Настройки на LED филм",
	"LED Open Detection": "Откриване на отворен LED",
	"LED Settings": "LED настройки",
	"LED Unit": "LED модул",
	"LED Unit Status": "Състояние на LED модул",
	"LG ConnectedCare App": "Приложение LG ConnectedCare",
	"LG ConnectedCare app": "Приложение LG ConnectedCare",
	"LG Control Manager": "Диспечер за управление на LG",
	"La Paz": "Ла Пас",
	"Lagos": "Лагос",
	"Landscape": "Пейзаж",
	"Language": "Език",
	"Laos": "Лаос",
	"Large": "Големи",
	"Latvia": "Латвия",
	"Layout": "Оформление",
	"Layout Editor": "Редактор на оформление",
	"Lebanon": "Ливан",
	"Lesotho": "Лесото",
	"Liberia": "Либерия",
	"Libreville": "Либървил",
	"Libya": "Либия",
	"Liechtenstein": "Лихтенщайн",
	"Lima": "Лима",
	"Lisbon": "Лисабон",
	"Lithuania": "Литва",
	"Ljubljana": "Любляна",
	"Loading": "Зареждане",
	"Loading...": "Зареждане…",
	"Location": "Местоположение",
	"Log": "Регистрационен файл",
	"Log Report": "Регистрационен отчет",
	"Log after Power Up": "Записване след включване",
	"Log in with the authorized ID and password.": "Влезте с упълномощения идентификатор и парола.",
	"Login": "Влизане",
	"Login is required.": "Изисква се влизане.",
	"Logout": "Излизане",
	"Lome": "Ломе",
	"London": "Лондон",
	"Los Angeles": "Лос Анджелис",
	"Louisville": "Луисвил",
	"Low": "Ниско",
	"Luanda": "Луанда",
	"Lubumbashi": "Лубумбаши",
	"Lusaka": "Лусака",
	"Luxembourg": "Люксембург",
	"MAC Address": "MAC адрес",
	"Macao": "Макао",
	"Macedonia": "Македония",
	"Maceió": "Масейо ",
	"Madagascar": "Мадагаскар",
	"Madeira": "Мадейра",
	"Madrid": "Мадрид",
	"Magadan": "Магадан",
	"Main": "Главен",
	"Malabo": "Малабо",
	"Malawi": "Малави",
	"Malaysia": "Малайзия",
	"Maldives": "Малдиви",
	"Mali": "Мали",
	"Malta": "Малта",
	"Manage": "Управление",
	"Managua": "Манагуа",
	"Manaus": "Манаус",
	"Manila": "Манила",
	"Manual": "Ръчно",
	"Maputo": "Мапуто",
	"March": "март",
	"Marquesas": "Маркизки острови",
	"Marriage Guide (2 Steps)": "Ръководство за Marriage (2 стъпки)",
	"Marriage Status": "Състояние на Marriage",
	"Marshall Islands": "Маршалови острови",
	"Martinique": "Мартиника",
	"Maseru": "Масеру",
	"Master": "Главно",
	"Mauritius": "Мавриций",
	"Max Backlight": "Макс. задно осветление",
	"Maximum": "Максимална",
	"May": "май",
	"Mayotte": "Майот",
	"Mazatlán": "Масалтан",
	"Mbabane": "Мбабане",
	"Media Library": "Мултимедийна библиотека",
	"Media file List": "Списък с мултимедийни файлове",
	"Media file Upload (XXX GB available)": "Качване на мултимедиен файл (налични XXX GB)",
	"Medium": "Средно",
	"Melbourne": "Мелбърн",
	"Menu Language": "Език на менюто",
	"Mexico": "Мексико",
	"Mexico City": "Мексико",
	"Micom Progress": "Ход на изпълнение на Micom",
	"Micom Update": "Актуализиране на Micom",
	"Micom Version": "Версия на Micom",
	"Middle East": "Близкия изток",
	"Min Backlight": "Мин. задно осветление",
	"Minimum": "Минимална",
	"Minimum = XXms, Maximum = YYms, Average = ZZms": "Минимално = XX ms, Максимално = YY ms, Средно = ZZms",
	"Mins": "Минути",
	"Minsk": "Минск",
	"Model Name": "Име на модела",
	"Module Calibration": "Калибриране на модула",
	"Module Calibration is modified. Exit without saving?": "Калибрирането на модула е променено. Изход без записване?",
	"Modules": "Модули",
	"Mogadishu": "Могадишу",
	"Moldova": "Молдова",
	"Mon": "Пон",
	"Monaco": "Монако",
	"Moncton": "Монктон",
	"Monday": "Понеделник",
	"Mongolia": "Монголия",
	"Monrovia": "Монровия",
	"Montenegro": "Черна гора",
	"Monterrey": "Монтерей",
	"Montevideo": "Монтевидео",
	"Month": "Месец",
	"Montréal": "Монреал",
	"More": "Още",
	"Morocco": "Мароко",
	"Moscow": "Москва",
	"Motion": "Движение",
	"Mozambique": "Мозамбик",
	"Muscat": "Маскат",
	"Mute": "Изключване на звука",
	"Myanmar": "Мианмар",
	"Mérida": "Мерида",
	"NO": "НЕ",
	"NOT AVAILABLE": "НЕ Е ДОСТЪПНО",
	"Nairobi": "Найроби",
	"Name": "Име",
	"Namibia": "Намибия",
	"Nassau": "Насау",
	"Natural Mode": "Естествен режим",
	"Natural Size": "Естествен размер",
	"Ndjamena": "Нджамена",
	"Nepal": "Непал",
	"Netherlands": "Холандия",
	"Network": "Мрежа",
	"Network Ready": "В мрежова готовност",
	"Network Settings": "Мрежови настройки",
	"New Caledonia": "Нова Каледония",
	"New Password": "Нова парола",
	"New Password and Confirm Password do not match.": "Новата парола и потвърждението на паролата не съвпадат.",
	"New York": "Ню Йорк",
	"New Zealand": "Нова Зеландия",
	"Newer Ver.": "По-нова версия.",
	"Next": "Следващ",
	"Next Day": "Следващия ден",
	"Niamey": "Ниамей",
	"Nicaragua": "Никарагуа",
	"Nicosia": "Никозия",
	"Niger": "Нигер",
	"Nigeria": "Нигерия",
	"Nipigon": "Нипигон",
	"No": "Не",
	"No Signal": "Няма сигнал",
	"No backup files exist in storage device.": "В устройство за съхранение няма архивирани файлове.",
	"None": "Няма",
	"Normal": "Нормално",
	"North America": "Северна Америка",
	"North Korea": "Северна Корея",
	"Norway": "Норвегия",
	"Not Connected": "Не е свързан",
	"Notification": "Съобщение",
	"Nouméa": "Нумеа",
	"November": "ноември",
	"Novosibirsk": "Новосибирск",
	"Number": "Номер",
	"OFF": "ИЗКЛ.",
	"OLED LIGHT": "OLED осветление",
	"OLED Light": "OLED осветление",
	"ON": "ВКЛЮЧЕНО",
	"OSD Portrait Mode": "OSD Портретен режим",
	"OSD Portrait Mode is ON": "OSD Portrait Mode е ВКЛЮЧЕНА",
	"OSD Portrait Status": "Състояние на OSD портретен режим",
	"OSD Portrait mode is xxx": "OSD портретният режим е xxx",
	"OSD Rotation is ON": "OSD завъртането е АКТИВИРАНО",
	"Occurrence Time": "Час на възникване",
	"Oceania": "Океания",
	"October": "октомври",
	"Off": "Изкл.",
	"Off Until Reset": "Изключено до нулиране",
	"Off When Open": "Изключено, когато е отворена",
	"Oman": "Оман",
	"Omsk": "Омск",
	"On": "Вкл.",
	"On When Open": "Включено, когато е отворена",
	"Open Loop Fan": "Вентилатор с отворена система",
	"OpenLoop": "Отворена верига",
	"Opened": "Отворен",
	"Oranjestad": "Оранестад",
	"Original": "Оригинален",
	"Oslo": "Осло",
	"Ouagadougou": "Уагадугу",
	"Output Window": "Прозорец за изход",
	"OverHeat": "Прегряване",
	"Overwrite": "Презаписване",
	"Overwrite xxx?": "Презаписване на xxx?",
	"Overwrite?": "Презаписване?",
	"PM": "Следобед",
	"PM Mode": "PM режим",
	"PSU": "Захранване",
	"Pacific": "Тихоокеански регион",
	"Packets : Sent = XX. Received = YY. Lost = ZZ (WW% loss)": "Пакети: Изпратени = XX. Получени = YY. Изгубени = ZZ (WW% загуба)",
	"Pakistan": "Пакистан",
	"Palau": "Палау",
	"Panama": "Панама",
	"Panama City": "Панама",
	"Panel": "Панел",
	"Papua New Guinea": "Папуа Нова Гвинея",
	"Paraguay": "Парагвай",
	"Paramaribo": "Парамарибо",
	"Paris": "Париж",
	"Password": "Парола",
	"Password is incorrect. Please Try Again": "Паролата е грешна. Моля, опитайте отново",
	"Password is incorrect. Please try again.": "Паролата е грешна. Опитайте отново.",
	"Perth": "Пърт",
	"Peru": "Перу",
	"Philippines": "Филипини",
	"Phnom Penh": "Пном Пен",
	"Phoenix": "Финикс",
	"Picture": "Картина",
	"Picture Mode": "Режим на картина",
	"Picture Settings": "Настройки на картината",
	"Ping Test": "Ping тест",
	"Ping statistics for [X.X.X.X]": "Статистика на програмата за [X.X.X.X]",
	"Ping test failed. Invalid format of network address field.": "Неуспешен Ping тест. Невалиден формат на полето за мрежови адрес.",
	"Ping test is in progress": "Извършва се тест с програма Ping",
	"Ping test result": "Резултат от теста с програма Ping",
	"Pinging [X.X.X.X] with YYY bytes of data": "Проверява [X.X.X.X] с/ъс YYY байта данни",
	"Play": "Възпроизвеждане",
	"Play via URL": "Възпроизвеждане от URL адрес",
	"Please Keep this Signage on.": "Моля, не изключвайте този Signage.",
	"Please check the following items and try again.": "Проверете следните елементи и опитайте отново.",
	"Please check the installation file and try again.": "Моля, проверете файла за инсталация и опитайте отново.",
	"Please choose a file to upload": "Моля, изберете файл за качване",
	"Please choose a video file to upload": "Моля, изберете видео файл за качване",
	"Please don’t turn off the device. And wait while process is completed.": "Моля, не изключвайте устройството. И изчакайте до приключването на процеса.",
	"Please enter the authorized ID and password.": "Моля, въведете упълномощения идентификатор и парола.",
	"Please login again.": "Влезте отново.",
	"Please press the physical marriage button.": "Моля, натиснете физическия бутон за Marriage.",
	"Please restart the marriage authentication process.": "Моля, рестартирайте процеса на удостоверяване на Marriage.",
	"Please select city": "Моля, изберете град",
	"Please select country": "Моля, изберете държава",
	"Please upload S/W update file via PC browser.": "Моля, качете файл със софтуерна актуализация чрез браузъра на компютър.",
	"Podgorica": "Подгорица",
	"Poland": "Полша",
	"Port": "Порт",
	"Port Louis": "Порт Луи",
	"Port Moresby": "Порт Морсби",
	"Port Number": "Номер на порт",
	"Port Settings": "Настройки на порт",
	"Port of Spain": "Порт ъф Спейн",
	"Port-au-Prince": "Порт о Пренс",
	"Porto Novo": "Порто Ново",
	"Porto Velho": "Порто Вельо",
	"Portrait": "Вертикална",
	"Portrait Mode": "Портретен режим",
	"Portugal": "Португалия",
	"Position": "Позиция",
	"Power": "Захранване",
	"Power Off": "Изключване",
	"Power Off Management": "Управление на изключването",
	"Power Off(Default)": "Изключено захранване (по подразбиране)",
	"Power Rack": "Захранваща поставка",
	"Power Rack Settings": "Настройки на захранващата поставка",
	"Prague": "Прага",
	"Praia": "Прая",
	"Press the physical marriage button on your master cabinet.": "Натиснете физическия бутон за Marriage на главния шкаф.",
	"Pressing Start will give you 1 minute to perform the process.": "След натискане на бутона Старт разполагате с 1 минута, за да изпълните процеса.",
	"Prev DAY": "Предишния ДЕН",
	"Prev.": "Предишни.",
	"Preview": "Преглед",
	"Priority": "Приоритет",
	"Puerto Rico": "Пуерто Рико",
	"Pyongyang": "Пхенян",
	"Qatar": "Катар",
	"RPM": "Обороти",
	"Rainy River": "Рейни Ривър",
	"Rearrange": "Преподреждане",
	"Reboot": "Рестартиране",
	"Reboot?": "Рестартиране?",
	"Rebooting": "Рестартиране",
	"Recife": "Ресифи",
	"Reference Resolution": "Референтна резолюция",
	"Refresh": "Обновяване",
	"Regina": "Регина",
	"Regular": "Стандартна",
	"Rejected": "Отхвърлено",
	"Remember me": "Запомни ме",
	"Rename": "Преименуване",
	"Rename or Overwrite?": "Преименуване или презаписване?",
	"Rename to {{filename (2)}} or Overwrite?": "Преименуване на {{filename (2)}} или презаписване?",
	"Reply from [X.X.X.X] : bytes = YY, time = ZZms, TTL = WW": "Отговор [X.X.X.X] : байтове = YY, време = ZZ ms, TTL = WW",
	"Republic Of The Congo": "Република Конго",
	"Request timed out.": "Времето на заявката изтече.",
	"Required Marriage": "Изисква се Marriage",
	"Reset": "Нулиране",
	"Reset All": "Нулиране на всички",
	"Reset Mute": "Нулиране на изключването на звука",
	"Reset Mute' is Needed": "Необходимо е нулиране на изключването на звука",
	"Reset to factory reset": "Нулиране до фабричните настройки",
	"Reykjavik": "Рейкявик",
	"Riga": "Рига",
	"Riyadh": "Рияд",
	"Romania": "Румъния",
	"Rome": "Рим",
	"Rotation": "Завъртане",
	"Row": "Ред",
	"Run Time": "Времетраене",
	"Run Time Since Last Power Up": "Оперативно време от последно включване",
	"Russia": "Русия",
	"Rwanda": "Руанда",
	"S/W Update": "Актуализация на софтуера",
	"S/W Update File list": "Списък с файлове с актуализация на софтуера",
	"S/W Update file list": "Списък с файлове за актуализация на софтуера",
	"S/W Update succeeded": "Успешна актуализация на софтуера",
	"S/W Updating": "Актуализиране на софтуера",
	"S/W Updating......": "Актуализиране на софтуера...",
	"S/W Ver.": "Версия на софтуера.",
	"S/W update file does not exist.": "Файлът със софтуерна актуализация не съществува.",
	"S/W will update. Do you want to continue?": "Софтуерът ще се актуализира. Искате ли да продължите?",
	"SCREEN": "ЕКРАН",
	"Saint Lucia": "Сейнт Лусия",
	"Sakhalin": "Сахалин",
	"Samara": "Самара",
	"Samarkand": "Самарканд",
	"Samoa": "Самоа",
	"San Luis": "Сан Луис",
	"San Salvador": "Сан Салвадор",
	"Santiago": "Сантяго",
	"Santo Domingo": "Санто Доминго",
	"Sarajevo": "Сараево",
	"Sat": "Съб",
	"Saturday": "Събота",
	"Saudi Arabia": "Саудитска Арабия",
	"Save": "Запис",
	"Scoresbysund": "Итокортоормиит",
	"Screen": "Екран",
	"Screen Configuration": "Конфигурация на екрана",
	"Screen Fault Detection": "Откриване на грешка в екрана",
	"Screen Off": "Изключване на екрана",
	"Screen Off & Backlight": "Изключен екран и задно осветление",
	"Screen Off & Backlight On": "Изключен екран и включено задно осветление",
	"Screen Off Always": "Екранът е изключен винаги",
	"Screen Power Off": "Изключено захранване на екрана",
	"Screen Rotation": "Завъртане на екрана",
	"Screen Rotation Status": "Състояние на завъртане на екрана",
	"Screen Rotation is ON": "Завъртане на екрана – включено",
	"ScreenOn": "Включен екран",
	"Select File": "Избор на файл",
	"Select Input Source": "Избор на източник на вход",
	"Select a file to upload": "Изберете файл за качване",
	"Select media file": "Изберете мултимедиен файл",
	"Senegal": "Сенегал",
	"Sensor": "Сензор",
	"Seoul": "Сеул",
	"September": "септември",
	"Serbia": "Сърбия",
	"Serial Number": "Сериен номер",
	"Server Status": "Състояние на сървъра",
	"Set": "Задаване",
	"Set Automatically": "Автоматично задаване",
	"Set ID": "Избор на идентификатор",
	"Set Master": "Задаване като главен",
	"Set Slave": "Задаване като зависим",
	"Set URL": "Задаване на URL адрес",
	"Setting": "Настройка",
	"Show Color": "Показване на цвят",
	"Sierra Leone": "Сиера Леоне",
	"Sigane Name is Too Long": "Името на Signage е твърде дълго",
	"Sign in": "Влизане",
	"Signage 365 Care": "Signage Грижа 365",
	"Signage 365 Care App": "Приложение Signage Грижа 365",
	"Signage Name": "Име на Signage",
	"Signal": "Сигнал",
	"Simferopol": "Симферопол",
	"Singapore": "Сингапур",
	"Size": "Размер",
	"Skopje": "Скопие",
	"Slave": "Зависимо",
	"Slovakia": "Словакия",
	"Slovenia": "Словения",
	"Small": "Малки",
	"Sofia": "София",
	"Software Version": "Версия на софтуера",
	"Solomon Islands": "Соломонови острови",
	"Somalia": "Сомалия",
	"Sound Control": "Контрол на звука",
	"South Africa": "Република Южна Африка",
	"South America": "Южна Америка",
	"Spain": "Испания",
	"Sports": "Спорт",
	"Srednekolymsk": "Средноколимск",
	"Sri Lanka": "Шри Ланка",
	"St. John's": "Сейнт Джонс",
	"Stalled Image": "Блокирало изображение",
	"Standard": "Стандартно",
	"Start": "Начало",
	"Start Time": "Начален час",
	"State": "Област",
	"Status": "Състояние",
	"Step 1. Physical Marriage": "Стъпка 1. Физически Marriage",
	"Step 2. Logical Marriage": "Стъпка 2. Логически Marriage",
	"Stockholm": "Стокхолм",
	"Subnet Mask": "Подмрежова маска",
	"Subnet prefix length": "Дължина на префикса на подмрежата",
	"Success": "Успех",
	"Sudan": "Судан",
	"Sun": "Нед",
	"Sunday": "Неделя",
	"SuperSign Content": "Съдържание на SuperSign",
	"SuperSign Contents": "Съдържание на SuperSign",
	"Suriname": "Суринам",
	"Sustain Aspect Ratio": "Запазване на съотношението",
	"Swaziland": "Свазиленд",
	"Sweden": "Швеция",
	"Swift Current": "Суифт Карънт",
	"Switzerland": "Швейцария",
	"Sydney": "Сидни",
	"Syria": "Сирия",
	"System": "Система",
	"System Box": "Системна кутия",
	"System Control": "Системен контрол",
	"System Controller": "Системен контролер",
	"System Controller Settings": "Настройки на системния контролер",
	"System Information": "Системна информация",
	"System Reboot": "Рестартиране на системата",
	"System Settings": "Системни настройки",
	"System controller will restart.": "Системният контролер ще се рестартира.",
	"System controller will restart. Do you want to continue?": "Системният контролер ще се рестартира. Искате ли да продължите?",
	"São Paulo": "Сао Пауло",
	"Tahiti": "Таити",
	"Taipei": "Тайпе",
	"Taiwan": "Тайван",
	"Tajikistan": "Таджикистан",
	"Tallinn": "Талин",
	"Tanzania": "Танзания",
	"Tashkent": "Ташкент",
	"Tbilisi": "Тбилиси",
	"Tegucigalpa": "Тегусигалпа",
	"Tehran": "Техеран",
	"Temperature": "Температура",
	"Temperature history is not yet collected": "Историята на температурата все още не е събрана",
	"Test Color": "Тестов цвят",
	"Test Pattern": "Тестов модел",
	"Thailand": "Тайланд",
	"The POWER remote controller key will not work during the update.": "Клавишът „POWER“ на дистанционното управление няма да работи по време на актуализирането.",
	"The URL format is invalid.": "Форматът на URL адреса е невалиден.",
	"The installation of the {apptitle} has failed.": "Инсталацията на {apptitle} е неуспешна.",
	"The installation of the {apptitle} is in progress.": "Извършва се инсталация на {apptitle}.",
	"The timer is reset and the marriage process must be restarted from the beginning.": "Таймерът се нулира и процесът на Marriage трябва да се рестартира.",
	"The update of the {apptitle} has failed.": "Актуализацията на {apptitle} е неуспешна.",
	"The update of the {apptitle} is in progress.": "Извършва се актуализиране на {apptitle}.",
	"The {apptitle} has been successfully installed.": "{apptitle} се инсталира успешно.",
	"The {apptitle} has been successfully updated.": "{apptitle} се актуализира успешно.",
	"There is a difference between your signage and the signage 365 care server in time and date.": "Има разлика между вашия Signage и сървъра Signage 365 грижа по отношение на часа и датата.",
	"There is a difference between your signage and the {apptitle} server in time and date.": "Има разлика между вашия Signage и сървъра {apptitle} по отношение на часа и датата.",
	"There is no list.": "Няма списък.",
	"There's No Backup file": "Няма архивиран файл",
	"Thimphu": "Тхимпху",
	"This pop up will be closed automatically in 5 sec.": "Този изскачащ прозорец ще се затвори автоматично след 5 сек.",
	"Thu": "Чет",
	"Thule": "Каанаак",
	"Thursday": "Четвъртък",
	"Tijuana": "Тихуана",
	"Tile ID": "Идентификатор на мозайката",
	"Tile Mode": "Режим „Мозайка“",
	"Tile Mode Setting": "Tile Mode Setting",
	"Tile Mode Settings": "Настройки на режим „Плочки“",
	"Time": "Време",
	"Time & Date": "Дата и час",
	"Time & Date Settings": "Настройки на часа и датата",
	"Time & Date Settings Required": "Изискват се настройки за „Дата и час“",
	"Time Setting": "Задаване на времето",
	"Time Zone": "Часова зона",
	"Timor-Leste": "Източен Тимор",
	"Tint": "Нюанс",
	"Tiranë": "Тирана",
	"To choose an AP, please use Settings App. with a remote controller.": "За да изберете точка за достъп, използвайте приложението „Настройки“ с дистанционното управление.",
	"To make your Password more secure. Use letters and numbers.": "За да направите паролата си по-защитена. Използвайте букви и цифри.",
	"To make your password more secure, use a mixture of mixed-case letters, numbers and special characters": "За да направите паролата си по-защитена, използвайте комбинация от големи и малки букви, числа и специални символи",
	"To use {apptitle}, you need to connect the device to the network. Do you want to set the network connection?": "За да използвате {apptitle}, трябва да свържете устройството към мрежата. Искате ли да зададете връзка с мрежата?",
	"Togo": "Того",
	"Tokyo": "Токио",
	"Tonga": "Тонга",
	"Top": "Горе",
	"Top Left": "Горе вляво",
	"Top Right": "Горе вдясно",
	"Toronto": "Торонто",
	"Transportation": "Транспорт",
	"Trinidad And Tobago": "Тринидад и Тобаго",
	"Tripoli": "Триполи",
	"Tue": "Вто",
	"Tuesday": "Вторник",
	"Tunis": "Тунис",
	"Tunisia": "Тунис",
	"Turkey": "Турция",
	"Turkmenistan": "Туркменистан",
	"Type": "Тип",
	"URL Loader": "Зареждане на URL адреси",
	"URL Setting": "Настройка за URL",
	"Uganda": "Уганда",
	"Ukraine": "Украйна",
	"Ulaanbaatar": "Улан Батор",
	"Unit Calibration": "Калибриране на модул",
	"Unit Calibration is modified. Exit without saving?": "Калибрирането на модула е променено. Изход без записване?",
	"Unit Configuration": "Конфигурация на модула",
	"Unit Resolution": "Резолюция на модула",
	"Unit Status": "Състояние на модула",
	"Unit Temperature": "Температура на модула",
	"United Arab Emirates": "Обединени арабски емирства",
	"United Kingdom": "Великобритания",
	"United States of America": "Съединени американски щати",
	"Units cut left edge can not be placed in the X:0 positions.": "Елементи с изрязан ляв ъгъл не могат да се поставят на позициите X:0.",
	"Units cut right edge cannot be placed in the Y:(Cut Pixel) positions.": "Елементи с изрязан десен ръб не могат да се поставят на позициите Y:(Изрязан пиксел).",
	"Unsupported File type.": "Неподдържан вид файл.",
	"Unsupported File type. Only Image/Video files are allowed.": "Неподдържан вид файл. Разрешени са само файлове с изображения/видеоклипове.",
	"Update": "Опресняване",
	"Update Failed": "Неуспешна актуализация",
	"Update LED FPGA micom with xxx done": "Актуализирането на LED FPGA micom с/ъс xxx е готово",
	"Update LED FPGA with xxx done": "Актуализирането на LED FPGA с/ъс xxx е готово",
	"Update Progress": "Ход на изпълнение на актуализирането",
	"Update Succeeded": "Успешно актуализиране",
	"Update completed. Set is rebooting now.": "Актуализирането е завършено. Устройството се рестартира сега.",
	"Update completed. Signage is rebooting now.": "Актуализирането е завършено. Signage се рестартира сега.",
	"Update fan micom with xxx done": "Актуализирането на вентилатора на micom с/ъс xxx е готово",
	"Update is completed.": "Актуализацията е завършена.",
	"Update is in progress.": "Извършва се актуализация.",
	"Update?": "Актуализиране?",
	"Upload": "КАЧВАНЕ",
	"Upload FPGA Update file (XXX GB available)": "Качване на файл с FPGA актуализация (XXX GB свободно място)",
	"Upload LED FPGA update file": "Качване на файл за актуализиране на LED FPGA",
	"Upload secured S/W Update file": "Качване на защитен файл за актуализация на софтуера",
	"Upload secured S/W Update file (XXX GB available)": "Качете защитен файл за актуализация на софтуера (налични XXX GB)",
	"Uploading": "Качване",
	"Uruguay": "Уругвай",
	"User": "Потребител",
	"Uzbekistan": "Узбекистан",
	"Uzhhorod": "Ужгород",
	"Vaduz": "Вадуц",
	"Validation Error.": "Грешка при проверка.",
	"Vancouver": "Ванкувър",
	"Vatican City": "Ватикан",
	"Venezuela": "Венецуела",
	"Ver": "Версия",
	"Version": "Версия",
	"Vertical": "Вертикално",
	"Video": "Видео",
	"Video Scaler": "Мащабиране на видео",
	"Vienna": "Виена",
	"Vientiane": "Виентян",
	"Vietnam": "Виетнам",
	"View": "Преглед",
	"View Photo": "Преглед на снимката",
	"Vilnius": "Вилнюс",
	"Virtual Controller": "Виртуален контролер",
	"Vivid": "Ярък",
	"Vladivostok": "Владивосток",
	"Volgograd": "Волгоград",
	"Volume": "Сила на звука",
	"Waiting for Approval": "Очакване на одобрение",
	"Warm": "Топъл",
	"Warsaw": "Варшава",
	"Wed": "Сря",
	"Wednesday": "Сряда",
	"Week": "Седмица",
	"Weekday": "Делничен ден",
	"Welcome to LG WebOS": "Добре дошли в LG WebOS",
	"Width": "Ширина",
	"Windhoek": "Виндхук",
	"Winnipeg": "Уинипег",
	"Wired": "Кабелна",
	"Working": "Работи",
	"XX GB free of XXGB": "XX GB свободни от XX GB",
	"YES": "ДА",
	"Yakutsk": "Якутск",
	"Yamoussoukro": "Ямусукро",
	"Yekaterinburg": "Екатеринбург",
	"Yellowknife": "Йелоунайф",
	"Yemen": "Йемен",
	"Yerevan": "Ереван",
	"Yes": "Да",
	"You changed IP address or DHCP status. Please reconnect to changed IP address": "Променили сте IP адрес или състояние на DHCP. Моля, свържете се отново към променения IP адрес",
	"You did not finish the process in time.": "Не завършихте процеса навреме.",
	"You have failed to login 1/5 time.": "Не успяхте да влезете 1 от 5 пъти.",
	"You have failed to login 5 times. Please try again after 05:00.": "Не успяхте да влезете 5 пъти. Моля, опитайте отново след 05:00.",
	"You may not be able to reconnect to web pages if you cannot find out new IP address.": "Възможно е да не можете да се свържете отново към уеб страниците, ако не можете да откриете новия IP адрес.",
	"You've entered the same password as the current one. Please enter a different password.": "Въвели сте същата парола като текущата. Моля, въведете различна парола.",
	"Your Password has been changed.": "Паролата ви е променена.",
	"Your device needs the correct time & date to authenticate marriage.": "Трябва да зададете правилната дата и час, за да може устройството Ви да идентифицира marriage.",
	"Zagreb": "Загреб",
	"Zambia": "Замбия",
	"Zaporozhye": "Запорожие",
	"Zimbabwe": "Зимбабве",
	"Zoom": "Увеличаване",
	"Zoom In": "Увеличаване",
	"Zoom In/Out": "Увеличаване/намаляване",
	"Zoom Out": "Намаляване",
	"Zürich": "Цюрих",
	"align": "подравняване",
	"available": "в наличност",
	"color": "цвят",
	"full aspect ratio": "пълно съотношение",
	"general": "обща",
	"hour": "час",
	"last": "Последен",
	"min": "мин",
	"original aspect ratio": "оригинално съотношение",
	"over {period} min.": "в рамките на {period} мин.",
	"reading": "Разчитане",
	"save as PC Time": "запазване като компютърен час",
	"sharpness": "острота",
	"upload": "качване",
	"version": "версия",
	"warning": "предупреждение",
	"webOS Version": "Версия на webOS",
	"year": "година",
	"{apptitle} will be deleted.": "{apptitle} ще се изтрие.",
	"{{filename}} already exists.": "{{filename}} вече съществува."
}
