{
	"(30,60,120,180) Min": "(30, 60, 120, 180) min",
	"10 sec": "10 sek.",
	"10 sec Auto Refresh": "10 sek. automātiskā atsvaidzināšana",
	"1Hour": "1Stunda",
	"30sec": "30sek",
	"5 min. Refresh": "5 min. atsvaidzināšana",
	"AM": "Priekšpusdienā",
	"Abnormally High": "Pārmērīgi augsts",
	"Account": "Konts",
	"Accra": "Akra",
	"Activate": "Aktivizēt",
	"Adak": "Adaka",
	"Add Media": "Pievienot multividi",
	"Add Mini Module": "Pievienot mini moduli",
	"Add Slave Controller": "Pievienot pakārtoto kontrolleri",
	"Add Unit": "Pievienot vienību",
	"Addis Ababa": "Adisabeba",
	"Adelaide": "Adelaida",
	"Aden": "Adena",
	"Advanced Options": "Papildu opcijas",
	"Advanced Setting": "Papildu iestatījums",
	"Afghanistan": "Afganistāna",
	"Africa": "Āfrika",
	"Albania": "Albānija",
	"Algeria": "Alžīrija",
	"Algiers": "Alžīra",
	"All": "Viss",
	"All Units": "Visas ierīces",
	"All settings will be reset. Do you want to continue?": "Visi iestatījumi tiks atiestatīti. Vai vēlaties turpināt?",
	"Almaty": "Almati",
	"Amman": "Ammāna",
	"Amsterdam": "Amsterdama",
	"An error occurred while submitting the form.": "Iesniedzot veidlapu, radās kļūda.",
	"Anadyr": "Anadira",
	"Anchorage": "Ankoridža",
	"Antananarivo": "Antananarivu",
	"Apia": "Apija",
	"Apply": "Lietot",
	"Apply to All Units": "Piemērot visām ierīcēm",
	"Apply?": "Vai lietot?",
	"Approximate round trip in milli-seconds": "Aptuvenais pilnais ceļojums milisekundēs",
	"April": "Aprīlis",
	"Araguaína": "Aragvaina",
	"Are you sure to change Settings?": "Vai tiešām vēlaties mainīt iestatījumus?",
	"Are you sure to change the calibration settings of this unit?": "Vai tiešām vēlaties mainīt šīs ierīces kalibrēšanas iestatījumus?",
	"Are you sure to reboot?": "Vai tiešām vēlaties atsāknēt?",
	"Are you sure to use": "Vai tiešām vēlaties izmantot?",
	"Are you sure to use Wi-Fi DHCP?": "Vai tiešām vēlaties izmantot Wi-Fi DHCP?",
	"Are you sure to use Wired DHCP?": "Vai tiešām vēlaties izmantot vadu DHCP?",
	"Argentina": "Argentīna",
	"Armenia": "Armēnija",
	"Ashgabat": "Ašhabada",
	"Asia": "Āzija",
	"Asmara": "Asmera",
	"Aspect Ratio when rotated": "Malu attiecība pagriežot",
	"Asunción": "Asunsjona",
	"Athens": "Atēnas",
	"Atikokan": "Atikokana",
	"Auckland": "Oklenda",
	"August": "Augusts",
	"Australia": "Austrālija",
	"Austria": "Austrija",
	"Authenticate": "Autentificēt",
	"Authentication Failed": "Autentificēšana neizdevās",
	"Authentication completed.": "Autentificēšana pabeigta.",
	"Auto Detect": "Automātiska noteikšana",
	"Auto Refresh": "Automātiska atsvaidzināšana",
	"Automatically Assign IP Address": "Automātiski piešķirt IP adresi",
	"Available to Installation": "Pieejams instalēšanai",
	"Azerbaijan": "Azerbaidžāna",
	"Azores": "Azoru salas",
	"BLU Status": "BLU statuss",
	"Back": "Atpakaļ",
	"Backlight": "Aizmugurgaismojums",
	"Backup Media Upload": "Dublējamās multivides augšupielāde",
	"Backup file Thumbnail Image": "Dublējuma faila sīktēls",
	"Backup via storage": "Dublēšana, izmantojot atmiņu",
	"Baghdad": "Bagdāde",
	"Bahrain": "Bahreina",
	"Bangkok": "Bangkoka",
	"Bangladesh": "Bangladeša",
	"Bangui": "Bangi",
	"Banjul": "Bandžula",
	"Barbados": "Barbadosa",
	"Basic Setting": "Pamata iestatījums",
	"Begin test": "Sākt testu",
	"Beijing": "Pekina",
	"Beirut": "Beirūta",
	"Belarus": "Baltkrievija",
	"Belgium": "Beļģija",
	"Belgrade": "Belgrada",
	"Belize": "Beliza",
	"Belém": "Belema",
	"Benin": "Benina",
	"Berlin": "Berlīne",
	"Bermuda": "Bermudas",
	"Bhutan": "Butāna",
	"Bishkek": "Biškeka",
	"Bissau": "Bisava",
	"Black Level": "Melnās krāsas līmenis",
	"Blanc-Sablon": "Blanksablona",
	"Blantyre": "Blantīra",
	"Boa Vista": "Boavišta",
	"Bogotá": "Bogota",
	"Bolivia": "Bolīvija",
	"Bootloader Version": "Palaišanas ielādētāja versija",
	"Bosnia": "Bosnija",
	"Botswana": "Botsvana",
	"Bottom": "Lejasdaļa",
	"Bottom Left": "Apakšējais kreisais stūris",
	"Bottom Light": "Apakšējais labais stūris",
	"Bottom Right": "Apakšējais labais stūris",
	"Box Name": "Lodziņa nosaukums",
	"Brazil": "Brazīlija",
	"Brazzaville": "Brazavila",
	"Brightness": "Gaišums",
	"Brisbane": "Brisbena",
	"Browse": "Pārlūkot",
	"Browse a file to upload": "Pārlūkot failu, lai augšupielādētu",
	"Brussels": "Brisele",
	"Bucharest": "Bukareste",
	"Budapest": "Budapešta",
	"Buenos Aires": "Buenosairesa",
	"Bujumbura": "Bužumbura",
	"Bulgaria": "Bulgārija",
	"Burkina Faso": "Burkinafaso",
	"CIS": "NVS",
	"Cairo": "Kaira",
	"Calibrate Unit": "Kalibrēt ierīci",
	"Calibrated": "Kalibrēts",
	"Calibrating...": "Kalibrē...",
	"Calibration": "Kalibrēšana",
	"Cambodia": "Kambodža",
	"Cameroon": "Kamerūna",
	"Campo Grande": "Kampogrande",
	"Canada": "Kanāda",
	"Canary Islands": "Kanāriju salas",
	"Cancel": "Atcelt",
	"Cancún": "Kankūna",
	"Cannot start S/W update. Check xxx file please.": "Nevar sākt programmatūras atjaunināšanu. Lūdzu, pārbaudiet xxx failu.",
	"Cape Verde": "Kaboverde",
	"Capture time Interval": "Tveršanas laika intervāls",
	"Capture time interval": "Capture time interval",
	"Caracas": "Karakasa",
	"Casablanca": "Kasablanka",
	"Category": "Kategorija",
	"Cayman Islands": "Kaimanu salas",
	"Central African Republic": "Centrālāfrikas Republika",
	"Chad": "Čada",
	"Change Password": "Mainīt paroli",
	"Changing Time may cause you to be logged out.": "Laika maiņa var izraisīt atteikšanos.",
	"Changing Time zone may cause you to be logged out.": "Laika joslu maiņas dēļ iespējama izrakstīšanās.",
	"Charts": "Diagrammas",
	"Check Temperature sensors. -40 means errors when reading Temperature sensors": "Pārbaudiet temperatūras sensorus. Rādījums “-40” liecina par temperatūras sensoru nolasīšanas kļūdu.",
	"Check for Update": "Pārbaudīt, vai nav pieejami atjauninājumi",
	"Check whether two passwords are same": "Pārbaudiet, vai abas paroles ir vienādas.",
	"Check your URL input": "Pārbaudiet ievadīto URL",
	"CheckScreen": "Pārbaudīt ekrānu",
	"Checking for update...": "Pārbauda, vai nav pieejami atjauninājumi...",
	"Chicago": "Čikāga",
	"Chihuahua": "Čihuahua",
	"Chile": "Čīle",
	"China": "Ķīna",
	"Chisinau": "Kišiņeva",
	"Christmas Island": "Ziemsvētku sala",
	"Cinema": "Kino",
	"City": "Pilsēta",
	"Close": "Aizvērt",
	"Close status of cabinet doors": "Aizveriet nodalījuma durtiņas",
	"Closed": "Aizvērts",
	"Closed Loop Fan": "Aizvērts cikla ventilators",
	"ClosedLoop": "Aizvēra cilpa",
	"Colombia": "Kolumbija",
	"Colombo": "Kolombo",
	"Color Temperature": "Krāsas temperatūra",
	"ColorRead": "Krāsu nolasīšana",
	"Column": "Kolonna",
	"Conakry": "Konakri",
	"Confirm": "Apstiprināt",
	"Confirm Account Number": "Apstiprināt konta numuru",
	"Confirm New Password": "Apstiprināt jauno paroli",
	"Confirm the account number you entered.": "Apstipriniet ievadīto konta numuru.",
	"Connected": "Pievienots",
	"Content Rotation": "Satura rotācija",
	"Content Rotation Status": "Satura rotācijas statuss",
	"Content Rotation is ON": "Satura pagriešana ir ieslēgta",
	"Content is rotated": "Saturs ir pagriezts",
	"Contents rotation is ON": "Satura rotācija ir ieslēgta",
	"Continent": "Kontinents",
	"Contrast": "Kontrasts",
	"Control": "Vadība",
	"Control Item": "Kontroles vienums",
	"Control Type": "Vadības veids",
	"Cool": "Vēss",
	"Copenhagen": "Kopenhāgena",
	"Costa Rica": "Kostarika",
	"Country/Territory": "Valsts/teritorija",
	"Croatia": "Horvātija",
	"Cuba": "Kuba",
	"Cuiabá": "Kujaba",
	"Current": "Strāva",
	"Current Fan RPM": "Pašreizējie ventilatora apgr./min.",
	"Current Password": "Pašreizējā parole",
	"Current Picture mode does not support changing color temperature. Please select \"Expert\" of \"Calibration\" mode to adjust the color temperature.": "Pašreizējais attēla režīms neatbalsta krāsu temperatūras maiņu. Lai pielāgotu krāsu temperatūru, atlasiet kalibrēšanas režīma opciju Eksperts.",
	"Current Ver.": "Pašreizējā versija",
	"Current Version": "Pašreizējā versija",
	"Custom": "Pielāgot",
	"Cut Left Edge": "Nogriezt kreiso malu",
	"Cut Right Edge": "Nogriezt labo malu",
	"Cyprus": "Kipra",
	"Czech": "Čehu",
	"Czech Republic": "Čehijas Republika",
	"Côte d'Ivoire": "Kotdivuāra",
	"DHCP State": "DHCP statuss",
	"DNS Server": "DNS serveris",
	"DOWNLOAD LOG": "LEJUPIELĀDĒT REĢISTRU",
	"DOWNLOAD LOG FILE": "LEJUPIELĀDĒT REĢISTRA FAILU",
	"DPM (Standby Mode)": "DPM (gaidstāves režīms)",
	"Daisy Direction": "Ziedlapķēdes virziens",
	"Daisy Start by": "Ziedlapķēdes sākums pēc",
	"Dakar": "Dakara",
	"Damage Detection": "Bojājumu noteikšana",
	"Damaged": "Bojāts",
	"Damascus": "Damaska",
	"Danmarkshavn": "Danmarkshavna",
	"Darwin": "Dārvina",
	"Dashboard": "Informācijas panelis",
	"Data is not collected now. wait for maximum 60 seconds": "Dati vēl nav apkopoti. Uzgaidiet līdz 60 sekundēm.",
	"Date": "Datums",
	"Dawson": "Dosona",
	"Dawson Creek": "Dosonkrīka",
	"Day": "Diena",
	"Daylight Saving Time": "Ziemas laiks",
	"Days": "Dienas",
	"December": "Decembris",
	"Default": "Noklusējums",
	"Default size": "Noklusējuma izmērs",
	"Delete": "Dzēst",
	"Delete Mini Module": "Dzēst mini moduli",
	"Delete Slave Controller": "Dzēst pakārtoto kontrolleri",
	"Delete Unit": "Dzēst vienību",
	"Delete the file": "Dzēst failu",
	"Delete?": "Vai dzēst?",
	"Democratic Republic Of The Congo": "Kongo Demokrātiskā Republika",
	"Denmark": "Dānija",
	"Denver": "Denvera",
	"Details of Unit": "Detalizēta informācija par ierīci",
	"Detroit": "Detroita",
	"Device Control": "Ierīces vadība",
	"Dhaka": "Daka",
	"Digital Board Reboot": "Digitālā paneļa atsāknēšana",
	"Disconnected": "Atvienots",
	"Display": "Displejs",
	"Display & Sound": "Displejs un skaņa",
	"Display & sound": "Displejs un skaņa",
	"Do not reboot in Device page.": "Neveiciet atsāknēšanu lapā Ierīce.",
	"Do you want to delete the item?": "Vai dzēst vienumu?",
	"Do you want to delete the selected file?": "Vai vēlaties dzēst atlasīto failu?",
	"Do you want to delete this LED FPGA Update file?": "Vai vēlaties dzēst šo LED FPGA atjauninājuma failu?",
	"Do you want to delete this S/W Update file?": "Vai vēlaties dzēst šo programmatūras atjauninājuma failu?",
	"Do you want to install this S/W Update file?": "Vai vēlaties instalēt šo programmatūras atjauninājuma failu?",
	"Do you want to proceed?": "Vai vēlaties turpināt?",
	"Do you want to set the time & date?": "Vai vēlaties iestatīt laiku un datumu?",
	"Do you want to set the time or date automatically?": "Vai vēlaties, lai laiks vai datums tiktu iestatīts automātiski?",
	"Dominica": "Dominika",
	"Dominican Republic": "Dominikānas Republika",
	"Done": "Gatavs",
	"Door": "Durvis",
	"Door Control": "Durvju vadība",
	"Door Monitor": "Durvju monitors",
	"Door Open": "Durvis ir atvērtas",
	"Door Sensor": "Durvju sensors",
	"Door Sensor Status": "Durvju sensora statuss",
	"Door xxx is opened": "Durvis xxx ir atvērtas",
	"Douala": "Duala",
	"Draw": "Zīmēt",
	"Dubai": "Dubaija",
	"Dublin": "Dublina",
	"Duplicated Unit ID": "Dublēts ierīces ID",
	"Duration": "Ilgums",
	"Dushanbe": "Dušanbe",
	"Dynamic Brightness": "Dinamiskais spilgtums",
	"Dynamic Brightness Control": "Dinamiskā spilgtuma vadība",
	"Easter Island": "Lieldienu sala",
	"Ecuador": "Ekvadora",
	"Edit": "Rediģēt",
	"Edmonton": "Edmontona",
	"Education": "Izglītība",
	"Egypt": "Ēģipte",
	"El Salvador": "Salvadora",
	"Enable or disable Signage 365 Care services on this device": "Iespējojiet vai atspējojiet Signage 365 Care pakalpojumus šajā ierīcē",
	"Enable or disable {apptitle} service on this device": "Iespējojiet vai atspējojiet {apptitle} pakalpojumu šajā ierīcē",
	"End": "Beigt",
	"End Time": "Beigu laiks",
	"Energy Saving": "Enerģijas taupīšana",
	"Enter Account Number": "Ievadīt Konta Numuru",
	"Enter the account number to activate Signage 365 Care.": "Ievadiet konta numuru, lai aktivizētu Signage 365 Care.",
	"Enter the account number to activate {apptitle}.": "Ievadiet konta numuru, lai aktivizētu {apptitle}.",
	"Enter the following": "Ievadiet tālāk norādīto",
	"Enter the network address to ping": "Ievadiet tīkla adresi ping testam",
	"Equatorial Guinea": "Ekvatoriālā Gvineja",
	"Eritrea": "Eritreja",
	"Estonia": "Igaunija",
	"Ethiopia": "Etiopija",
	"Europe": "Eiropa",
	"Event": "Notikums",
	"Exit": "Iziet",
	"Expert": "Eksperts",
	"Export": "Eksportēt",
	"External": "Ārējs",
	"External Input Rotation": "Ārējās ievades pagriešana",
	"External Input Rotation Status": "Ārējās ievades pagriešanas statuss",
	"External Input Rotation is ON": "Ārējās izvades pagriešana ir IESLĒGTA",
	"EyeQ sensor": "EyeQ sensors",
	"FPGA Version": "FPGA versija",
	"Factory Reset": "Rūpnīcas iestatījumu atiestatīšana",
	"Fail": "Neizdevās",
	"Fail Over": "Pārlēkt kļūmi",
	"Fail to update. Check xxx file please.": "Atjaunināšana neizdevās. Lūdzu, pārbaudiet failu xxx.",
	"Failed to update LED FPGA with xxx. Check the file please": "Neizdevās atjaunināt LED FPGA ar xxx. Lūdzu, pārbaudiet failu.",
	"Failed to update LED FPGA with xxx. Check the status of the unit controller.": "Neizdevās atjaunināt LED FPGA ar xxx. Pārbaudiet vadības iekārtas statusu.",
	"Failed to update fan micom with xxx. Check the file please": "Neizdevās atjaunināt ventilatoru Micom ar xxx. Lūdzu, pārbaudiet failu.",
	"Fan": "Ventilators",
	"Fan Micom Version": "Ventilatora Micom versija",
	"Fan RPM": "Ventilatora apgr./min.",
	"Fan RPM history is not yet collected": "Ventilatora apgr./min. vēsture vēl nav apkopota.",
	"Fan Status": "Ventilatora statuss",
	"February": "Februāris",
	"Fernando de Noronha": "Fernandu di Noronja",
	"Fiji": "Fidži",
	"File Name": "Faila nosaukums",
	"File Select": "Faila atlase",
	"File Upload Progress": "Failu augšupielādes norise",
	"File upload via mobile devices does not support.": "Netiek atbalstīta faila augšupielāde, izmantojot mobilās ierīces.",
	"Finland": "Somija",
	"First Use": "Pirmā lietošanas reize",
	"Flash memory is not enough.": "Zibatmiņā nepietiek vietas.",
	"For your security, we recommend to change default password. Would you like to change your password now?": "Drošības nolūkos mēs iesakām mainīt noklusējuma paroli. Vai vēlaties tūlīt mainīt paroli?",
	"Frame": "Kadrs",
	"France": "Francija",
	"Freetown": "Frītauna",
	"French Polynesia": "Franču Polinēzija",
	"Fri": "Piektd.",
	"Friday": "Piektdiena",
	"Front": "Priekšpuse",
	"Full": "Pilns",
	"Gabon": "Gabona",
	"Gambia": "Gambija",
	"Gambier": "Gambjēra",
	"Game": "Spēle",
	"Gamut Matrix": "Gammas matrica",
	"Gateway": "Vārteja",
	"General": "Vispārēji",
	"Georgia": "Gruzija",
	"Germany": "Vācija",
	"Ghana": "Gana",
	"Gibraltar": "Gibraltārs",
	"Glace Bay": "Gleisbeja",
	"Go To First Use": "Doties uz sadaļu Pirmā lietošana",
	"Godthab": "Godtāba",
	"Gov./Corp.": "Valdības/korporatīvs",
	"Greece": "Grieķija",
	"Greenland": "Grenlande",
	"Guadalcanal": "Kvadalkanāla",
	"Guadeloupe": "Gvadelupa",
	"Guam": "Guama",
	"Guatemala": "Gvatemala",
	"Guatemala City": "Gvatemalas pilsēta",
	"Guayaquil": "Gvajakila",
	"Guernsey": "Gērnsija",
	"Guinea": "Gvineja",
	"Guinea Bissau": "Gvineja-Bisava",
	"Guyana": "Gajāna",
	"Halifax": "Halifaksa",
	"Height": "Augstums",
	"High": "Augsta",
	"History is not yet collected": "Vēsture vēl nav apkopota.",
	"Ho Chi Minh": "Hošimina",
	"Hobart": "Hobārta",
	"Home": "Sākums",
	"Honduras": "Hondurasa",
	"Hong Kong": "Honkonga",
	"Horizontal": "Horizontāli",
	"Hour": "Stunda",
	"Hours": "Stundas",
	"Humidity": "Mitrums",
	"Hungary": "Ungārija",
	"ID/password": "ID/parole",
	"IMB Settings": "IMB iestatījumi",
	"IMB Status": "IMB statuss",
	"IP Address": "IP adrese",
	"Iceland": "Islande",
	"Image": "Attēls",
	"Impact": "Ietekmējums",
	"Incorrect Password entered. Please try again.": "Ievadīta nepareiza parole. Lūdzu, mēģiniet vēlreiz.",
	"India": "Indija",
	"Indianapolis": "Indianapole",
	"Indonesia": "Indonēzija",
	"Information": "Informācija",
	"Input": "Ievade",
	"Input 6 or more characters": "Ievadiet vismaz 6 rakstzīmes.",
	"Input Direction": "Ievades virziens",
	"Input Password": "Ievadīt paroli",
	"Input Priority": "Ievades prioritāte",
	"Input Priority Setting": "Ievades prioritātes iestatīšana",
	"Input Signage Name please.": "Lūdzu, ievadiet Signage nosaukumu.",
	"Input Window": "Ievades logs",
	"Install": "Instalēt",
	"Install Succeeded": "Instalēšana veiksmīga",
	"Installation Failed": "Instalēšana neizdevās",
	"Installation Menu": "Instalēšanas izvēlne",
	"Installing…": "Instalē...",
	"Internet Not available": "Internets nav pieejams",
	"Internet available": "Internets ir pieejams",
	"Invalid NEW Password. Password must be 6 characters in length.": "JAUNĀ parole nav derīga. Parolē ir jābūt vismaz 6 rakstzīmēm.",
	"Invalid NEW Password. Password must be 8 characters in length.": "JAUNĀ parole nav derīga. Parolē ir jābūt vismaz 8 rakstzīmēm.",
	"Invalid NEW Password. You must use a combination of letters and numbers.": "JAUNĀ parole nav derīga. Ir jāizmanto burtu un ciparu kombinācija.",
	"Invalid New password. Password must be at least 8 characters.": "Jaunā parole nav derīga. Parolē jābūt vismaz 8 rakstzīmēm.",
	"Invalid New password. You must use a mixture of mixed-case letters, numbers and special characters.": "Jaunā parole nav derīga. Jums jāizmanto lielo un mazo burtu, ciparu un speciālo rakstzīmju kombinācija.",
	"Invalid day value": "Nederīga dienas vērtība",
	"Invalid hour value": "Nederīga stundas vērtība",
	"Invalid minute value": "Nederīga minūtes vērtība",
	"Invalid month value": "Nederīga mēneša vērtība",
	"Invalid value": "Nederīga vērtība",
	"Invalid year value": "Nederīga gada vērtība",
	"Iran": "Irāna",
	"Iraq": "Irāka",
	"Ireland": "Īrija",
	"Irkutsk": "Irkustska",
	"Irregular": "Neregulārs",
	"Israel": "Izraēla",
	"Issue History": "Problēmu vēsture",
	"Istanbul": "Stambula",
	"Italy": "Itālija",
	"Jakarta": "Džakarta",
	"Jamaica": "Jamaika",
	"January": "Janvāris",
	"Japan": "Japāna",
	"Jerusalem": "Jeruzāleme",
	"Johannesburg": "Johannesburga",
	"Jordan": "Jordānija",
	"July": "Jūlijs",
	"June": "Jūnijs",
	"Kabul": "Kabula",
	"Kaliningrad": "Kaļiņingrada",
	"Kamchatka": "Kamčatka",
	"Karachi": "Karači",
	"Kazakhstan": "Kazahstāna",
	"Kenya": "Kenija",
	"Khartoum": "Kartuma",
	"Khovd": "Hovde",
	"Kiev": "Kijeva",
	"Kingston": "Kingstona",
	"Kinshasa": "Kinšasa",
	"Kolkata": "Kalkuta",
	"Korea": "Koreja",
	"Korea, Republic of": "Korejas Republika",
	"Krasnoyarsk": "Krasnojarska",
	"Kuala Lumpur": "Kualalumpura",
	"Kuching": "Kučinga",
	"Kuwait": "Kuveita",
	"Kuwait City": "Kuveitas pilsēta",
	"Kyrgyzstan": "Kirgizstāna",
	"LED Assistant": "LED Assistant",
	"LED Assistant Settings": "LED Assistant iestatījumi",
	"LED FPGA Update file list": "LED FPGA failu atjaunināšanas saraksts",
	"LED FPGA Updating ......": "Notiek LED FPGA atjaunināšana......",
	"LED Features": "LED funkcijas",
	"LED Film Settings": "LED filmas iestatījumi",
	"LED Open Detection": "LED atvērta stāvokļa uztveršana",
	"LED Settings": "LED iestatījumi",
	"LED Unit": "LED bloks",
	"LED Unit Status": "LED ierīces statuss",
	"LG ConnectedCare App": "Lietotne LG ConnectedCare",
	"LG ConnectedCare app": "Lietotne LG ConnectedCare",
	"LG Control Manager": "LG vadības pārvaldnieks",
	"La Paz": "Lapasa",
	"Lagos": "Lagosa",
	"Landscape": "Ainava",
	"Language": "Valoda",
	"Laos": "Laosa",
	"Large": "Liels",
	"Latvia": "Latvija",
	"Layout": "Izkārtojums",
	"Layout Editor": "Izkārtojuma redaktors",
	"Lebanon": "Libāna",
	"Lesotho": "Lesoto",
	"Liberia": "Libērija",
	"Libreville": "Librevila",
	"Libya": "Lībija",
	"Liechtenstein": "Lihtenšteina",
	"Lisbon": "Lisabona",
	"Lithuania": "Lietuva",
	"Ljubljana": "Ļubļana",
	"Loading": "Ielāde",
	"Loading...": "Notiek ielāde...",
	"Loading…": "Ielādē...",
	"Location": "Atrašanās vieta",
	"Log": "Reģistrs",
	"Log Report": "Žurnāla pārskats",
	"Log after Power Up": "Reģistrēt pēc ieslēgšanas",
	"Log in with the authorized ID and password.": "Piesakieties, izmantojot pilnvaroto ID un paroli.",
	"Login": "Pieteikties",
	"Login is required.": "Ir jāpiesakās.",
	"Logout": "Atteikšanās",
	"London": "Londona",
	"Los Angeles": "Losandželosa",
	"Louisville": "Luisvila",
	"Low": "Zems",
	"Lubumbashi": "Lubumbaši",
	"Luxembourg": "Luksemburga",
	"MAC Address": "MAC adrese",
	"Macao": "Makao",
	"Macedonia": "Maķedonija",
	"Maceió": "Maseio ",
	"Madagascar": "Madagaskara",
	"Madrid": "Madride",
	"Magadan": "Magadana",
	"Main": "Galvenais",
	"Malawi": "Malāvija",
	"Malaysia": "Malaizija",
	"Maldives": "Maldīvija",
	"Mall/QSR": "Lielveikals/QSR",
	"Manage": "Pārvaldīt",
	"Managua": "Managva",
	"Manaus": "Manausa",
	"Manual": "Manuāli",
	"March": "Marts",
	"Marquesas": "Marķīza salas",
	"Marriage Guide (2 Steps)": "Marriage pamācība (2 darbības)",
	"Marriage Status": "Marriage statuss",
	"Marshall Islands": "Māršala salas",
	"Martinique": "Martinika",
	"Master": "Saimnieks",
	"Mauritius": "Maurīcija",
	"Max Backlight": "Maks. aizmugurgaismojums",
	"Maximum": "Maksimums",
	"May": "Maijs",
	"Mayotte": "Majote",
	"Mazatlán": "Mazatlana",
	"Media Library": "Multivides bibliotēka",
	"Media file List": "Multivides failu saraksts",
	"Media file Upload (XXX GB available)": "Multivides faila augšupielāde (pieejami: XXX GB)",
	"Medium": "Vidējs",
	"Melbourne": "Melburna",
	"Menu Language": "Izvēlnes valoda",
	"Mexico": "Meksika",
	"Mexico City": "Mehiko",
	"Micom Progress": "Micom norise",
	"Micom Update": "Micom atjaunināšana",
	"Micom Version": "Micom versija",
	"Middle East": "Tuvie Austrumi",
	"Min Backlight": "Min. aizmugurgaismojums",
	"Mini Module": "Mini modulis",
	"Minimum": "Minimums",
	"Minimum = XXms, Maximum = YYms, Average = ZZms": "Minimāli = XXms, maksimāli = YYms, vidēji = ZZms",
	"Mins": "Min.",
	"Minsk": "Minska",
	"Model Name": "Modeļa nosaukums",
	"Module Calibration": "Moduļa kalibrēšana",
	"Module Calibration is modified. Exit without saving?": "Moduļa kalibrācija ir pārveidota. Vai iziet nesaglabājot?",
	"Module Size": "Moduļa lielums",
	"Modules": "Moduļi",
	"Mogadishu": "Mogadiša",
	"Mon": "Pirmd.",
	"Monaco": "Monako",
	"Moncton": "Monktona",
	"Monday": "Pirmdiena",
	"Mongolia": "Mongolija",
	"Monrovia": "Monrovija",
	"Montenegro": "Melnkalne",
	"Monterrey": "Montereja",
	"Month": "Mēnesis",
	"Montréal": "Monreāla",
	"More": "Vairāk",
	"Morocco": "Maroka",
	"Moscow": "Maskava",
	"Motion": "Kustība",
	"Mozambique": "Mozambika",
	"Muscat": "Muskata",
	"Mute": "Izslēgt skaņu",
	"Myanmar": "Mjanma",
	"Mérida": "Merida",
	"NO": "NĒ",
	"NOT AVAILABLE": "NAV PIEEJAMS",
	"Name": "Vārds",
	"Namibia": "Namībija",
	"Nassau": "Naso",
	"Natural Mode": "Dabisks režīms",
	"Natural Size": "Dabisks lielums",
	"Ndjamena": "Ndžamena",
	"Nepal": "Nepāla",
	"Netherlands": "Nīderlande",
	"Network": "Tīkls",
	"Network Ready": "Tīkls gatavs izmantošanai",
	"Network Settings": "Tīkla iestatījumi",
	"New Caledonia": "Jaunkaledonija",
	"New Password": "Jaunā parole",
	"New Password and Confirm Password do not match.": "Jaunā parole un paroles apstiprinājums nesakrīt.",
	"New York": "Ņujorka",
	"New Zealand": "Jaunzēlande",
	"Newer Ver.": "Jaunāka versija",
	"Next": "Tālāk",
	"Next Day": "Nākamā diena",
	"Niamey": "Niameja",
	"Nicaragua": "Nikaragva",
	"Nicosia": "Nikozija",
	"Niger": "Nigēra",
	"Nigeria": "Nigērija",
	"Nipigon": "Nipigona",
	"No": "Nē",
	"No Signal": "Nav signāla",
	"No backup files exist in storage device.": "Atmiņas ierīcē nav neviena dublējuma faila.",
	"None": "Neviens",
	"Normal": "Parasts",
	"North America": "Ziemeļamerika",
	"North Korea": "Ziemeļkoreja",
	"Norway": "Norvēģija",
	"Not Connected": "Nav pievienots",
	"Notification": "Paziņojumi",
	"Nouméa": "Numea",
	"November": "Novembris",
	"Novosibirsk": "Novosibirska",
	"Number": "Numurs",
	"OFF": "IZSLĒGT",
	"OK": "LABI",
	"OLED LIGHT": "OLED gaisma",
	"OLED Light": "OLED gaisma",
	"ON": "IESLĒGT",
	"OSD Portrait Mode": "OSD portreta režīms",
	"OSD Portrait Mode is ON": "OSD portreta režīms ir IESLĒGTS",
	"OSD Portrait Status": "OSD portreta statuss",
	"OSD Portrait mode is xxx": "OSD portreta režīms ir xxx",
	"OSD Rotation is ON": "OSD rotācija ir ieslēgta",
	"Occurrence Time": "Notikuma laiks",
	"Oceania": "Okeānija",
	"October": "Oktobris",
	"Off": "Izslēgts",
	"Off Until Reset": "Izslēgt līdz atiestatīšanai",
	"Off When Open": "Izslēgt, kad atvērts",
	"Oman": "Omāna",
	"Omsk": "Omska",
	"On": "Ieslēgts",
	"On When Open": "Ieslēgt, kad atvērts",
	"Open Loop Fan": "Atvērts cikla ventilators",
	"OpenLoop": "Atvērta cilpa",
	"Opened": "Atvērts",
	"Oranjestad": "Oranjestada",
	"Original": "Oriģināls",
	"Ouagadougou": "Uagadugu",
	"Output Window": "Izvades logs",
	"OverHeat": "Pārkaršana",
	"Overwrite": "Pārrakstīt",
	"Overwrite xxx?": "Vai pārrakstīt xxx?",
	"Overwrite?": "Vai pārrakstīt?",
	"PM": "Pēcpusdienā",
	"PM Mode": "PM režīms",
	"Pacific": "Klusā okeāna valstis",
	"Packets : Sent = XX. Received = YY. Lost = ZZ (WW% loss)": "Paketes: Nosūtīts = XX. Saņemts = YY. Zaudēts = ZZ (WW% zudums)",
	"Pakistan": "Pakistāna",
	"Panama City": "Panamas pilsēta",
	"Panel": "Panelis",
	"Papua New Guinea": "Papua Jaungvineja",
	"Paraguay": "Paragvaja",
	"Paris": "Parīze",
	"Password": "Parole",
	"Password is incorrect. Please Try Again": "Parole nav pareiza. Lūdzu, mēģiniet vēlreiz.",
	"Password is incorrect. Please try again.": "Parole nav pareiza. Lūdzu, mēģiniet vēlreiz.",
	"Perth": "Pērta",
	"Philippines": "Filipīnas",
	"Phnom Penh": "Pnompeņa",
	"Phoenix": "Fīniksa",
	"Picture": "Attēls",
	"Picture Mode": "Attēla režīms",
	"Picture Settings": "Attēla iestatījumi",
	"Ping Test": "Ping Tests",
	"Ping statistics for [X.X.X.X]": "[X.X.X.X] ping testa statistika",
	"Ping test failed. Invalid format of network address field.": "Ping tests neizdevās. Nederīgs tīkla adreses lauka formāts.",
	"Ping test is in progress": "Notiek ping testēšana",
	"Ping test result": "Ping testa rezultāts",
	"Pinging [X.X.X.X] with YYY bytes of data": "Testē [X.X.X.X] ar YYY baitiem datu",
	"Play": "Atskaņot",
	"Play via URL": "Atskaņot, izmantojot URL",
	"Please Keep this Signage on.": "Lūdzu, atstājiet Signage ieslēgtu.",
	"Please check the following items and try again.": "Lūdzu, pārbaudiet tālāk norādīto un mēģiniet vēlreiz.",
	"Please check the installation file and try again.": "Pārbaudiet instalācijas failu un mēģiniet vēlreiz.",
	"Please choose a file to upload": "Lūdzu, izvēlieties failu augšupielādei.",
	"Please choose a video file to upload": "Lūdzu, atlasiet augšupielādējamo video failu.",
	"Please don't turn off the device and wait until the installation is completed.": "Lūdzu, neizslēdziet ierīci un uzgaidiet līdz instalēšana ir pabeigta.",
	"Please don’t turn off the device. And wait while process is completed.": "Lūdzu, neizslēdziet ierīci. Un uzgaidiet, līdz process ir pabeigts.",
	"Please enter the authorized ID and password.": "Lūdzu, ievadiet pilnvaroto ID un paroli.",
	"Please login again.": "Lūdzu, piesakieties vēlreiz.",
	"Please press the physical marriage button.": "Lūdzu, nospiediet fizisko pogu Marriage.",
	"Please restart the marriage authentication process.": "Lūdzu, atsāciet Marriage autentificēšanas procesu.",
	"Please select city": "Lūdzu, atlasiet pilsētu",
	"Please select country": "Lūdzu, atlasiet valsti",
	"Please upload S/W update file via PC browser.": "Augšupielādējiet S/W atjauninājumu failu, izmantojot datora pārlūkprogrammu.",
	"Poland": "Polija",
	"Port": "Pieslēgvieta",
	"Port Louis": "Portluī",
	"Port Moresby": "Portmorsbija",
	"Port Number": "Porta numurs",
	"Port Settings": "Pieslēgvietas iestatījumi",
	"Port of Spain": "Spānijas osta",
	"Port-au-Prince": "Portoprensa",
	"Porto Novo": "Portonovo",
	"Porto Velho": "Portovelju",
	"Portrait": "Portrets",
	"Portrait Mode": "Portreta režīms",
	"Portugal": "Portugāle",
	"Position": "Novietojums",
	"Power": "Ieslēgt/izslēgt",
	"Power Off": "Barošana izslēgta",
	"Power Off Management": "Izslēgšanas pārvaldība",
	"Power Off(Default)": "Izslēgšana (noklusējums)",
	"Power Rack": "Barošanas statīvs",
	"Power Rack Settings": "Barošanas statīva iestatījumi",
	"Prague": "Prāga",
	"Praia": "Praja",
	"Press the physical marriage button on your master cabinet.": "Nospiediet fizisko pogu Marriage uz galvenā korpusa.",
	"Pressing Start will give you 1 minute to perform the process.": "Nospiežot Sākt, jums tiks piešķirta 1 minūte procesa pabeigšanai.",
	"Prev DAY": "Iepr. DIENA",
	"Prev.": "Iepr.",
	"Preview": "Priekšskatījums",
	"Priority": "Prioritāte",
	"Puerto Rico": "Puertoriko",
	"Pyongyang": "Phenjana",
	"Qatar": "Katara",
	"RPM": "Apgr./min.",
	"Rainy River": "Reinīrivera",
	"Rearrange": "Pārkārtot",
	"Reboot": "Atsāknēt",
	"Reboot?": "Vai atsāknēt?",
	"Rebooting": "Atsāknēšana",
	"Recife": "Resifi",
	"Reference Resolution": "Standarta izšķirtspēja",
	"Refresh": "Atsvaidzināt",
	"Regina": "Regīna",
	"Regular": "Regulārs",
	"Rejected": "Atteikts",
	"Remember me": "Atcerēties mani",
	"Rename": "Pārdēvēt",
	"Rename or Overwrite?": "Pārdēvēt vai pārrakstīt?",
	"Rename to {{filename (2)}} or Overwrite?": "Pārdēvēt kā {{filename (2)}} vai pārrakstīt?",
	"Reply from [X.X.X.X] : bytes = YY, time = ZZms, TTL = WW": "Atbilde no [X.X.X.X]: baiti = YY, laiks = ZZms, TTL = WW",
	"Republic Of The Congo": "Kongo Republika",
	"Request timed out.": "Pieprasījuma noildze.",
	"Require Network Settings": "Pieprasīt tīkla iestatījumus",
	"Required Marriage": "Nepieciešams Marriage",
	"Reset": "Atiestatīt",
	"Reset All": "Atiestatīt visu",
	"Reset Mute": "Atiestatīt skaņas izslēgšanu",
	"Reset Mute' is Needed": "Ir nepieciešams atiestatīt skaņas izslēgšanu",
	"Reset to factory reset": "Atiestatīt uz rūpnīcas iestatījumiem",
	"Reykjavik": "Reikjavīka",
	"Riga": "Rīga",
	"Riyadh": "Rijāda",
	"Romania": "Rumānija",
	"Rome": "Roma",
	"Rotation": "Rotācija",
	"Row": "Rinda",
	"Run Time": "Darbības laiks",
	"Run Time Since Last Power Up": "Darbības laiks kopš pēdējās ieslēgšanas",
	"Russia": "Krievija",
	"Rwanda": "Ruanda",
	"S/W Update": "Programmatūras atjaunināšana",
	"S/W Update File list": "Programmatūras atjauninājumu failu saraksts",
	"S/W Update file list": "Programmatūras atjauninājumu failu saraksts",
	"S/W Update succeeded": "Programmatūra ir veiksmīgi atjaunināta",
	"S/W Updating": "Programmatūras atjaunināšana",
	"S/W Updating......": "Notiek S/W atjaunināšana......",
	"S/W Ver.": "Programmatūras versija",
	"S/W update file does not exist.": "Nav S/W atjauninājumu faila.",
	"S/W will update. Do you want to continue?": "Programmatūra tiks atjaunināta. Vai vēlaties turpināt?",
	"SCREEN": "EKRĀNS",
	"SI App / Play via URL": "SI lietotne/Play caur URL",
	"Saint Lucia": "Sentlūsija",
	"Sakhalin": "Sahalīna",
	"Samarkand": "Samarkanda",
	"San Luis": "Sanluisa",
	"San Salvador": "Sansalvadora",
	"Santiago": "Santjago",
	"Sarajevo": "Sarajeva",
	"Sat": "Sestd.",
	"Saturday": "Sestdiena",
	"Saudi Arabia": "Saūda Arābija",
	"Save": "Saglabāt",
	"Scoresbysund": "Skorsbizunda",
	"Screen": "Ekrāns",
	"Screen Configuration": "Ekrāna konfigurācija",
	"Screen Fault Detection": "Ekrāna kļūmju noteikšana",
	"Screen Off": "Ekrāns izslēgts",
	"Screen Off & Backlight": "Ekrāna izslēgšana un aizmugurgaismojums",
	"Screen Off & Backlight On": "Ekrāna izslēgšana un aizmugurgaismojuma ieslēgšana",
	"Screen Off Always": "Ekrāns vienmēr izslēgts",
	"Screen Power Off": "Ekrāna izslēgšana",
	"Screen Rotation": "Ekrāna pagriešana",
	"Screen Rotation Status": "Ekrāna pagriešanas statuss",
	"Screen Rotation is ON": "Ekrāna pagriešana ir IESLĒGTA",
	"ScreenOn": "Ekrāns ir ieslēgts",
	"Select File": "Atlasīt failu",
	"Select Input Source": "Atlasīt ievades avotu",
	"Select a file to upload": "Atlasīt augšupielādējamo failu",
	"Select media file": "Atlasīt multivides failu",
	"Senegal": "Senegāla",
	"Sensor": "Sensors",
	"Seoul": "Seula",
	"September": "Septembris",
	"Serbia": "Serbija",
	"Serial Number": "Sērijas numurs",
	"Server Status": "Servera statuss",
	"Set": "Iestatīt",
	"Set Automatically": "Iestatīt automātiski",
	"Set ID": "Iestatīt ID",
	"Set Master": "Iestatīt galveno",
	"Set Slave": "Iestatīt pakārtoto",
	"Set URL": "Iestatīt URL",
	"Setting": "Iestatīšana",
	"Show Color": "Rādīt krāsu",
	"Sierra Leone": "Sjerraleone",
	"Sigane Name is Too Long": "Signage nosaukums ir pārāk garš.",
	"Sign in": "Pierakstīties",
	"Signage 365 Care": "Signage 365 Care",
	"Signage 365 Care App": "Programma Signage 365 Care",
	"Signage Name": "Signage nosaukums",
	"Signal": "Signāls",
	"Simferopol": "Simferopole",
	"Singapore": "Singapūra",
	"Size": "Izmērs",
	"Slave": "Sekotājs",
	"Slovakia": "Slovākija",
	"Slovenia": "Slovēnija",
	"Small": "Mazs",
	"Sofia": "Sofija",
	"Software Version": "Programmatūras versija",
	"Solomon Islands": "Zālamana salas",
	"Somalia": "Somālija",
	"Sound Control": "Skaņas vadība",
	"South Africa": "Dienvidāfrika",
	"South America": "Dienvidamerika",
	"Spain": "Spānija",
	"Srednekolymsk": "Sredņekolimska",
	"Sri Lanka": "Šrilanka",
	"St. John's": "Sentdžonsa",
	"Stalled Image": "Apturēts attēls",
	"Standard": "Standarts",
	"Start": "Sākt",
	"Start Time": "Sākuma laiks",
	"State": "Štats",
	"Status": "Statuss",
	"Step 1. Physical Marriage": "1. darbība. Fiziska funkcija Marriage",
	"Step 2. Logical Marriage": "2. darbība. Loģiskā funkcija Marriage",
	"Stockholm": "Stokholma",
	"Subnet Mask": "Apakštīkla maska",
	"Subnet prefix length": "Apakštīkla prefiksa garums",
	"Success": "Izdevās",
	"Sudan": "Sudāna",
	"Sunday": "Svētdiena",
	"SuperSign Content": "SuperSign saturs",
	"SuperSign Contents": "SuperSign saturs",
	"Suriname": "Surinama",
	"Sustain Aspect Ratio": "Uzturēt malu attiecību",
	"Swaziland": "Svazilenda",
	"Sweden": "Zviedrija",
	"Swift Current": "Sviftkurenta",
	"Switzerland": "Šveice",
	"Sydney": "Sidneja",
	"Syria": "Sīrija",
	"System": "Sistēma",
	"System Box": "Sistēmas lodziņš",
	"System Control": "Sistēmas vadība",
	"System Controller": "Sistēmas kontrolleris",
	"System Controller Settings": "Sistēmas kontrollera iestatījumi",
	"System Information": "Sistēmas informācija",
	"System Reboot": "Sistēmas pārstartēšana",
	"System Settings": "Sistēmas iestatījumi",
	"System controller will restart.": "Sistēmas kontrolleris tiks restartēts.",
	"System controller will restart. Do you want to continue?": "Sistēmas kontrolleris tiks restartēts. Vai vēlaties turpināt?",
	"São Paulo": "Sanpaulu",
	"Tahiti": "Taiti",
	"Taipei": "Taipeja",
	"Taiwan": "Taivāna",
	"Tajikistan": "Tadžikistāna",
	"Tallinn": "Tallina",
	"Tanzania": "Tanzānija",
	"Tashkent": "Taškenta",
	"Tegucigalpa": "Tegusigalpa",
	"Tehran": "Teherāna",
	"Temperature": "Temperatūra",
	"Temperature history is not yet collected": "Temperatūras vēsture vēl nav apkopota.",
	"Test Color": "Testēt krāsu",
	"Test Pattern": "Testēt shēmu",
	"Thailand": "Taizeme",
	"The POWER remote controller key will not work during the update.": "Atjaunināšanas laikā tālvadības pults taustiņš POWER nedarbojas.",
	"The Signage 365 care app has been deleted.": "Programma Signage 365 Care ir izdzēsta.",
	"The Signage 365 care app has been successfully installed.": "Programma Signage 365 Care ir veiksmīgi instalēta.",
	"The Signage 365 care app has been successfully updated.": "Programma Signage 365 Care ir veiksmīgi atjaunināta.",
	"The URL format is invalid.": "URL formāts nav derīgs.",
	"The installation of the Signage 365 care app has failed.": "Programmas Signage 365 Care instalēšana neizdevās.",
	"The installation of the Signage 365 care app is in progress.": "Notiek programmas Signage 365 Care instalēšana.",
	"The installation of the {apptitle} has failed.": "{apptitle} instalēšana neizdevās.",
	"The installation of the {apptitle} is in progress.": "Notiek {apptitle} instalēšana.",
	"The timer is reset and the marriage process must be restarted from the beginning.": "Taimeris ir atiestatīts, un Marriage process ir jāsāk no sākuma.",
	"The update of the Signage 365 care app has failed.": "Programmas Signage 365 Care atjaunināšana neizdevās.",
	"The update of the Signage 365 care app is in progress.": "Notiek programmas Signage 365 Care atjaunināšana.",
	"The update of the {apptitle} has failed.": "{apptitle} atjaunināšana neizdevās.",
	"The update of the {apptitle} is in progress.": "Notiek {apptitle} atjaunināšana.",
	"The {apptitle} has been successfully installed.": "{apptitle} ir sekmīgi instalēta.",
	"The {apptitle} has been successfully updated.": "{apptitle} ir sekmīgi atjaunināta.",
	"There is a difference between your signage and the signage 365 care server in time and date.": "Pastāv atšķirība starp Signage un Signage 365 Care serveri gan laika, gan datumu ziņā.",
	"There is a difference between your signage and the {apptitle} server in time and date.": "Starp Signage un {apptitle} serveri pastāv laika un datuma atšķirība.",
	"There is no list.": "Nav saraksta.",
	"There's No Backup file": "Nav neviena dublējuma faila",
	"Thimphu": "Timpu",
	"This pop up will be closed automatically in 5 sec.": "Šis uznirstošais lodziņš tiks automātiski aizvērts pēc 5 sekundēm.",
	"Thu": "Cet.",
	"Thursday": "Ceturtdiena",
	"Tijuana": "Tihuana",
	"Tile ID": "Elementa ID",
	"Tile Mode": "Elementu režīms",
	"Tile Mode Setting": "Tile Mode Setting",
	"Tile Mode Settings": "Elementu režīma iestatījumi",
	"Time": "Laiks",
	"Time & Date": "Laiks un datums",
	"Time & Date Settings": "Laika un datuma iestatījumi",
	"Time & Date Settings Required": "Nepieciešamie laika un datuma iestatījumi",
	"Time Setting": "Laika iestatījums",
	"Time Zone": "Laika zona",
	"Timor-Leste": "Austrumtimora",
	"Tint": "Tonis",
	"Tiranë": "Tirāna",
	"To choose an AP, please use Settings App. with a remote controller.": "Lai izvēlētos AP, lūdzu, izmantojiet iestatījumu programmu ar tālvadības pulti.",
	"To make your Password more secure. Use letters and numbers.": "Lai padarītu paroli drošāku, izmantojiet burtus un ciparus.",
	"To make your password more secure, use a mixture of mixed-case letters, numbers and special characters": "Lai padarītu paroli drošāku, izmantojiet lielo un mazo burtu, ciparu un speciālo rakstzīmju kombināciju.",
	"To use Signage 365 care, you need to connect the device to the network . Do you want to set the network connection?": "Lai izmantotu Signage 365 Care, ierīce jāpieslēdz tīklam. Vai vēlaties iestatīt tīkla savienojumu?",
	"To use {apptitle}, you need to connect the device to the network. Do you want to set the network connection?": "Lai izmantotu {apptitle}, ierīce jāpieslēdz tīklam. Vai vēlaties iestatīt tīkla savienojumu?",
	"Tokyo": "Tokija",
	"Top": "Augšdaļa",
	"Top Left": "Augšējais kreisais stūris",
	"Top Right": "Augšējais labais stūris",
	"Transportation": "Transports",
	"Trinidad And Tobago": "Trinidāda un Tobāgo",
	"Tripoli": "Tripole",
	"Tue": "Otrd.",
	"Tuesday": "Otrdiena",
	"Tunis": "Tunisa",
	"Tunisia": "Tunisija",
	"Turkey": "Turcija",
	"Turkmenistan": "Turkmenistāna",
	"Type": "Veids",
	"URL Loader": "URL ielādētājs",
	"URL Setting": "URL iestatījums",
	"Ukraine": "Ukraina",
	"Ulaanbaatar": "Ulanbatora",
	"Unit Calibration": "Ierīces kalibrēšana",
	"Unit Calibration is modified. Exit without saving?": "Ierīces kalibrācija ir pārveidota. Vai iziet nesaglabājot?",
	"Unit Configuration": "Ierīces konfigurācija",
	"Unit Resolution": "Ierīces izšķirtspēja",
	"Unit Status": "Ierīces statuss",
	"Unit Temperature": "Ierīces temperatūra",
	"United Arab Emirates": "Apvienotie Arābu Emirāti",
	"United Kingdom": "Apvienotā Karaliste",
	"United States of America": "Amerikas Savienotās Valstis",
	"Units cut left edge can not be placed in the X:0 positions.": "No kreisās malas nogrieztos vienumus nevar novietot pozīcijās X:0.",
	"Units cut right edge cannot be placed in the Y:(Cut Pixel) positions.": "No labās malas nogrieztos vienumus nevar novietot pozīcijās Y:(nogrieztie pikseļi).",
	"Unsupported File type.": "Neatbalstīts faila tips.",
	"Unsupported File type. Only Image/Video files are allowed.": "Neatbalstīts faila tips. Ir atļauti tikai attēlu/video faili.",
	"Update": "Atjaunināšana",
	"Update Failed": "Atjaunināšana neizdevās",
	"Update LED FPGA micom with xxx done": "LED FPGA Micom atjaunināšana ar xxx ir pabeigta.",
	"Update LED FPGA with xxx done": "LED FPGA atjaunināšana ar xxx ir pabeigta.",
	"Update Progress": "Atjaunināšanas norise",
	"Update Succeeded": "Atjaunināšana veiksmīga",
	"Update completed. Set is rebooting now.": "Atjaunināšana ir pabeigta. Notiek televizora atsāknēšana...",
	"Update completed. Signage is rebooting now.": "Atjaunināšana ir pabeigta. Tiek restartēts Signage.",
	"Update fan micom with xxx done": "Ventilatora Micom atjaunināšana ar xxx ir pabeigta.",
	"Update is completed.": "Atjaunināšana ir pabeigta.",
	"Update is in progress.": "Notiek atjaunināšana.",
	"Update?": "Vai atjaunināt?",
	"Updating…": "Atjaunina...",
	"Upload": "AUGŠUPIELĀDE",
	"Upload FPGA Update file (XXX GB available)": "Augšupielādēt FPGA atjauninājuma failu (pieejami XXX GB)",
	"Upload LED FPGA update file": "Augšupielādēt LED FPGA atjaunināšanas failu",
	"Upload secured S/W Update file": "Augšupielādēt drošo programmatūras atjauninājuma failu",
	"Upload secured S/W Update file (XXX GB available)": "Augšupielādēt drošo programmatūras atjauninājuma failu (pieejami: XXX GB)",
	"Uploading": "Notiek augšupielāde...",
	"Uruguay": "Urugvaja",
	"User": "Lietotājs",
	"Uzbekistan": "Uzbekistāna",
	"Uzhhorod": "Užgoroda",
	"Vaduz": "Vaduca",
	"Validation Error.": "Validēšanas kļūda.",
	"Vancouver": "Vankūvera",
	"Vatican City": "Vatikāns",
	"Venezuela": "Venecuēla",
	"Ver": "Vers.",
	"Version": "Versija",
	"Vertical": "Vertikāli",
	"Video Scaler": "Video mērogotājs",
	"Vienna": "Vīne",
	"Vientiane": "Vjančana",
	"Vietnam": "Vjetnama",
	"View": "Skatīt",
	"View Photo": "Skatīt fotoattēlu",
	"Vilnius": "Viļņa",
	"Virtual Controller": "Virtuālais kontrollers",
	"Vivid": "Dzīvs",
	"Vladivostok": "Vladivostoka",
	"Volgograd": "Volgograda",
	"Volume": "Skaļums",
	"Waiting for Approval": "Gaida apstiprinājumu",
	"Warm": "Silts",
	"Warsaw": "Varšava",
	"Wed": "Trešd.",
	"Wednesday": "Trešdiena",
	"Week": "Nedēļa",
	"Weekday": "Darbdienā",
	"Welcome to LG WebOS": "Sveicināti LG WebOS",
	"Width": "Platums",
	"Windhoek": "Vindhoeka",
	"Winnipeg": "Vinipega",
	"Wired": "Vadu",
	"Working": "Darbojas",
	"XX GB free of XXGB": "XX GB brīvi no XX GB",
	"XX of YY": "XX no YY",
	"YES": "JĀ",
	"Yakutsk": "Jakutska",
	"Yamoussoukro": "Jamusukro",
	"Yekaterinburg": "Jekaterinburga",
	"Yellowknife": "Jelounaifa",
	"Yemen": "Jemena",
	"Yerevan": "Erevāna",
	"Yes": "Jā",
	"You changed IP address or DHCP status. Please reconnect to changed IP address": "Jūs mainījāt IP adresi vai DHCP statusu. Lūdzu, atkārtoti izveidojiet savienojumu ar mainīto IP adresi",
	"You did not finish the process in time.": "Jūs savlaicīgi nepabeidzāt procesu.",
	"You have failed to login 1/5 time.": "Jums neizdevās pieteikties 1. no 5 reizēm.",
	"You have failed to login 5 times. Please try again after 05:00.": "Jums neizdevās pieteikties 5 reizes. Lūdzu, mēģiniet vēlreiz pēc 05:00.",
	"You may not be able to reconnect to web pages if you cannot find out new IP address.": "Ja neizdosies noskaidrot jauno IP adresi, iespējams, nebūs iespējams atkārtoti izveidot savienojumu ar tīmekļa lapām.",
	"You've entered the same password as the current one. Please enter a different password.": "Jūs ievadījāt tādu pašu paroli kā pašreizējā. Lūdzu, ievadiet citu paroli.",
	"Your Password has been changed.": "Jūsu parole ir mainīta.",
	"Your device needs the correct time & date to authenticate marriage.": "Lai autentificētu Marriage, ierīcē jāiestata pareizs laiks un datums.",
	"Zagreb": "Zagreba",
	"Zambia": "Zambija",
	"Zaporozhye": "Zaporožje",
	"Zimbabwe": "Zimbabve",
	"Zoom": "Tālummaiņa",
	"Zoom In": "Tuvināt",
	"Zoom In/Out": "Tuvināt/tālināt",
	"Zoom Out": "Attālināt",
	"Zürich": "Cīrihe",
	"align": "līdzināt",
	"available": "pieejams",
	"color": "krāsa",
	"full aspect ratio": "pilna malu attiecība",
	"general": "vispārīgi",
	"hour": "stunda",
	"last": "Pēdējais",
	"min": "min.",
	"original aspect ratio": "oriģināla malu attiecība",
	"over {period} min.": "pēc {period} min.",
	"reading": "lasīšana",
	"save as PC Time": "saglabāt kā datora laiku",
	"sharpness": "asums",
	"upload": "augšupielādēt",
	"version": "versija",
	"warning": "brīdinājums",
	"webOS Version": "webOS versija",
	"year": "gads",
	"{apptitle} will be deleted.": "Programma {apptitle} tiks dzēsta.",
	"{{filename}} already exists.": "{{filename}} jau pastāv."
}
