<svg xmlns="http://www.w3.org/2000/svg" width="24" height="65">
    <path fill="none" d="M0 .25h24v64.5H0V.25z"/>
    <path fill-rule="evenodd" opacity=".502" d="M7.239 54.012a1.479 1.479 0 0 1-1.311-2.152l9.986-19.516-9.986-19.513a1.475 1.475 0 1 1 2.626-1.348l10.332 20.188c.218.422.218.925 0 1.348L8.554 53.208a1.474 1.474 0 0 1-1.315.804z"/>
</svg>
