<svg xmlns="http://www.w3.org/2000/svg" width="24" height="24">
    <defs>
        <filter id="0w5030w6fa">
            <feFlood flood-color="#A50034" flood-opacity="1" result="floodOut"/>
            <feComposite in="floodOut" in2="SourceGraphic" operator="atop" result="compOut"/>
            <feBlend in="compOut" in2="SourceGraphic"/>
        </filter>
    </defs>
    <g fill="#757575" fill-rule="evenodd" filter="url(#0w5030w6fa)">
        <path d="M13.334 19.988c-4.228 0-7.656-3.593-7.656-8.026 0-.208.014-.412.029-.616h2.084c-.021.205-.06.405-.06.616 0 3.241 2.516 5.868 5.62 5.868s5.62-2.627 5.62-5.868c0-3.24-2.516-5.867-5.62-5.867-.155 0-.3.034-.452.047V3.96c.145-.009.289-.023.435-.023 4.229 0 7.657 3.593 7.657 8.025 0 4.433-3.428 8.026-7.657 8.026z"/>
        <path d="M6.696 6.077l4.096 5.325-8.174.009 4.078-5.334z"/>
    </g>
</svg>
