<svg xmlns="http://www.w3.org/2000/svg" width="40" height="40">
    <path fill="#EE5DFF" fill-opacity="0" fill-rule="evenodd" d="M0 0h40v40H0V0z"/>
    <path fill-rule="evenodd" d="M20 0c11.046 0 20 8.954 20 20s-8.954 20-20 20S0 31.046 0 20 8.954 0 20 0z" opacity=".302"/>
    <path fill="#FFF" fill-rule="evenodd" d="M23.774 29.167h-7.545c-2.519 0-4.561-1.952-4.561-4.36v-7.936c0-.4.339-.725.757-.725.419 0 .758.325.758.725v7.936c0 1.608 1.364 2.912 3.046 2.912h7.544c1.683 0 3.047-1.304 3.047-2.913v-7.935c0-.4.339-.725.758-.725.418 0 .758.325.758.725v7.936c0 2.408-2.043 4.36-4.562 4.36zm-.244-12.538v8.917c0 .4-.34.725-.758.725-.419 0-.759-.325-.759-.725v-8.917c0-.4.34-.725.759-.725.418 0 .758.325.758.725zm-5.54 0v8.917c0 .4-.34.725-.759.725-.418 0-.758-.325-.758-.725v-8.917c0-.4.34-.725.758-.725.419 0 .759.325.759.725zm9.588-2.791H12.425c-.418 0-.757-.324-.757-.724 0-.4.339-.725.757-.725h6.628v-1.667c0-.4.34-.724.758-.724.419 0 .759.324.759.724v1.667h7.008c.418 0 .758.325.758.725 0 .4-.34.724-.758.724z"/>
</svg>
