<svg xmlns="http://www.w3.org/2000/svg" width="64" height="64">
    <path fill="#F0F" fill-opacity="0" fill-rule="evenodd" d="M0 0h64v64H0V0z"/>
    <path fill="#767676" fill-rule="evenodd" d="M50.013 32L14.987 56.007V7.993L50.013 32z"/>
</svg>
