<svg xmlns="http://www.w3.org/2000/svg" width="25" height="25">
    <defs>
        <filter id="a">
            <feFlood flood-color="#A50034" flood-opacity="1" result="floodOut"/>
            <feComposite operator="atop" in="floodOut" in2="SourceGraphic" result="compOut"/>
            <feBlend in="compOut" in2="SourceGraphic"/>
        </filter>
    </defs>
    <g filter="url(#a)">
        <path stroke="#949494" stroke-width="2" stroke-linecap="round" stroke-linejoin="round" fill="none" d="M21 13.384v6.308C21 20.967 19.992 22 18.75 22H5.25C4.007 22 3 20.967 3 19.692V4.308C3 3.033 4.007 2 5.25 2h7.45"/>
        <path fill-rule="evenodd" fill="#949494" d="M23 7h-3v3h-2V7h-3V5h3V2h2v3h3v2zM7 7h3.843v2H7V7zM7 11h8v2H7v-2zM7 15h8v2H7v-2z"/>
    </g>
</svg>
