<svg xmlns="http://www.w3.org/2000/svg" width="24" height="24">
    <path fill="#949494" fill-opacity="0" fill-rule="evenodd" d="M0 0h24v24H0V0z"/>
    <path fill="#757575" fill-rule="evenodd" d="M18.996 21.992H4.989c-.553 0-1.002-.448-1.002-1.001 0-.553.449-1.001 1.002-1.001h14.007c.553 0 1.002.448 1.002 1.001 0 .553-.449 1.001-1.002 1.001zm-.359-11.84c-.186.143-.414.212-.64.212-.287 0-.571-.112-.77-.329l-4.233-4.63v10.674c0 .505-.448.914-1.001.914-.554 0-1.002-.409-1.002-.914V5.405l-4.233 4.63c-.354.387-.986.442-1.41.117-.425-.323-.482-.899-.128-1.286l6.004-6.568c.381-.418 1.157-.418 1.538 0l6.003 6.568c.354.387.297.963-.128 1.286z"/>
</svg>
