<svg xmlns="http://www.w3.org/2000/svg" width="64" height="64">
    <defs>
        <filter id="be1vkh9z8a">
            <feFlood flood-color="#383838" flood-opacity="1" result="floodOut"/>
            <feComposite in="floodOut" in2="SourceGraphic" operator="atop" result="compOut"/>
            <feBlend in="compOut" in2="SourceGraphic"/>
        </filter>
    </defs>
    <path fill="#F0F" fill-opacity="0" fill-rule="evenodd" d="M0 0h64v64H0V0z"/>
    <g filter="url(#be1vkh9z8a)">
        <path fill="#707070" fill-rule="evenodd" d="M50.013 32L14.987 56.007V7.993L50.013 32z"/>
    </g>
</svg>
