<svg xmlns="http://www.w3.org/2000/svg" width="24" height="24">
    <path fill="#949494" fill-rule="evenodd" d="M21.032 8.58c-.059.059-.127.102-.189.156L8.998 20.851H3.996v-5.006l12.28-12.091.021.021c1.322-1.289 3.433-1.284 4.739.024 1.318 1.319 1.316 3.46-.004 4.781zM5.997 18.849h2.001l9.067-8.955-2.118-2.103-8.95 9.055v2.003zM19.554 5.258c-.538-.539-1.373-.558-1.961-.108l-.018-.018-.086.087c-.017.016-.041.021-.058.039-.018.018-.024.043-.041.062l-1.093 1.105 2.127 2.127 1.254-1.239-.047-.049c.488-.589.476-1.454-.077-2.006z"/>
</svg>
