<svg xmlns="http://www.w3.org/2000/svg" width="13" height="8">
    <path fill="#666" fill-rule="evenodd" d="M11.569 6.148L10.778 7.8 6.563 2.429 2.347 7.8l-.791-1.652L6.303.993l.26.282.259-.282 4.747 5.155z"/>
</svg>
