<svg xmlns="http://www.w3.org/2000/svg" width="24" height="24">
    <path fill="#F0F" fill-opacity="0" fill-rule="evenodd" d="M0 0h24v24H0V0z"/>
    <text fill="#767676" font-family="Noto Sans CJK KR" font-size="8.706" transform="matrix( 1.50104196675614, 0, 0, 1.49316407864543,7.49687409973149, 16.4794922359363)">
        ×
    </text>
</svg>
