<svg xmlns="http://www.w3.org/2000/svg" width="24" height="24">
    <path fill="#DC1C37" fill-rule="evenodd" d="M23.998 12c0 6.626-5.372 11.998-11.998 11.998C5.374 23.998.002 18.626.002 12 .002 5.374 5.374.002 12 .002 18.626.002 23.998 5.374 23.998 12z"/>
    <path fill="#FFF" fill-rule="evenodd" d="M12.01 15.001h11.611c.247-.959.378-1.965.378-3 0-1.036-.131-2.041-.377-2.999H12.01v-9h-.009c-2.182 0-4.227.582-5.989 1.599v7.401H.38c-.247.958-.378 1.963-.378 2.999 0 1.035.131 2.041.378 3h5.632V22.4c1.762 1.017 3.807 1.599 5.989 1.599h.009v-8.998z"/>
    <path fill="#192967" fill-rule="evenodd" d="M10.51.094c-1.048.13-2.053.395-3 .777v9.63H.095c-.061.492-.093.992-.093 1.5s.032 1.008.093 1.5H7.51v9.629c.947.382 1.952.647 3 .777V13.501h13.396c.061-.492.093-.992.093-1.5s-.031-1.008-.093-1.5H10.51V.094z"/>
</svg>
