<svg xmlns="http://www.w3.org/2000/svg" width="40" height="40">
    <path fill="none" d="M0 0h40v40H0V0z"/>
    <path fill-rule="evenodd" fill="gray" d="M35.004 28.997a3.076 3.076 0 0 1-2.344.852l-16.654-1.23V26.66l.844.062v-8.111h-.844v-1.386h.844v-7.97l-4.502.371c-.629.052-1.12.6-1.12 1.248v2.252H9.329v-2.252c0-1.66 1.259-3.064 2.866-3.197L32.633 5.99a3.087 3.087 0 0 1 2.362.841 3.259 3.259 0 0 1 1.002 2.356V26.65c0 .888-.362 1.743-.993 2.347zM25.008 8.581l-6.812.562v8.082h6.812V8.581zm0 10.03h-6.812v8.211l6.812.503v-8.714zm9.09-9.424c0-.353-.139-.68-.391-.92a1.181 1.181 0 0 0-.922-.328l-6.431.531v8.755h7.744V9.187zm0 9.424h-7.744v8.813l6.441.476c.349.022.666-.094.916-.333.25-.24.387-.566.387-.917v-8.039zM14.26 17.86v14.226c0 1.602-1.266 2.906-2.822 2.906H6.821c-1.556 0-2.822-1.304-2.822-2.906V17.86c0-1.602 1.266-2.905 2.822-2.905h4.617c1.556 0 2.822 1.303 2.822 2.905zm-8.807 0v14.226c0 .777.614 1.409 1.368 1.409h4.617c.755 0 1.368-.632 1.368-1.409V17.86c0-.776-.613-1.408-1.368-1.408H6.821c-.754 0-1.368.632-1.368 1.408zm6.53 1.453v5.018c0 .584-.459 1.056-1.026 1.056H7.302c-.567 0-1.026-.472-1.026-1.056v-5.018c0-.584.459-1.057 1.026-1.057h3.655c.567 0 1.026.473 1.026 1.057z"/>
</svg>
