<svg xmlns="http://www.w3.org/2000/svg" width="28" height="28">
    <path fill="#383838" fill-rule="evenodd" d="M24.118 11.544l-1.828 1.481c.048.357.089.716.089 1.086 0 .382-.036.756-.086 1.124l1.819 1.474-.451.785.015.009-1.868 3.247-.015-.009-.45.783-2.205-.854c-.582.458-1.204.867-1.898 1.155l-.356 2.276h-.902v.017h-3.735v-.017h-.9l-.35-2.241c-.725-.291-1.395-.687-2.003-1.16l-2.1.813-.451-.785-.015.009L4.56 17.49l.015-.009-.45-.782 1.734-1.406c-.055-.387-.097-.779-.097-1.182 0-.402.036-.795.091-1.182l-1.722-1.395.452-.785-.015-.009 1.867-3.247.015.008.45-.782 2.125.823c.608-.475 1.26-.896 1.988-1.186l.346-2.214h.902v-.018h3.736v.018h.899l.353 2.259c.707.294 1.36.691 1.952 1.16l2.148-.831.451.784.016-.008 1.867 3.247-.015.009.45.782zm-3.519-2.851l-1.751.776-.107-.186c-.816-.79-1.837-1.354-2.966-1.653l-.201-1.854h-2.896l-.198 1.831c-1.103.279-2.104.813-2.914 1.566l-.166.288-1.752-.776L6.2 11.203l1.545 1.136-.229.398c-.094.449-.146.912-.146 1.389 0 .493.07.965.172 1.425l.199.345-1.545 1.135 1.448 2.518 1.752-.775.166.289c.742.677 1.629 1.198 2.616 1.493h.284l.207 1.911h2.896l.207-1.911h.22c1.059-.316 2.005-.889 2.774-1.641l.077-.133 1.752.775 1.448-2.518-1.545-1.135.074-.129c.135-.53.228-1.076.228-1.649 0-.592-.103-1.153-.249-1.696l-.048-.083 1.544-1.136-1.448-2.518zm-6.536 10.459c-2.753 0-4.985-2.241-4.985-5.005 0-2.765 2.232-5.006 4.985-5.006 2.752 0 4.984 2.241 4.984 5.006 0 2.764-2.232 5.005-4.984 5.005zm-.013-8.436c-1.862 0-3.372 1.517-3.372 3.388 0 1.872 1.51 3.389 3.372 3.389 1.863 0 3.373-1.517 3.373-3.389 0-1.871-1.51-3.388-3.373-3.388z"/>
</svg>
