<svg xmlns="http://www.w3.org/2000/svg" width="66.5" height="65.5">
    <path fill="#F0F" fill-opacity="0" fill-rule="evenodd" d="M.937 0h64v64h-64V0z"/>
    <path fill="#E6E6E6" fill-rule="evenodd" stroke="#B3B3B3" stroke-width="3" d="M26.906 6.031h22.969c1.657 0 3 1.343 3 3v46.063c0 1.657-1.343 3-3 3H26.906c-1.657 0-3-1.343-3-3V9.031c0-1.657 1.343-3 3-3z"/>
    <path fill="#999" fill-rule="evenodd" d="M4.887 32.504l11.759-8.536V41.04L4.887 32.504z"/>
</svg>
