<svg xmlns="http://www.w3.org/2000/svg" width="28" height="28">
    <path fill="#383838" fill-rule="evenodd" d="M24.311 12.646l-3.83 8.58c-.078.208-.275.345-.494.345H6.304c-.37 0-.626-.376-.494-.727l3.83-8.58c.078-.208.274-.346.494-.346h13.682c.371 0 .627.377.495.728zm-1.843-1.514H9.446c-.25 0-.474.157-.563.394L6.041 17.72c-.119.26-.504.174-.504-.113V8.165c0-.593.473-1.073 1.058-1.073h5.06c.314 0 .612.141.812.386l1.13 1.373c.201.245.498.386.813.386h7.529c.584 0 1.058.48 1.058 1.073v.286c0 .296-.237.536-.529.536z"/>
</svg>
