<svg xmlns="http://www.w3.org/2000/svg" width="48" height="36">
    <path fill-rule="evenodd" fill="#858585" d="M34.32 35H20.213a3.69 3.69 0 0 1-3.682-3.688V10.425a3.69 3.69 0 0 1 3.682-3.689h10.095c.301 0 .588.12.801.333l6.561 6.572c.213.213.332.501.332.802v16.869A3.69 3.69 0 0 1 34.32 35zm1.418-20.088-5.899-5.908h-.032v4.52c0 .783.636 1.421 1.418 1.421h4.513v-.033zm0 2.3h-4.513a3.69 3.69 0 0 1-3.682-3.688v-4.52h-7.33a1.42 1.42 0 0 0-1.417 1.421v20.887c0 .783.635 1.42 1.417 1.42H34.32a1.42 1.42 0 0 0 1.418-1.42v-14.1zM22.474 4.74l-1.469-1.472H10.479c-.671 0-1.216.546-1.216 1.218V23.72c0 .672.545 1.218 1.216 1.218h2.764a1.133 1.133 0 0 1 0 2.268h-2.764a3.487 3.487 0 0 1-3.48-3.486V4.486A3.487 3.487 0 0 1 10.479 1h10.995c.3 0 .588.12.801.332l1.801 1.804a1.133 1.133 0 1 1-1.602 1.604z"/>
    <path fill-rule="evenodd" fill="#FFF" d="M42.999 28A8 8 0 1 1 27 28 8 8 0 0 1 43 28z"/>
    <path fill-rule="evenodd" fill="#DE1231" d="M40.701 22.399c-.016-.018-.028-.038-.046-.055-.017-.017-.037-.03-.055-.045a7.97 7.97 0 0 0-5.601-2.298C30.588 20.001 27 23.589 27 28a7.97 7.97 0 0 0 2.296 5.599c.017.019.029.039.047.057.017.017.038.03.056.046a7.973 7.973 0 0 0 5.6 2.297c4.411 0 7.999-3.589 7.999-7.999 0-2.18-.879-4.157-2.297-5.601zm-5.702-.273c1.237 0 2.383.386 3.331 1.041l-8.164 8.163A5.835 5.835 0 0 1 29.125 28a5.88 5.88 0 0 1 5.874-5.874zm0 11.748a5.84 5.84 0 0 1-3.331-1.041l8.164-8.164A5.839 5.839 0 0 1 40.873 28a5.88 5.88 0 0 1-5.874 5.874z"/>
</svg>
