<svg xmlns="http://www.w3.org/2000/svg" width="84" height="84">
    <defs>
        <filter id="x984n5cpna">
            <feFlood flood-color="#EFEFEF" flood-opacity="1" result="floodOut"/>
            <feComposite in="floodOut" in2="SourceGraphic" operator="atop" result="compOut"/>
            <feBlend in="compOut" in2="SourceGraphic"/>
        </filter>
    </defs>
    <path fill="#F0F" fill-opacity="0" fill-rule="evenodd" d="M0 0h84v84H0V0z"/>
    <path fill="#383838" fill-rule="evenodd" d="M42 10c17.673 0 32 14.327 32 32 0 17.673-14.327 32-32 32-17.673 0-32-14.327-32-32 0-17.673 14.327-32 32-32z"/>
    <g filter="url(#x984n5cpna)">
        <path fill="#FFF" fill-rule="evenodd" d="M54.073 44.134h-9.936v9.938c0 1.181-.959 2.139-2.14 2.139-1.182 0-2.14-.958-2.14-2.139v-9.938h-9.936c-1.182 0-2.14-.957-2.14-2.139 0-1.181.958-2.139 2.14-2.139h9.936v-9.937c0-1.182.958-2.14 2.14-2.14 1.181 0 2.14.958 2.14 2.14v9.937h9.936c1.182 0 2.14.958 2.14 2.139 0 1.182-.958 2.139-2.14 2.139z"/>
    </g>
</svg>
