<svg xmlns="http://www.w3.org/2000/svg" width="28" height="28">
    <path fill-rule="evenodd" fill="#A50034" d="M22.917 16.827c0 .766-.666 1.387-1.488 1.387-.821 0-1.487-.621-1.487-1.387s.666-1.387 1.487-1.387c.822 0 1.488.621 1.488 1.387zM23.403 24H11.168c-.88 0-1.597-.667-1.597-1.488v-3.054c0-.274.239-.497.533-.497.294 0 .532.223.532.497v1.657l1.642-1.788c.358-.391 1.043-.423 1.451-.069l4.32 3.749h1.444l-3.183-2.762.884-.962c.348-.379 1.011-.41 1.406-.067l4.438 3.791h.365c.293 0 .532-.222.532-.495v-7.935c0-.274-.239-.496-.532-.496h-4.454c-.294 0-.532-.222-.532-.496s.238-.497.532-.497h4.454c.88 0 1.597.668 1.597 1.489v7.935c0 .821-.717 1.488-1.597 1.488zm-8.496-8.9h2.381v2.219h-2.381V15.1zm.893-8.132h.595v1.665H15.8V6.968zm.595 7.382H15.8v-1.665h.595v1.665zM15.8 9.827h.595v1.664H15.8V9.827zm-.893-5.828h2.381v2.219h-2.381V3.999zm-2.589 11.933h1.785v.555h-1.785v-.555zm0-11.101h1.785v.555h-1.785v-.555zm-3.066 0h1.785v.555H9.252v-.555zm-3.067 0h1.786v.555H6.185v-.555zM3.001 15.1h2.38v2.219h-2.38V15.1zm.892-8.132h.595v1.665h-.595V6.968zm.595 7.382h-.595v-1.665h.595v1.665zm-.595-4.523h.595v1.664h-.595V9.827zm-.892-5.828h2.38v2.219h-2.38V3.999zm4.97 12.488H6.185v-.555h1.786v.555zm-1.1-8.779h6.546v1.438h-2.319v4.464H9.19V9.146H6.871V7.708zm4.166 8.779H9.252v-.555h1.785v.555z"/>
</svg>
