<svg xmlns="http://www.w3.org/2000/svg" width="128" height="128">
    <path fill="#969696" fill-rule="evenodd" d="M116.912 84.581h-2.681c-1.28 0-2.493.764-2.926 1.996-.229.651-.489 1.288-.777 1.907-.54 1.162-.219 2.556.67 3.465l1.931 1.975c1.165 1.191 1.165 3.124 0 4.316l-2.876 2.941c-1.165 1.192-3.054 1.192-4.219 0l-1.931-1.974c-.889-.91-2.252-1.238-3.387-.686-.606.295-1.228.56-1.865.794-1.204.444-1.951 1.685-1.951 2.994v2.742c0 1.686-1.336 3.052-2.983 3.052H89.85c-1.648 0-2.984-1.366-2.984-3.052v-2.742c0-1.309-.747-2.55-1.951-2.994-.637-.234-1.259-.499-1.865-.794-1.135-.552-2.498-.224-3.387.686l-1.931 1.974c-1.165 1.192-3.054 1.192-4.219 0l-2.876-2.941c-1.165-1.192-1.165-3.125 0-4.316l1.931-1.975c.889-.909 1.21-2.303.67-3.465-.288-.619-.548-1.256-.777-1.907-.433-1.232-1.646-1.996-2.926-1.996h-2.681c-1.648 0-2.984-1.366-2.984-3.052v-4.16c0-1.686 1.336-3.052 2.984-3.052h2.681c1.28 0 2.493-.764 2.926-1.996.229-.651.489-1.288.777-1.907.54-1.162.219-2.555-.67-3.465l-1.931-1.974c-1.165-1.193-1.165-3.125 0-4.317l2.876-2.942c1.165-1.191 3.054-1.191 4.219 0l1.931 1.976c.889.909 2.252 1.237 3.387.685.606-.295 1.228-.56 1.865-.794 1.204-.444 1.951-1.685 1.951-2.994v-2.742c0-1.686 1.336-3.052 2.984-3.052h4.067c1.647 0 2.983 1.366 2.983 3.052v2.742c0 1.309.747 2.55 1.951 2.994 1.274.468 2.489 1.061 3.633 1.765l3.55-3.632c1.165-1.191 3.054-1.191 4.219 0l2.876 2.942c1.165 1.192 1.165 3.124 0 4.317l-1.931 1.974c-.889.91-1.21 2.303-.67 3.465.288.619.548 1.256.777 1.907.433 1.232 1.646 1.996 2.926 1.996h2.681c1.648 0 2.984 1.366 2.984 3.052v4.16c0 1.686-1.336 3.052-2.984 3.052zm-25.029-15.16c-5.406 0-9.804 4.498-9.804 10.028s4.398 10.028 9.804 10.028c5.406 0 9.804-4.498 9.804-10.028s-4.398-10.028-9.804-10.028zm-51.447-5.062c3.068 0 5.7 1.895 6.846 4.602h13.623c-.54 1.955-.925 3.974-1.11 6.056H47.282c-1.146 2.707-3.778 4.602-6.846 4.602-4.119 0-7.459-3.416-7.459-7.63s3.34-7.63 7.459-7.63zM60.203 39.18c3.067 0 5.699 1.896 6.845 4.602h18.516v6.056H67.048c-1.146 2.707-3.778 4.602-6.845 4.602-3.067 0-5.7-1.895-6.846-4.602H34.842v-6.056h18.515c1.146-2.706 3.779-4.602 6.846-4.602zm38.437.954c0-7.27-5.784-13.185-12.89-13.185H33.91c-7.107 0-12.89 5.915-12.89 13.185v37.768c0 7.271 5.783 13.185 12.89 13.185h27.221c.771 2.13 1.742 4.155 2.898 6.056H33.91c-10.373 0-18.811-8.631-18.811-19.241V40.134c0-10.61 8.438-19.241 18.811-19.241h51.84c10.373 0 18.811 8.631 18.811 19.241v8.346c-1.89-.811-3.87-1.443-5.921-1.882v-6.464z"/>
</svg>
