<svg xmlns="http://www.w3.org/2000/svg" width="65.5" height="65.5">
    <path fill="#F0F" fill-opacity="0" fill-rule="evenodd" d="M0 0h64v64H0V0z"/>
    <path fill="#E6E6E6" fill-rule="evenodd" stroke="#B3B3B3" stroke-width="3" d="M8.906 8h46c1.657 0 3 1.343 3 3v22.969c0 1.657-1.343 3-3 3h-46c-1.657 0-3-1.343-3-3V11c0-1.657 1.343-3 3-3z"/>
    <path fill="#999" fill-rule="evenodd" d="M32.359 55.994l-8.524-11.762h17.048l-8.524 11.762z"/>
</svg>
