<svg xmlns="http://www.w3.org/2000/svg" width="24" height="24">
    <defs>
        <linearGradient id="u99r8d2pfa" x1="0%" x2="0%" y1="0%" y2="100%">
            <stop offset="33%" stop-color="#F2F2F2"/>
            <stop offset="33%" stop-color="#1F357E"/>
            <stop offset="67%" stop-color="#1F357E"/>
            <stop offset="67%" stop-color="#D8001E"/>
        </linearGradient>
    </defs>
    <path fill-rule="evenodd" d="M24 12c0 6.627-5.373 12-12 12-6.628 0-12-5.373-12-12S5.372 0 12 0c6.627 0 12 5.373 12 12z"/>
    <path fill="url(#u99r8d2pfa)" d="M24 12c0 6.627-5.373 12-12 12-6.628 0-12-5.373-12-12S5.372 0 12 0c6.627 0 12 5.373 12 12z"/>
</svg>
