<svg xmlns="http://www.w3.org/2000/svg" width="240" height="240">
    <path fill="#383838" fill-opacity="0" fill-rule="evenodd" d="M0 0h240v240H0V0z"/>
    <path fill="#383838" fill-rule="evenodd" d="M199.789 164.017H41.208c-3.981 0-7.208-3.218-7.208-7.187V74.183c0-3.969 3.227-7.187 7.208-7.187h158.581c3.981 0 7.208 3.218 7.208 7.187v82.647c0 3.969-3.227 7.187-7.208 7.187zm1.403-88.834c0-1.321-1.078-2.395-2.403-2.395H42.208c-1.325 0-2.403 1.074-2.403 2.395v80.647c0 1.321 1.078 2.396 2.403 2.396h156.581c1.325 0 2.403-1.075 2.403-2.396V75.183zM72.443 169.011h96.11c1.659 0 3.003 1.341 3.003 2.995 0 1.654-1.344 2.994-3.003 2.994h-96.11c-1.659 0-3.003-1.34-3.003-2.994 0-1.654 1.344-2.995 3.003-2.995z"/>
    <path fill="#A50034" fill-rule="evenodd" d="M138.289 139.87c-8.612 0-15.593-6.96-15.593-15.547s6.981-15.547 15.593-15.547c8.613 0 15.594 6.96 15.594 15.547s-6.981 15.547-15.594 15.547zm6.98-16.982l-9.679-5.571c-1.108-.638-2.493.159-2.493 1.435v11.142c0 1.276 1.385 2.073 2.493 1.435l9.679-5.571c1.108-.638 1.108-2.232 0-2.87zm-7.934-20.249h-27.077c-1.875 0-3.394-1.515-3.394-3.383 0-1.869 1.519-3.384 3.394-3.384h27.077c1.874 0 3.393 1.515 3.393 3.384 0 1.868-1.519 3.383-3.393 3.383zm-36.446 27.898c-2.082 0-3.77-1.683-3.77-3.759 0-2.077 1.688-3.76 3.77-3.76 2.083 0 3.771 1.683 3.771 3.76 0 2.076-1.688 3.759-3.771 3.759zm0-14.286c-2.082 0-3.77-1.683-3.77-3.759 0-2.076 1.688-3.76 3.77-3.76 2.083 0 3.771 1.684 3.771 3.76 0 2.076-1.688 3.759-3.771 3.759zm0-12.954c-2.082 0-3.77-1.683-3.77-3.76 0-2.076 1.688-3.759 3.77-3.759 2.083 0 3.771 1.683 3.771 3.759 0 2.077-1.688 3.76-3.771 3.76zm9.369 5.811h14.558c-2.121 1.869-3.847 4.17-5.041 6.767h-9.517c-1.875 0-3.394-1.515-3.394-3.383 0-1.869 1.519-3.384 3.394-3.384zm.377 14.286h7.316c-.013.308-.023.617-.023.929 0 2.03.302 3.989.859 5.838h-8.152c-1.875 0-3.394-1.515-3.394-3.384 0-1.868 1.519-3.383 3.394-3.383z"/>
</svg>
