<svg xmlns="http://www.w3.org/2000/svg" width="28" height="28">
    <defs>
        <filter id="wwocl4amma">
            <feFlood flood-color="#767676" flood-opacity="1" result="floodOut"/>
            <feComposite in="floodOut" in2="SourceGraphic" operator="atop" result="compOut"/>
            <feBlend in="compOut" in2="SourceGraphic"/>
        </filter>
    </defs>
    <g fill-rule="evenodd" filter="url(#wwocl4amma)">
        <path fill="#383838" d="M19.207 22.986H8.792c-2.084 0-3.779-1.695-3.779-3.779V8.792c0-2.084 1.695-3.779 3.779-3.779h10.415c2.084 0 3.779 1.695 3.779 3.779v10.415c0 2.084-1.695 3.779-3.779 3.779zm2.59-14.194c0-1.428-1.162-2.589-2.59-2.589H8.792c-1.428 0-2.589 1.161-2.589 2.589v10.415c0 1.428 1.161 2.59 2.589 2.59h10.415c1.428 0 2.59-1.162 2.59-2.59V8.792zm-2.134 9.806h-.611c.054-.201.093-.409.093-.627 0-.218-.039-.426-.093-.627h.611c.347 0 .627.28.627.627 0 .346-.28.627-.627.627zm0-3.971h-5.969c.055-.201.093-.409.093-.627 0-.219-.038-.426-.093-.627h5.969c.347 0 .627.281.627.627s-.28.627-.627.627zm0-3.972h-3.359c.055-.201.094-.408.094-.626 0-.219-.039-.426-.094-.627h3.359c.347 0 .627.281.627.627s-.28.626-.627.626zM14 11.527c-.828 0-1.499-.671-1.499-1.498 0-.828.671-1.499 1.499-1.499.827 0 1.498.671 1.498 1.499 0 .827-.671 1.498-1.498 1.498zm-2.61 3.971c-.828 0-1.499-.671-1.499-1.498 0-.828.671-1.499 1.499-1.499.827 0 1.498.671 1.498 1.499 0 .827-.671 1.498-1.498 1.498zm-3.054-4.843c-.346 0-.626-.28-.626-.626s.28-.627.626-.627h3.359c-.054.201-.093.408-.093.627 0 .218.039.425.093.626H8.336zm0 2.718h.749c-.054.201-.093.408-.093.627 0 .218.039.426.093.627h-.749c-.346 0-.626-.281-.626-.627s.28-.627.626-.627zm0 3.971h6.107c-.055.201-.094.409-.094.627 0 .218.039.426.094.627H8.336c-.346 0-.626-.281-.626-.627 0-.347.28-.627.626-.627zm8.411-.872c.828 0 1.499.671 1.499 1.499 0 .827-.671 1.498-1.499 1.498-.827 0-1.498-.671-1.498-1.498 0-.828.671-1.499 1.498-1.499z"/>
    </g>
</svg>
