<svg xmlns="http://www.w3.org/2000/svg" width="24" height="24">
    <path fill="#3C9242" fill-rule="evenodd" d="M24 12c0 6.627-5.373 12-12 12S0 18.627 0 12 5.373 0 12 0s12 5.373 12 12z"/>
    <path fill="#EDC226" fill-rule="evenodd" d="M23.663 14.76c.209-.887.32-1.81.32-2.76 0-.95-.111-1.874-.32-2.761L11.996 1.793.337 9.238c-.209.886-.32 1.811-.32 2.762 0 .95.111 1.875.32 2.761l11.659 7.446 11.667-7.447z"/>
    <path fill="#2D146E" fill-rule="evenodd" d="M18.72 12.061c0 3.743-3.008 6.778-6.722 6.778-3.711 0-6.719-3.035-6.719-6.778 0-3.74 3.008-6.78 6.719-6.78 3.714 0 6.722 3.04 6.722 6.78"/>
    <path fill="#FFF" fill-rule="evenodd" d="M18.433 14.015c-2.725-2.449-6.335-3.94-10.284-3.94-.914 0-1.807.081-2.676.23.094-.355.212-.699.358-1.03.756-.105 1.528-.164 2.318-.164 4.008 0 7.677 1.443 10.523 3.837-.048.363-.129.721-.239 1.067zm-4.172-3.87l-.172-.124-.17.124.067-.201-.172-.124h.211l.064-.199.066.199h.208l-.169.123.067.202zm-8.034 4.024l.039-.134.043.134h.14l-.112.084.042.132-.111-.083-.112.083.041-.133-.111-.083h.141zm.165-3.344l-.171-.123h.209l.065-.2.067.2h.207l-.168.124.064.197-.17-.123-.169.123.066-.198zm.636 2.71l.067-.199.063.199h.206l-.165.122.065.202-.17-.126-.174.126.065-.202-.165-.122h.208zm.692-.365l.034-.097.03.097h.099l-.081.059.033.094-.081-.06-.081.06.029-.095-.083-.058h.101zm.52 1.72l.055-.168.053.168h.175l-.139.101.05.167-.14-.103-.139.103.052-.167-.138-.101h.171zm.256-.506l-.137.101.05-.161-.141-.104h.176l.055-.168.051.168h.172l-.138.101.055.164-.143-.101zm.733 1.106l.064-.202.065.202h.214l-.173.122.063.2-.169-.124-.17.124.069-.2-.176-.122h.213zm.149-3.288l.054-.166.053.166h.176l-.14.103.051.166-.141-.102-.144.102.057-.165-.143-.104h.177zm1.897 1.427l.043-.133.047.133h.139l-.112.08.042.135-.112-.082-.112.082.043-.132-.112-.083h.134zm.356.484l.031-.094.03.094h.099l-.082.063.029.093-.08-.059-.079.059.033-.096-.084-.06h.103zm.313-1.104l.055-.164.052.164h.176l-.139.1.053.169-.141-.103-.141.103.054-.17-.14-.099h.171zm-.012 1.928l.067-.199.064.199h.21l-.168.125.063.199-.168-.124-.171.124.066-.201-.171-.123h.208zm.045 2.308l.022-.068.021.068h.073l-.058.041.017.065-.055-.04-.055.04.023-.065-.058-.041h.07zm.749-3.63l.055-.167.055.167h.171l-.141.101.055.167-.141-.104-.144.104.055-.168-.138-.1h.173zm.717 2.104l.043-.132.043.132h.137l-.11.082.043.134-.115-.082-.114.082.043-.133-.113-.083h.143zm.207-4.116h.141l.039-.136.048.136h.141l-.117.083.047.132-.116-.084-.113.084.043-.133-.113-.082zm.315 4.861l.054-.166.054.166h.172l-.141.104.055.167-.142-.102-.141.102.053-.167-.139-.104h.175zm.586-.577l.043-.135.044.135h.139l-.112.081.042.131-.111-.082-.112.082.042-.129-.117-.083h.142zm.752-.23l.039-.135.048.135h.143l-.115.081.045.135-.116-.085-.112.085.042-.134-.112-.082h.138zm.071.477l.054.168h.175l-.141.101.05.167-.139-.102-.138.102.053-.167-.14-.101h.171l.055-.168zm-.052.862l.042-.133.043.133h.14l-.114.079.044.133-.114-.079-.11.079.043-.13-.113-.082h.139zM16 15.783l.047-.133.039.133h.141l-.114.085.044.131-.113-.081-.113.081.045-.131-.115-.085H16zm.532-.352l.053-.167.055.167h.171l-.137.102.051.163-.14-.101-.143.101.057-.163-.143-.102h.176zm.123-1.153l.064-.199.067.199h.21l-.166.122.067.201-.173-.124-.171.124.064-.199-.172-.124h.21zm.116.612h.174l.051-.168.054.168h.175l-.138.104.052.164-.141-.105-.141.105.052-.168-.138-.1zm.842-.518l.048-.133.043.133h.134l-.109.081.039.133-.111-.082-.112.082.042-.131-.112-.083h.138z"/>
</svg>
