<svg xmlns="http://www.w3.org/2000/svg" width="48" height="36">
    <path fill-rule="evenodd" fill="#858585" d="M34.784 35.01H22.926c-1.777 0-3.217-1.464-3.217-3.27v-2.654c0-.602.481-1.091 1.073-1.091.593 0 1.073.489 1.073 1.091v2.654c0 .601.48 1.089 1.072 1.089h11.857a1.08 1.08 0 0 0 1.071-1.089V19.832h-3.672c-1.777 0-3.217-1.463-3.217-3.269v-3.735h-6.039c-.313 0-.592.137-.786.355-.3.337-.807.383-1.194.155l-.137-.08c-.526-.309-.688-1.043-.286-1.505a3.17 3.17 0 0 1 2.402-1.105h8.487c.285 0 .558.115.759.32l5.515 5.607a1.1 1.1 0 0 1 .314.771v14.393c0 1.806-1.44 3.271-3.217 3.271zm-3.672-22.036v3.589c0 .6.481 1.089 1.071 1.089h3.529l-4.6-4.678zm-8.345-3.548h-4.336c-1.628 0-2.948-1.342-2.948-2.997V3.005H8.947a.99.99 0 0 0-.982.999v16.338c0 .551.44.998.982.998h1.555c.274 0 .536.117.722.322.581.641.134 1.677-.722 1.677H8.946c-1.628 0-2.948-1.342-2.948-2.997V4.004c0-1.655 1.32-2.998 2.949-2.998h8.779c.261 0 .511.106.695.293l5.056 5.141c.185.187.288.441.288.706v1.265c0 .561-.447 1.015-.998 1.015zM17.45 3.139v3.29c0 .55.44.998.981.998h3.236L17.45 3.139zm-2.453 14.707h4.874v-1.991c0-.44.498-.686.838-.414l5.973 4.781a.532.532 0 0 1 0 .827l-5.973 4.781a.517.517 0 0 1-.838-.414v-1.991h-4.874a1.045 1.045 0 0 1-1.036-1.053v-3.473c0-.581.464-1.053 1.036-1.053z"/>
    <path fill-rule="evenodd" fill="#FFF" d="M42.999 28A8 8 0 1 1 27 28 8 8 0 0 1 43 28z"/>
    <path fill-rule="evenodd" fill="#DE1231" d="M40.701 22.399c-.016-.018-.028-.038-.046-.055-.017-.017-.037-.03-.055-.045a7.97 7.97 0 0 0-5.601-2.298C30.588 20.001 27 23.589 27 28a7.97 7.97 0 0 0 2.296 5.599c.017.019.029.039.047.057.017.017.038.03.056.046a7.973 7.973 0 0 0 5.6 2.297c4.411 0 7.999-3.589 7.999-7.999 0-2.18-.879-4.157-2.297-5.601zm-5.702-.273c1.237 0 2.383.386 3.331 1.041l-8.164 8.163A5.835 5.835 0 0 1 29.125 28a5.88 5.88 0 0 1 5.874-5.874zm0 11.748a5.84 5.84 0 0 1-3.331-1.041l8.164-8.164A5.839 5.839 0 0 1 40.873 28a5.88 5.88 0 0 1-5.874 5.874z"/>
</svg>
