<svg xmlns="http://www.w3.org/2000/svg" width="336" height="336">
    <path fill="#F0F" fill-opacity="0" fill-rule="evenodd" d="M0 0h336v336H0V0z"/>
    <path fill="#969696" fill-rule="evenodd" d="M260.705 240.177h-15.028v6.529h4.085c.633 0 1.146.513 1.146 1.147s-.513 1.148-1.146 1.148h-24.006c-.633 0-1.146-.514-1.146-1.148 0-.634.513-1.147 1.146-1.147h4.084v-6.529h-15.027c-2.925 0-5.296-2.374-5.296-5.301v-27.407c0-2.927 2.371-5.301 5.296-5.301h45.892c2.924 0 5.295 2.374 5.295 5.301v27.407c0 2.927-2.371 5.301-5.295 5.301zm-28.572 6.529h11.251v-6.529h-11.251v6.529zm31.574-39.237c0-1.657-1.347-3.004-3.002-3.004h-45.892c-1.655 0-3.002 1.347-3.002 3.004v27.407c0 1.657 1.347 3.005 3.002 3.005h45.892c1.655 0 3.002-1.348 3.002-3.005v-27.407zm-3.885 25.189h-44.127c-.975 0-1.765-.792-1.765-1.767v-22.97c0-.976.79-1.767 1.765-1.767h44.127c.975 0 1.765.791 1.765 1.767v22.97c0 .975-.79 1.767-1.765 1.767zm-25.874-8.631h2.583c-.176-.588-.272-1.211-.272-1.857 0-.099.003-.197.007-.295h-2.318c-.593 0-1.075.482-1.075 1.076 0 .594.482 1.076 1.075 1.076zm-.119-4.544h3.015c.378-.826.925-1.558 1.597-2.152h-4.612c-.594 0-1.075.482-1.075 1.076 0 .594.481 1.076 1.075 1.076zm-2.968-6.392c-.659 0-1.194.535-1.194 1.196 0 .66.535 1.195 1.194 1.195.66 0 1.195-.535 1.195-1.195 0-.661-.535-1.196-1.195-1.196zm0 4.12c-.659 0-1.194.536-1.194 1.196 0 .66.535 1.196 1.194 1.196.66 0 1.195-.536 1.195-1.196 0-.66-.535-1.196-1.195-1.196zm0 4.544c-.659 0-1.194.536-1.194 1.196 0 .66.535 1.196 1.194 1.196.66 0 1.195-.536 1.195-1.196 0-.66-.535-1.196-1.195-1.196zm11.546-8.634h-8.578c-.594 0-1.075.482-1.075 1.076 0 .594.481 1.076 1.075 1.076h8.578c.593 0 1.075-.482 1.075-1.076 0-.594-.482-1.076-1.075-1.076zm.302 4.104c-2.728 0-4.94 2.214-4.94 4.945 0 2.731 2.212 4.945 4.94 4.945s4.94-2.214 4.94-4.945c0-2.731-2.212-4.945-4.94-4.945zm-.855 7.174c-.351.203-.79-.051-.79-.457v-3.544c0-.406.439-.659.79-.456l3.066 1.772c.351.203.351.71 0 .913l-3.066 1.772zm-4.095 9.142c.975 0 1.765.791 1.765 1.767 0 .976-.79 1.767-1.765 1.767-.975 0-1.765-.791-1.765-1.767 0-.976.79-1.767 1.765-1.767zm22.946-50.449h-15.028v6.528h4.085c.633 0 1.146.513 1.146 1.148 0 .634-.513 1.147-1.146 1.147h-24.006c-.633 0-1.146-.513-1.146-1.147 0-.635.513-1.148 1.146-1.148h4.084v-6.528h-15.027c-2.925 0-5.296-2.374-5.296-5.301v-27.407c0-2.928 2.371-5.301 5.296-5.301h45.892c2.924 0 5.295 2.373 5.295 5.301v27.407c0 2.927-2.371 5.301-5.295 5.301zm-28.572 6.528h11.251v-6.528h-11.251v6.528zm31.574-39.236c0-1.657-1.347-3.004-3.002-3.004h-45.892c-1.655 0-3.002 1.347-3.002 3.004v27.407c0 1.657 1.347 3.004 3.002 3.004h45.892c1.655 0 3.002-1.347 3.002-3.004v-27.407zm-3.885 25.188h-44.127c-.975 0-1.765-.791-1.765-1.766v-22.97c0-.976.79-1.767 1.765-1.767h44.127c.975 0 1.765.791 1.765 1.767v22.97c0 .975-.79 1.766-1.765 1.766zm-25.874-8.63h2.583c-.176-.588-.272-1.211-.272-1.857 0-.099.003-.197.007-.295h-2.318c-.593 0-1.075.482-1.075 1.076 0 .594.482 1.076 1.075 1.076zm-.119-4.544h3.015c.378-.826.925-1.558 1.597-2.152h-4.612c-.594 0-1.075.482-1.075 1.076 0 .594.481 1.076 1.075 1.076zm-2.968-6.392c-.659 0-1.194.535-1.194 1.196 0 .66.535 1.196 1.194 1.196.66 0 1.195-.536 1.195-1.196 0-.661-.535-1.196-1.195-1.196zm0 4.12c-.659 0-1.194.536-1.194 1.196 0 .66.535 1.196 1.194 1.196.66 0 1.195-.536 1.195-1.196 0-.66-.535-1.196-1.195-1.196zm0 4.544c-.659 0-1.194.535-1.194 1.196 0 .66.535 1.196 1.194 1.196.66 0 1.195-.536 1.195-1.196 0-.661-.535-1.196-1.195-1.196zm11.546-8.634h-8.578c-.594 0-1.075.482-1.075 1.076 0 .594.481 1.076 1.075 1.076h8.578c.593 0 1.075-.482 1.075-1.076 0-.594-.482-1.076-1.075-1.076zm.302 4.104c-2.728 0-4.94 2.214-4.94 4.945 0 2.731 2.212 4.945 4.94 4.945s4.94-2.214 4.94-4.945c0-2.731-2.212-4.945-4.94-4.945zm-.855 7.174c-.351.203-.79-.051-.79-.457v-3.544c0-.406.439-.659.79-.456l3.066 1.772c.351.203.351.71 0 .913l-3.066 1.772zm-4.095 9.142c.975 0 1.765.791 1.765 1.767 0 .976-.79 1.767-1.765 1.767-.975 0-1.765-.791-1.765-1.767 0-.976.79-1.767 1.765-1.767zm22.946-50.449h-15.028v6.528h4.085c.633 0 1.146.514 1.146 1.148 0 .634-.513 1.148-1.146 1.148h-24.006c-.633 0-1.146-.514-1.146-1.148 0-.634.513-1.148 1.146-1.148h4.084v-6.528h-15.027c-2.925 0-5.296-2.373-5.296-5.301V93.299c0-2.927 2.371-5.301 5.296-5.301h45.892c2.924 0 5.295 2.374 5.295 5.301v27.407c0 2.928-2.371 5.301-5.295 5.301zm-28.572 6.528h11.251v-6.528h-11.251v6.528zm31.574-39.236c0-1.657-1.347-3.004-3.002-3.004h-45.892c-1.655 0-3.002 1.347-3.002 3.004v27.407c0 1.657 1.347 3.005 3.002 3.005h45.892c1.655 0 3.002-1.348 3.002-3.005V93.299zm-3.885 25.188h-44.127c-.975 0-1.765-.791-1.765-1.766v-22.97c0-.976.79-1.767 1.765-1.767h44.127c.975 0 1.765.791 1.765 1.767v22.97c0 .975-.79 1.766-1.765 1.766zm-25.874-8.63h2.583c-.176-.588-.272-1.211-.272-1.857 0-.099.003-.197.007-.295h-2.318c-.593 0-1.075.482-1.075 1.076 0 .594.482 1.076 1.075 1.076zm-.119-4.544h3.015c.378-.826.925-1.558 1.597-2.152h-4.612c-.594 0-1.075.482-1.075 1.076 0 .594.481 1.076 1.075 1.076zm-2.968-6.392c-.659 0-1.194.535-1.194 1.196 0 .66.535 1.195 1.194 1.195.66 0 1.195-.535 1.195-1.195 0-.661-.535-1.196-1.195-1.196zm0 4.12c-.659 0-1.194.536-1.194 1.196 0 .66.535 1.196 1.194 1.196.66 0 1.195-.536 1.195-1.196 0-.66-.535-1.196-1.195-1.196zm0 4.544c-.659 0-1.194.535-1.194 1.196 0 .66.535 1.196 1.194 1.196.66 0 1.195-.536 1.195-1.196 0-.661-.535-1.196-1.195-1.196zm11.546-8.634h-8.578c-.594 0-1.075.482-1.075 1.076 0 .594.481 1.076 1.075 1.076h8.578c.593 0 1.075-.482 1.075-1.076 0-.594-.482-1.076-1.075-1.076zm.302 4.104c-2.728 0-4.94 2.214-4.94 4.945 0 2.731 2.212 4.945 4.94 4.945s4.94-2.214 4.94-4.945c0-2.731-2.212-4.945-4.94-4.945zm-.855 7.174c-.351.202-.79-.051-.79-.457v-3.544c0-.406.439-.659.79-.456l3.066 1.772c.351.203.351.71 0 .913l-3.066 1.772zm-4.095 9.142c.975 0 1.765.791 1.765 1.767 0 .976-.79 1.767-1.765 1.767-.975 0-1.765-.791-1.765-1.767 0-.976.79-1.767 1.765-1.767zm-30.223-17.979l-7.359 3.753c-.925.472-2.02-.2-2.02-1.239v-2.167h-8.954v61.315h8.765v-2.592c0-1.038 1.096-1.71 2.02-1.239l7.36 3.753c1.011.516 1.011 1.963 0 2.479l-7.36 3.752c-.924.472-2.02-.2-2.02-1.239v-2.167h-8.765v61.315h8.765v-2.592c0-1.038 1.096-1.71 2.02-1.239l7.36 3.753c1.011.516 1.011 1.963 0 2.479l-7.36 3.753c-.924.471-2.02-.201-2.02-1.24v-2.166H187.83c-.758 0-1.372-.615-1.372-1.374v-62.689h-11.934c-.758 0-1.372-.615-1.372-1.373 0-.759.614-1.374 1.372-1.374h11.934v-62.688c0-.759.614-1.374 1.372-1.374h10.327V96.4c0-1.038 1.095-1.71 2.02-1.239l7.359 3.753c1.012.516 1.012 1.963 0 2.478zm-46.661 93.974h-26.973v11.718h7.33c1.137 0 2.058.922 2.058 2.06 0 1.139-.921 2.061-2.058 2.061H98.146c-1.137 0-2.059-.922-2.059-2.061 0-1.138.922-2.06 2.059-2.06h7.33v-11.718H78.504c-5.249 0-9.505-4.259-9.505-9.514V136.66c0-5.254 4.256-9.514 9.505-9.514h82.371c5.249 0 9.504 4.26 9.504 9.514v49.192c0 5.255-4.255 9.514-9.504 9.514zm-51.282 11.718h20.193v-11.718h-20.193v11.718zm56.669-70.424c0-2.973-2.417-5.392-5.387-5.392H78.504c-2.971 0-5.388 2.419-5.388 5.392v49.192c0 2.974 2.417 5.393 5.388 5.393h82.371c2.97 0 5.387-2.419 5.387-5.393V136.66zm-6.971 45.21H80.088c-1.75 0-3.168-1.42-3.168-3.171v-41.228c0-1.752 1.418-3.171 3.168-3.171h79.203c1.749 0 3.168 1.419 3.168 3.171v41.228c0 1.751-1.419 3.171-3.168 3.171zm-46.441-15.49h4.635c-.316-1.056-.488-2.174-.488-3.333 0-.178.005-.354.013-.53h-4.16c-1.066 0-1.93.865-1.93 1.931 0 1.067.864 1.932 1.93 1.932zm-.214-8.156h5.411c.679-1.482 1.66-2.796 2.867-3.863h-8.278c-1.066 0-1.93.865-1.93 1.932 0 1.066.864 1.931 1.93 1.931zm-5.327-11.473c-1.184 0-2.144.961-2.144 2.146 0 1.186.96 2.146 2.144 2.146 1.184 0 2.144-.96 2.144-2.146 0-1.185-.96-2.146-2.144-2.146zm0 7.396c-1.184 0-2.144.96-2.144 2.146 0 1.185.96 2.146 2.144 2.146 1.184 0 2.144-.961 2.144-2.146 0-1.186-.96-2.146-2.144-2.146zm0 8.155c-1.184 0-2.144.961-2.144 2.146 0 1.186.96 2.146 2.144 2.146 1.184 0 2.144-.96 2.144-2.146 0-1.185-.96-2.146-2.144-2.146zm20.723-15.497h-15.396c-1.066 0-1.93.865-1.93 1.931 0 1.067.864 1.932 1.93 1.932h15.396c1.065 0 1.929-.865 1.929-1.932 0-1.066-.864-1.931-1.929-1.931zm.542 7.366c-4.896 0-8.866 3.974-8.866 8.876 0 4.902 3.97 8.876 8.866 8.876 4.897 0 8.867-3.974 8.867-8.876 0-4.902-3.97-8.876-8.867-8.876zm-1.535 12.876c-.63.364-1.417-.091-1.417-.819v-6.362c0-.728.787-1.183 1.417-.819l5.504 3.181c.63.364.63 1.274 0 1.638l-5.504 3.181zm-7.35 16.409c1.75 0 3.168 1.42 3.168 3.171 0 1.752-1.418 3.172-3.168 3.172-1.75 0-3.168-1.42-3.168-3.172 0-1.751 1.418-3.171 3.168-3.171z"/>
</svg>
