<svg xmlns="http://www.w3.org/2000/svg" width="40" height="40">
    <defs>
        <filter id="a">
            <feFlood flood-color="#FFF" flood-opacity="1" result="floodOut"/>
            <feComposite operator="atop" in="floodOut" in2="SourceGraphic" result="compOut"/>
            <feBlend in="compOut" in2="SourceGraphic"/>
        </filter>
    </defs>
    <g filter="url(#a)">
        <path fill-rule="evenodd" fill="#AFAFAF" d="M35.83 27.215a2.152 2.152 0 0 1-2.229-.201l-4.063-2.995v2.448c0 3.05-2.538 5.532-5.657 5.532H10.653c-3.119 0-5.657-2.482-5.657-5.532V13.532C4.996 10.482 7.534 8 10.653 8h13.228c3.119 0 5.657 2.482 5.657 5.532v2.448l4.063-2.995a2.15 2.15 0 0 1 2.228-.201 2.063 2.063 0 0 1 1.179 1.861v10.71c0 .793-.452 1.506-1.178 1.86zm-8.507-13.683c0-1.856-1.544-3.365-3.442-3.365H10.653c-1.898 0-3.441 1.509-3.441 3.365v12.935c0 1.856 1.543 3.366 3.441 3.366h13.228c1.898 0 3.442-1.51 3.442-3.366V13.532zm7.469 1.287-7.027 5.18 7.027 5.181V14.819zm-20.805 1.477L20.547 20l-6.56 3.704v-7.408z"/>
    </g>
</svg>
