<svg xmlns="http://www.w3.org/2000/svg" width="40" height="40">
    <defs>
        <filter id="a">
            <feFlood flood-color="#FFF" flood-opacity="1" result="floodOut"/>
            <feComposite operator="atop" in="floodOut" in2="SourceGraphic" result="compOut"/>
            <feBlend in="compOut" in2="SourceGraphic"/>
        </filter>
    </defs>
    <g filter="url(#a)">
        <path fill-rule="evenodd" fill="#FFF" d="M29.256 25.505a1.002 1.002 0 0 1-.754.349c-.253 0-.506-.099-.706-.296a1.154 1.154 0 0 1-.049-1.556c1.846-2.104 2.862-4.838 2.862-7.698 0-2.861-1.016-5.595-2.862-7.699a1.153 1.153 0 0 1 .049-1.555.99.99 0 0 1 1.46.052c2.205 2.514 3.419 5.782 3.419 9.202s-1.214 6.687-3.419 9.201zm-4.094-2.344a.992.992 0 0 1-.645.241c-.303 0-.602-.142-.807-.412a1.15 1.15 0 0 1 .16-1.547c1.477-1.26 2.324-3.132 2.324-5.139 0-2.006-.847-3.879-2.323-5.139a1.148 1.148 0 0 1-.161-1.545.99.99 0 0 1 1.451-.172c1.969 1.679 3.098 4.178 3.098 6.856s-1.129 5.177-3.097 6.857zM21.81 34.25h-5.258c-.453 0-.793-.439-.71-.912l2.436-13.773c-1.307-.417-2.265-1.692-2.265-3.22 0-1.864 1.418-3.376 3.168-3.376 1.749 0 3.168 1.512 3.168 3.376 0 1.528-.959 2.804-2.266 3.22l2.436 13.773c.084.473-.257.912-.709.912zm-7.319-12.807a1.15 1.15 0 0 1 .16 1.547 1.01 1.01 0 0 1-.806.412.992.992 0 0 1-.645-.241c-1.968-1.68-3.097-4.179-3.097-6.857s1.129-5.177 3.098-6.856a.988.988 0 0 1 1.45.172 1.146 1.146 0 0 1-.161 1.545c-1.476 1.26-2.322 3.133-2.322 5.139 0 2.007.846 3.879 2.323 5.139zm-6.739-5.139c0 2.86 1.017 5.594 2.862 7.698.389.445.367 1.14-.049 1.556a1 1 0 0 1-.705.296c-.276 0-.551-.117-.755-.349-2.204-2.514-3.418-5.781-3.418-9.201 0-3.42 1.214-6.688 3.418-9.202a.99.99 0 0 1 1.46-.052c.416.415.438 1.111.049 1.555-1.845 2.104-2.862 4.838-2.862 7.699z"/>
    </g>
</svg>
