<svg 
 xmlns="http://www.w3.org/2000/svg"
 xmlns:xlink="http://www.w3.org/1999/xlink"
 width="40px" height="40px">
<path fill-rule="evenodd"  opacity="0" fill="rgb(255, 0, 255)"
 d="M-0.000,-0.000 L40.000,-0.000 L40.000,40.000 L-0.000,40.000 L-0.000,-0.000 Z"/>
<path fill-rule="evenodd"  fill="rgb(175, 175, 175)"
 d="M31.087,15.483 L24.177,15.483 C23.125,15.483 22.272,14.650 22.272,13.623 L22.272,6.877 C22.272,5.756 23.211,5.014 24.191,5.014 C24.659,5.014 25.136,5.183 25.524,5.562 L32.434,12.308 C33.634,13.480 32.784,15.483 31.087,15.483 ZM24.683,8.070 L24.683,13.129 L29.866,13.129 L24.683,8.070 ZM17.746,26.728 C17.344,26.955 16.841,26.671 16.841,26.218 L16.841,19.033 C16.841,18.580 17.344,18.297 17.746,18.524 L24.119,22.116 C24.521,22.343 24.521,22.909 24.119,23.135 L17.746,26.728 ZM20.539,7.435 L11.613,7.435 C10.947,7.435 10.407,7.962 10.407,8.612 L10.407,32.474 C10.407,33.124 10.947,33.651 11.613,33.651 L29.092,33.651 C29.758,33.651 30.298,33.124 30.298,32.474 L30.298,17.101 C30.298,16.451 30.837,15.924 31.503,15.924 C32.169,15.924 32.709,16.451 32.709,17.101 L32.709,33.651 C32.709,34.951 31.629,36.005 30.298,36.005 L10.407,36.005 C9.076,36.005 7.996,34.951 7.996,33.651 L7.996,7.435 C7.996,6.136 9.076,5.082 10.407,5.082 L20.539,5.082 C21.205,5.082 21.745,5.609 21.745,6.258 C21.745,6.908 21.205,7.435 20.539,7.435 Z"/>
</svg>