<svg xmlns="http://www.w3.org/2000/svg" width="40" height="40">
    <defs>
        <filter id="gjmb2a460a">
            <feFlood flood-color="#FFF" flood-opacity="1" result="floodOut"/>
            <feComposite in="floodOut" in2="SourceGraphic" operator="atop" result="compOut"/>
            <feBlend in="compOut" in2="SourceGraphic"/>
        </filter>
    </defs>
    <g filter="url(#gjmb2a460a)">
        <path fill="#AFAFAF" fill-rule="evenodd" d="M22.951 37.995H21.93c-3.157 0-5.982-1.779-8.169-5.146l-5.327-8.984c-.436-.749-.552-1.612-.328-2.439.224-.826.758-1.517 1.506-1.945.747-.427 1.617-.543 2.452-.32.808.213 1.487.717 1.921 1.422l.412.533.02-10.324c0-.892.394-1.736 1.079-2.314.686-.576 1.591-.827 2.489-.681 1.457.235 2.557 1.567 2.557 3.098v2.752c.367-.095.757-.119 1.156-.07 1.128.143 2.049.921 2.449 1.962.428-.142.895-.192 1.371-.133 1.163.149 2.105.971 2.485 2.06.419-.134.873-.178 1.335-.122 1.519.195 2.664 1.54 2.664 3.13v8.549c0 4.947-4.06 8.972-9.051 8.972zm6.807-17.521c0-.46-.317-.874-.706-.922-.451-.063-.758.218-.87.538v1.805c0 .615-.502 1.113-1.122 1.113-.62 0-1.122-.498-1.122-1.113V18.535c0-.459-.317-.873-.706-.922-.435-.065-.758.225-.87.54v3.742c0 .615-.502 1.113-1.122 1.113-.62 0-1.122-.498-1.122-1.113V16.705c0-.459-.316-.872-.705-.921-.437-.061-.757.218-.871.539v5.572c0 .615-.502 1.113-1.122 1.113-.621 0-1.122-.498-1.122-1.113v-11c0-.445-.296-.841-.673-.901-.332-.058-.567.09-.674.179-.184.155-.29.38-.29.619 0 .06-.004.118-.014.175-.044.864-.014 8.641.014 13.44.004.478-.302.903-.758 1.059-.456.154-.96.003-1.254-.375l-2.484-3.204c-.029-.039-.058-.08-.082-.123-.132-.226-.344-.388-.598-.455-.086-.022-.172-.034-.258-.034-.171 0-.341.045-.493.133-.228.13-.391.341-.459.594-.069.252-.034.516.099.743l5.298 8.939c1.754 2.699 3.868 4.087 6.258 4.087h1.021c3.753 0 6.807-3.027 6.807-6.748v-8.549zm-8.692-7.219V9.704c.181-.452.288-.942.288-1.457 0-2.19-1.798-3.972-4.008-3.972s-4.008 1.782-4.008 3.972c0 .515.107 1.004.287 1.456v3.552c-1.553-1.138-2.575-2.951-2.575-5.008 0-3.44 2.824-6.24 6.296-6.24 3.471 0 6.295 2.8 6.295 6.24 0 2.057-1.022 3.87-2.575 5.008z"/>
    </g>
</svg>
