<svg xmlns="http://www.w3.org/2000/svg" width="40" height="40">
    <defs>
        <filter id="dzzo8buc0a">
            <feFlood flood-color="#FFF" flood-opacity="1" result="floodOut"/>
            <feComposite in="floodOut" in2="SourceGraphic" operator="atop" result="compOut"/>
            <feBlend in="compOut" in2="SourceGraphic"/>
        </filter>
    </defs>
    <g filter="url(#dzzo8buc0a)">
        <path fill="#AFAFAF" fill-rule="evenodd" d="M28.284 35.988c-5.357 0-9.715-4.442-9.715-9.904 0-5.461 4.358-9.904 9.715-9.904 5.356 0 9.713 4.443 9.713 9.904 0 5.462-4.357 9.904-9.713 9.904zm0-17.686c-4.209 0-7.633 3.491-7.633 7.782 0 4.292 3.424 7.782 7.633 7.782 4.208 0 7.631-3.49 7.631-7.782 0-4.291-3.423-7.782-7.631-7.782zm-.001 4.826c-.893 0-1.618-.739-1.618-1.65 0-.911.725-1.649 1.618-1.649.894 0 1.618.738 1.618 1.649s-.724 1.65-1.618 1.65zm-.785 1.475h1.571c.357 0 .647.296.647.66v6.417c0 .364-.29.66-.647.66h-1.571c-.358 0-.648-.296-.648-.66v-6.417c0-.364.29-.66.648-.66zm3.456-10.084h-.252c-.546 0-.99-.452-.99-1.009v.075h-3.818c-1.847 0-3.344-1.527-3.344-3.41V6.281h-6.28c-.616 0-1.114.508-1.114 1.136v18.585c0 .627.498 1.136 1.113 1.136h-.012c.547 0 .99.452.99 1.009v.255c0 .556-.441 1.006-.986 1.009-1.843-.005-3.337-1.529-3.337-3.41V7.417c0-1.883 1.498-3.41 3.345-3.41h8.824c.296 0 .58.12.79.333l5.734 5.847c.209.214.327.503.327.805v2.518c0 .557-.443 1.009-.99 1.009zm-6.173-8.086v3.742c0 .626.499 1.136 1.113 1.136h3.669l-4.782-4.878zm-8.524 22.979l.004-.001.008.001h-.012zm-5.79-19.644h-.548c-.522 0-.946.432-.946.964v15.784c0 .532.424.965.946.965h.465c.524 0 .947.432.947.965 0 .533-.423.966-.947.966h-.465c-1.567 0-2.84-1.299-2.84-2.896V10.732c0-1.596 1.273-2.895 2.84-2.895h.548c.523 0 .947.432.947.965 0 .533-.424.966-.947.966zm-6.011 17.98c.45 0 .815.372.815.832 0 .459-.365.832-.815.832-1.349 0-2.446-1.12-2.446-2.495V14.333c0-1.375 1.097-2.494 2.446-2.494.45 0 .815.372.815.832 0 .459-.365.831-.815.831-.45 0-.816.373-.816.831v12.584c0 .459.366.831.816.831z"/>
    </g>
</svg>
