<svg xmlns="http://www.w3.org/2000/svg" width="184" height="28">
    <defs>
        <filter id="awwv0c8oaa">
            <feFlood flood-color="#FFF" flood-opacity="1" result="floodOut"/>
            <feComposite in="floodOut" in2="SourceGraphic" operator="atop" result="compOut"/>
            <feBlend in="compOut" in2="SourceGraphic"/>
        </filter>
        <filter id="a4dygfpueb">
            <feFlood flood-color="#FFF" flood-opacity="1" result="floodOut"/>
            <feComposite in="floodOut" in2="SourceGraphic" operator="atop" result="compOut"/>
            <feBlend in="compOut" in2="SourceGraphic"/>
        </filter>
    </defs>
    <g filter="url(#awwv0c8oaa)">
        <path fill="#767676" fill-rule="evenodd" d="M180.774 11.931c-.362-.103-.738-.155-1.126-.155-.57 0-1.098.147-1.584.441-.487.293-.879.714-1.178 1.264-.299.55-.448 1.214-.448 1.991v6.248h-2.209V9.862h1.75l.293 2.112h.083c.347-.63.812-1.176 1.396-1.638.584-.463 1.257-.694 2.021-.694.446 0 .855.038 1.23.111l-.228 2.178zM166.09 19.08c.576.645 1.386.969 2.427.969.723 0 1.366-.07 1.928-.209.564-.14 1.143-.349 1.741-.627v1.935c-.57.279-1.139.481-1.709.606-.57.124-1.251.186-2.043.186-1.083 0-2.042-.227-2.876-.681-.834-.455-1.483-1.13-1.949-2.025-.465-.894-.698-2.009-.698-3.344 0-1.334.211-2.463.636-3.387.424-.925 1.014-1.632 1.771-2.123.758-.491 1.643-.738 2.658-.738 1.473 0 2.633.481 3.481 1.441.847.961 1.271 2.27 1.271 3.928v1.275h-7.545c.028 1.218.33 2.149.907 2.794zm4.429-4.51c-.014-.924-.226-1.675-.636-2.255-.41-.579-1.046-.869-1.907-.869-.792 0-1.428.272-1.908.814-.479.544-.76 1.313-.843 2.31h5.294zM156.157 27c-.805 0-1.549-.059-2.229-.176-.681-.117-1.307-.301-1.877-.55v-2.046c.584.308 1.234.539 1.949.694.716.153 1.476.23 2.282.23.903 0 1.608-.274 2.116-.825.507-.55.761-1.323.761-2.32v-.397c0-.19.006-.439.021-.748.013-.307.028-.542.042-.704h-.083c-.39.616-.866 1.067-1.429 1.354-.563.286-1.212.428-1.948.428-1.418 0-2.526-.539-3.325-1.617-.799-1.078-1.199-2.577-1.199-4.499 0-1.906.4-3.413 1.199-4.52.799-1.108 1.907-1.662 3.325-1.662.722 0 1.375.147 1.959.44.583.294 1.076.741 1.48 1.343h.104l.25-1.563h1.793v12.012c0 3.418-1.73 5.126-5.191 5.126zm3.085-11.176c0-1.525-.243-2.614-.729-3.267-.487-.652-1.251-.979-2.293-.979-.876 0-1.546.363-2.011 1.089-.466.726-.699 1.786-.699 3.18 0 1.378.233 2.427.699 3.145.465.719 1.149 1.078 2.053 1.078 1.028 0 1.782-.297 2.261-.89.479-.594.719-1.566.719-2.916v-.44zm-11.505 4.246h-.083c-.487.646-.998 1.119-1.532 1.419-.535.301-1.275.451-2.22.451-1.014 0-1.855-.289-2.522-.869-.667-.579-1-1.484-1-2.717 0-1.216.434-2.137 1.303-2.76.867-.623 2.191-.965 3.97-1.024l1.918-.065v-.66c0-.866-.188-1.478-.563-1.837-.376-.36-.904-.539-1.584-.539-.57 0-1.12.087-1.647.263-.528.176-1.035.389-1.522.638l-.708-1.693c.528-.294 1.136-.539 1.824-.738.687-.198 1.406-.297 2.157-.297 1.403 0 2.456.326 3.157.979.702.653 1.053 1.676 1.053 3.069v8.03h-1.563l-.438-1.65zm-.188-4.048l-1.5.044c-1.279.059-2.165.286-2.658.682-.493.396-.74.939-.74 1.628 0 .616.174 1.064.522 1.342.347.279.798.419 1.355.419.861 0 1.58-.257 2.156-.771.578-.513.865-1.283.865-2.31v-1.034zm-10.712-1.694c0-1.848-.771-2.772-2.314-2.772-1.139 0-1.927.36-2.365 1.079-.438.718-.657 1.753-.657 3.101v5.984h-2.209V9.862h1.751l.312 1.584h.125c.362-.616.858-1.07 1.491-1.364.632-.293 1.302-.44 2.011-.44 1.306 0 2.307.345 3.001 1.035.695.689 1.042 1.796 1.042 3.321v7.722h-2.188v-7.392zm-11.694 5.742h-.083c-.486.646-.997 1.119-1.532 1.419-.535.301-1.275.451-2.219.451-1.015 0-1.856-.289-2.523-.869-.667-.579-1-1.484-1-2.717 0-1.216.434-2.137 1.303-2.76.868-.623 2.192-.965 3.97-1.024l1.918-.065v-.66c0-.866-.188-1.478-.563-1.837-.375-.36-.904-.539-1.584-.539-.57 0-1.119.087-1.646.263-.529.176-1.036.389-1.522.638l-.709-1.693c.528-.294 1.136-.539 1.824-.738.688-.198 1.407-.297 2.157-.297 1.404 0 2.457.326 3.158.979.701.653 1.053 1.676 1.053 3.069v8.03h-1.564l-.438-1.65zm-.187-4.048l-1.501.044c-1.279.059-2.164.286-2.657.682-.493.396-.74.939-.74 1.628 0 .616.174 1.064.521 1.342.347.279.799.419 1.355.419.861 0 1.58-.257 2.157-.771.577-.513.865-1.283.865-2.31v-1.034zm-11.026-3.3c0-.513.01-1.041.031-1.583l.062-1.541.053-1.209h-.083l-4.628 13.331h-1.938l-4.503-13.354h-.083c.028.309.053.708.073 1.199.022.491.038 1.027.052 1.607.014.579.021 1.14.021 1.682v8.866h-2.042V6.013h3.209l4.274 12.605h.083l4.397-12.605h3.211V21.72h-2.189v-8.998zM92.108 6h2.209v15.72h-2.209V6zM85.25 21.94c-1.014 0-1.914-.238-2.699-.715-.785-.476-1.404-1.173-1.855-2.089-.452-.917-.678-2.036-.678-3.356 0-1.965.473-3.479 1.417-4.543.946-1.063 2.238-1.595 3.878-1.595 1.028 0 1.935.239 2.719.715.786.477 1.404 1.17 1.855 2.079.452.91.678 2.025.678 3.344 0 1.966-.48 3.484-1.438 4.554-.959 1.071-2.251 1.606-3.877 1.606zm2.324-9.273c-.479-.726-1.247-1.089-2.303-1.089-1.042 0-1.8.363-2.272 1.089-.473.726-.709 1.764-.709 3.113 0 1.335.24 2.376.719 3.124.48.748 1.241 1.122 2.283 1.122 1.042 0 1.803-.374 2.282-1.122.48-.748.719-1.789.719-3.124 0-1.349-.239-2.387-.719-3.113zm-8.681-.891c-.57 0-1.097.147-1.584.441-.487.293-.879.714-1.178 1.264-.299.55-.448 1.214-.448 1.991v6.248h-2.209V9.862h1.751l.292 2.112h.083c.347-.63.813-1.176 1.396-1.638.584-.463 1.258-.694 2.022-.694.445 0 .855.038 1.23.111l-.229 2.178c-.362-.103-.737-.155-1.126-.155zM70.306 21.94c-.611 0-1.17-.11-1.677-.33-.508-.22-.914-.601-1.22-1.143-.306-.543-.459-1.298-.459-2.267v-6.556h-1.562v-1.055l1.646-.881.771-2.508h1.355v2.662h3.209v1.782H69.16v6.512c0 .646.149 1.122.448 1.431.299.307.691.462 1.177.462.626 0 1.188-.096 1.689-.286v1.759c-.237.117-.556.216-.959.297-.403.08-.805.121-1.209.121zm-7.899-7.612c0-1.848-.772-2.772-2.314-2.772-1.139 0-1.927.36-2.366 1.079-.438.718-.656 1.753-.656 3.101v5.984h-2.209V9.862h1.75l.313 1.584h.125c.361-.616.857-1.07 1.49-1.364.632-.293 1.303-.44 2.012-.44 1.305 0 2.306.345 3.001 1.035.695.689 1.042 1.796 1.042 3.321v7.722h-2.188v-7.392zM48.004 21.94c-1.014 0-1.914-.238-2.699-.715-.785-.476-1.404-1.173-1.855-2.089-.452-.917-.678-2.036-.678-3.356 0-1.965.473-3.479 1.417-4.543.946-1.063 2.237-1.595 3.878-1.595 1.028 0 1.935.239 2.719.715.786.477 1.404 1.17 1.855 2.079.452.91.678 2.025.678 3.344 0 1.966-.48 3.484-1.438 4.554-.959 1.071-2.251 1.606-3.877 1.606zm2.324-9.273c-.479-.726-1.247-1.089-2.303-1.089-1.042 0-1.8.363-2.272 1.089-.473.726-.709 1.764-.709 3.113 0 1.335.24 2.376.719 3.124.479.748 1.241 1.122 2.282 1.122 1.042 0 1.804-.374 2.283-1.122.479-.748.719-1.789.719-3.124 0-1.349-.24-2.387-.719-3.113zM39.876 8.113c-.556-.182-1.154-.274-1.793-.274-1.473 0-2.63.539-3.47 1.616-.841 1.078-1.262 2.557-1.262 4.433 0 1.863.39 3.33 1.168 4.4.778 1.071 1.96 1.606 3.544 1.606.638 0 1.253-.062 1.844-.187.591-.124 1.191-.289 1.803-.494v2.046c-.584.234-1.182.406-1.792.516-.612.111-1.321.165-2.127.165-1.528 0-2.796-.333-3.804-1.001-1.008-.667-1.758-1.606-2.251-2.816-.493-1.21-.739-2.629-.739-4.257 0-1.584.274-2.981.823-4.19.549-1.21 1.351-2.161 2.408-2.85 1.055-.688 2.347-1.034 3.876-1.034.751 0 1.483.085 2.198.254.717.168 1.373.406 1.97.715l-.833 1.979c-.487-.234-1.008-.443-1.563-.627z"/>
        <g filter="url(#a4dygfpueb)">
            <path fill="#767676" fill-rule="evenodd" d="M3.423 6.229H-.002v15.539h10.521v-3.025H3.423V6.229zm14.632 9.617h2.79v2.717c-.515.205-1.518.41-2.472.41-3.083 0-4.11-1.641-4.11-4.973 0-3.178.978-5.052 4.061-5.052 1.713 0 2.692.564 3.498 1.641l2.13-2.051c-1.297-1.947-3.573-2.537-5.701-2.537-4.797 0-7.317 2.743-7.317 7.973 0 5.204 2.275 8.024 7.293 8.024 2.299 0 4.551-.615 5.774-1.512v-7.538h-5.946v2.898z"/>
        </g>
    </g>
</svg>
