<svg xmlns="http://www.w3.org/2000/svg" width="40" height="40">
    <defs>
        <filter id="jnl8c9slra">
            <feFlood flood-color="#AFAFAF" flood-opacity="1" result="floodOut"/>
            <feComposite in="floodOut" in2="SourceGraphic" operator="atop" result="compOut"/>
            <feBlend in="compOut" in2="SourceGraphic"/>
        </filter>
    </defs>
    <g filter="url(#jnl8c9slra)">
        <path fill="#F0F" fill-rule="evenodd" d="M30.675 25.505c-.216.231-.507.349-.8.349-.268 0-.536-.099-.748-.296-.441-.416-.464-1.111-.052-1.556 1.957-2.104 3.034-4.838 3.034-7.698 0-2.861-1.077-5.595-3.034-7.699-.412-.444-.389-1.14.052-1.555.442-.414 1.135-.392 1.548.052 2.337 2.514 3.624 5.782 3.624 9.202s-1.287 6.687-3.624 9.201zm-4.341-2.344c-.202.162-.444.241-.684.241-.321 0-.638-.142-.855-.412-.378-.475-.301-1.167.17-1.547 1.566-1.26 2.463-3.132 2.463-5.139 0-2.006-.897-3.879-2.462-5.139-.472-.38-.549-1.071-.171-1.545.377-.474 1.066-.552 1.538-.172 2.087 1.679 3.285 4.178 3.285 6.856s-1.198 5.177-3.284 6.857zM22.78 34.25h-5.574c-.48 0-.841-.439-.752-.912l2.582-13.773c-1.385-.416-2.402-1.692-2.402-3.22 0-1.864 1.504-3.376 3.359-3.376s3.359 1.512 3.359 3.376c0 1.528-1.017 2.803-2.402 3.22l2.582 13.773c.089.473-.272.912-.752.912zm-7.759-12.807c.471.38.548 1.072.17 1.547-.217.27-.534.412-.855.412-.24 0-.482-.079-.684-.241-2.086-1.68-3.283-4.179-3.283-6.857s1.197-5.177 3.284-6.856c.473-.38 1.162-.302 1.538.172.378.474.301 1.165-.171 1.545-1.565 1.26-2.462 3.133-2.462 5.139 0 2.007.897 3.879 2.463 5.139zm-7.145-5.139c0 2.86 1.078 5.594 3.035 7.698.412.445.389 1.14-.052 1.556-.212.197-.48.296-.748.296-.293 0-.584-.117-.8-.349-2.337-2.514-3.624-5.781-3.624-9.201 0-3.42 1.287-6.688 3.624-9.202.413-.444 1.104-.466 1.548-.052.441.415.464 1.111.052 1.555-1.957 2.104-3.035 4.838-3.035 7.699z"/>
    </g>
</svg>
