<svg xmlns="http://www.w3.org/2000/svg" width="40" height="40">
    <path fill="#AFAFAF" fill-rule="evenodd" d="M34.676 32H25.34v-7.8H36.01v6.5c0 .718-.597 1.3-1.334 1.3zm-5.335-10.399H25.34V13.802H34.676c.737 0 1.334.582 1.334 1.299v6.5H29.341zM18.671 32h-5.335c-.736 0-1.334-.582-1.334-1.3v-6.5h10.67V32h-4.001zm2.668-10.399H5.334c-.737 0-1.334-.582-1.334-1.3V7.302c0-.718.597-1.3 1.334-1.3h16.005c.736 0 1.333.582 1.333 1.3v12.999c0 .718-.597 1.3-1.333 1.3zM20.005 8.602H6.667v10.399h13.338V8.602z"/>
</svg>
