<svg xmlns="http://www.w3.org/2000/svg" width="40" height="40">
    <path fill="#AFAFAF" fill-rule="evenodd" d="M28.571 35H11.429C7.884 35 5 32.116 5 28.571V11.429C5 7.884 7.884 5 11.429 5h17.142C32.116 5 35 7.884 35 11.429v17.142C35 32.116 32.116 35 28.571 35zm4.286-23.571c0-2.364-1.922-4.286-4.286-4.286H11.429c-2.364 0-4.286 1.922-4.286 4.286v17.142c0 2.364 1.922 4.286 4.286 4.286h17.142c2.364 0 4.286-1.922 4.286-4.286V11.429zM22.344 26.205l1.787-.525V14.342l-1.787-.547v-1.304h5.826v1.304l-1.767.547V25.68l1.767.525v1.304h-5.826v-1.304zm-6.748-7.961c.462.259 1.073.536 1.829.83.842.337 1.56.691 2.157 1.062.596.372 1.048.82 1.356 1.347.309.526.463 1.181.463 1.967 0 1.332-.484 2.376-1.452 3.133-.967.758-2.292 1.137-3.975 1.137-.828 0-1.598-.067-2.313-.201-.715-.132-1.326-.326-1.831-.578v-2.146c.561.253 1.22.481 1.977.684.758.203 1.529.306 2.315.306 1.009 0 1.767-.197 2.271-.589.505-.393.758-.92.758-1.578 0-.462-.113-.853-.337-1.167-.224-.316-.586-.61-1.083-.884-.498-.273-1.147-.564-1.947-.873-.729-.281-1.381-.611-1.955-.988-.575-.379-1.024-.849-1.347-1.41-.322-.561-.484-1.248-.484-2.061 0-1.234.45-2.202 1.347-2.903.897-.701 2.075-1.052 3.533-1.052.814 0 1.568.085 2.262.253.693.168 1.356.385 1.988.651l-.715 1.873c-.576-.239-1.161-.435-1.757-.589-.597-.154-1.209-.231-1.841-.231-.826 0-1.458.182-1.892.547-.435.364-.652.841-.652 1.43 0 .462.105.851.316 1.167.209.316.545.603 1.009.863z"/>
</svg>
