<svg xmlns="http://www.w3.org/2000/svg" width="41" height="40">
    <path fill="#AFAFAF" fill-rule="evenodd" d="M29.018 37c-5.488 0-9.952-4.479-9.952-9.986 0-5.506 4.464-9.986 9.952-9.986 5.487 0 9.951 4.48 9.951 9.986 0 5.507-4.464 9.986-9.951 9.986zm0-17.988c-4.399 0-7.976 3.59-7.976 8.002 0 4.413 3.577 8.003 7.976 8.003 4.398 0 7.975-3.59 7.975-8.003 0-4.412-3.577-8.002-7.975-8.002zm4.358 11.862c-.095 0-.194-.014-.29-.043l-4.734-1.456c-.42-.13-.705-.523-.698-.964l.104-6.41c.009-.542.449-.975.988-.975h.017c.545.009.98.46.971 1.008l-.092 5.663 4.024 1.238c.521.16.815.715.654 1.239-.13.426-.521.7-.944.7zm-20.71-6.356c-.257.257-.589.4-.95.4s-.694-.143-.95-.4c-.257-.248-.399-.591-.399-.954 0-.352.142-.705.399-.953.494-.506 1.396-.506 1.9 0 .256.248.399.601.399.953 0 .363-.143.696-.399.954zm-.437-9.24c-.161.066-.333.105-.513.105-.361 0-.703-.143-.95-.401-.257-.257-.399-.591-.399-.953 0-.353.142-.706.399-.954.494-.506 1.406-.506 1.9 0 .256.248.399.601.399.954 0 .362-.143.696-.399.953-.123.133-.275.229-.437.296zm.437 4.472c-.123.133-.275.229-.437.296-.161.066-.333.104-.513.104-.361 0-.703-.142-.95-.4-.257-.248-.399-.591-.399-.953 0-.087.009-.182.028-.268.019-.085.048-.171.076-.247.038-.087.076-.162.123-.239.048-.067.105-.143.172-.2.494-.506 1.406-.506 1.9 0 .066.057.124.133.171.2.047.077.085.152.124.239.028.076.057.162.076.247.019.086.028.181.028.268 0 .362-.143.696-.399.953zm13.287-8.821H8.883v15.894c0 1.085.88 1.969 1.962 1.969h6.179c.099.666.244 1.316.447 1.941h-6.626c-2.149 0-3.898-1.754-3.898-3.91V7.91c0-2.156 1.749-3.911 3.898-3.911h13.146c2.149 0 3.897 1.755 3.897 3.911v7.159c-.662.052-1.307.161-1.935.317v-4.457zM15.042 24.916c-.744 0-1.346-.605-1.346-1.352 0-.746.602-1.351 1.346-1.351h2.84c-.373.853-.643 1.76-.809 2.703h-2.031zm-1.346-10.887c0-.747.602-1.352 1.346-1.352h7.603c.744 0 1.346.605 1.346 1.352 0 .746-.602 1.351-1.346 1.351h-7.603c-.744 0-1.346-.605-1.346-1.351zm5.344 6.119h-3.998c-.744 0-1.346-.605-1.346-1.351 0-.747.602-1.352 1.346-1.352h6.606c-1.004.76-1.887 1.669-2.608 2.703z"/>
</svg>
