<svg xmlns="http://www.w3.org/2000/svg" width="40" height="40">
    <defs>
        <filter id="a">
            <feFlood flood-color="#FFF" flood-opacity="1" result="floodOut"/>
            <feComposite operator="atop" in="floodOut" in2="SourceGraphic" result="compOut"/>
            <feBlend in="compOut" in2="SourceGraphic"/>
        </filter>
    </defs>
    <g filter="url(#a)">
        <path fill-rule="evenodd" fill="#AFAFAF" d="M32.784 37.009H20.925c-1.776 0-3.216-1.464-3.216-3.269v-2.654c0-.602.481-1.091 1.073-1.091.593 0 1.073.489 1.073 1.091v2.654c0 .601.48 1.089 1.072 1.089h11.857a1.08 1.08 0 0 0 1.071-1.089V21.832h-3.672c-1.777 0-3.217-1.464-3.217-3.269v-3.735h-6.039c-.313 0-.592.137-.786.355-.3.337-.807.383-1.194.155l-.137-.081c-.526-.308-.688-1.042-.286-1.505a3.172 3.172 0 0 1 2.402-1.104h8.487c.284 0 .558.115.759.32l5.515 5.607a1.1 1.1 0 0 1 .314.771v14.393c0 1.806-1.44 3.27-3.217 3.27zm-3.672-22.035v3.589c0 .6.481 1.089 1.071 1.089h3.529l-4.6-4.678zm-8.345-3.548h-4.336c-1.628 0-2.948-1.342-2.948-2.997V5.005H6.947a.99.99 0 0 0-.982.999v16.338c0 .551.44.998.982.998h1.555c.274 0 .536.117.722.322.581.64.134 1.677-.722 1.677H6.946c-1.628 0-2.948-1.342-2.948-2.997V6.004c0-1.655 1.32-2.998 2.949-2.998h8.779c.261 0 .511.106.695.293l5.056 5.141c.185.187.288.441.288.706v1.265c0 .561-.447 1.015-.998 1.015zM15.45 5.139v3.29c0 .55.44.998.981.998h3.236L15.45 5.139zm-2.453 14.707h4.874v-1.991c0-.44.498-.686.838-.414l5.973 4.781a.532.532 0 0 1 0 .827l-5.973 4.781a.517.517 0 0 1-.838-.414v-1.991h-4.874a1.045 1.045 0 0 1-1.036-1.053v-3.473c0-.581.464-1.053 1.036-1.053z"/>
    </g>
</svg>
