<svg xmlns="http://www.w3.org/2000/svg" width="40" height="40">
    <defs>
        <filter id="a">
            <feFlood flood-color="#FFF" flood-opacity="1" result="floodOut"/>
            <feComposite operator="atop" in="floodOut" in2="SourceGraphic" result="compOut"/>
            <feBlend in="compOut" in2="SourceGraphic"/>
        </filter>
    </defs>
    <g filter="url(#a)">
        <path fill-rule="evenodd" d="M31.796 33H8.203A5.209 5.209 0 0 1 3 27.797V12.203A5.209 5.209 0 0 1 8.203 7h23.593A5.21 5.21 0 0 1 37 12.203v15.594A5.21 5.21 0 0 1 31.796 33zM35 20.5H20.5v2.304h-1V20.5h-5.523v-1H19.5v-2.304h1V19.5H35v-7.297A3.208 3.208 0 0 0 31.796 9H20.5v2.196h-1V9H8.203A3.207 3.207 0 0 0 5 12.203V19.5h2.977v1H5v7.297A3.207 3.207 0 0 0 8.203 31H19.5v-2.196h1V31h11.296A3.208 3.208 0 0 0 35 27.797V20.5zm-10.089 9.2a.994.994 0 0 1-1.397-.212.996.996 0 0 1 .212-1.397l1.746-1.287H14.029c-2.784 0-4.051-1.754-4.051-3.383v-6.842a3.386 3.386 0 0 1 3.382-3.383h13.378a3.387 3.387 0 0 1 3.383 3.383v.681a1 1 0 1 1-2 0v-.681c0-.763-.62-1.383-1.383-1.383H13.36c-.762 0-1.383.62-1.383 1.383v6.842c0 .852.787 1.383 2.052 1.383h11.235l-1.538-1.133a1 1 0 1 1 1.185-1.611l4.094 3.014a1.002 1.002 0 0 1 0 1.611L24.911 29.7z"/>
    </g>
</svg>
