<svg 
 xmlns="http://www.w3.org/2000/svg"
 xmlns:xlink="http://www.w3.org/1999/xlink"
 width="40px" height="40px">
<defs>
<filter id="Filter_0">
    <feFlood flood-color="rgb(255, 255, 255)" flood-opacity="1" result="floodOut" />
    <feComposite operator="atop" in="floodOut" in2="SourceGraphic" result="compOut" />
    <feBlend mode="normal" in="compOut" in2="SourceGraphic" />
</filter>

</defs>
<path fill-rule="evenodd"  opacity="0" fill="rgb(255, 0, 255)"
 d="M-0.000,-0.000 L40.000,-0.000 L40.000,40.000 L-0.000,40.000 L-0.000,-0.000 Z"/>
<g filter="url(#Filter_0)">
<path fill-rule="evenodd"  fill="rgb(175, 175, 175)"
 d="M22.951,37.995 L21.930,37.995 C18.773,37.995 15.948,36.216 13.761,32.849 L8.434,23.865 C7.998,23.116 7.882,22.253 8.106,21.426 C8.330,20.600 8.864,19.909 9.612,19.481 C10.359,19.054 11.229,18.938 12.064,19.161 C12.872,19.374 13.551,19.878 13.985,20.583 L14.397,21.116 L14.417,10.792 C14.417,9.900 14.811,9.056 15.496,8.478 C16.182,7.902 17.087,7.651 17.985,7.797 C19.442,8.032 20.542,9.364 20.542,10.895 L20.542,13.647 C20.909,13.552 21.299,13.528 21.698,13.577 C22.826,13.720 23.747,14.498 24.147,15.539 C24.575,15.397 25.042,15.347 25.518,15.406 C26.681,15.555 27.623,16.377 28.003,17.466 C28.422,17.332 28.876,17.288 29.338,17.344 C30.857,17.539 32.002,18.884 32.002,20.474 L32.002,29.023 C32.002,33.970 27.942,37.995 22.951,37.995 ZM29.758,20.474 C29.758,20.014 29.441,19.600 29.052,19.552 C28.601,19.489 28.294,19.770 28.182,20.090 L28.182,21.895 C28.182,22.510 27.680,23.008 27.060,23.008 C26.440,23.008 25.938,22.510 25.938,21.895 L25.938,19.902 L25.938,18.535 C25.938,18.076 25.621,17.662 25.232,17.613 C24.797,17.548 24.474,17.838 24.362,18.153 L24.362,21.895 C24.362,22.510 23.860,23.008 23.240,23.008 C22.620,23.008 22.118,22.510 22.118,21.895 L22.118,17.964 L22.118,16.705 C22.118,16.246 21.802,15.833 21.413,15.784 C20.976,15.723 20.656,16.002 20.542,16.323 L20.542,21.895 C20.542,22.510 20.040,23.008 19.420,23.008 C18.799,23.008 18.298,22.510 18.298,21.895 L18.298,16.133 L18.298,10.895 C18.298,10.450 18.002,10.054 17.625,9.994 C17.293,9.936 17.058,10.084 16.951,10.173 C16.767,10.328 16.661,10.553 16.661,10.792 C16.661,10.852 16.657,10.910 16.647,10.967 C16.603,11.831 16.633,19.608 16.661,24.407 C16.665,24.885 16.359,25.310 15.903,25.466 C15.447,25.620 14.943,25.469 14.649,25.091 L12.165,21.887 C12.136,21.848 12.107,21.807 12.083,21.764 C11.951,21.538 11.739,21.376 11.485,21.309 C11.399,21.287 11.313,21.275 11.227,21.275 C11.056,21.275 10.886,21.320 10.734,21.408 C10.506,21.538 10.343,21.749 10.275,22.002 C10.206,22.254 10.241,22.518 10.374,22.745 L15.672,31.684 C17.426,34.383 19.540,35.771 21.930,35.771 L22.951,35.771 C26.704,35.771 29.758,32.744 29.758,29.023 L29.758,20.474 ZM21.066,13.255 L21.066,9.704 C21.247,9.252 21.354,8.762 21.354,8.247 C21.354,6.057 19.556,4.275 17.346,4.275 C15.136,4.275 13.338,6.057 13.338,8.247 C13.338,8.762 13.445,9.251 13.625,9.703 L13.625,13.255 C12.072,12.117 11.050,10.304 11.050,8.247 C11.050,4.807 13.874,2.007 17.346,2.007 C20.817,2.007 23.641,4.807 23.641,8.247 C23.641,10.304 22.619,12.117 21.066,13.255 Z"/>
</g>
</svg>