<svg xmlns="http://www.w3.org/2000/svg" width="150" height="20">
    <defs>
        <filter id="u70ze8acba">
            <feFlood flood-color="#FFF" flood-opacity="1" result="floodOut"/>
            <feComposite in="floodOut" in2="SourceGraphic" operator="atop" result="compOut"/>
            <feBlend in="compOut" in2="SourceGraphic"/>
        </filter>
        <filter id="8tiyfre0eb">
            <feFlood flood-color="#767676" flood-opacity="1" result="floodOut"/>
            <feComposite in="floodOut" in2="SourceGraphic" operator="atop" result="compOut"/>
            <feBlend in="compOut" in2="SourceGraphic"/>
        </filter>
        <filter id="1j31p22b5c">
            <feFlood flood-color="#767676" flood-opacity="1" result="floodOut"/>
            <feComposite in="floodOut" in2="SourceGraphic" operator="atop" result="compOut"/>
            <feBlend in="compOut" in2="SourceGraphic"/>
        </filter>
    </defs>
    <g filter="url(#u70ze8acba)">
        <g filter="url(#8tiyfre0eb)">
            <path fill-rule="evenodd" d="M3.423.229H-.002v15.539h10.521v-3.025H3.423V.229zm14.632 9.617h2.79v2.717c-.515.205-1.518.41-2.472.41-3.083 0-4.11-1.641-4.11-4.973 0-3.178.978-5.052 4.061-5.052 1.713 0 2.692.564 3.498 1.641l2.13-2.051C22.655.591 20.379.001 18.251.001c-4.797 0-7.317 2.743-7.317 7.973 0 5.204 2.275 8.024 7.293 8.024 2.299 0 4.551-.615 5.774-1.512V6.948h-5.946v2.898z"/>
        </g>
        <g filter="url(#1j31p22b5c)">
            <path fill-rule="evenodd" d="M147.475 12.466h-2.525l.033.525c.053.906.407 1.492 1.082 1.805.294.137.448.157 1.176.157.868 0 2.291-.579 2.298-.565l.281.933c-.067.109-1.036.464-1.59.579-.588.123-1.731.143-2.265.041-1.149-.225-1.884-.947-2.178-2.16-.167-.674-.16-2.678 0-3.284.381-1.37 1.169-2.079 2.519-2.256 1.536-.204 2.705.232 3.226 1.213.254.477.374 1.077.428 2.106l.04.906h-2.525zm1.149-1.485c-.027-.253-.094-.607-.154-.777-.127-.389-.574-.832-.935-.934-.287-.082-.889-.088-1.203-.013-.741.184-1.242.845-1.342 1.778l-.04.409h3.714l-.04-.463zm-9.994 8.299c-.855 0-2.018-.184-2.171-.341l.354-.988c.06.028.38.103.708.178 1.182.252 2.124.129 2.665-.355.414-.368.581-.811.622-1.642l.04-.668-.328.164c-.581.286-1.015.381-1.73.381-2.084 0-3.04-1.178-3.04-3.741 0-1.437.281-2.391.916-3.08.494-.538 1.028-.81 1.857-.94.594-.095 1.423-.027 1.984.17.421.144.488.15.541.062.04-.075.174-.102.548-.102h.501v8.415c0 .558-.421 1.193-.728 1.547-.561.654-1.403.94-2.739.94zm2.184-7.27l-.02-2.44-.534-.184c-.602-.211-1.076-.232-1.624-.082-.487.13-.688.246-.962.559-.855.968-.855 3.659 0 4.559.415.436.682.531 1.45.531.635 0 .695-.013 1.189-.252l.515-.252-.014-2.439zm-6.593 3.897c-.468-.054-.769-.225-.949-.538l-.134-.239-.407.266c-.748.498-1.036.579-2.091.579-.159 0-.956-.006-1.276-.184-.835-.449-1.223-1.41-1.029-2.569.134-.824.561-1.301 1.416-1.594.374-.13.575-.143 1.817-.15h1.397l-.04-.579c-.087-1.329-.502-1.683-1.918-1.615-.674.027-.781.054-2.026.469l-.359-.878c.154-.15 1.49-.559 2.111-.634.575-.075 1.65-.02 2.065.103.514.156.841.442 1.075.933.281.593.341 1.179.341 3.278 0 2.023.033 2.201.454 2.323l.214.062v.996l-.253-.002c-.274 0-.227-.005-.408-.027zm-1.276-2.562v-.879h-.314c-.181 0-.608-.014-.956-.034-1.503-.068-2.037.273-2.037 1.295.006.606.142.917.568 1.11.193.088.374.157.868.137.608-.034.962-.157 1.55-.545l.321-.205v-.879zm-7.269 2.528l-.033-2.712c-.027-2.991-.04-3.093-.441-3.496-.535-.545-1.49-.524-2.579.062l-.467.252-.021 2.944-.013 2.95h-1.336v-3.087c0-1.69-.02-3.379-.047-3.747l-.04-.661H121.922v.613l.421-.232c.434-.245.988-.429 1.549-.525.428-.068 1.29-.013 1.697.116.361.109.829.484.989.804.274.532.301.859.334 3.837l.033 2.882H125.676zm-7.201 2.044c-.341.634-.936 1.057-1.784 1.261-.795.191-2.479.102-3.294-.17l-.213-.075.447-.982c.294.123 1.363.307 1.804.307.942 0 1.637-.341 1.937-.947.161-.314.274-.927.274-1.452v-.395l-.314.164c-.554.279-1.002.381-1.717.381-.721 0-1.169-.095-1.63-.333-.621-.328-1.122-1.091-1.316-2.017-.127-.621-.133-2.167-.006-2.767.32-1.526 1.249-2.446 2.678-2.651.608-.088 1.397-.02 1.964.177.441.15.508.157.555.069l.038-.109h1.024l-.027 4.238c-.026 4.627-.02 4.545-.42 5.301zm-.842-5.901l-.02-2.432-.434-.164c-.735-.286-1.644-.259-2.238.061-.261.144-.588.498-.735.805-.468.933-.481 2.718-.027 3.659.361.756.935 1.076 1.884 1.035.468-.027.628-.068 1.069-.279l.514-.252-.013-2.433zm-7.937 3.857V8.378h1.27v7.495h-1.27zm0-9.199V5.311h1.27v1.363h-1.27zm-5.906 2.651c.3.132.677.279 1.122.438.442.159.888.334 1.325.521 1.228.511 1.825 1.401 1.825 2.72 0 .924-.29 1.647-.86 2.148-.575.505-1.521.761-2.812.761-.723 0-1.346-.093-1.851-.278-.481-.175-.922-.385-1.313-.624l.416-1.122c.356.223.759.417 1.202.578.487.177 1.014.267 1.566.267.857 0 1.447-.131 1.803-.4.36-.272.543-.69.543-1.243 0-.735-.391-1.285-1.162-1.634-.416-.189-.853-.366-1.299-.526-.449-.16-.876-.321-1.269-.478-.498-.195-.898-.503-1.19-.914-.291-.409-.438-.958-.438-1.631 0-.81.287-1.489.853-2.019.568-.533 1.438-.803 2.586-.803.609 0 1.162.069 1.644.204.448.126.835.274 1.151.443l-.382 1.08c-.349-.18-.702-.315-1.051-.403-.382-.096-.853-.145-1.401-.145-.397 0-.733.046-1 .136-.271.091-.488.211-.646.358-.16.148-.276.318-.345.505-.069.184-.103.371-.103.557 0 .368.084.673.251.906.165.232.446.433.835.598zm-12.746 6.834c-1.636.137-3.019-.081-4.188-.667-1.443-.723-2.305-2.113-2.452-3.939l-.047-.586H85.56l.046.477c.201 2.031 1.437 3.203 3.681 3.475 1.417.177 3.174-.102 4.076-.647.407-.239.935-.859 1.062-1.24.32-.954.153-2.031-.428-2.706-.488-.558-1.189-.879-3.327-1.506-1.73-.497-2.445-.742-3.14-1.049-1.509-.674-2.364-1.547-2.618-2.664-.114-.484-.114-1.431 0-1.908.374-1.642 1.777-2.637 4.035-2.855.808-.082 1.443-.082 2.164-.007 2.679.3 4.049 1.642 4.249 4.17l.04.532h-1.196l-.04-.327c-.133-1.125-.341-1.629-.882-2.181-.674-.695-1.663-.995-3.226-.995-.535 0-1.176.041-1.437.089-1.73.34-2.592 1.24-2.592 2.712 0 .92.481 1.615 1.497 2.139.608.307.989.443 2.826.989 1.977.579 2.799.879 3.527 1.274 1.249.668 1.804 1.54 1.897 2.971.06.838-.053 1.492-.374 2.16-.648 1.349-2.064 2.092-4.356 2.289zm-12.659-.402c-1.537.566-3.501.566-5.118.007-3.119-1.083-5.257-4.136-5.257-7.523 0-4.013 2.926-7.386 6.848-7.904.594-.075 1.81-.027 2.451.095 3.915.764 6.647 4.484 6.267 8.545-.288 3.128-2.265 5.711-5.191 6.78zm3.828-9.117c-.648-2.535-2.592-4.436-5.084-4.981-1.289-.28-2.619-.143-3.902.409-1.556.667-2.939 2.126-3.547 3.741-.347.913-.427 1.349-.427 2.432 0 1.084.08 1.52.427 2.433 1.056 2.807 4.008 4.627 6.888 4.245 2.739-.361 4.957-2.351 5.645-5.076.247-.982.247-2.229 0-3.203zm-16.909 8.313c-.594.607-1.109.906-1.89 1.104-.601.15-1.898.15-2.499 0-1.416-.354-2.512-1.438-3.019-2.991-.169-.449-.216-.77-.216-.77h1.258l.153.422c.575 1.622 2.085 2.508 3.708 2.181 1.082-.211 1.804-.784 2.272-1.779.414-.899.494-1.329.501-2.698 0-1.411-.101-1.963-.515-2.801-.681-1.397-2.004-2.051-3.567-1.758-1.59.293-2.599 1.745-2.746 3.925l-.04.634h-1.182V.473h1.202v5.67l.408-.416c.795-.818 1.95-1.213 3.3-1.138 2.204.123 3.56 1.301 4.148 3.618.214.852.294 2.481.161 3.462-.201 1.499-.615 2.453-1.437 3.284zm-17.408-4.492c.021 1.953.99 4.581 3.433 4.581 1.858 0 2.867-1.091 3.271-2.746h1.272c-.545 2.483-1.918 3.87-4.543 3.87-3.312 0-4.705-2.946-4.705-6.066 0-2.886 1.393-5.52 4.705-5.52 3.352 0 4.685 2.804 4.584 5.881h-8.017zm3.433-4.757c-2.08 0-3.231 1.638-3.433 3.632h6.745c-.061-2.016-1.252-3.632-3.312-3.632zm-8.531 10.312l-.668-.02-.668-.021-1.41-4.552c-.768-2.5-1.423-4.545-1.443-4.545-.02 0-.668 2.045-1.443 4.545l-1.403 4.552-.675.021-.674.02-.06-.225c-.034-.122-.802-2.616-1.711-5.546C31.741 7.321 31 4.889 31 4.848c0-.055.187-.082.621-.082h.615l1.396 4.552c.768 2.501 1.416 4.565 1.436 4.593.02.027.535-1.554 1.136-3.51.608-1.955 1.243-4.027 1.423-4.599l.327-1.036h1.323l.194.627c.107.348.741 2.426 1.423 4.613 1.115 3.625 1.236 3.959 1.302 3.782.04-.109.689-2.18 1.437-4.613l1.363-4.409h.614c.341 0 .622.021.622.048 0 .034-.769 2.562-1.717 5.628l-1.717 5.574z"/>
        </g>
    </g>
</svg>
