<svg xmlns="http://www.w3.org/2000/svg" width="15" height="11">
    <path fill="#383838" fill-rule="evenodd" d="M14.007 2.782L7.96 9.427l-.331-.364-.331.364-6.046-6.645 1.007-1.107L7.63 7.576 13 1.675l1.007 1.107z" opacity=".8"/>
</svg>
