<svg xmlns="http://www.w3.org/2000/svg" width="16" height="16">
    <defs>
        <filter id="jnwr2j0dla">
            <feFlood flood-color="#FFF" flood-opacity="1" result="floodOut"/>
            <feComposite in="floodOut" in2="SourceGraphic" operator="atop" result="compOut"/>
            <feBlend in="compOut" in2="SourceGraphic"/>
        </filter>
    </defs>
    <g filter="url(#jnwr2j0dla)">
        <path fill="#B5B5B5" fill-rule="evenodd" d="M2.988 8.281l4.281-5.9c.492-.608 1.58-.678 2.153-.156.574.521.704 1.533.212 2.141L6.603 8.309l2.962 3.866c.915.614.309 1.688-.273 2.201-.581.512-1.572.429-2.055-.187L2.988 8.281z"/>
    </g>
</svg>
