<svg xmlns="http://www.w3.org/2000/svg" width="59" height="25">
    <text fill="#FFF" font-family="Arial" font-size="18" transform="matrix( 1.485, 0, 0, 1.48499999284744,10.2874999999999, 20.6524999535084)">
        1
    </text>
    <text fill="#FFF" font-family="Arial" font-size="8" font-weight="bold" transform="matrix( 1.485, 0, 0, 1.48499999284744,26.2725, 20.9549999785423)">
        J
    </text>
</svg>
