<svg xmlns="http://www.w3.org/2000/svg" width="35" height="36">
    <path fill="#FFF" fill-rule="evenodd" d="M17.487 10.731l8.846 6.418c.912.738 1.017 2.369.235 3.229-.781.86-2.298 1.054-3.21.317l-5.914-4.544-5.795 4.44c-.921.724-2.531.463-3.301-.408-.768-.872-.642-2.357.281-3.083l8.858-6.369z"/>
</svg>
