{
	"(30,60,120,180) Min": "(30,60,120,180) ደቂቃ",
	"10 sec": "10 ሴኮንድ",
	"1Hour": "1ሰዓት",
	"30sec": "30ሰከንድ",
	"5Min": "5ደቂቃ",
	"Account": "መለያ",
	"Accra": "አክራ",
	"Activate": "አንቃ",
	"Adak": "አዳክ",
	"Add Media": "ሚዲያ አክል",
	"Add Mini Module": "ትንሹ ሞጁል ያክሉ",
	"Add Slave Controller": "የተቀጥያ ተቆጣጣሪ አክል",
	"Add Unit": "አሃዱ አክል",
	"Addis Ababa": "አዲስ አበባ",
	"Adelaide": "ኤደላዴ",
	"Aden": "ኤደን",
	"Afghanistan": "አፍጋኒስታን",
	"Albania": "አልባኒያ",
	"Algeria": "አልጀሪያ",
	"Algiers": "አልጀርስ",
	"All settings will be reset. Do you want to continue?": "የሁሉም ቅንጅቶች ዳግም ይጀምራሉ። መቀጠል ይፈልጋሉ?",
	"Almaty": "ኤልማቲ",
	"Amman": "አማን",
	"Amsterdam": "አምስተርዳም",
	"An error occurred while submitting the form.": "ቅጹን በማስገባት ላይ ስህተት አጋጥሟል።",
	"Anadyr": "አናዲር",
	"Anchorage": "አንኮሬጅ",
	"Angola": "አንጎላ",
	"Antananarivo": "አንታናናሪቮ",
	"Apia": "አፒያ",
	"Apply": "ተግብር",
	"Apply?": "ተፈጻሚ ይደረግ?",
	"Approximate round trip in milli-seconds": "ግምታዊ ደርሶ መልስ በሚሊ-ሴኮንዶች",
	"Araguaína": "አራጉዋኒያ",
	"Are you sure to reboot?": "ዳግም ማስነሳት እንደሚፈልጉ እርግጠኛ ነዎት?",
	"Are you sure to use Wi-Fi DHCP?": "Wi-Fi DHCP መጠቀም እንደሚፈልጉ እርግጠኛ ነዎት?",
	"Are you sure to use Wired DHCP?": "Wired DHCP መጠቀም እንደሚፈልጉ እርግጠኛ ነዎት?",
	"Argentina": "አርጀንቲና",
	"Armenia": "አርመኒያ",
	"Aruba": "አሩባ",
	"Ashgabat": "አሽጋባት",
	"Asmara": "አስመራ",
	"Asunción": "አሱንቺዮን",
	"Athens": "አቴንስ",
	"Atikokan": "አቲኮካን",
	"Auckland": "ኦክላንድ",
	"Australia": "አውስትራሊያ",
	"Austria": "አውስትሪያ",
	"Authenticate": "ፈቃድ ስጥ",
	"Authentication Failed": "ፈቃድ መስጠት አልተሳካም",
	"Authentication completed.": "ፈቃድ መስጠት ተጠናቋል።",
	"Auto": "ራስ-ሰር",
	"Auto Detect": "ራስ አግኝ",
	"Auto Refresh": "ራስ አድስ",
	"Automatically Assign IP Address": "በራስ የIP አድራሻ ስጥ",
	"Available to Installation": "ለመጫን ይገኛል",
	"Azerbaijan": "አዘርባጃን",
	"Azores": "አዞሬስ",
	"Back": "ወደኋላ",
	"Backlight": "የጀርባ ብርሀን",
	"Backup Media Upload": "ምትኬ ሚዲያ ሰቀላ",
	"Backup file Thumbnail Image": "የምትኬ ፋይል ድንክዬ ምስል",
	"Backup via storage": "በማከማቻ በኩል በምትኬ አስቀምጥ",
	"Baghdad": "ባግዳድ",
	"Bahamas": "ባሀማስ",
	"Bahrain": "ባህረይን",
	"Baku": "ባኩ",
	"Bamako": "ባማኮ",
	"Bangkok": "ባንኮክ",
	"Bangladesh": "ባንግላዴሽ",
	"Bangui": "ባንጉይ",
	"Banjul": "ባንጁል",
	"Barbados": "ባርባዶስ",
	"Basic Setting": "መሰረታዊ ቅንብሮች",
	"Begin test": "ሙከራ ጀምር",
	"Beijing": "ቤጂንግ",
	"Beirut": "ቤሩት",
	"Belarus": "ቤላሩስ",
	"Belgium": "በለጄም",
	"Belgrade": "ቤልግሬድ",
	"Belize": "ቤሊዝ",
	"Belém": "ቤሌም",
	"Benin": "ቤኒን",
	"Berlin": "በርሊን",
	"Bermuda": "ቤርሙዳ",
	"Bhutan": "ቡህታን",
	"Bishkek": "ቢሽኬክ",
	"Bissau": "ቢሳኦ",
	"Blanc-Sablon": "ብላንክ-ሳብሎን",
	"Blantyre": "ብላንቲር",
	"Boa Vista": "ቦአ ቪስታ",
	"Bogotá": "ቦጎታ",
	"Bolivia": "ቦሊቭያ",
	"Bosnia": "ቦስኒያ",
	"Botswana": "ቦትስዋና",
	"Bottom Right": "ግርጌ ቀኝ",
	"Box Name": "የሳጥን ስም",
	"Bratislava": "ብራቲስላቫ",
	"Brazil": "ብራዚል",
	"Brazzaville": "ብራዛቪል",
	"Brightness": "ብሩህነት",
	"Brisbane": "ብሪባን",
	"Brussels": "ብራስልስ",
	"Bucharest": "ቡቻሬስት",
	"Budapest": "ባዳፔስት",
	"Buenos Aires": "ቦነስ አይረስ",
	"Bujumbura": "ቡጅምቡራ",
	"Bulgaria": "ቡልጋሪያ",
	"Burkina Faso": "ቡሪኪና ፋሶ",
	"Burundi": "ቡርንዲ",
	"Cairo": "ካይሮ",
	"Calibrated": "የተለካ",
	"Calibrating...": "በመለካት ላይ...",
	"Cambodia": "ካምቦዲያ",
	"Cameroon": "ካሜሮን",
	"Campo Grande": "ካምፖ ግራንዴ",
	"Canada": "ካናዳ",
	"Canary Islands": "ካናሪ ደሴቶች",
	"Cancel": "ሰርዝ",
	"Cancún": "ካንቹን",
	"Cape Verde": "ኬፕ ቨርዴ",
	"Capture time Interval": "የጊዜ ክፍተትን ፎቶ አንሳ",
	"Capture time interval": "Capture time interval",
	"Caracas": "ካራካስ",
	"Casablanca": "ካዛብላንካ",
	"Cayman Islands": "ካይማን ደሴቶች",
	"Central African Republic": "ማእከላዊ አፍሪካ ሪፐብሊክ",
	"Chad": "ቻድ",
	"Change Password": "የይለፍ ቃል ይለውጡ",
	"Changing Time may cause you to be logged out.": "ጊዜን መለወጥ በመለያ እንዲወጡ ሊያደርግዎት ይችል ይሆናል።",
	"Changing Time zone may cause you to be logged out.": "የሰዓት ክልል መለወጥ እንዲወጡ ሊያደርግዎት ይችላል።",
	"Check for Update": "ማዘመኛዎችን ይፈትሹ",
	"Check whether two passwords are same": "ሁለቱ የይለፍ ቃሎች ተመሳሳይ መሆናቸውን ይፈትሹ",
	"Check your URL input": "የእርስዎን የ URL ግቤት ይፈትሹ",
	"Checking for update...": "ማዘመኛዎችን በመፈተሸ ላይ...",
	"Chicago": "ቺካጎ",
	"Chihuahua": "ቺዋሁዋ",
	"Chile": "ቺሊ",
	"China": "ቻይና",
	"Chisinau": "ቺሲንዋ",
	"Christmas Island": "ክሪስማስ ደሴት",
	"Cinema": "ሲኒማ",
	"City": "ሲቲ",
	"Close": "ዝጋ",
	"Close status of cabinet doors": "የካቢነት በሮችን ሁነታ ይዝጉ",
	"Closed Loop Fan": "የተዘጋ የድግግሞሽ ፋን",
	"Colombia": "ኮሎምቢያ",
	"Colombo": "ኮሎምቦ",
	"Color Temperature": "የቀለም ሙቀት",
	"Conakry": "ኮናክሪ",
	"Confirm": "አረጋግጥ",
	"Confirm Account Number": "የመለያ ቁጥር አረጋግጥ",
	"Confirm New Password": "አዲስ የይለፍ ቃል ያረጋግጡ",
	"Confirm the account number you entered.": "ያስገቡትን የመለያ ቁጥር ያረጋግጡ።",
	"Connected": "ተገናኝቷል",
	"Content Rotation is ON": "የይዘት ማሽከርከሪያ እንደ በራ ነው",
	"Content is rotated": "ይዘት ተሽከርክሯል",
	"Contents rotation is ON": "የይዘቶች ማሽከርከሪያ እንደ በራ ነው",
	"Contrast": "የብርሀን መጠን",
	"Control Item": "ንጥል ነገር ተቆጣጠር",
	"Cool": "ቀዝቃዛ",
	"Copenhagen": "ኮፐንሀገን",
	"Costa Rica": "ኮስታ ሪካ",
	"Croatia": "ክሮሺያ",
	"Cuba": "ኪዩባ",
	"Cuiabá": "ኩያባ",
	"Current": "የኤሌክትሪክ ጅረት",
	"Current Password": "አሁን ያለው የይለፍ ቃል",
	"Current Ver.": "የአሁኑ ስሪት",
	"Current Version": "የአሁኑ ስሪት",
	"Custom": "የተበጀ",
	"Cyprus": "ሳይጵረስ",
	"Czech": "ቼክ",
	"Czech Republic": "ቸክ ሪፐብሊክ",
	"Côte d'Ivoire": "ኮት ዲቫር",
	"DNS Server": "DNS አገልጋይ",
	"DOWNLOAD LOG FILE": "የምዝግብ ፋይልን አውርድ",
	"DPM (Standby Mode)": "DPM (በተጠንቀቅ ላይ ሁኔታ)",
	"Dakar": "ዳካር",
	"Damage Detection": "ብልሽት መለየት",
	"Damaged": "ተበላሽቷል",
	"Damascus": "ዳማስቆስ",
	"Danmarkshavn": "ዳንማርክሻቭን",
	"Darwin": "ዳርዊን",
	"Data is not collected now. wait for maximum 60 seconds": "ውሂብ አሁን አይሰበሰብም። ግፋ ቢል ለ60 ሰከንዶች ይጠብቁ",
	"Date": "ቀን",
	"Dawson": "ዳውሰን",
	"Dawson Creek": "ዳውሰን ክሪክ",
	"Default size": "ነባሪ መጠን",
	"Delete": "ሰርዝ",
	"Delete Mini Module": "ትንሹ ሞጁል ሰርዝ",
	"Delete Slave Controller": "የተቀጥያ ተቆጣጣሪ ሰርዝ",
	"Delete Unit": "አሃዱ ሰርዝ",
	"Delete the file": "ፋይሉን ይሰርዙ",
	"Delete?": "ይሰረዝ?",
	"Democratic Republic Of The Congo": "ዲሞክራቲክ ሪፐብሊክ ኮንጎ",
	"Denmark": "ዴንማርክ",
	"Denver": "ደንቨር",
	"Detroit": "ዲትሮይት",
	"Dhaka": "ድሃካ",
	"Dili": "ዲሊ",
	"Disconnected": "ተቋርጧል",
	"Display": "ማሳያ",
	"Display & Sound": "ማሳያ እና ድምፅ",
	"Display & sound": "ማሳያ እና ድምፅ",
	"Do not reboot in Device page.": "በመሳሪያ ገጽ ላይ ዳግም አያስነሱ።",
	"Do you want to delete the item?": "ንጥሉን ማጥፋት ይፈልጋሉ?",
	"Do you want to delete the selected file?": "የተመረጠውን ፋይል ማጥፋት ይፈልጋሉ?",
	"Do you want to delete this LED FPGA Update file?": "ይህንን LED FPGA የዝመና ፋይል መሰረዝ ይፈልጋሉ?",
	"Do you want to delete this S/W Update file?": "የ S/W Update ፋይል መሰረዝ ይፈልጋሉ?",
	"Do you want to install this S/W Update file?": "የ S/W Update ፋይል መጫን ይፈልጋሉ?",
	"Do you want to set the time & date?": "ሰዓት ወይም ቀን በራሰር መሙላት ይፈልጋሉ?",
	"Do you want to set the time or date automatically?": "ሰዓት ወይም ቀን በራሰር መሙላት ይፈልጋሉ?",
	"Dodoma": "ዶዶማ",
	"Doha": "ዶሃ",
	"Dominica": "ዶሚኒካ",
	"Dominican Republic": "ዶሚኒካን ሪፐብሊክ",
	"Done": "ተከናውኗል",
	"Door Sensor": "የበር ፈታሽ",
	"Douala": "ዶዋላ",
	"Draw": "ሳል",
	"Dubai": "ዱባይ",
	"Dublin": "ደብሊን",
	"Duration": "ቆይታ",
	"Dushanbe": "ዳሻንቤ",
	"Dynamic Brightness": "ተለዋዋጭ የብርሃን መጠን",
	"Dynamic Brightness Control": "ተለዋዋጭ የብርሃን መጠን ቁጥጥር",
	"Easter Island": "ኢስተር ደሴት",
	"Ecuador": "ኢኳዶር",
	"Edit": "ያርትኡ",
	"Edmonton": "ኢድመንተን",
	"Egypt": "ግብጽ",
	"El Salvador": "ኤል ሳልቫዶር",
	"Enable or disable Signage 365 Care services on this device": "Signage 365 Care አገልግሎቶችን በዚህ መሳሪያ ላይ ያንቁ ወይም ያስናክሉ።",
	"Enable or disable {apptitle} service on this device": "{apptitle} አገልግሎትን በዚህ መሣሪያ ላይ ያንቁ ወይም ያስናክሉ",
	"Energy Saving": "ኃይል ቆጣቢ",
	"Enter Account Number": "የመለያ ቁጥር አስገባ",
	"Enter the account number to activate Signage 365 Care.": "የ Signage 365 እንክብካቤ ለማንቃት የመለያ ቁጥሩን ያስገቡ።",
	"Enter the account number to activate {apptitle}.": "{apptitle} ን ለማንቃት የመለያ ቁጥር ያስገቡ።",
	"Enter the following": "የሚከተሉትን ያስገቡ",
	"Enter the network address to ping": "የአውታረመረብ አድራሻ ወደ ping አስገባ",
	"Equatorial Guinea": "ኢኳተርያል ጊኒ",
	"Eritrea": "ኤርትራ",
	"Estonia": "ኢስቶኒያ",
	"Ethiopia": "ኢትዮጵያ",
	"Event": "ፍጻሜ",
	"External": "ውጫዊ",
	"External Input Rotation Status": "የውጫዊ ግቤት መሽከርከር ሞድ",
	"External Input Rotation is ON": "ውጫዊ የግብዓት ሽክርክር በርቷል",
	"FPGA Version": "FPGA እትም",
	"Fail to update. Check xxx file please.": "ማዘመን አልተሳካም። የ xxx ፋይል እባክዎ ይፈትሹ።",
	"Failed to update LED FPGA with xxx. Check the status of the unit controller.": "LED FPGA በ xxx ማዘመን አልተሳካም። የአሃድ ተቆጣጣሪ አቋሙ ፈትሽ።",
	"Fernando de Noronha": "ፈርናንዶ ዲ ኖረንሃ",
	"Fiji": "ፊጂ",
	"File Upload Progress": "የፋይል ሰቀላ ሂደት",
	"File upload via mobile devices does not support.": "በሞባይል መሳሪያዎች የፋይል ሰቀለ አይደግፍም።",
	"Finland": "ፊንላንድ",
	"First Use": "የመጀመሪያ ተጠቃሚነት",
	"For your security, we recommend to change default password. Would you like to change your password now?": "ለእርስዎ ደህንነት ሲባል ነባሪ የይለፍ ቃልን እንዲለውጡ እንመክራልን። የእርስዎን የይለፍ ቃል አሁን መለወጥ ይፈልጋሉ?",
	"Fortaleza": "ፎርታሌዛ",
	"Frame": "ክፈፍ",
	"France": "ፈረንሳይ",
	"Freetown": "ፍሪታውን",
	"French Polynesia": "ፈረንሳይ ፖሊኔዥያ",
	"Friday": "አርብ",
	"Front": "የፊት",
	"Full": "ሙሉ",
	"Gabon": "ጋቦን",
	"Gaborone": "ጋቦረኒ",
	"Gambia": "ጋምቢያ",
	"Gambier": "ጋምቢየር",
	"Game": "ጫወታ",
	"Gamma": "ጋማ",
	"Gateway": "መግቢያ በር",
	"General": "አጠቃለይ",
	"Georgia": "ጆርጂያ",
	"Germany": "ጀርመን",
	"Ghana": "ጋና",
	"Gibraltar": "ጊብላርተር",
	"Glace Bay": "ግሌስ ቤይ",
	"Go To First Use": "ወደ መጀመሪያ ተጠቃሚ ይሂዱ",
	"Godthab": "ጋድታብ",
	"Greece": "ግሪክ",
	"Greenland": "ግሪንላንድ",
	"Guadalcanal": "ጓዳልካናል",
	"Guadeloupe": "ግዋዴሎፕ",
	"Guam": "ግዋም",
	"Guatemala": "ጓቲማላ",
	"Guatemala City": "ጓቲማላ ሲቲ",
	"Guayaquil": "ጓያኪል",
	"Guernsey": "ጉርንሲ",
	"Guinea": "ጉዊንያ",
	"Guinea Bissau": "ጊኒ ቢሳው",
	"Guyana": "ጉያና",
	"Haiti": "ሃይቲ",
	"Halifax": "ሀሊፋክስ",
	"Harare": "ሀራሬ",
	"Havana": "ሀቫና",
	"Height": "ቁመት",
	"Helsinki": "ሄልሲንኪ",
	"Hermosillo": "ሄርሞሲሎ",
	"High": "ከፍተኛ",
	"Ho Chi Minh": "ሆ ቺ ሚኒ",
	"Hobart": "ሆባርት",
	"Honduras": "ሆንድራስ",
	"Hong Kong": "ሆንግ ኮንግ",
	"Honolulu": "ሆኖሉሉ",
	"Horizontal": "አግድም",
	"Humidity": "እርጥበታማ",
	"Hungary": "ሃንጋሪ",
	"ID": "መታወቂያ",
	"ID/password": "አይ ዲ/የይለፍ ቃል",
	"IMB Settings": "IMB ቅንብሮች",
	"IMB Status": "የ IMB አቋም",
	"IP Address": "IP አድራሻ",
	"Iceland": "አይስላንድ",
	"Incorrect Password entered. Please try again.": "ትክክል ያልሆነ የይለፍ ቃል ገብቷል። እባክዎ እንደገና ይሞክሩ።",
	"India": "ህንድ",
	"Indianapolis": "ኢንዲያናፖሊስ",
	"Indonesia": "ኢንዶኔዥያ",
	"Information": "መረጃ",
	"Input": "ግብአት",
	"Input 6 or more characters": "6 ወይም ከዚያ በላይ ቁምፊዎችን ያስገቡ",
	"Input Direction": "የግብዓት አቅጣጫ",
	"Input Priority Setting": "የግቤት ተቀዳሚነት ቅንብር",
	"Input Window": "የግብዓት መስኮት",
	"Install": "ይጫኑ",
	"Install Succeeded": "መጫን አልተሳካም",
	"Installation Failed": "መጫን አልተሳካም",
	"Installing…": "በመጫን ላይ…",
	"Invalid NEW Password. Password must be 6 characters in length.": "ልክ ያልኾነ አዲስ የይለፍ ቃል። የይለፍ ቃል የ 6 ቁምፊዎችን ርዝመት መሆን አለበት።",
	"Invalid NEW Password. Password must be 8 characters in length.": "ልክ ያልኾነ አዲስ የይለፍ ቃል። የይለፍ ቃል የ 8 ቁምፊዎችን ርዝመት መሆን አለበት።",
	"Invalid NEW Password. You must use a combination of letters and numbers.": "ልክ ያልኾነ አዲስ የይለፍ ቃል። የፊደሎች እና ቁጥሮች ውህደት መጠቀም አለብዎት።",
	"Invalid New password. Password must be at least 8 characters.": "ልክ ያልኾነ አዲስ የይለፍ ቃል። የይለፍ ቃሉ ቢያንስ 8 ቁምፊዎች መሆን አለበት።",
	"Invalid New password. You must use a mixture of mixed-case letters, numbers and special characters.": "ልክ ያልኾነ አዲስ የይለፍ ቃል። ድብልቅ ፊደሎች፣ ቁጥሮች እና ልዩ ቁምፊዎችን መጠቀም አለብዎት።",
	"Invalid day value": "ልክ ያልኾነ የቀን እሴት",
	"Invalid hour value": "ልክ ያልኾነ የሰዓት እሴት",
	"Invalid minute value": "ልክ ያልኾነ የደቂቃ እሴት",
	"Invalid month value": "ልክ ያልኾነ የወር እሴት",
	"Invalid year value": "ልክ ያልኾነ የዓመት እሴት",
	"Iran": "ኢራን",
	"Iraq": "ኢራቅ",
	"Ireland": "አየርላንድ",
	"Irkutsk": "ኢርኩስክ",
	"Israel": "እስራኤል",
	"Issue History": "የችግር ታሪክ",
	"Istanbul": "ኢስታንቡል",
	"Italy": "ጣልያን",
	"Jakarta": "ጃካርታ",
	"Jamaica": "ጀማይካ",
	"Japan": "ጃፓን",
	"Jerusalem": "እሩሳሌም",
	"Johannesburg": "ጆሃንስበርግ",
	"Jordan": "ርዳኖስ",
	"Kabul": "ካቡል",
	"Kaliningrad": "ካኒንግራድ",
	"Kamchatka": "ካምቻትካ",
	"Kampala": "ካምፓላ",
	"Karachi": "ካራቺ",
	"Katmandu": "ካትማንዱ",
	"Kazakhstan": "ካዛኪስታን",
	"Kenya": "ኬንያ",
	"Khartoum": "ካርቱም",
	"Khovd": "ኮቭድ",
	"Kiev": "ኪየቭ",
	"Kigali": "ኪጋሊ",
	"Kingston": "ኪንግስቶን",
	"Kinshasa": "ኪንሻሳ",
	"Kiribati": "ኪሪባቲ",
	"Kiritimati": "ኪሪቲማቲ",
	"Kolkata": "ኮልካታ",
	"Korea": "ኮሪያ",
	"Korea, Republic of": "ኮሪያ ሪፓብሊክ",
	"Krasnoyarsk": "ክራስኖያርስክ",
	"Kuala Lumpur": "ኩዋላ ላምፑር",
	"Kuching": "ኩቺንግ",
	"Kuwait": "ኩዌት",
	"Kuwait City": "ኩዌት ሲቲ",
	"Kyrgyzstan": "ኪርጂስታን",
	"LED Assistant Settings": "የ LED Assistant ቅንጅቶች",
	"LED FPGA Update file list": "LED FPGA ዝመና የፋይል ዝርዝር",
	"LED FPGA Updating ......": "የLED FPGA በማዘመን ላይ ......",
	"LED Features": "የ LED ባህሪያት",
	"LED Film Settings": "የ LED Film ቅንጅቶች",
	"LED Unit": "የ LED አሃድ",
	"LED Unit Status": "የ LED አሃዱ አቋም",
	"LG ConnectedCare App": "የ LG ConnectedCare መተግበሪያ",
	"LG ConnectedCare app": "የ LG ConnectedCare መተግበሪያ",
	"La Paz": "ላ ፓዝ",
	"Lagos": "ሌጎስ",
	"Language": "ቋንቋ",
	"Laos": "ሌኦስ",
	"Large": "ትልቅ",
	"Latvia": "ላቲቭያ",
	"Layout Editor": "የንድፍ አርታዒ",
	"Lebanon": "ሊባኖስ",
	"Lesotho": "ሌሰቶ",
	"Liberia": "ላይቤሪያ",
	"Libreville": "ሊብሬቪሌ",
	"Libya": "ሊብያ",
	"Liechtenstein": "ሌችቴንስተይንስ",
	"Lima": "ሊማ",
	"Lisbon": "ሊዝበን",
	"Lithuania": "ሊቱዋኒያ",
	"Ljubljana": "ሊጁብሊጃና",
	"Loading...": "በመጫን ላይ...",
	"Loading…": "በመጫን ላይ…",
	"Location": "መገኛ",
	"Log Report": "የምዝግብ ሪፖርት",
	"Log in with the authorized ID and password.": "ፈቃድ ባለው አይ ዲ እና የይለፍ ቃል በመለያ ይግቡ።",
	"Logout": "ዘግተህ ውጣ",
	"Lome": "ሎሜ",
	"London": "ለንደን",
	"Los Angeles": "ሎስ አንጀለስ",
	"Louisville": "ሎውስቪሌ",
	"Low": "ዝቅተኛ",
	"Luanda": "ሉዋንዳ",
	"Lubumbashi": "ሉቡምባሺ",
	"Lusaka": "ሉሳካ",
	"Luxembourg": "ለክዘምበርግ",
	"MAC Address": "የMAC አድራሻ",
	"Macao": "ማካኦ",
	"Macedonia": "መቆዴንያ",
	"Maceió": "ማሲዮ ",
	"Madagascar": "ማዳጋስካር",
	"Madeira": "ማዴራ",
	"Madrid": "ማድሪድ",
	"Magadan": "ማጋዳን",
	"Main": "ዋና",
	"Malabo": "ማላቦ",
	"Malawi": "ማላዊ",
	"Malaysia": "ማሌዥያ",
	"Maldives": "ማልዲቬስ",
	"Mali": "ማሊ",
	"Malta": "ማልታ",
	"Manage": "አስተዳድር",
	"Managua": "ማናጉዋ",
	"Manaus": "ማናውስ",
	"Manila": "ማኒላ",
	"Maputo": "ማፑቶ",
	"Marquesas": "ማርቄሳስ",
	"Marriage Guide (2 Steps)": "የ Marriage መመሪያ (2 ደረጃዎች)",
	"Marriage Status": "የ Marriage አቋም",
	"Marshall Islands": "ማርሻል ደሴቶች",
	"Martinique": "ማርቲንክዊ",
	"Maseru": "ማሴሩ",
	"Master": "ጌታ",
	"Mauritius": "ሞሪሾስ",
	"Maximum": "ከፍተኛ",
	"Mayotte": "ማዮቴ",
	"Mazatlán": "ማዛትላን",
	"Mbabane": "ምባባኔ",
	"Medium": "መካከለኛ",
	"Melbourne": "ሜልቦርን",
	"Menu Language": "የምናሌ ቋንቋ",
	"Mexico": "ሜክሲኮ",
	"Mexico City": "ሜክሲኮ ሲቲ",
	"Micom Progress": "Micom ሂደት",
	"Middle East": "Comm_outdoorwebcontrol_middleeast",
	"Mini Module": "ትንሹ ሞጁል",
	"Minimum": "ዝቅተኛ",
	"Minimum = XXms, Maximum = YYms, Average = ZZms": "ዝቅተኛ = Xxሚሊ-ሰ፣ ከፍተኛ = YYሚሊ-ሰ፣ አማካይ = ZZሚሊ-ሰ",
	"Mins": "ደቂቃዎች",
	"Minsk": "ሚንስክ",
	"Module Size": "የሞጁል መጠን",
	"Mogadishu": "ሞቃዲሾ",
	"Moldova": "ሞንጎልያ",
	"Monaco": "ሞናኮ",
	"Moncton": "ሞንክቶን",
	"Monday": "ሰኞ",
	"Mongolia": "ሞንጎልያ",
	"Monrovia": "ሞንሮቪያ",
	"Montenegro": "ሞንቴነግሮ",
	"Monterrey": "ሞንተሬሪ",
	"Montevideo": "ሞንቴቪዶ",
	"Month": "ወር",
	"Montréal": "ሞንትሪያል",
	"More": "ተጨማሪ",
	"Morocco": "ሞሮኮ",
	"Moscow": "ሞስኮ",
	"Motion": "እንቅስቃሴ",
	"Mozambique": "ሞዛምቢክ",
	"Muscat": "ሙስካት",
	"Mute": "ድምጽ አጥፋ",
	"Myanmar": "ሚያንማር",
	"Mérida": "ሜሪዳ",
	"NG": "ጥሩ አይደለም",
	"NO": "አይ",
	"NOT AVAILABLE": "የለም",
	"Nairobi": "ናይሮቢ",
	"Namibia": "ናሚብያ",
	"Nassau": "ናስዋ",
	"Natural Mode": "መደበኛ ሁነታ",
	"Ndjamena": "ጃሜና",
	"Nepal": "ኔፓል",
	"Netherlands": "ኔዘርላንድስ",
	"Network": "አውታረ መረብ",
	"Network Ready": "አውታረ መረብ ዝግጁ ነው",
	"Network Settings": "የአውታረ መረብ ቅንብሮች",
	"New Caledonia": "ኔው ካሌዶኒያ",
	"New Password": "አዲስ የይለፍ ቃል",
	"New Password and Confirm Password do not match.": "አዲስ የይለፍ ቃል እና የይለፍ ቃል አረጋግጥ አልተዛመዱም።",
	"New York": "ኒው ዮርክ",
	"New Zealand": "ኒው ኢዝላንድ",
	"Newer Ver.": "በጣም አዲስ ስሪት",
	"Next": "ቀጣይ",
	"Next Day": "ቀጣይ ቀን",
	"Niamey": "ኒያሚ",
	"Nicaragua": "ኒካራግዋ",
	"Nicosia": "ኒኮሲያ",
	"Niger": "ኒጀር",
	"Nigeria": "ናይጀሪያ",
	"Nipigon": "ኒፒጎን",
	"No": "አይ",
	"No Signal": "ሲግናል የለም",
	"No backup files exist in storage device.": "በማከማቻ መሳሪያ ውስጥ ምንም የምትኬ ፋይሎች የሉም።",
	"None": "ምንም",
	"Normal": "መደበኛ",
	"North Korea": "ሰሜን ኮርያ",
	"Norway": "ኖርወይ",
	"Not Connected": "አልተገናኘም",
	"Notification": "ማሳወቂያ",
	"Nouméa": "ኖሚያ",
	"Novosibirsk": "ኖቮሲብሪስክ",
	"OFF": "አጥፋ",
	"OK": "እሺ",
	"OLED LIGHT": "OLED LIGHT",
	"ON": "በርቷል",
	"OSD Portrait Mode is ON": "የ OSD የቁም ሞድ በርቷል",
	"OSD Rotation is ON": "OSD Rotation እንደ በራ ነው",
	"Off": "አጥፋ",
	"Oman": "ኦማን",
	"Omsk": "ኦምስክ",
	"On": "ያብሩ",
	"Open Loop Fan": "የተከፈተ የድግግሞሽ ፋን",
	"Oranjestad": "ኦራንጀስታድ",
	"Original": "ኦርጂናል",
	"Oslo": "ኦስሎ",
	"Ouagadougou": "ኦጋድጉ",
	"Output Window": "የውጤት መስኮት",
	"Overwrite": "ደምስው ይጻፉ",
	"Overwrite xxx?": "xxx በላዩ ላይ ይጻፍበት?",
	"Overwrite?": "በላዩ ላይ ይጻፍበት?",
	"Packets : Sent = XX. Received = YY. Lost = ZZ (WW% loss)": "እሽጎች ፥ ተልኳል = XX። ደርሷል = YY። ጠፍቷል = ZZ (WW% ጠፍቷል)",
	"Pakistan": "ፓኪስታን",
	"Palau": "ፓላው",
	"Panama": "ፓናማ",
	"Panama City": "ፓናማ ሲቲ",
	"Panel": "መቃን",
	"Papua New Guinea": "ፓፕዋ ኒው ጊኒያ",
	"Paraguay": "ፓራጓይ",
	"Paramaribo": "ፓራማሪቦ",
	"Paris": "ፓሪስ",
	"Password": "የይለፍቃል",
	"Password is incorrect. Please Try Again": "የይለፍ ቃል ልክ አይደለም። እባክዎ እንደገና ይሞክሩ።",
	"Perth": "ፔርዝ",
	"Peru": "ፔሩ",
	"Philippines": "ፊሊፕንስ",
	"Phnom Penh": "ፍኖም ፔን",
	"Phoenix": "ፎኒክስ",
	"Picture": "ምስል",
	"Picture Mode": "የምስል ሙድ",
	"Ping statistics for [X.X.X.X]": "ለ [X.X.X.X] የ Ping ስታትስቲክሶች",
	"Ping test is in progress": "የፒንግ ሙከራ በሂደት ላይ ነው",
	"Ping test result": "የ Ping ሙከራ ውጤት",
	"Pinging [X.X.X.X] with YYY bytes of data": "[X.X.X.X] ከ YYY የውሂብ ባይቶች ጋር ፒንግ በማድረግ ላይ",
	"Please Keep this Signage on.": "እባክዎ ይህን Signage እንደበራ ያቆዩት።",
	"Please check the following items and try again.": "እባክዎ የሚከተሉትን ንጥል ነገሮችን ይፈትሹና እንደገና ይሞክሩ።",
	"Please check the installation file and try again.": "እባክዎ ሁኔታውን ይፈትሹና እንደገና ይሞክሩ።",
	"Please choose a video file to upload": "ለመስቀል እባክዎ የቪዲዮ ፋይል ይምረጡ",
	"Please don't turn off the device and wait until the installation is completed.": "እባክዎ መሳሪያውን አያጥፉ እና ጭነቱ እስከሚጠናቀቅ ድረስ ይጠብቁ።",
	"Please don’t turn off the device. And wait while process is completed.": "እባክዎ መሳሪያውን አያጥፉት። እና ሂደቱ በመጠናቀቅ ላይ ሳለ ይጠብቁ።",
	"Please enter the authorized ID and password.": "እባክዎ ፈቃድ ባለው አይ ዲ እና የይለፍ ቃል ይግቡ።",
	"Please login again.": "እባክዎ እንደገና በመለያ ይግቡ።",
	"Please press the physical marriage button.": "እባክዎ የአካላዊ marriage አዝራሩን ይጫኑ።",
	"Please restart the marriage authentication process.": "እባክዎ የ marriage ፈቃድ ሂደቱን ዳግም ያስጀምሩ።",
	"Please select city": "እባክዎ ከተማ ይምረጡ",
	"Please select country": "እባክዎ አገር ይምረጡ",
	"Please upload S/W update file via PC browser.": "እባክዎ የ S/W የዝመና ፋይል በፒሲ አሳሽ በኩል ይስቀሉ።",
	"Podgorica": "ፖድጎሪካ",
	"Poland": "ፖላንድ",
	"Port": "ወደብ",
	"Port Louis": "ፖርት ሉዊስ",
	"Port Moresby": "ወደብ ሞሮስቢ",
	"Port Number": "የወደብ ቁጥር",
	"Port Settings": "የወደብ ቅንጅት",
	"Port of Spain": "ወደብ ስፐይን",
	"Port-au-Prince": "ወደብ-ኤዩ-ፕሪንስ",
	"Porto Novo": "ፖርት ኖቮ",
	"Porto Velho": "ፖርቶ ቬልሆ",
	"Portrait": "የቁም",
	"Portugal": "ፖርቱጋል",
	"Power Off": "ኃይል ማጥፊያ",
	"Power Rack": "የሃይል መሸፈኛ",
	"Power Rack Settings": "የሃይል መደርደሪያ ቅንጅቶች",
	"Prague": "ፕራጉዋ",
	"Praia": "ፐሬያ",
	"Press the physical marriage button on your master cabinet.": "በዋናው ካቢነትዎ ላይ የአካልዊ marriage አዝራሩን ይጫኑ።",
	"Pressing Start will give you 1 minute to perform the process.": "ይጀምር የሚለውን በመጫን ሂደቱን ለማካሄድ 1 ደቂቃ ይሰጥዎታል።",
	"Prev DAY": "ቀዳሚው ቀን",
	"Prev.": "የበፊት",
	"Preview": "ቅድመ ዕይታ",
	"Priority": "ተቀዳሚነት",
	"Puerto Rico": "ፑየሪቶ ሪኮ",
	"Pyongyang": "ፒዮንግያንግ",
	"Qatar": "ኳታር",
	"Rainy River": "ረይኒ ሪቨር",
	"Rearrange": "ዳግም አደራጅ",
	"Reboot?": "ዳግም ይነሳ?",
	"Rebooting": "ዳግም በማስነሳት ላይ",
	"Recife": "ሬሲፍ",
	"Reference Resolution": "ማጣቀሻ ጥራት",
	"Regina": "ሬጂና",
	"Remember me": "አስታውሰኝ",
	"Rename": "ስም ይቀይሩ",
	"Rename or Overwrite?": "ስም ይለውጡ ወይም በላዩ ላይ ደምሰሰው ይጻፉ?",
	"Rename to {{filename (2)}} or Overwrite?": "ወደ {{filename (2)}} ስሙን ይቀይሩ ወይም ደምስሰው ይጻፉ?",
	"Reply from [X.X.X.X] : bytes = YY, time = ZZms, TTL = WW": "ከ [X.X.X.X] ምላሽ ስጥ፥ ባይትስ = YY፣ ሰዓት = ZZms, TTL = WW",
	"Republic Of The Congo": "ኮንጎ ሪፐብሊክ",
	"Request timed out.": "ጥያቄ ጊዜው አልፎበታል።",
	"Require Network Settings": "የአውታረ መረብ ቅንብር ይፈልጋል",
	"Required Marriage": "ተፈላጊ Marriage",
	"Reset": "እንደገና ያዘጋጁ",
	"Reset to factory reset": "ወደ ፋብሪካው ዳግም ማስጀምር ዳግም አስጀምር",
	"Reykjavik": "ረይካጃቪክ",
	"Riga": "ሪጋ",
	"Riyadh": "ሪያድ",
	"Romania": "ሮማኒያ",
	"Rome": "ሮም",
	"Run Time": "የጊዜ ማስኬጃ",
	"Russia": "ሩስያ",
	"Rwanda": "ርዋንዳ",
	"S/W Update File list": "የ S/W Update File ዝርዝር",
	"S/W Update succeeded": "S/W ዝማኔ ተሳክቷል",
	"S/W Updating": "S/W ዝማኔ",
	"S/W Updating......": "ሶፍትዌር በማዘመን ላይ......",
	"S/W Ver.": "S/W ስሪት",
	"S/W update file does not exist.": "የሶፍትዌር የዝመና ፋይል አይገኝም።",
	"S/W will update. Do you want to continue?": "ሶፍትዌር ያዘምናል። መቀጠል ይፈልጋሉ?",
	"SI App / Play via URL": "የ SI መተግበሪያ / በ URL በኩል አጫውት",
	"Saint Lucia": "ቅድስት ሉችያ",
	"Sakhalin": "ሳካሊን",
	"Samara": "ሰመራ",
	"Samarkand": "ሳማርካንድ",
	"Samoa": "ሳሞኣ",
	"San Luis": "ሳን ሉዊስ",
	"San Salvador": "ሳን ሳልቫዶር",
	"Santiago": "ሳንቲያጎ",
	"Santo Domingo": "ሳንቶ ዶሚንጎ",
	"Sarajevo": "ሳራጄቮ",
	"Saturday": "ቅዳሜ",
	"Saudi Arabia": "ሳውዲ አረቢያ",
	"Save": "አስቀምጥ",
	"Scoresbysund": "ስኮረስባይሰንድ",
	"Screen": "ማያ ገጽ",
	"Screen Off": "ማያ ተፍቷል",
	"Screen Off & Backlight On": "ማያ ገጽ አጥፋ እና የጀርባ መብራት አብራ",
	"Screen Power Off": "የማያ ገጽ ኃይል ጠፍቷል",
	"Screen Rotation Status": "የማያ ገጽ መሽከርከር ሞድ",
	"Screen Rotation is ON": "የማያ ገጽ ሽክርክር በርቷል",
	"Select File": "ፋይል ይምረጡ",
	"Select a file to upload": "ለመስቀል ፋይል ይምረጡ",
	"Select media file": "የሚዲያ ፋይሉን ይምረጡ",
	"Senegal": "ሰኔጋል",
	"Seoul": "ሲዮል",
	"Serbia": "ሰርቢያ",
	"Serial Number": "የምርቱ መለያ ቁጥር",
	"Set": "አዘጋጅ",
	"Set Automatically": "በራስ-ሰርነት ያዘጋጁ",
	"Set ID": "መለያ ቁጥር ሙላ",
	"Set Master": "ዋና አዘጋጅ",
	"Set Slave": "ተቀጥያ አዘጋጅ",
	"Set URL": "URL ያዘጋጁ",
	"Sierra Leone": "ሴራ ሊዮን",
	"Sigane Name is Too Long": "የ Signage ስም በጣም ረጅም ነው",
	"Sign in": "ግባ",
	"Signage 365 Care App": "Signage 365 Care መተግበሪያ",
	"Signal": "ሲግናል",
	"Simferopol": "ሲምፈርፖል",
	"Singapore": "ሲንጋፖር",
	"Size": "መጠን",
	"Skopje": "ስኮፕጄ",
	"Slave": "አገልጋይ",
	"Slovakia": "ስሎቫኪያ",
	"Slovenia": "ስሎቬንያ",
	"Small": "ትንሽ",
	"Sofia": "ሶፊያ",
	"Software Version": "የሶፍትዌር እትም",
	"Solomon Islands": "ሰሎሞን ደሴቶች",
	"Somalia": "ሶማሊያ",
	"South Africa": "ደቡብ አፍሪካ",
	"Spain": "ስፐይን",
	"Sports": "ስፐርቶች",
	"Srednekolymsk": "ስሬድኔኮሊምስክ",
	"Sri Lanka": "ስሪ ላንካ",
	"St. John's": "የቅዱስ የሆናስ",
	"Stalled Image": "የጠፋ ምስል",
	"Standard": "ስታንደርድ",
	"State": "ክፍለግዛት",
	"Status": "ሁኔታ",
	"Step 1. Physical Marriage": "ደረጃ 1. አካላዊ Marriage",
	"Step 2. Logical Marriage": "ደረጃ 2. ሎጂካል Marriage",
	"Stockholm": "ስቶኮልም",
	"Subnet Mask": "ሳብኔት ማስክ",
	"Subnet prefix length": "የሰብኔት ቅድመ ቅጥያ ርዝመት",
	"Sudan": "ሱዳን",
	"Sunday": "እሁድ",
	"SuperSign Content": "የ SuperSign ይዘት",
	"SuperSign Contents": "የ SuperSign ይዘት",
	"Suriname": "ሱሪናሜ",
	"Swaziland": "ስዊዘርላንድ",
	"Sweden": "ስዊድን",
	"Swift Current": "ስዊፍት ከረንት",
	"Switzerland": "ስዊዘርላንድ",
	"Sydney": "ሲድኒ",
	"Syria": "ሶርያ",
	"System Controller": "የስርዓት ተቆጣጣሪ",
	"System Controller Settings": "የስርዓት ተቆጣጣሪ የክንውን አውዶች",
	"System Reboot": "የስርዓት እንደገና ማስነሳት",
	"System controller will restart.": "የስርዓት ተቆጣጣሪ ዳግም ይጀምራል።",
	"System controller will restart. Do you want to continue?": "የስርዓት ተቆጣጣሪ ዳግም ይጀምራል። መቀጠል ይፈልጋሉ?",
	"São Paulo": "ሳኦ ፓውሎ",
	"Tahiti": "ታሂቲ",
	"Taipei": "ታይፐይ",
	"Taiwan": "ታይዋን",
	"Tajikistan": "ታጃኪስታን",
	"Tallinn": "ታሊን",
	"Tanzania": "ታንዛንያ",
	"Tashkent": "ታሽከንት",
	"Tbilisi": "ታቢሊሲ",
	"Tegucigalpa": "ቴጉቺጋልፓ",
	"Tehran": "ቴህራን",
	"Thailand": "ታይላንድ",
	"The POWER remote controller key will not work during the update.": "የ POWER ርቀት መቆጣጠሪያው ቁልፍ በዝማኔ ወቅት አይሰራም።",
	"The Signage 365 care app has been deleted.": "የ Signage 365 care መተግበሪያ ተሰርዟል።",
	"The Signage 365 care app has been successfully installed.": "የ Signage 365 care መተግበሪያ በስኬት ተጭኗል።",
	"The Signage 365 care app has been successfully updated.": "የ Signage 365 care መተግበሪያ በስኬት ዘምኗል።",
	"The URL format is invalid.": "የURL ቅርጸቱ ልክ ያልኾነ ነው።",
	"The installation of the Signage 365 care app has failed.": "የ Signage 365 care መተግበሪያ መጫኑን አልተሳካም።",
	"The installation of the Signage 365 care app is in progress.": "የ Signage 365 care መተግበሪያ መጫኑን በሂደት ላይ ነው።",
	"The installation of the {apptitle} has failed.": "የ {apptitle} ጭነት አልተሳካም።",
	"The installation of the {apptitle} is in progress.": "የ {apptitle} ጭነት በሂደት ላይ ነው።",
	"The timer is reset and the marriage process must be restarted from the beginning.": "ቆጣሪው ዳግም እንዲጀምር ተደርጓል እና የ marriage ሂደቱን ከመጀመሪያ ዳግም መጀመር አለበት።",
	"The update of the Signage 365 care app has failed.": "የ Signage 365 care መተግበሪያ ማዘመኑን አልተሳካም።",
	"The update of the Signage 365 care app is in progress.": "የ Signage 365 care መተግበሪያ ማዘመኑን በሂደት ላይ ነው።",
	"The update of the {apptitle} has failed.": "የ {apptitle} ዝማኔ አልተሳካም።",
	"The update of the {apptitle} is in progress.": "የ {apptitle} ዝማኔ በሂደት ላይ ነው።",
	"The {apptitle} has been successfully installed.": "{apptitle} በተሳካ ሁኔታ ተጭኗል።",
	"The {apptitle} has been successfully updated.": "{apptitle} በተሳካ ሁኔታ ተዘምኗል።",
	"There is a difference between your signage and the signage 365 care server in time and date.": "በእርስዎ Signage እና በ Signage 365 እንክብካቤ አገልጋይ ላይ የሰዓት እና የቀን ልዩነት አለ።",
	"There is a difference between your signage and the {apptitle} server in time and date.": "በእርስዎ signage እና በ {apptitle} ሰርቨር መሃል የሰዓት እና የቀን ልዩነት አለ።",
	"There is no list.": "ምንም ዝርዝር የለም።",
	"There's No Backup file": "ምንም ምትኬ ፋይል የለም",
	"Thimphu": "ቲምፑ",
	"This pop up will be closed automatically in 5 sec.": "ይህ ብቅባይ በ 5 ሴ ውስጥ በራስሰር ይዘጋል።",
	"Thule": "ቱሌ",
	"Thursday": "ሀሙስ",
	"Tijuana": "ቲጅዋና",
	"Tile Mode Setting": "Tile Mode Setting",
	"Tile Mode Settings": "የንጣፍ ሁነታ ቅንብሮች",
	"Time": "ጊዜ",
	"Time & Date": "ጊዜ እና ቀን",
	"Time & Date Settings": "የጊዜ እና የቀን መቼቶች",
	"Time & Date Settings Required": "የሰዓት & ቀን ቅንብሮችን ያስፈልጋል",
	"Timor-Leste": "ታይሞር-ሌስቴ",
	"Tiranë": "ቲራኔ",
	"To make your Password more secure. Use letters and numbers.": "የይለፍ ቃልዎ ተጨማሪ ድህንነቱ የተጠበቀ ለማድረግ። ፊደሎች እና ቁጥሮችን ይጠቀሙ።",
	"To make your password more secure, use a mixture of mixed-case letters, numbers and special characters": "የይለፍ ቃልዎ ደህንነቱ እንደተጠበቀ ለማድረግ፣ ድብልቅ ፊደሎች፣ ቁጥሮች እና ልዩ ቁምፊዎችን ይጠቀሙ።",
	"To use Signage 365 care, you need to connect the device to the network . Do you want to set the network connection?": "የ Signage 365 care ለመጠቀም መሳሪያውን ወደ አውታረ መረብ ለማገናኘት ያስፈልግዎታል። የአውታረመረብ ግንኙነቱን ለማዘጋጀት ይፈልጋሉ?",
	"To use {apptitle}, you need to connect the device to the network. Do you want to set the network connection?": "{apptitle} ን ለመጠቀም መሣሪያውን ወደ አውታረ መረብ ማገናኘት ያስፈልግዎታል። የአውታረመረብ ግንኙነቱን ለማዘጋጀት ይፈልጋሉ?",
	"Togo": "ቶጎ",
	"Tokyo": "ቶክዮ",
	"Tonga": "ቶንጎ",
	"Toronto": "ቶሮንቶ",
	"Trinidad And Tobago": "ትሪንዳድና ቶቤጎ",
	"Tripoli": "ትሪፖሊ",
	"Tuesday": "ማክሰኞ",
	"Tunis": "ቱኒስ",
	"Tunisia": "ቱኒዝያ",
	"Turkey": "ቱርኪ",
	"Turkmenistan": "ቱርክሜንስታን",
	"Type": "አይነት",
	"URL Loader": "URL ጫኚ",
	"URL Setting": "URL ቅንብር",
	"Uganda": "ዩጋንዳ",
	"Ukraine": "ዩክሬን",
	"Ulaanbaatar": "ዩላንባታር",
	"United Arab Emirates": "የተባበሩት አረብ ኢሜሬትስ",
	"United Kingdom": "ዩናይትድ ኪንግደም",
	"United States of America": "የተበባበሩት መንግስታት አሜሪካ",
	"Units cut right edge cannot be placed in the Y:(Cut Pixel) positions.": "ቀኝ ጫፍ ላይ የተቆረጡ አሃዶች በ Y ሊቀመጡ አይችሉም፥ (ፒክስል ቁረጥ) አቀማመጦች።",
	"Update": "ያድሱ",
	"Update Failed": "እድሳቱ አልተሳካም",
	"Update Progress": "የዝማኔ ሂደት",
	"Update Succeeded": "ዝመና ተሳክዩኣል",
	"Update completed. Set is rebooting now.": "ዝማኔ ተጠናቋል። ቅንብር አሁን ዳግም በማስነሳት ላይ ነው።",
	"Update completed. Signage is rebooting now.": "ዝመና ተጠናቋል። Signage አሁን እንደገና በማንሳት ላይ ነው።",
	"Update is completed.": "ዝማኔ ተጠናቋል።",
	"Update is in progress.": "ዝማኔ በሂደት ላይ ነው።",
	"Update?": "ይዘምን?",
	"Updating…": "በማዘመን ላይ…",
	"Upload": "ስቀል",
	"Upload FPGA Update file (XXX GB available)": "የ FPGA ዝመና ፋይል (XXX ጊባ ይገኛል) ስቀል",
	"Upload secured S/W Update file": "ደህንነቱ አስተማማኝ የ S/W Update ፋይል ይስቀሉ",
	"Uploading": "በመስቀል ላይ",
	"Uruguay": "ኡራጋይ",
	"User": "ተጠቃሚ",
	"Uzbekistan": "ኡዝበኪስታን",
	"Uzhhorod": "ዩዝሆሮድ",
	"Vaduz": "ቫዱዝ",
	"Validation Error.": "የማረጋገጫ ስህተት።",
	"Vancouver": "ቫንኮቨር",
	"Vatican City": "ቫቲካን ሲቲ",
	"Venezuela": "ቬንዙዋላ",
	"Ver": "ስሪት",
	"Version": "እትም",
	"Vertical": "ወደ ላይ",
	"Video": "ቪድዮ",
	"Video Scaler": "የቪድዮ ሚዛን",
	"Vienna": "ቬና",
	"Vientiane": "ቬንቲያኔ",
	"Vietnam": "ቬትናም",
	"View": "ይመልከቱ",
	"View Photo": "ምስል ይመልከቱ",
	"Vilnius": "ቪልኒዩስ",
	"Vivid": "ግልጽ",
	"Vladivostok": "ቭላዲቮስቶክ",
	"Volgograd": "ቮልጎግሬድ",
	"Volume": "ድምጽ",
	"Warm": "ሙቅ",
	"Warsaw": "ዋርሳው",
	"Wednesday": "እሮብ",
	"Welcome to LG WebOS": "ወደ LG WebOS እንኳን ደህና መጡ",
	"Width": "ስፋት",
	"Windhoek": "ዊንድሆክ",
	"Winnipeg": "ዊኒፔግ",
	"Wired": "በገመድ የተገናኘ",
	"XX GB free of XXGB": "ነጻ XX ጊባ የ XX ጊባ",
	"XX of YY": "XX የ YY",
	"YES": "አዎን",
	"Yakutsk": "ያኩስክ",
	"Yamoussoukro": "ያሞሱክሮ",
	"Yekaterinburg": "የካተሪንበርግ",
	"Yellowknife": "የሎውናይፍ",
	"Yemen": "የመን",
	"Yerevan": "የሬቫን",
	"Yes": "አዎን",
	"You did not finish the process in time.": "ሂደቱን በጊዜ አላጠናቀቁትም።",
	"You have failed to login 1/5 time.": "1/5 ጊዜ ለመግባት አልተሳካልዎትም።",
	"You have failed to login 5 times. Please try again after 05:00.": "5 ጊዜያት ለመግባት አልተሳካልዎትም። እባክዎ ከ 05:00 በኋላ እንደገና ይሞክሩ።",
	"You've entered the same password as the current one. Please enter a different password.": "እንደ አሁኑ ይለፍ ቃል አዲስ የይለፍ ቃል አስገብተዋል። እባክዎ የተለየ የይለፍ ቃል ያስገቡ።",
	"Your Password has been changed.": "የእርስዎ የይለፍ ቃል ተለውጧል።",
	"Your device needs the correct time & date to authenticate marriage.": "Marriage ለመፍቀድ መሳሪያዎ ትክክለኛውን ሰዓት & ቀን ይፈልጋል።",
	"Zagreb": "ዛግሬብ",
	"Zambia": "ዛምቢያ",
	"Zaporozhye": "ዛፖሮዛይ",
	"Zimbabwe": "ዚምባብዌ",
	"Zoom": "ማቅረብ",
	"Zoom In/Out": "አጉላ/አሳንስ",
	"Zoom Out": "አሳንስ",
	"Zürich": "ዙሪክ",
	"align": "አሰልፍ",
	"available": "ይገኛል",
	"color": "ቀለም",
	"full aspect ratio": "ሙሉ ምጥነ ገጽታ",
	"general": "አጠቃላይ",
	"hour": "ሰአት",
	"last": "መጨረሻ",
	"min": "ደቂቃ",
	"original aspect ratio": "ኦሪጂናል ምጥነ ገጽታ",
	"over {period} min.": "ከ {period} ደቂቃ በላይ።",
	"reading": "ማንበቢያ",
	"save as PC Time": "እንደ PC ጊዜ አስቀምጥ",
	"version": "እትም",
	"warning": "ማስጠንቀቂያ",
	"year": "ዓመት",
	"{apptitle} will be deleted.": "{apptitle} ይሰረዛል።",
	"{{filename}} already exists.": "{{filename}} ቀድሞውኑ አለ።"
}
