{
	"(30,60,120,180) Min": "(30, 60, 120, 180) λεπτά",
	"10 sec Auto Refresh": "Αυτόματη ανανέωση 10 δευτ.",
	"1Hour": "1 ώρα",
	"1st": "1η",
	"2nd": "2η",
	"30sec": "30 δευτερόλεπτα",
	"3rd": "3η",
	"4th": "4η",
	"5 min. Refresh": "Ανανέωση 5 λεπ.",
	"5Min": "5 λεπτά",
	"AM": "ΠΜ",
	"Abnormally High": "Ασυνήθιστα υψηλή",
	"Account": "Λογαριασμός",
	"Accra": "Άκρα",
	"Activate": "Ενεργοποίηση",
	"Adak": "Άντακ",
	"Add Media": "Προσθήκη πολυμέσων",
	"Add Mini Module": "Προσθήκη μίνι μονάδας",
	"Add Slave Controller": "Προσθήκη δευτερεύοντος ελεγκτή",
	"Add Unit": "Προσθήκη μονάδας",
	"Addis Ababa": "Αντίς Αμπέμπα",
	"Adelaide": "Αδελαΐδα",
	"Aden": "Άντεν",
	"Advanced Options": "Επιλογές για προχωρημένους",
	"Advanced Setting": "Ρύθμιση για προχωρημένους",
	"Afghanistan": "Αφγανιστάν",
	"Africa": "Αφρική",
	"Albania": "Αλβανία",
	"Algeria": "Αλγερία",
	"Algiers": "Αλγέρι",
	"All": "Όλα",
	"All Units": "Όλες οι μονάδες",
	"All settings will be reset. Do you want to continue?": "Θα γίνει επαναφορά όλων των ρυθμίσεων. Θέλετε να συνεχίσετε;",
	"Almaty": "Αλμάτι",
	"Amman": "Αμάν",
	"Amsterdam": "Άμστερνταμ",
	"An error occurred while submitting the form.": "Παρουσιάστηκε σφάλμα κατά την υποβολή της φόρμας.",
	"Anadyr": "Αναντίρ",
	"Anchorage": "Ανκορέιτζ",
	"Angola": "Ανγκόλα",
	"Antananarivo": "Ανταναναρίβο",
	"Apia": "Άπια",
	"Apply": "Εφαρμογή",
	"Apply to All Units": "Εφαρμογή σε όλες τις μονάδες",
	"Apply?": "Εφαρμογή;",
	"Approximate round trip in milli-seconds": "Κατά προσέγγιση χρόνος αποστολής και επιστροφής σε χιλιοστά του δευτερολέπτου",
	"April": "Απρίλιος",
	"Araguaína": "Αραγκουαίνα",
	"Are you sure to change Settings?": "Θέλετε σίγουρα να αλλάξετε τις ρυθμίσεις;",
	"Are you sure to change the calibration settings of this unit?": "Είστε σίγουροι ότι θέλετε να αλλάξετε τις ρυθμίσεις βαθμονόμησης για αυτή τη μονάδα;",
	"Are you sure to reboot?": "Σίγουρα επιθυμείτε την επανεκκίνηση;",
	"Are you sure to use": "Θέλετε σίγουρα να χρησιμοποιήσετε",
	"Are you sure to use Wi-Fi DHCP?": "Θέλετε σίγουρα να χρησιμοποιήσετε το DHCP μέσω Wi-Fi;",
	"Are you sure to use Wired DHCP?": "Θέλετε σίγουρα να χρησιμοποιήσετε το DHCP ενσύρματα;",
	"Argentina": "Αργεντινή",
	"Armenia": "Αρμενία",
	"Aruba": "Αρούμπα",
	"Ashgabat": "Ασγκαμπάτ",
	"Asia": "Ασία",
	"Asmara": "Ασμάρα",
	"Aspect Ratio when rotated": "Λόγος διαστάσεων μετά την περιστροφή",
	"Asunción": "Ασουνσιόν",
	"Athens": "Αθήνα",
	"Atikokan": "Ατικόκαν",
	"Auckland": "Όκλαντ",
	"August": "Αύγουστος",
	"Australia": "Αυστραλία",
	"Austria": "Αυστρία",
	"Authenticate": "Έλεγχος ταυτότητας",
	"Authentication Failed": "Ο έλεγχος ταυτότητας απέτυχε",
	"Authentication completed.": "Ο έλεγχος ταυτότητας ολοκληρώθηκε.",
	"Auto": "Αυτόματο",
	"Auto Detect": "Αυτόματος εντοπισμός",
	"Auto Refresh": "Αυτόματη ανανέωση",
	"Automatically Assign IP Address": "Αυτόματη εκχώρηση διεύθυνσης IP",
	"Available to Installation": "Διαθέσιμη για εγκατάσταση",
	"Azerbaijan": "Αζερμπαϊτζάν",
	"Azores": "Αζόρες ",
	"BLU Status": "Κατάσταση BLU",
	"Back": "Πίσω",
	"Backlight": "Οπισθοφωτισμός",
	"Backup Media Upload": "Αποστολή σε μέσο αντιγράφου ασφαλείας",
	"Backup file Thumbnail Image": "Εικόνα μικρογραφίας αρχείου αντιγράφου ασφαλείας",
	"Backup via storage": "Δημιουργία αρχείων αντιγράφου ασφαλείας μέσω αποθήκευσης",
	"Baghdad": "Βαγδάτη",
	"Bahamas": "Μπαχάμες",
	"Bahrain": "Μπαχρέιν",
	"Baku": "Μπακού",
	"Bamako": "Μπαμακό",
	"Bangkok": "Μπανγκόκ",
	"Bangladesh": "Μπανγκλαντές",
	"Bangui": "Μπανγκί",
	"Banjul": "Μπάνγιουλ",
	"Barbados": "Μπαρμπάντος",
	"Basic Setting": "Βασική ρύθμιση",
	"Begin test": "Έναρξη δοκιμής",
	"Beijing": "Πεκίνο",
	"Beirut": "Βηρυτός",
	"Belarus": "Λευκορωσία",
	"Belgium": "Βέλγιο",
	"Belgrade": "Βελιγράδι",
	"Belize": "Μπελίσε",
	"Belém": "Μπελέμ",
	"Benin": "Μπενίν",
	"Berlin": "Βερολίνο",
	"Bermuda": "Βερμούδες",
	"Bhutan": "Μπουτάν",
	"Bishkek": "Μπίσκεκ",
	"Bissau": "Μπισάου",
	"Black Level": "Επίπεδο μαύρου",
	"Blanc-Sablon": "Μπλαν Σαμπλόν",
	"Blantyre": "Μπλαντάιρ",
	"Boa Vista": "Μπόα Βίστα",
	"Bogotá": "Μπογκοτά",
	"Bolivia": "Βολιβία",
	"Bootloader Version": "Έκδοση Bootloader",
	"Bosnia": "Βοσνία",
	"Botswana": "Μποτσουάνα",
	"Bottom": "Κάτω μέρος",
	"Bottom Left": "Κάτω αριστερά",
	"Bottom Light": "Κάτω δεξιά",
	"Bottom Right": "Κάτω δεξιά",
	"Box Name": "Όνομα πλαισίου",
	"Bratislava": "Μπρατισλάβα",
	"Brazil": "Βραζιλία",
	"Brazzaville": "Μπραζαβίλ",
	"Brightness": "Φωτεινότητα",
	"Brisbane": "Μπρίσμπεϊν",
	"Browse": "Αναζήτηση",
	"Browse a file to upload": "Αναζητήστε αρχείο για αποστολή",
	"Brussels": "Βρυξέλλες",
	"Bucharest": "Βουκουρέστι",
	"Budapest": "Βουδαπέστη",
	"Buenos Aires": "Μπουένος Άιρες",
	"Bujumbura": "Μπουζουμπούρα",
	"Bulgaria": "Βουλγαρία",
	"Burkina Faso": "Μπουρκίνα Φάσο",
	"Burundi": "Μπουρούντι",
	"CIS": "ΚΑΚ",
	"Cairo": "Κάιρο",
	"Calibrate Unit": "Βαθμονόμηση μονάδας",
	"Calibrated": "Βαθμονομημένο",
	"Calibrating...": "Βαθμονόμηση…",
	"Calibration": "Βαθμονόμηση",
	"Cambodia": "Καμπότζη",
	"Cameroon": "Καμερούν",
	"Campo Grande": "Κάμπο Γκράντε",
	"Canada": "Καναδάς",
	"Canary Islands": "Κανάρια Νησιά",
	"Cancel": "Ακύρωση",
	"Cancún": "Κανκούν",
	"Cannot start S/W update. Check xxx file please.": "Δεν είναι δυνατή η έναρξη της ενημέρωσης λογισμικού. Ελέγξτε το αρχείο xxx.",
	"Cape Verde": "Πράσινο Ακρωτήριο",
	"Capture time Interval": "Χρονικό διάστημα αποτύπωσης",
	"Capture time interval": "Χρονικό διάστημα αποτύπωσης",
	"Caracas": "Καράκας",
	"Casablanca": "Καζαμπλάνκα",
	"Category": "Κατηγορία",
	"Cayman Islands": "Νησιά Καϊμάν",
	"Central African Republic": "Κεντροαφρικανική Δημοκρατία",
	"Chad": "Τσαντ",
	"Change Password": "Αλλαγή κωδικού πρόσβασης",
	"Changing Time may cause you to be logged out.": "Η αλλαγή της ώρας μπορεί να έχει ως συνέπεια την αποσύνδεσή σας.",
	"Changing Time zone may cause you to be logged out.": "Η αλλαγή της ζώνης ώρας μπορεί να έχει ως συνέπεια την αποσύνδεσή σας.",
	"Charts": "Γραφήματα",
	"Check Temperature sensors. -40 means errors when reading Temperature sensors": "Ελέγξτε τους αισθητήρες θερμοκρασίας. Η τιμή -40 σημαίνει ότι υπάρχει σφάλμα στους αισθητήρες θερμοκρασίας",
	"Check for Update": "Έλεγχος για ενημέρωση",
	"Check the account number you entered.": "Ελέγξτε τον αριθμό λογαριασμού που καταχωρίσατε.",
	"Check whether two passwords are same": "Ελέγξτε εάν οι δύο κωδικοί είναι ίδιοι",
	"Check your URL input": "Ελέγξτε τη διεύθυνση URL που πληκτρολογήσατε",
	"CheckScreen": "Έλεγχος οθόνης",
	"Checking for update...": "Πραγματοποιείται έλεγχος για ενημέρωση…",
	"Chicago": "Σικάγο",
	"Chihuahua": "Τσιουάουα",
	"Chile": "Χιλή",
	"China": "Κίνα",
	"Chisinau": "Κισινάου",
	"Christmas Island": "Νησί Χριστουγέννων",
	"Cinema": "Σινεμά",
	"City": "Πόλη",
	"Close": "Κλείσιμο",
	"Close status of cabinet doors": "Κλειστή κατάσταση θυρών περιβλήματος",
	"Closed": "Κλειστό",
	"Closed Loop Fan": "Ανεμιστήρα κλειστού βρόχου",
	"ClosedLoop": "Κλειστός βρόχος",
	"Colombia": "Κολομβία",
	"Colombo": "Κολόμπο",
	"Color Temperature": "Θερμοκρασία χρώματος",
	"ColorRead": "Ανάγνωση χρώματος",
	"Column": "Στήλη",
	"Conakry": "Κόνακρι",
	"Confirm": "Επιβεβαίωση",
	"Confirm Account Number": "Επιβεβαίωση αριθμού λογαριασμού",
	"Confirm New Password": "Επιβεβαίωση νέου κωδικού πρόσβασης",
	"Confirm the account number you entered.": "Επιβεβαιώστε τον αριθμό λογαριασμού που εισαγάγατε.",
	"Connected": "Έχει συνδεθεί",
	"Content Rotation": "Περιστροφή περιεχομένου",
	"Content Rotation Status": "Κατάσταση περιστροφής περιεχομένου",
	"Content Rotation is ON": "Η λειτουργία περιστροφής περιεχομένου είναι ενεργοποιημένη",
	"Content is rotated": "Το περιεχόμενο έχει περιστραφεί",
	"Contents rotation is ON": "Η περιστροφή περιεχομένων είναι ΕΝΕΡΓΟΠΟΙΗΜΕΝΗ",
	"Continent": "Ήπειρος",
	"Contrast": "Αντίθεση",
	"Control": "Έλεγχος",
	"Control Item": "Στοιχείου ελέγχου",
	"Control Type": "Τύπος ελέγχου",
	"Cool": "Απαλό",
	"Copenhagen": "Κοπεγχάγη",
	"Costa Rica": "Κόστα Ρίκα",
	"Country/Territory": "Χώρα/Επικράτεια",
	"Croatia": "Κροατία",
	"Cuba": "Κούβα",
	"Cuiabá": "Κουιάμπα",
	"Current": "Ρεύμα",
	"Current Fan RPM": "Τρέχον rpm ανεμιστήρα",
	"Current Password": "Τρέχων κωδικός πρόσβασης",
	"Current Picture mode does not support changing color temperature. Please select \"Expert\" of \"Calibration\" mode to adjust the color temperature.": "Η τρέχουσα λειτουργία εικόνας δεν υποστηρίζει την αλλαγή θερμοκρασίας χρώματος. Επιλέξτε τη λειτουργία \"Expert\" από τη \"Βαθμονόμηση\" για να προσαρμόσετε τη θερμοκρασία χρώματος.",
	"Current Ver.": "Τρέχουσα έκδοση",
	"Current Version": "Τρέχουσα έκδοση",
	"Custom": "Προσαρμογή",
	"Cut Left Edge": "Αποκοπή αριστερής άκρης",
	"Cut Right Edge": "Αποκοπή δεξιάς άκρης",
	"Cyprus": "Κύπρος",
	"Czech": "Τσεχικά",
	"Czech Republic": "Δημοκρατία της Τσεχίας",
	"Côte d'Ivoire": "Ακτή Ελεφαντοστού",
	"DHCP State": "Κατάσταση DHCP",
	"DNS Server": "Διακομιστής DNS",
	"DOWNLOAD LOG": "ΛΗΨΗ ΑΡΧΕΙΟΥ ΚΑΤΑΓΡΑΦΗΣ",
	"DOWNLOAD LOG FILE": "ΛΗΨΗ ΑΡΧΕΙΟΥ ΚΑΤΑΓΡΑΦΗΣ",
	"DPM (Standby Mode)": "DPM (Λειτουργία αναμονής)",
	"Daisy Direction": "Κατεύθυνση αρθρωτής σύνδεσης",
	"Daisy Start by": "Έναρξη αρθρωτής σύνδεσης από",
	"Dakar": "Ντακάρ",
	"Damage Detection": "Ανίχνευση βλάβης",
	"Damaged": "Έχει βλάβη",
	"Damascus": "Δαμασκός",
	"Darwin": "Ντάργουιν",
	"Dashboard": "Πίνακας εργαλείων",
	"Data is not collected now. wait for maximum 60 seconds": "Προς το παρόν τα δεδομένα δεν συλλέγονται. Περιμένετε έως 60 δευτερόλεπτα.",
	"Date": "Ημερομηνία",
	"Dawson": "Ντόσον",
	"Dawson Creek": "Ντόσον Κρικ",
	"Day": "Ημέρα",
	"Daylight Saving Time": "Θερινή ώρα",
	"Days": "Ημέρες",
	"December": "Δεκέμβριος",
	"Default": "Προεπιλογή",
	"Default size": "Προεπιλεγμένο μέγεθος",
	"Delete": "Διαγραφή",
	"Delete Mini Module": "Διαγραφή μίνι μονάδας",
	"Delete Slave Controller": "Διαγραφή δευτερεύοντος ελεγκτή",
	"Delete Unit": "Διαγραφή μονάδας",
	"Delete the file": "Διαγραφή του αρχείου",
	"Delete?": "Διαγραφή;",
	"Democratic Republic Of The Congo": "Λαϊκή Δημοκρατία του Κονγκό",
	"Denmark": "Δανία",
	"Denver": "Ντένβερ",
	"Details of Unit": "Στοιχεία μονάδας",
	"Detroit": "Ντετρουά",
	"Device Control": "Έλεγχος συσκευής",
	"Dhaka": "Ντάκα",
	"Digital Board Reboot": "Επανεκκίνηση Digital Board",
	"Dili": "Ντίλι",
	"Disconnected": "Αποσυνδέθηκε",
	"Display": "Προβολή",
	"Display & Sound": "Οθόνη και ήχος",
	"Display & sound": "Οθόνη & ήχος",
	"Do not reboot in Device page.": "Μην πραγματοποιήσετε επανεκκίνηση στη σελίδα της Συσκευής.",
	"Do you want to delete the item?": "Θέλετε να διαγραφεί το στοιχείο;",
	"Do you want to delete the selected file?": "Θέλετε να διαγραφεί το επιλεγμένο αρχείο;",
	"Do you want to delete this LED FPGA Update file?": "Θέλετε να διαγράψετε αυτό το αρχείο ενημέρωσης FPGA LED;",
	"Do you want to delete this S/W Update file?": "Θέλετε να διαγράψετε αυτό το αρχείο ενημέρωσης λογισμικού;",
	"Do you want to install this S/W Update file?": "Θέλετε να εγκαταστήσετε αυτό το αρχείο ενημέρωσης λογισμικού;",
	"Do you want to proceed?": "Θέλετε να συνεχίσετε;",
	"Do you want to set the time & date?": "Θέλετε να ρυθμίσετε την ώρα και την ημερομηνία;",
	"Do you want to set the time or date automatically?": "Θέλετε να γίνει αυτόματη ρύθμιση της ώρας ή της ημερομηνίας;",
	"Dodoma": "Ντοντόμα",
	"Doha": "Ντόχα",
	"Dominica": "Ντομίνικα",
	"Dominican Republic": "Δομινικανή Δημοκρατία",
	"Done": "Τέλος",
	"Door": "Άνοιγμα",
	"Door Control": "Έλεγχος θυρών",
	"Door Monitor": "Παρακολούθηση θυρών",
	"Door Open": "Ανοιχτή θύρα",
	"Door Sensor": "Αισθητήρας πόρτας",
	"Door Sensor Status": "Κατάσταση αισθητήρα θυρών",
	"Door xxx is opened": "Η θύρα xxx είναι ανοιχτή",
	"Douala": "Ντουάλα",
	"Draw": "Σχεδίαση",
	"Dubai": "Ντουμπάι",
	"Dublin": "Δουβλίνο",
	"Duplicated Unit ID": "Διπλότυπο αναγνωριστικό μονάδας",
	"Duration": "Διάρκεια",
	"Dushanbe": "Ντουσανμπέ",
	"Dynamic Brightness": "Δυναμική φωτεινότητα",
	"Dynamic Brightness Control": "Έλεγχος δυναμικής φωτεινότητας",
	"Easter Island": "Νήσος του Πάσχα",
	"Ecuador": "Ισημερινός",
	"Edit": "Επεξεργασία",
	"Edmonton": "Έντμοντον",
	"Education": "Εκπαίδευση",
	"Egypt": "Αίγυπτος",
	"El Salvador": "Ελ Σαλβαδόρ",
	"Enable or disable Signage 365 Care services on this device": "Ενεργοποίηση ή απενεργοποίηση υπηρεσιών Signage 365 Care σε αυτήν τη συσκευή",
	"Enable or disable {apptitle} service on this device": "Ενεργοποίηση ή απενεργοποίηση υπηρεσίας {apptitle} σε αυτήν τη συσκευή",
	"End": "Τέλος",
	"End Time": "Ώρα λήξης",
	"Energy Saving": "Εξοικονόμηση ενέργειας",
	"Enter Account Number": "Εισαγωγη Αριθμου Λογαριασμου",
	"Enter the account number to activate Signage 365 Care.": "Εισαγάγετε τον αριθμό λογαριασμού για ενεργοποίηση της υπηρεσίας Φροντίδα Signage 365 ημέρες το χρόνο.",
	"Enter the account number to activate {apptitle}.": "Εισαγάγετε τον αριθμό λογαριασμού για ενεργοποίηση της εφαρμογής {apptitle}.",
	"Enter the following": "Εισαγάγετε τα εξής",
	"Enter the network address to ping": "Εισαγάγετε τη διεύθυνση δικτύου για τη δοκιμή ping",
	"Equatorial Guinea": "Ισημερινή Γουινέα",
	"Eritrea": "Ερυθραία",
	"Estonia": "Εσθονία",
	"Ethiopia": "Αιθιοπία",
	"Europe": "Ευρώπη",
	"Event": "Συμβάν",
	"Exit": "Έξοδος",
	"Export": "Εξαγωγή",
	"External": "Εξωτερικό",
	"External Input Rotation": "Περιστροφή εξωτερικής πηγής εισόδου",
	"External Input Rotation Status": "Κατάσταση περιστροφής εξωτερικής πηγής εισόδου",
	"External Input Rotation is ON": "Η περιστροφή εξωτερικής πηγής εισόδου είναι ενεργοποιημένη",
	"EyeQ sensor": "Αισθητήρας EyeQ",
	"FPGA Version": "Έκδοση FPGA",
	"Factory Reset": "Επαναφορά στις εργοστασιακές ρυθμίσεις",
	"Fail": "Αποτυχία",
	"Fail Over": "Αυτομ. Εναλλαγή. Εισόδου",
	"Fail to update. Check xxx file please.": "Η ενημέρωση απέτυχε. Ελέγξτε το αρχείο xxx.",
	"Failed to update LED FPGA with xxx. Check the file please": "Η ενημέρωση του FPGA LED με το xxx απέτυχε. Ελέγξτε το αρχείο",
	"Failed to update LED FPGA with xxx. Check the status of the unit controller.": "Η ενημέρωση του LED FPGA σε xxx απέτυχε. Ελέγξτε την κατάσταση του ελεγκτή της μονάδας.",
	"Failed to update fan micom with xxx. Check the file please": "Η ενημέρωση του Micom ανεμιστήρα με το xxx απέτυχε. Ελέγξτε το αρχείο",
	"Fan": "Ανεμιστήρας",
	"Fan Micom Version": "Έκδοση Micom ανεμιστήρα",
	"Fan RPM": "RPM ανεμιστήρα",
	"Fan RPM history is not yet collected": "Δεν έχει γίνει λήψη του ιστορικού rpm ανεμιστήρα",
	"Fan Status": "Κατάσταση ανεμιστήρα",
	"February": "Φεβρουάριος",
	"Fernando de Noronha": "Φερνάρντο ντε Νορόνια",
	"Fiji": "Φίτζι",
	"File Name": "Όνομα αρχείου",
	"File Select": "Επιλογή αρχείου",
	"File Upload Progress": "Πρόοδος αποστολής αρχείου",
	"File upload via mobile devices does not support.": "Η μεταφόρτωση αρχείων μέσω φορητών συσκευών δεν υποστηρίζεται.",
	"Finland": "Φινλανδία",
	"First Use": "Πρώτη χρήση",
	"Flash memory is not enough.": "Ανεπαρκής μνήμη flash.",
	"For your security, we recommend to change default password. Would you like to change your password now?": "Για τη δική σας ασφάλεια, συνιστάται να αλλάξετε τον προεπιλεγμένο κωδικό πρόσβασης. Θέλετε να αλλάξετε τον κωδικό πρόσβασης τώρα;",
	"Fortaleza": "Φορταλέτσα",
	"Frame": "Πλαίσιο",
	"France": "Γαλλία",
	"Freetown": "Φριτάουν",
	"French Polynesia": "Γαλλική Πολυνησία",
	"Fri": "Παρ",
	"Friday": "Παρασκευή",
	"Front": "Μπροστά",
	"Full": "Πλήρης",
	"Gabon": "Γκαμπόν",
	"Gaborone": "Γκαμπορόνε",
	"Gambia": "Γκάμπια",
	"Gambier": "Γκάμπιερ",
	"Game": "Παιχνίδι",
	"Gamma": "Γάμμα",
	"Gamut Matrix": "Παλέτα χρωμάτων",
	"Gateway": "Πύλη",
	"General": "Γενικά",
	"Georgia": "Γεωργία",
	"Germany": "Γερμανία",
	"Ghana": "Γκάνα",
	"Gibraltar": "Γιβραλτάρ",
	"Glace Bay": "Κόλπος Glace",
	"Go To First Use": "Μετάβαση στην Πρώτη χρήση",
	"Godthab": "Γκόντθαμπ",
	"Gov./Corp.": "Δημ./Εταιρ.",
	"Greece": "Ελλάδα",
	"Greenland": "Γροιλανδία",
	"Guadalcanal": "Γκουανταλκανάλ",
	"Guadeloupe": "Γουαδελούπη",
	"Guam": "Γκουάμ",
	"Guatemala": "Γουατεμάλα",
	"Guatemala City": "Πόλη της Γουατεμάλας",
	"Guayaquil": "Γκουαγιακουίλ",
	"Guernsey": "Γκουέρνσεϊ",
	"Guinea": "Γουινέα",
	"Guinea Bissau": "Γουινέα-Μπισάου",
	"Guyana": "Γουιάνα",
	"Haiti": "Αϊτή",
	"Halifax": "Χάλιφαξ",
	"Harare": "Χαράρε",
	"Havana": "Αβάνα",
	"Height": "Ύψος",
	"Helsinki": "Ελσίνκι",
	"Hermosillo": "Χερμοσίλο",
	"High": "Υψηλή",
	"History is not yet collected": "Δεν έχει γίνει λήψη του ιστορικού",
	"Ho Chi Minh": "Χο Τσι Μινχ",
	"Hobart": "Χόμπαρτ",
	"Home": "Σπίτι",
	"Honduras": "Ονδούρα",
	"Hong Kong": "Χονγκ Κονγκ",
	"Honolulu": "Χονολουλού",
	"Horizontal": "Οριζόντια",
	"Hour": "Ώρα",
	"Hours": "Ώρες",
	"Humidity": "Υγρασία",
	"Hungary": "Ουγγαρία",
	"ID": "Αναγνωριστικό",
	"ID/password": "Αναγνωριστικό / κωδικός πρόσβασης",
	"IMB Settings": "Ρυθμίσεις IMB",
	"IMB Status": "Κατάσταση IMB",
	"IP Address": "Διεύθυνση IP",
	"Iceland": "Ισλανδία",
	"Image": "Εικόνα",
	"Impact": "Χτύπημα",
	"Incorrect Password entered. Please try again.": "Εισαγάγατε λανθασμένο κωδικό. Δοκιμάστε ξανά.",
	"India": "Ινδία",
	"Indianapolis": "Iνδιανάπολη",
	"Indonesia": "Ινδονησία",
	"Information": "Πληροφορίες",
	"Input": "Είσοδος",
	"Input 6 or more characters": "Καταχωρίστε 6 ή περισσότερους χαρακτήρες",
	"Input Direction": "Κατεύθυνση δεδομένων εισόδου",
	"Input Password": "Εισαγωγή κωδικού πρόσβασης",
	"Input Priority": "Προτεραιότητα εισόδου",
	"Input Priority Setting": "Ρύθμιση προτεραιότητας πηγής εισόδου",
	"Input Signage Name please.": "Εισαγάγετε το όνομα συσκευής Signage.",
	"Input Window": "Παράθυρο εισόδου",
	"Install": "Εγκατάστ.",
	"Install Succeeded": "Η εγκατάσταση ολοκληρώθηκε με επιτυχία",
	"Installation Failed": "Η εγκατάσταση απέτυχε",
	"Installation Menu": "Μενού εγκατάστασης",
	"Installing…": "Εγκατάσταση…",
	"Internet Not available": "Δεν υπάρχει διαθέσιμη σύνδεση στο Internet",
	"Internet available": "Διαθέσιμη σύνδεση στο Internet",
	"Invalid NEW Password. Password must be 6 characters in length.": "Ο ΝΕΟΣ κωδικός πρόσβασης δεν είναι έγκυρος. Ο κωδικός πρόσβασης πρέπει να αποτελείται από 6 χαρακτήρες.",
	"Invalid NEW Password. Password must be 8 characters in length.": "Ο ΝΕΟΣ κωδικός πρόσβασης δεν είναι έγκυρος. Ο κωδικός πρόσβασης πρέπει να αποτελείται από 8 χαρακτήρες.",
	"Invalid NEW Password. You must use a combination of letters and numbers.": "Ο ΝΕΟΣ κωδικός πρόσβασης δεν είναι έγκυρος. Πρέπει να χρησιμοποιήσετε έναν συνδυασμό γραμμάτων και αριθμών.",
	"Invalid New password. Password must be at least 8 characters.": "Μη έγκυρος νέος κωδικός πρόσβασης. Ο κωδικός πρόσβασης πρέπει να αποτελείται από τουλάχιστον 8 χαρακτήρες.",
	"Invalid New password. You must use a mixture of mixed-case letters, numbers and special characters.": "Μη έγκυρος νέος κωδικός πρόσβασης. Πρέπει να χρησιμοποιήσετε συνδυασμό πεζών-κεφαλαίων γραμμάτων, αριθμούς και ειδικούς χαρακτήρες.",
	"Invalid day value": "Μη έγκυρη τιμή ημέρας",
	"Invalid hour value": "Μη έγκυρη τιμή ώρας",
	"Invalid minute value": "Μη έγκυρη τιμή λεπτού",
	"Invalid month value": "Μη έγκυρη τιμή μήνα",
	"Invalid value": "Μη έγκυρη τιμή",
	"Invalid year value": "Μη έγκυρη τιμή έτους",
	"Iran": "Ιράν",
	"Iraq": "Ιράκ",
	"Ireland": "Ιρλανδία",
	"Irkutsk": "Ιρκούτσκ",
	"Irregular": "Ασυνήθιστη",
	"Israel": "Ισραήλ",
	"Issue History": "Ιστορικό προβλημάτων",
	"Istanbul": "Κωνσταντινούπολη",
	"Italy": "Ιταλία",
	"Jakarta": "Τζακάρτα",
	"Jamaica": "Τζαμάικα",
	"January": "Ιανουάριος",
	"Japan": "Ιαπωνία",
	"Jerusalem": "Ιερουσαλήμ",
	"Johannesburg": "Γιοχάνεσμπουργκ",
	"Jordan": "Ιορδανία",
	"July": "Ιούλιος",
	"June": "Ιούνιος",
	"Kabul": "Καμπούλ",
	"Kaliningrad": "Καλίνινγκραντ",
	"Kamchatka": "Καμτσάτκα",
	"Kampala": "Καμπάλα",
	"Karachi": "Καράτσι ",
	"Katmandu": "Κατμαντού",
	"Kazakhstan": "Καζαχστάν",
	"Kenya": "Κένυα",
	"Khartoum": "Χαρτούμ",
	"Khovd": "Κοβντ",
	"Kiev": "Κίεβο",
	"Kigali": "Κιγκάλι",
	"Kingston": "Κίνγκστον",
	"Kinshasa": "Κινσάσα",
	"Kiribati": "Κιριμπάτι",
	"Kiritimati": "Κιριμάτι",
	"Kolkata": "Καλκούτα",
	"Korea": "Κορέα",
	"Korea, Republic of": "Δημοκρατία της Κορέας",
	"Krasnoyarsk": "Κρασνογιάρσκ",
	"Kuala Lumpur": "Κουάλα Λουμπούρ",
	"Kuching": "Κουτσίνγκ",
	"Kuwait": "Κουβέιτ",
	"Kuwait City": "Κουβέιτ",
	"Kyrgyzstan": "Κιργιστάν",
	"LED Assistant Settings": "Ρυθμίσεις LED Assistant",
	"LED FPGA Update file list": "Λίστα αρχείων ενημέρωσης FPGA LED",
	"LED FPGA Updating ......": "Ενημέρωση FPGA LED…",
	"LED Features": "Λειτουργίες LED",
	"LED Film Settings": "Ρυθμίσεις ταινίας LED",
	"LED Open Detection": "Εντοπισμός ανοιχτού LED",
	"LED Settings": "Ρυθμίσεις LED",
	"LED Unit": "Μονάδα LED",
	"LED Unit Status": "Κατάσταση μονάδας LED",
	"LG ConnectedCare App": "Εφαρμογή LG ConnectedCare",
	"LG ConnectedCare app": "Εφαρμογή LG ConnectedCare",
	"LG Control Manager": "Διαχειριστής ελέγχου LG",
	"La Paz": "Λα Παζ",
	"Lagos": "Λάγος",
	"Landscape": "Οριζόντιος",
	"Language": "Γλώσσα",
	"Laos": "Λάος",
	"Large": "Μεγάλο",
	"Last": "Τελευταία",
	"Latvia": "Λετονία",
	"Layout": "Διάταξη",
	"Layout Editor": "Επεξεργασία διάταξης",
	"Lebanon": "Λίβανο",
	"Lesotho": "Λεσότο",
	"Liberia": "Λιμπέρια",
	"Libreville": "Λιμπρεβίλ",
	"Libya": "Λιβύη",
	"Liechtenstein": "Λίχτενσταϊν",
	"Lima": "Λίμα",
	"Lisbon": "Λισαβώνα",
	"Lithuania": "Λιθουανία",
	"Ljubljana": "Λιουμπλιάνα",
	"Loading": "Φόρτωση",
	"Loading...": "Φόρτωση…",
	"Loading…": "Φόρτωση…",
	"Location": "Τοποθεσία",
	"Log": "Αρχείο καταγραφής",
	"Log Report": "Αναφορά αρχείου καταγραφής",
	"Log after Power Up": "Αρχείο καταγραφής μετά την ενεργοποίηση",
	"Log in with the authorized ID and password.": "Συνδεθείτε με το εγκεκριμένο αναγνωριστικό και τον εγκεκριμένο κωδικό πρόσβασης.",
	"Login": "Σύνδεση",
	"Login is required.": "Απαιτείται σύνδεση.",
	"Logout": "Αποσύνδεση",
	"Lome": "Λομέ",
	"London": "Λονδίνο",
	"Los Angeles": "Λος Άντζελες",
	"Louisville": "Λούισβιλ",
	"Low": "Χαμηλή",
	"Luanda": "Λουάντα",
	"Lubumbashi": "Λουμπουμπάσι",
	"Lusaka": "Λουσάκα",
	"Luxembourg": "Λουξεμβούργο",
	"MAC Address": "Διεύθυνση MAC",
	"Macao": "Μακάου",
	"Macedonia": "ΠΓΔΜ",
	"Madagascar": "Μαδαγασκάρη",
	"Madeira": "Μαδέρα",
	"Madrid": "Μαδρίτη",
	"Magadan": "Μάγκανταν",
	"Main": "Κύρια",
	"Malabo": "Μαλάμπο",
	"Malawi": "Μαλάουι",
	"Malaysia": "Μαλαισία",
	"Maldives": "Μαλδίβες",
	"Mali": "Μάλι",
	"Malta": "Μάλτα",
	"Manage": "Διαχείριση",
	"Managua": "Μανάγκουα",
	"Manaus": "Μανάους",
	"Manila": "Μανίλα",
	"Manual": "Μη αυτόματο",
	"Maputo": "Μαπούτο",
	"March": "Μάρτιος",
	"Marquesas": "Μαρκέζας",
	"Marriage Guide (2 Steps)": "Οδηγός για το Marriage (2 βήματα)",
	"Marriage Status": "Κατάσταση Marriage",
	"Marshall Islands": "Νησιά Μάρσαλ",
	"Martinique": "Μαρτινίκα",
	"Maseru": "Μαζέρου",
	"Master": "Κύρια",
	"Mauritius": "Μαυρίκιος",
	"Max Backlight": "Μέγ. οπισθοφωτισμός",
	"Maximum": "Μέγιστο",
	"May": "Μάιος",
	"Mayotte": "Μαγιότ",
	"Mazatlán": "Μαζατλάν",
	"Mbabane": "Μπαμπάνε",
	"Media Library": "Συλλογή μέσων",
	"Media file List": "Λίστα αρχείων μέσων",
	"Media file Upload (XXX GB available)": "Αποστολή αρχείου μέσων (διαθέσιμα XXX GB)",
	"Medium": "Μεσαία",
	"Melbourne": "Μελβούρνη",
	"Menu Language": "Γλώσσα μενού",
	"Mexico": "Μεξικό",
	"Mexico City": "Πόλη του Μεξικού",
	"Micom Progress": "Πρόοδος Micom",
	"Micom Update": "Ενημέρωση Micom",
	"Micom Version": "Έκδοση Micom",
	"Middle East": "Μέση Ανατολή",
	"Min Backlight": "Ελάχ. οπισθοφωτισμός",
	"Mini Module": "Μίνι μονάδα",
	"Minimum": "Ελάχιστο",
	"Minimum = XXms, Maximum = YYms, Average = ZZms": "Ελάχιστος = XX ms, Μέγιστος = YY ms, Μέσος όρος = ZZ ms",
	"Mins": "Λεπτά",
	"Minsk": "Μινσκ",
	"Model Name": "Όνομα μοντέλου",
	"Module Calibration": "Βαθμονόμηση μονάδας",
	"Module Calibration is modified. Exit without saving?": "Η βαθμονόμηση μονάδας τροποποιήθηκε. Έξοδος χωρίς αποθήκευση;",
	"Module Size": "Μέγεθος μονάδας",
	"Modules": "Λειτουργικές μονάδες",
	"Mogadishu": "Μογκαντίσου",
	"Moldova": "Μολδαβία",
	"Mon": "Δευ",
	"Monaco": "Μονακό",
	"Moncton": "Μόνκτον",
	"Monday": "Δευτέρα",
	"Mongolia": "Μονγκολία",
	"Monrovia": "Μονροβία",
	"Montenegro": "Μαυροβούνιο",
	"Monterrey": "Μοντερέυ",
	"Montevideo": "Μοντεβίδεο",
	"Month": "Μήνας",
	"Montréal": "Μόντρεαλ",
	"More": "Περισσότερα",
	"Morocco": "Μαρόκο",
	"Moscow": "Μόσχα",
	"Motion": "Κίνηση",
	"Mozambique": "Μοζαμβίκη",
	"Muscat": "Μουσκάτ",
	"Mute": "Σίγαση",
	"Myanmar": "Μιανμάρ",
	"Mérida": "Μέριδα",
	"NG": "Όχι καλή",
	"NO": "ΟΧΙ",
	"NOT AVAILABLE": "ΔΕΝ ΔΙΑΤΙΘΕΤΑΙ",
	"Nairobi": "Ναϊρόμπι",
	"Name": "Όνομα",
	"Namibia": "Ναμίμπια",
	"Nassau": "Νασάου",
	"Natural Mode": "Φυσική λειτουργία",
	"Natural Size": "Φυσικό μέγεθος",
	"Ndjamena": "Ντζαμένα",
	"Nepal": "Νεπάλ",
	"Netherlands": "Ολλανδία",
	"Network": "Δίκτυο",
	"Network Ready": "Δίκτυο έτοιμο για χρήση",
	"Network Settings": "Ρυθμίσεις δικτύου",
	"New Caledonia": "Νέα Καληδονία",
	"New Password": "Νέος κωδικός πρόσβασης",
	"New Password and Confirm Password do not match.": "Ο νέος κωδικός πρόσβασης και ο κωδικός επιβεβαίωσης δεν συμφωνούν.",
	"New York": "Νέα Υόρκη",
	"New Zealand": "Νέα Ζηλανδία",
	"Newer Ver.": "Νεότερη έκδοση",
	"Next": "Επόμενο",
	"Next Day": "Επόμενη ημέρα",
	"Niamey": "Νιαμέι",
	"Nicaragua": "Νικαράγουα",
	"Nicosia": "Λευκωσία",
	"Niger": "Νίγηρας",
	"Nigeria": "Νιγηρία",
	"Nipigon": "Νιπιγκόν",
	"No": "Όχι",
	"No Signal": "Χωρίς σήμα",
	"No backup files exist in storage device.": "Δεν υπάρχουν αρχεία αντιγράφου ασφαλείας στη συσκευή αποθήκευσης.",
	"None": "Καμία",
	"Normal": "Κανονική",
	"North America": "Βόρεια Αμερική",
	"North Korea": "Βόρεια Κορέα",
	"Norway": "Νορβηγία",
	"Not Connected": "Χωρίς σύνδεση",
	"Notification": "Ειδοποίηση",
	"Nouméa": "Νουμέα",
	"November": "Νοέμβριος",
	"Novosibirsk": "Νοβοσιμπίρσκ",
	"Number": "Αριθμός",
	"OFF": "Απενεργ.",
	"OLED LIGHT": "Λυχνία OLED",
	"OLED Light": "Λυχνία OLED",
	"ON": "ΕΝΕΡΓΟΠΟΙΗΣΗ",
	"OSD Portrait Mode": "Λειτουργία κατακόρυφου προσανατολισμού OSD",
	"OSD Portrait Mode is ON": "Η λειτουργία κατακόρυφου προσανατολισμού OSD είναι ενεργοποιημένη",
	"OSD Portrait Status": "Κατάσταση κατακόρυφου OSD",
	"OSD Portrait mode is xxx": "Η λειτουργία κατακόρυφου OSD είναι xxx",
	"OSD Rotation is ON": "Η περιστροφή OSD είναι ΕΝΕΡΓΟΠΟΙΗΜΕΝΗ",
	"Occurrence Time": "Ώρα συμβάντος",
	"Oceania": "Ωκεανία",
	"October": "Οκτώβριος",
	"Off": "Απενεργοποίηση",
	"Off Until Reset": "Απενεργοποίηση μέχρι την επαναφορά",
	"Off When Open": "Απενεργοποίηση όταν είναι ανοιχτή",
	"Oman": "Ομάν",
	"Omsk": "Ομσκ",
	"On": "Ενεργοποίηση",
	"On When Open": "Ενεργοποίηση όταν είναι ανοιχτή",
	"Open Loop Fan": "Ανεμιστήρα ανοιχτού βρόχου",
	"OpenLoop": "Ανοιχτός βρόχος",
	"Opened": "Ανοιχτό",
	"Oranjestad": "Οράνιεσταντ",
	"Original": "Αρχική",
	"Oslo": "Όσλο",
	"Ouagadougou": "Ουαγκαντουγκού",
	"Output Window": "Παράθυρο εξόδου",
	"OverHeat": "Υπερθέρμανση",
	"Overwrite": "Αντικατάσταση",
	"Overwrite xxx?": "Αντικατάσταση του xxx;",
	"Overwrite?": "Αντικατάσταση;",
	"PM": "ΜΜ",
	"PM Mode": "Λειτουργία PM",
	"Pacific": "Ειρηνικός",
	"Packets : Sent = XX. Received = YY. Lost = ZZ (WW% loss)": "Πακέτα: Απεσταλμένα = XX. Ληφθέντα = YY. Απολεσθέντα = ZZ (απώλεια WW%)",
	"Pakistan": "Πακιστάν",
	"Palau": "Παλάου",
	"Panama": "Παναμάς",
	"Panama City": "Πόλη του Παναμά",
	"Panel": "Οθόνη",
	"Papua New Guinea": "Παπούα Νέα Γουινέα",
	"Paraguay": "Παραγουάη",
	"Paramaribo": "Παραμαρίμπο",
	"Paris": "Παρίσι",
	"Password": "Κωδικός πρόσβασης",
	"Password is incorrect. Please Try Again": "Λανθασμένος κωδικός πρόσβασης. Δοκιμάστε ξανά",
	"Password is incorrect. Please try again.": "Λανθασμένος κωδικός πρόσβασης. Δοκιμάστε ξανά.",
	"Perth": "Περθ",
	"Peru": "Περού",
	"Philippines": "Φιλιππίνες",
	"Phnom Penh": "Πνομ Πεν",
	"Phoenix": "Φοίνιξ",
	"Picture": "Εικόνα",
	"Picture Mode": "Λειτουργία εικόνας",
	"Picture Settings": "Ρυθμίσεις εικόνας",
	"Ping Test": "Τεστ Ping",
	"Ping statistics for [X.X.X.X]": "Στατιστικά δοκιμής ping για [X.X.X.X]",
	"Ping test failed. Invalid format of network address field.": "Το τεστ Ping απέτυχε. Μη έγκυρη μορφή πεδίου διεύθυνσης δικτύου.",
	"Ping test is in progress": "Δοκιμή ping σε εξέλιξη",
	"Ping test result": "Αποτέλεσμα δοκιμής ping",
	"Pinging [X.X.X.X] with YYY bytes of data": "Αποστολή δοκιμής ping σε [X.X.X.X] με δεδομένα YYY byte",
	"Play": "Αναπαραγωγή",
	"Play via URL": "Αναπαραγωγή μέσω URL",
	"Please Keep this Signage on.": "Διατηρήστε τη συσκευή Signage ενεργοποιημένη.",
	"Please check the following items and try again.": "Ελέγξτε τα παρακάτω στοιχεία και δοκιμάστε ξανά.",
	"Please check the installation file and try again.": "Ελέγξτε την εγκατάσταση του αρχείου και δοκιμάστε ξανά.",
	"Please choose a file to upload": "Επιλέξτε αρχείο για αποστολή",
	"Please choose a video file to upload": "Επιλέξτε αρχείο βίντεο για αποστολή",
	"Please don't turn off the device and wait until the installation is completed.": "Μην απενεργοποιήσετε τη συσκευή. Περιμένετε να ολοκληρωθεί η εγκατάσταση.",
	"Please don’t turn off the device. And wait while process is completed.": "Μην απενεργοποιήσετε τη συσκευή. Περιμένετε μέχρι να ολοκληρωθεί η διαδικασία.",
	"Please enter the authorized ID and password.": "Εισαγάγετε το εγκεκριμένο αναγνωριστικό χρήστη και τον εγκεκριμένο κωδικό πρόσβασης.",
	"Please login again.": "Συνδεθείτε ξανά.",
	"Please press the physical marriage button.": "Πατήστε το κουμπί του φυσικού Marriage.",
	"Please restart the marriage authentication process.": "Επανεκκινήστε τη διαδικασία ελέγχου ταυτότητας Marriage.",
	"Please select city": "Επιλέξτε πόλη",
	"Please select country": "Επιλέξτε χώρα",
	"Please upload S/W update file via PC browser.": "Μεταφορτώστε το αρχείο ενημέρωσης λογισμικού μέσω του προγράμματος περιήγησης του υπολογιστή.",
	"Podgorica": "Ποντγκόριτσα",
	"Poland": "Πολωνία",
	"Port": "Θύρα",
	"Port Louis": "Πορ Λουί",
	"Port Moresby": "Πορτ Μόρεσμπι",
	"Port Number": "Αριθμός θύρας",
	"Port Settings": "Ρυθμίσεις θύρας",
	"Port of Spain": "Πορτ-οφ-Σπέιν",
	"Port-au-Prince": "Πορτ-ο-Πρενς ",
	"Porto Novo": "Πόρτο Νόβο",
	"Porto Velho": "Πόρτο Βέλχο",
	"Portrait": "Κατακόρυφος",
	"Portrait Mode": "Κατακόρυφη λειτουργία",
	"Portugal": "Πορτογαλία",
	"Position": "Θέση",
	"Power": "Λειτουργία",
	"Power Off": "Απενεργοποίηση",
	"Power Off Management": "Διαχείριση απενεργοποίησης",
	"Power Off(Default)": "Απενεργοποίηση (Προεπιλογή)",
	"Power Rack": "Rack τροφοδοσίας",
	"Power Rack Settings": "Ρυθμίσεις τροφοδοσίας rack",
	"Prague": "Πράγα",
	"Praia": "Πράια",
	"Press the physical marriage button on your master cabinet.": "Πατήστε το κουμπί του φυσικού Marriage στο κύριο περίβλημα.",
	"Pressing Start will give you 1 minute to perform the process.": "Πατώντας Έναρξη θα έχετε 1 λεπτό για να εκτελέσετε τη διαδικασία.",
	"Prev DAY": "Προηγούμενη ημέρα",
	"Prev.": "Προηγούμενο",
	"Preview": "Προεπισκόπηση",
	"Priority": "Προτεραιότητα",
	"Puerto Rico": "Πουέρτο Ρίκο",
	"Pyongyang": "Πιονγκ Γιανγκ",
	"Qatar": "Κατάρ",
	"Rainy River": "Ρέινι Ρίβερ",
	"Rearrange": "Αναδιάταξη",
	"Reboot": "Επανεκκίνηση",
	"Reboot?": "Επανεκκίνηση;",
	"Rebooting": "Επανεκκίνηση…",
	"Recife": "Ρεσίφε",
	"Reference Resolution": "Ανάλυση αναφοράς",
	"Refresh": "Ανανέωση",
	"Regina": "Ρετζίνα",
	"Regular": "Κανονική",
	"Rejected": "Απορρίφθηκε",
	"Remember me": "Απομνημόνευση στοιχείων",
	"Rename": "Μετονομασία",
	"Rename or Overwrite?": "Μετονομασία ή αντικατάσταση;",
	"Rename to {{filename (2)}} or Overwrite?": "Μετονομασία σε {{filename (2)}} ή αντικατάσταση;",
	"Reply from [X.X.X.X] : bytes = YY, time = ZZms, TTL = WW": "Απόκριση από [X.X.X.X]: byte = YY, χρόνος = ZZ ms, TTL = WW",
	"Republic Of The Congo": "Δημοκρατία του Κονγκό",
	"Request timed out.": "Το χρονικό όριο του αιτήματος έληξε.",
	"Require Network Settings": "Απαιτούνται ρυθμίσεις δικτύου",
	"Required Marriage": "Απαιτούμενο Marriage",
	"Reset": "Επαναφορά",
	"Reset All": "Επαναφορά όλων",
	"Reset Mute": "Επαναφορά σίγασης",
	"Reset Mute' is Needed": "Απαιτείται επαναφορά σίγασης",
	"Reset to factory reset": "Επαναφορά στις εργοστασιακές ρυθμίσεις",
	"Reykjavik": "Ρέικιαβικ",
	"Riga": "Ρίγα",
	"Riyadh": "Ριάντ",
	"Romania": "Ρουμανία",
	"Rome": "Ρώμη",
	"Rotation": "Περιστροφή",
	"Row": "Σειρά",
	"Run Time": "Χρόνος εκτέλεσης",
	"Run Time Since Last Power Up": "Χρόνος λειτουργίας από την τελευταία ενεργοποίηση",
	"Russia": "Ρωσία",
	"Rwanda": "Ρουάντα",
	"S/W Update": "Ενημέρωση λογισμικού",
	"S/W Update File list": "Λίστα αρχείων ενημέρωσης λογισμικού",
	"S/W Update file list": "Λίστα αρχείων ενημέρωσης λογισμικού",
	"S/W Update succeeded": "Επιτυχής ενημέρωση λογισμικού",
	"S/W Updating": "Ενημέρωση λογισμικού…",
	"S/W Updating......": "Ενημέρωση λογισμικού…",
	"S/W Ver.": "Έκδοση λογισμικού",
	"S/W update file does not exist.": "Το αρχείο ενημέρωσης λογισμικού δεν υπάρχει.",
	"S/W will update. Do you want to continue?": "Θα γίνει ενημέρωση του λογισμικού. Θέλετε να συνεχίσετε;",
	"SCREEN": "ΟΘΟΝΗ",
	"SI App / Play via URL": "Εφαρμογή SI / Αναπαραγωγή μέσω URL",
	"Saint Lucia": "Αγία Λουκία",
	"Sakhalin": "Σαχαλίνη",
	"Samara": "Σαμάρα",
	"Samarkand": "Σαμαρκάντ",
	"Samoa": "Σαμόα",
	"San Salvador": "Σαν Σαλβαδόρ",
	"Santiago": "Σαντιάγκο",
	"Santo Domingo": "Άγιος Δομίνικος",
	"Sarajevo": "Σεράγεβο",
	"Sat": "Σαβ",
	"Saturday": "Σάββατο",
	"Saudi Arabia": "Σαουδική Αραβία",
	"Save": "Αποθήκευση",
	"Scoresbysund": "Σκορσμπισάντ",
	"Screen": "Οθόνη",
	"Screen Configuration": "Διαμόρφωση οθόνης",
	"Screen Fault Detection": "Εντοπισμός σφάλματος οθόνης",
	"Screen Off": "Οθόνη απενεργοποιημένη",
	"Screen Off & Backlight": "Απενεργοποίηση οθόνης και Οπισθοφωτισμός",
	"Screen Off & Backlight On": "Απενεργοποίηση οθόνης και Ενεργοποίηση οπισθοφωτισμού",
	"Screen Off Always": "Απενεργοποίηση οθόνης πάντα",
	"Screen Power Off": "Απενεργοποίηση οθόνης",
	"Screen Rotation": "Περιστροφή οθόνης",
	"Screen Rotation Status": "Κατάσταση περιστροφής οθόνης",
	"Screen Rotation is ON": "Η λειτουργία περιστροφής οθόνης είναι ενεργοποιημένη",
	"ScreenOn": "Ενεργοποίηση οθόνης",
	"Select File": "Επιλογή αρχείου",
	"Select Input Source": "Επιλογή πηγής εισόδου",
	"Select a file to upload": "Επιλέξτε αρχείο για αποστολή",
	"Select media file": "Επιλογή αρχείου μέσων",
	"Senegal": "Σενεγάλη",
	"Sensor": "Αισθητήρας",
	"Seoul": "Σεούλ",
	"September": "Σεπτέμβριος",
	"Serbia": "Σερβία",
	"Serial Number": "Σειριακός αριθμός",
	"Server Status": "Κατάσταση διακομιστή",
	"Set": "Ρύθμιση",
	"Set Automatically": "Αυτόματη ρύθμιση",
	"Set ID": "Ορισμός αναγνωριστικού",
	"Set Master": "Ορισμός κύριου",
	"Set Slave": "Ορισμός δευτερεύοντος",
	"Set URL": "Ορισμός URL",
	"Setting": "Ρύθμιση",
	"Show Color": "Εμφάνιση χρώματος",
	"Sierra Leone": "Σιέρα Λεόνε",
	"Sigane Name is Too Long": "Μακροσκελές όνομα συσκευής Signage",
	"Sign in": "Είσοδος",
	"Signage 365 Care App": "Εφαρμογή Signage 365 Care",
	"Signage Name": "Όνομα συσκευής Signage",
	"Signal": "Σήμα",
	"Simferopol": "Συμφερόπολη",
	"Singapore": "Σιγκαπούρη",
	"Size": "Μέγεθος",
	"Skopje": "Σκόπια",
	"Slave": "Δευτερεύουσα",
	"Slovakia": "Σλοβακία",
	"Slovenia": "Σλοβενία",
	"Small": "Μικρό",
	"Sofia": "Σόφια",
	"Software Version": "Έκδοση λογισμικού",
	"Solomon Islands": "Νήσοι Σολομώντα ",
	"Somalia": "Σομαλία",
	"Sound Control": "Έλεγχος ήχου",
	"South Africa": "Νότια Αφρική",
	"South America": "Νότια Αμερική",
	"Spain": "Ισπανία",
	"Sports": "Αθλητισμός",
	"Srednekolymsk": "Σρεντνεκολίμσκ",
	"Sri Lanka": "Σρι Λάνκα",
	"St. John's": "Σεντ Τζονς",
	"Stalled Image": "Κολλημένη εικόνα",
	"Standard": "Τυπική",
	"Start": "Έναρξη",
	"Start Time": "Ώρα έναρξης",
	"State": "Πόλη",
	"Status": "Κατάσταση",
	"Step 1. Physical Marriage": "Βήμα 1. Φυσικό Marriage",
	"Step 2. Logical Marriage": "Βήμα 2. Λογικό Marriage",
	"Stockholm": "Στοκχόλμη",
	"Storage": "Χώρος αποθήκευσης",
	"Subnet Mask": "Μάσκα υποδικτύου",
	"Subnet prefix length": "Μήκος προθέματος υποδικτύου",
	"Success": "Επιτυχία",
	"Sudan": "Σουδάν",
	"Sun": "Κυρ",
	"Sunday": "Κυριακή",
	"SuperSign Content": "Περιεχόμενο SuperSign",
	"SuperSign Contents": "Περιεχόμενο SuperSign",
	"Suriname": "Σουρινάμ",
	"Sustain Aspect Ratio": "Διατήρηση λόγου διαστάσεων",
	"Swaziland": "Σουαζιλάνδη",
	"Sweden": "Σουηδία",
	"Switzerland": "Ελβετία",
	"Sydney": "Σίδνεϊ",
	"Syria": "Συρία",
	"System": "Σύστημα",
	"System Control": "Έλεγχος συστήματος",
	"System Controller": "Ελεγκτής συστήματος",
	"System Controller Settings": "Ρυθμίσεις ελεγκτή συστήματος",
	"System Information": "Πληροφορίες συστήματος",
	"System Reboot": "Επανεκκίνηση συστήματος",
	"System Settings": "Ρυθμίσεις συστήματος",
	"System controller will restart.": "Θα γίνει επανεκκίνηση του ελεγκτή συστήματος.",
	"System controller will restart. Do you want to continue?": "Θα γίνει επανεκκίνηση του ελεγκτή συστήματος. Θέλετε να συνεχίσετε;",
	"São Paulo": "Σάο Πάολο",
	"Tahiti": "Ταϊτή",
	"Taipei": "Ταϊπέι",
	"Taiwan": "Ταϊβάν",
	"Tajikistan": "Τατζικιστάν",
	"Tallinn": "Τάλιν",
	"Tanzania": "Τανζανία",
	"Tashkent": "Τασκένδη",
	"Tbilisi": "Τυφλίδα",
	"Tegucigalpa": "Τεγκουσιγκάλπα",
	"Tehran": "Τεχεράνη",
	"Temperature": "Θερμοκρασία",
	"Temperature history is not yet collected": "Δεν έχει γίνει λήψη του ιστορικού θερμοκρασίας",
	"Test Color": "Δοκιμαστικό χρώμα",
	"Test Pattern": "Δοκιμαστικό μοτίβο",
	"Thailand": "Ταϊλάνδη",
	"The POWER remote controller key will not work during the update.": "Το πλήκτρο POWER του τηλεχειριστηρίου δεν θα λειτουργεί κατά τη διάρκεια της ενημέρωσης.",
	"The Signage 365 care app has been deleted.": "Η εφαρμογή Signage 365 Care διαγράφηκε.",
	"The Signage 365 care app has been successfully installed.": "Η εφαρμογή Signage 365 Care εγκαταστάθηκε με επιτυχία.",
	"The Signage 365 care app has been successfully updated.": "Η εφαρμογή Signage 365 Care ενημερώθηκε με επιτυχία.",
	"The URL format is invalid.": "Η μορφή URL δεν είναι έγκυρη.",
	"The installation of the Signage 365 care app has failed.": "Η εγκατάσταση της εφαρμογής Signage 365 Care απέτυχε.",
	"The installation of the Signage 365 care app is in progress.": "Η εγκατάσταση της εφαρμογής Signage 365 Care είναι σε εξέλιξη.",
	"The installation of the {apptitle} has failed.": "Η εγκατάσταση της εφαρμογής {apptitle} απέτυχε.",
	"The installation of the {apptitle} is in progress.": "Η εγκατάσταση της εφαρμογής {apptitle} είναι σε εξέλιξη.",
	"The timer is reset and the marriage process must be restarted from the beginning.": "Έχει γίνει επαναφορά του χρονοδιακόπτη και η διαδικασία Marriage πρέπει να ξεκινήσει ξανά από την αρχή.",
	"The update of the Signage 365 care app has failed.": "Η ενημέρωση της εφαρμογής Signage 365 Care απέτυχε.",
	"The update of the Signage 365 care app is in progress.": "Η ενημέρωση της εφαρμογής Signage 365 Care είναι σε εξέλιξη.",
	"The update of the {apptitle} has failed.": "Η ενημέρωση της εφαρμογής {apptitle} απέτυχε.",
	"The update of the {apptitle} is in progress.": "Η ενημέρωση της εφαρμογής {apptitle} είναι σε εξέλιξη.",
	"The {apptitle} has been successfully installed.": "Η εφαρμογή {apptitle} εγκαταστάθηκε με επιτυχία.",
	"The {apptitle} has been successfully updated.": "Η ενημέρωση της εφαρμογής {apptitle} πραγματοποιήθηκε επιτυχώς.",
	"There is a difference between your signage and the signage 365 care server in time and date.": "Υπάρχει διαφορά στην ώρα και την ημερομηνία μεταξύ της συσκευής Signage που διαθέτετε και του διακομιστή της υπηρεσίας Φροντίδα Signage 365 ημέρες το χρόνο.",
	"There is a difference between your signage and the {apptitle} server in time and date.": "Υπάρχει διαφορά στην ώρα και την ημερομηνία μεταξύ της συσκευής Signage που διαθέτετε και του διακομιστή της εφαρμογής {apptitle}.",
	"There is no list.": "Δεν υπάρχει λίστα.",
	"There's No Backup file": "Δεν υπάρχει αρχείο αντιγράφου ασφαλείας",
	"Thimphu": "Θιμπού",
	"This pop up will be closed automatically in 5 sec.": "Το αναδυόμενο παράθυρο θα κλείσει αυτόματα σε 5 δευτερόλεπτα.",
	"Thu": "Πεμ",
	"Thule": "Τούλε",
	"Thursday": "Πέμπτη",
	"Tijuana": "Τιχουάνα",
	"Tile ID": "Αναγνωριστικό πλακιδίων",
	"Tile Mode": "Λειτουργία πλακιδίων",
	"Tile Mode Setting": "Ρύθμιση λειτουργίας πλακιδίων",
	"Tile Mode Settings": "Ρυθμίσεις λειτουργίας πλακιδίων",
	"Time": "Ώρα",
	"Time & Date": "Ώρα και ημερομηνία",
	"Time & Date Settings": "Ρυθμίσεις ώρας και ημερομηνίας",
	"Time & Date Settings Required": "Απαιτούνται ρυθμίσεις ώρας και ημερομηνίας",
	"Time Setting": "Ρύθμιση ώρας",
	"Time Zone": "Ζώνη ώρας",
	"Timor-Leste": "Τιμόρ-Λέστε",
	"Tint": "Απόχρωση",
	"Tiranë": "Τίρανα",
	"To choose an AP, please use Settings App. with a remote controller.": "Για να επιλέξετε AP, χρησιμοποιήστε την εφαρμογή ρυθμίσεων με ένα τηλεχειριστήριο.",
	"To make your Password more secure. Use letters and numbers.": "Για να αυξήσετε την ισχύ του κωδικού πρόσβασης. Χρησιμοποιήστε συνδυασμό αριθμών και γραμμάτων.",
	"To make your password more secure, use a mixture of mixed-case letters, numbers and special characters": "Για να είναι πιο ασφαλής ο κωδικός πρόσβασης, χρησιμοποιήστε συνδυασμό πεζών-κεφαλαίων γραμμάτων, αριθμούς και ειδικούς χαρακτήρες.",
	"To use Signage 365 care, you need to connect the device to the network . Do you want to set the network connection?": "Για να χρησιμοποιήσετε την εφαρμογή Signage 365 Care, πρέπει να συνδέσετε τη συσκευή στο δίκτυο. Θέλετε να ρυθμίσετε τη σύνδεση δικτύου;",
	"To use {apptitle}, you need to connect the device to the network. Do you want to set the network connection?": "Για να χρησιμοποιήσετε την εφαρμογή {apptitle}, πρέπει να συνδέσετε τη συσκευή στο δίκτυο. Θέλετε να ρυθμίσετε τη σύνδεση δικτύου;",
	"Togo": "Τόγκο",
	"Tokyo": "Τόκιο",
	"Tonga": "Τόνγκα",
	"Top": "Κορυφή",
	"Top Left": "Επάνω αριστερά",
	"Top Right": "Επάνω δεξιά",
	"Toronto": "Τορόντο",
	"Transportation": "Μεταφορές",
	"Trinidad And Tobago": "Τρινιντάντ και Τομπάγκο",
	"Tripoli": "Τρίπολη",
	"Tue": "Τρι",
	"Tuesday": "Τρίτη",
	"Tunis": "Τύνιδα",
	"Tunisia": "Τυνησία",
	"Turkey": "Τουρκία",
	"Turkmenistan": "Τουρκμενιστάν",
	"Type": "Τύπος",
	"URL Loader": "Πρόγραμμα φόρτωσης URL",
	"URL Setting": "Ρύθμιση URL",
	"Uganda": "Ουγκάντα",
	"Ukraine": "Ουκρανία",
	"Ulaanbaatar": "Ουλάν Μπατόρ",
	"Unit Calibration": "Βαθμονόμηση μονάδας",
	"Unit Calibration is modified. Exit without saving?": "Η βαθμονόμηση μονάδας τροποποιήθηκε. Έξοδος χωρίς αποθήκευση;",
	"Unit Configuration": "Διαμόρφωση μονάδας",
	"Unit Resolution": "Ανάλυση μονάδας",
	"Unit Status": "Κατάσταση μονάδας",
	"Unit Temperature": "Θερμοκρασία μονάδας",
	"United Arab Emirates": "Ηνωμένα Αραβικά Εμιράτα",
	"United Kingdom": "Ηνωμένο Βασίλειο",
	"United States of America": "Ηνωμένες Πολιτείες Αμερικής",
	"Units cut left edge can not be placed in the X:0 positions.": "Οι μονάδες με αποκοπή της αριστερής άκρης δεν μπορούν να τοποθετηθούν σε θέσεις X:0.",
	"Units cut right edge cannot be placed in the Y:(Cut Pixel) positions.": "Οι μονάδες με αποκοπή της δεξιάς άκρης δεν μπορούν να τοποθετηθούν σε θέσεις Y:(Αποκοπή pixel).",
	"Unsupported File type.": "Μη υποστηριζόμενος τύπος αρχείου.",
	"Unsupported File type. Only Image/Video files are allowed.": "Μη υποστηριζόμενος τύπος αρχείου. Επιτρέπονται μόνο αρχεία εικόνας/βίντεο.",
	"Update": "Ενημέρωση",
	"Update Failed": "Η ενημέρωση απέτυχε",
	"Update LED FPGA micom with xxx done": "Η ενημέρωση του FPGA micom LED με το xxx ολοκληρώθηκε",
	"Update LED FPGA with xxx done": "Η ενημέρωση του FPGA LED με το xxx ολοκληρώθηκε",
	"Update Progress": "Ενημέρωση προόδου",
	"Update Succeeded": "Η ενημέρωση ολοκληρώθηκε με επιτυχία",
	"Update completed. Set is rebooting now.": "Η ενημέρωση ολοκληρώθηκε. Αυτή τη στιγμή πραγματοποιείται επανεκκίνηση της τηλεόρασης.",
	"Update completed. Signage is rebooting now.": "Η ενημέρωση ολοκληρώθηκε. Αυτή τη στιγμή πραγματοποιείται επανεκκίνηση της συσκευής Signage.",
	"Update fan micom with xxx done": "Η ενημέρωση του Micom ανεμιστήρα με το xxx ολοκληρώθηκε",
	"Update is completed.": "Η ενημέρωση ολοκληρώθηκε.",
	"Update is in progress.": "Η ενημέρωση βρίσκεται σε εξέλιξη.",
	"Update?": "Ενημέρωση;",
	"Updating…": "Ενημέρωση…",
	"Upload": "ΑΠΟΣΤΟΛΗ",
	"Upload FPGA Update file (XXX GB available)": "Αποστολή αρχείου ενημέρωσης FPGA (XXX GB διαθέσιμα)",
	"Upload LED FPGA update file": "Αποστολή αρχείου ενημέρωσης FPGA LED",
	"Upload secured S/W Update file": "Αποστολή ασφαλούς αρχείου ενημέρωσης λογισμικού",
	"Upload secured S/W Update file (XXX GB available)": "Αποστολή ασφαλούς αρχείου ενημέρωσης λογισμικού (διαθέσιμα XXX GB)",
	"Uploading": "Αποστολή…",
	"Uruguay": "Ουρουγουάη",
	"User": "Χρήστης",
	"Uzbekistan": "Ουζμπεκιστάν",
	"Uzhhorod": "Ουζχορόντ",
	"Vaduz": "Βαντούζ",
	"Validation Error.": "Σφάλμα επικύρωσης.",
	"Vancouver": "Βανκούβερ",
	"Vatican City": "Πόλη του Βατικανού",
	"Venezuela": "Βενεζουέλα",
	"Ver": "Έκδ.",
	"Version": "Έκδοση",
	"Vertical": "Κατακόρυφα",
	"Video": "Βίντεο",
	"Video Scaler": "Κλίμακα βίντεο",
	"Vienna": "Βιέννη",
	"Vientiane": "Βιεντιάν",
	"Vietnam": "Βιετνάμ",
	"View": "Προβολή",
	"View Photo": "Προβολή φωτογραφίας",
	"Vilnius": "Βίλνιους",
	"Virtual Controller": "Εικονικός ελεγκτής",
	"Vivid": "Ζωηρόχρωμο",
	"Vladivostok": "Βλαδιβοστόκ",
	"Volgograd": "Βόλγκογκραντ",
	"Volume": "Ένταση ήχου",
	"Waiting for Approval": "Αναμονή για έγκριση",
	"Warm": "Θερμό",
	"Warsaw": "Βαρσοβία",
	"Wed": "Τετ",
	"Wednesday": "Τετάρτη",
	"Week": "Εβδομάδα",
	"Weekday": "Ημέρα της εβδομάδας",
	"Welcome to LG WebOS": "Καλώς ορίσατε στο LG WebOS",
	"Width": "Πλάτος",
	"Windhoek": "Βίντχουκ",
	"Winnipeg": "Γουίνιπεγκ",
	"Wired": "Ενσύρματη",
	"Working": "Σε λειτουργία",
	"XX GB free of XXGB": "XX GB ελεύθερα από XX GB",
	"XX of YY": "XX από YY",
	"YES": "ΝΑΙ",
	"Yakutsk": "Γιακούτσκ",
	"Yamoussoukro": "Γιαμουσούκρο",
	"Yekaterinburg": "Γεκατερίνμπουργκ",
	"Yellowknife": "Γελοουνάιφ",
	"Yemen": "Υεμένη",
	"Yerevan": "Ερεβάν",
	"Yes": "Ναι",
	"You changed IP address or DHCP status. Please reconnect to changed IP address": "Αλλάξατε τη διεύθυνση IP ή την κατάσταση DHCP. Συνδεθείτε εκ νέου στη νέα διεύθυνση IP",
	"You did not finish the process in time.": "Δεν ολοκληρώσατε τη διαδικασία εντός του χρόνου.",
	"You have failed to login 1/5 time.": "Αποτυχία σύνδεσης 1 από 5 φορές.",
	"You have failed to login 5 times. Please try again after 05:00.": "Αποτυχία σύνδεσης 5 φορές. Δοκιμάστε ξανά μετά τις 05:00.",
	"You may not be able to reconnect to web pages if you cannot find out new IP address.": "Ενδέχεται να μην μπορείτε να επανασυνδεθείτε στις σελίδες web εάν δεν μπορείτε να βρείτε τη νέα διεύθυνση IP.",
	"You've entered the same password as the current one. Please enter a different password.": "Ο κωδικός πρόσβασης που πληκτρολογήσατε είναι ίδιος με τον τρέχοντα. Εισαγάγετε διαφορετικό κωδικό πρόσβασης.",
	"Your Password has been changed.": "Ο κωδικός πρόσβασης άλλαξε.",
	"Your device needs the correct time & date to authenticate marriage.": "Η συσκευή σας χρειάζεται τη σωστή ημερομηνία και ώρα για τον έλεγχο ταυτότητας του Marriage.",
	"Zagreb": "Ζάγκρεμπ",
	"Zambia": "Ζάμπια",
	"Zaporozhye": "Ζαπορόζιε",
	"Zimbabwe": "Ζιμπάμπουε",
	"Zoom": "Ζουμ",
	"Zoom In": "Αύξηση ζουμ",
	"Zoom In/Out": "Μεγέθυνση/Σμίκρυνση",
	"Zoom Out": "Σμίκρυνση",
	"Zürich": "Ζυρίχη",
	"align": "ευθυγράμμιση",
	"available": "διαθέσιμο",
	"color": "χρώμα",
	"full aspect ratio": "πλήρης λόγος διαστάσεων",
	"general": "γενική",
	"hour": "ώρα",
	"last": "Τελευταία",
	"min": "λεπ",
	"original aspect ratio": "αρχικός λόγος διαστάσεων",
	"over {period} min.": "για πάνω από {period} λεπτά.",
	"reading": "ανάγνωση",
	"save as PC Time": "Αποθήκευση ως ώρα υπολογιστή",
	"sharpness": "ευκρίνεια",
	"upload": "αποστολή",
	"version": "έκδοση",
	"warning": "προειδοποίηση",
	"webOS Version": "Έκδοση webOS",
	"year": "έτος",
	"{apptitle} will be deleted.": "Η εφαρμογή {apptitle} θα διαγραφεί.",
	"{{filename}} already exists.": "Το {{filename}} υπάρχει ήδη."
}
