{
	"(30,60,120,180) Min": "(30,60,120,180) min",
	"10 sec": "10 sec.",
	"10 sec Auto Refresh": "Reîmprospătare automată 10 sec",
	"5 min. Refresh": "Reîmprospătare 5 min.",
	"Abnormally High": "Neobișnuit de ridicată",
	"Account": "CONT",
	"Activate": "Activare",
	"Add Media": "Adăugare media",
	"Add Mini Module": "Adăugare mini-modul",
	"Add Slave Controller": "Adăugare controler subordonat",
	"Add Unit": "Adăugare unitate",
	"Addis Ababa": "Addis Abeba",
	"Advanced Options": "Opţiuni avansate",
	"Advanced Setting": "Setare avansată",
	"Afghanistan": "Afganistan",
	"Algiers": "Alger",
	"All": "Toate",
	"All Units": "Toate unitățile",
	"All settings will be reset. Do you want to continue?": "Toate setările vor fi resetate. Doriți să continuați?",
	"Almaty": "Alma-Ata",
	"An error occurred while submitting the form.": "A apărut o eroare la trimiterea formularului.",
	"Anadyr": "Anadîr",
	"Apply": "Aplicare",
	"Apply to All Units": "Aplicare la toate unitățile",
	"Apply?": "Doriți să aplicați?",
	"Approximate round trip in milli-seconds": "Transfer tur-retur complet în milisecunde",
	"April": "aprilie",
	"Are you sure to change Settings?": "Sigur doriți să modificați Setările?",
	"Are you sure to change the calibration settings of this unit?": "Sigur doriți să modificați setările de calibrare ale acestei unități?",
	"Are you sure to reboot?": "Sigur doriți să reinițializați?",
	"Are you sure to use": "Sigur doriți să utilizați",
	"Are you sure to use Wi-Fi DHCP?": "Sigur doriți să utilizați DHCP Wi-Fi?",
	"Are you sure to use Wired DHCP?": "Sigur doriți să utilizați DHCP cu fir?",
	"Ashgabat": "Aşgabat",
	"Aspect Ratio when rotated": "Format imagine la rotire",
	"Athens": "Atena",
	"August": "august",
	"Authenticate": "Autentificare",
	"Authentication Failed": "Autentificare eşuată",
	"Authentication completed.": "Autentificare finalizată.",
	"Auto Detect": "Detectare automată",
	"Auto Refresh": "Reîmprospătare automată",
	"Automatically Assign IP Address": "Atribuire automată adresă IP",
	"Available to Installation": "Disponibilă pentru instalare",
	"Azerbaijan": "Azerbaidjan",
	"BLU Status": "Stare BLU",
	"Back": "Înapoi",
	"Backlight": "Lumină de fond",
	"Backup Media Upload": "Încărcare conținut media copie de rezervă",
	"Backup file Thumbnail Image": "Fișier pentru copiere de siguranță Imagine redusă",
	"Backup via storage": "Copiere de siguranță în baza spațiului de stocare",
	"Baghdad": "Bagdad",
	"Basic Setting": "Setare de bază",
	"Begin test": "Începere test",
	"Belgium": "Belgia",
	"Belgrade": "Belgrad",
	"Bermuda": "Bermude",
	"Bishkek": "Bişkek",
	"Black Level": "Nivel negru",
	"Bootloader Version": "Versiune bootloader",
	"Bottom": "Jos",
	"Bottom Left": "Stânga jos",
	"Bottom Light": "Dreapta jos",
	"Bottom Right": "Dreapta jos",
	"Box Name": "Nume receiver",
	"Brazil": "Brazilia",
	"Brightness": "Luminozitate",
	"Browse": "Răsfoire",
	"Browse a file to upload": "Răsfoiți și alegeți un fișier pentru încărcare",
	"Brussels": "Bruxelles",
	"Bucharest": "Bucureşti",
	"Budapest": "Budapesta",
	"CIS": "Comunitatea Statelor Independente",
	"Calibrate Unit": "Calibrați unitatea",
	"Calibrated": "Calibrat",
	"Calibrating...": "Calibrare...",
	"Calibration": "Calibrare",
	"Cambodia": "Cambodgia",
	"Cameroon": "Camerun",
	"Canary Islands": "Insulele Canare",
	"Cancel": "Anulare",
	"Cannot start S/W update. Check xxx file please.": "Nu se poate porni actualizarea S/W. Verificați fișierul xxx.",
	"Cape Verde": "Capul Verde",
	"Capture time Interval": "Interval timp de captură",
	"Capture time interval": "Capture time interval",
	"Category": "Categorie",
	"Cayman Islands": "Insulele Cayman",
	"Central African Republic": "Republica Centrafricană",
	"Chad": "Ciad",
	"Change Password": "Schimbare parolă",
	"Changing Time may cause you to be logged out.": "Schimbarea timpului poate rezulta în deconectarea dvs.",
	"Changing Time zone may cause you to be logged out.": "Schimbarea fusului orar vă poate deconecta.",
	"Charts": "Diagrame",
	"Check Temperature sensors. -40 means errors when reading Temperature sensors": "Verificați senzorii de temperatură. -40 înseamnă prezența de erori la citirea senzorilor de temperatură",
	"Check for Update": "Căutare actualizare",
	"Check whether two passwords are same": "Verificați dacă două parole sunt identice",
	"Check your URL input": "Verificați intrarea dvs. URL",
	"CheckScreen": "Verificare ecran",
	"Checking for update...": "Se caută o actualizare...",
	"Chisinau": "Chişinău",
	"Christmas Island": "Insula Crăciunului",
	"City": "Oraş",
	"Close": "Închidere",
	"Close status of cabinet doors": "Stare închis pentru ușile dulapului",
	"Closed": "Închis",
	"Closed Loop Fan": "Ventilator cu buclă închisă",
	"ClosedLoop": "Buclă închisă",
	"Colombia": "Columbia",
	"Color Temperature": "Temp. cul.",
	"ColorRead": "Citire culoare",
	"Column": "Coloană",
	"Confirm": "Confirmare",
	"Confirm Account Number": "Confirmare număr cont",
	"Confirm New Password": "Confirmare parolă nouă",
	"Confirm the account number you entered.": "Confirmați numărul contului introdus.",
	"Connected": "Conectat",
	"Content Rotation": "Rotire conţinut",
	"Content Rotation Status": "Stare rotire conținut",
	"Content Rotation is ON": "Rotire conținut este PORNITĂ",
	"Content is rotated": "Conținutul este afișat prin rotație",
	"Contents rotation is ON": "Funcția de rotire a conținutului este activă",
	"Control Item": "Element de control",
	"Control Type": "Tip comandă",
	"Cool": "Rece",
	"Copenhagen": "Copenhaga",
	"Country/Territory": "Țara/Regiunea",
	"Croatia": "Croaţia",
	"Current": "Curent",
	"Current Fan RPM": "Valoare curentă RPM ventilator",
	"Current Password": "Parolă curentă",
	"Current Picture mode does not support changing color temperature. Please select \"Expert\" of \"Calibration\" mode to adjust the color temperature.": "Modul imagine curent nu acceptă schimbarea temperaturii culorilor. Selectați „Expert“ din modul „Calibrare“ pentru a regla temperatura culorilor.",
	"Current Ver.": "Ver. actuală",
	"Current Version": "Versiune actuală",
	"Custom": "Personalizare",
	"Cut Left Edge": "Tăiere margine stânga",
	"Cut Right Edge": "Tăiere margine dreapta",
	"Cyprus": "Cipru",
	"Czech": "Cehă",
	"Czech Republic": "Republica Cehă",
	"Côte d'Ivoire": "Coasta de Fildeş",
	"DHCP State": "Stare DHCP",
	"DNS Server": "Server DNS",
	"DOWNLOAD LOG": "DESCĂRCARE JURNAL",
	"DOWNLOAD LOG FILE": "DESCĂRCARE FIȘIER JURNAL",
	"DPM (Standby Mode)": "DPM (Mod în așteptare)",
	"Daisy Direction": "Direcție înlănțuire",
	"Daisy Start by": "Pornire înlănțuire cu",
	"Damage Detection": "Detectare deteriorări",
	"Damaged": "Deteriorat",
	"Damascus": "Damasc",
	"Dashboard": "Tablou de bord",
	"Data is not collected now. wait for maximum 60 seconds": "Datele nu sunt colectate acum. Așteptați maxim 60 de secunde",
	"Day": "Ziua",
	"Daylight Saving Time": "Ora de vară",
	"Days": "Zile",
	"December": "decembrie",
	"Default": "Setări implicite",
	"Default size": "Mărime implicită",
	"Delete": "Ştergere",
	"Delete Mini Module": "Ştergere mini-modul",
	"Delete Slave Controller": "Ștergere controler subordonat",
	"Delete Unit": "Ștergere unitate",
	"Delete the file": "Ștergere fișier",
	"Delete?": "Ștergere?",
	"Democratic Republic Of The Congo": "Republica Democrată Congo",
	"Denmark": "Danemarca",
	"Details of Unit": "Detalii unitate",
	"Device Control": "Comenzi dispozitive",
	"Digital Board Reboot": "Reinițializare placă digitală",
	"Disconnected": "Deconectat",
	"Display": "Display (Afişaj)",
	"Display & Sound": "Afișaj și sunet",
	"Display & sound": "Afișaj și sunet",
	"Do not reboot in Device page.": "Nu reinițializați în pagina Dispozitiv.",
	"Do you want to delete the item?": "Doriţi să ştergeţi elementul?",
	"Do you want to delete the selected file?": "Doriți să ștergeți fișierul selectat?",
	"Do you want to delete this LED FPGA Update file?": "Doriți să ștergeți acest fișier de actualizare a FPGA LED?",
	"Do you want to delete this S/W Update file?": "Doriți să ștergeți acest fișier de actualizare S/W?",
	"Do you want to install this S/W Update file?": "Doriți să instalați acest fișier de actualizare S/W?",
	"Do you want to proceed?": "Doriți să continuați?",
	"Do you want to set the time & date?": "Doriţi să setaţi ora şi data?",
	"Do you want to set the time or date automatically?": "Doriţi să setaţi ora sau data în mod automat?",
	"Dominican Republic": "Republica Dominicană",
	"Done": "Efectuat",
	"Door": "Ușă",
	"Door Control": "Comenzi ușă",
	"Door Monitor": "Sistem de monitorizare ușă",
	"Door Open": "Ușă deschisă",
	"Door Sensor": "Senzor ușă",
	"Door Sensor Status": "Stare senzor ușă",
	"Door xxx is opened": "Ușa xxx este deschisă",
	"Draw": "Desenare",
	"Duplicated Unit ID": "ID unitate duplicat",
	"Duration": "Durată",
	"Dushanbe": "Duşanbe",
	"Dynamic Brightness": "Luminozitate dinamică",
	"Dynamic Brightness Control": "Control luminozitate dinamică",
	"Easter Island": "Insula Paştelui",
	"Edit": "Editare",
	"Education": "Educaţie",
	"Egypt": "Egipt",
	"Enable or disable Signage 365 Care services on this device": "Activați sau dezactivați serviciile Signage 365 Care pe acest dispozitiv",
	"Enable or disable {apptitle} service on this device": "Activați sau dezactivați serviciul {apptitle} pe acest dispozitiv",
	"End": "Sfârșit",
	"End Time": "Oră finalizare",
	"Energy Saving": "Economisire energie",
	"Enter Account Number": "Introducerea Numărului Contului",
	"Enter the account number to activate Signage 365 Care.": "Introduceți numărul contului pentru activarea Signage 365 Care.",
	"Enter the account number to activate {apptitle}.": "Introduceți numărul de cont pentru a activa {apptitle}.",
	"Enter the following": "Introduceți următoarele",
	"Enter the network address to ping": "Introduceți adresa rețelei pentru testul ping",
	"Equatorial Guinea": "Guinea Ecuatorială",
	"Eritrea": "Eritreea",
	"Ethiopia": "Etiopia",
	"Europe": "Europa",
	"Event": "Eveniment",
	"Exit": "Ieșire",
	"External": "Extern",
	"External Input Rotation": "Rotire intrare externă",
	"External Input Rotation Status": "Stare rotire intrare externă",
	"External Input Rotation is ON": "Rotire intrare externă este PORNITĂ",
	"EyeQ sensor": "Senzor EyeQ",
	"FPGA Version": "Versiunea FPGA",
	"Factory Reset": "Revenire la setările din fabrică",
	"Fail": "Acţiune eşuată",
	"Fail Over": "Reluare în caz de nereușită",
	"Fail to update. Check xxx file please.": "Actualizare nereușită. Verificați fișierul xxx.",
	"Failed to update LED FPGA with xxx. Check the file please": "Actualizarea FPGA led cu xxx a eșuat. Verificați fișierul",
	"Failed to update LED FPGA with xxx. Check the status of the unit controller.": "Actualizare LED FPGA cu xxx eșuată. Verificați starea controlerului unității.",
	"Failed to update fan micom with xxx. Check the file please": "Actualizarea micom ventilator cu xxx a eșuat. Verificați fișierul",
	"Fan": "Ventilator",
	"Fan Micom Version": "Versiune micom ventilator",
	"Fan RPM": "RPM ventilator",
	"Fan RPM history is not yet collected": "Istoricul valorii RPM ventilator nu a fost colectat încă",
	"Fan Status": "Stare ventilator",
	"February": "februarie",
	"File Name": "Denumire fişier",
	"File Select": "Selectare fișier",
	"File Upload Progress": "Progres încărcare fișier",
	"File upload via mobile devices does not support.": "Încărcarea fișierului prin dispozitive mobile nu este acceptată.",
	"Finland": "Finlanda",
	"First Use": "Prima utilizare",
	"Flash memory is not enough.": "Memorie flash insuficientă.",
	"For your security, we recommend to change default password. Would you like to change your password now?": "Pentru securitatea dvs., vă recomandăm să schimbați parola implicită. Doriți să vă schimbați parola acum?",
	"Frame": "Cadru",
	"France": "Franţa",
	"French Polynesia": "Polinezia Franceză",
	"Fri": "Vineri",
	"Friday": "Vineri",
	"Front": "Faţă",
	"Full": "Complet",
	"Game": "Joc",
	"Gamma": "Gama",
	"Gamut Matrix": "Matrice gamă de culori",
	"Germany": "Germania",
	"Go To First Use": "Accesare Prima utilizare",
	"Gov./Corp.": "Instituție publică/Corporație",
	"Greece": "Grecia",
	"Greenland": "Groenlanda",
	"Guadeloupe": "Guadelupa",
	"Guatemala City": "Ciudad de Guatemala",
	"Guinea": "Guineea",
	"Guinea Bissau": "Guineea Bissau",
	"Height": "Înălțime",
	"High": "Înaltă",
	"History is not yet collected": "Istoricul nu a fost colectat încă",
	"Home": "Pagină de start",
	"Horizontal": "Orizontală",
	"Hour": "Ora",
	"Hours": "Ore",
	"Humidity": "Umiditate",
	"Hungary": "Ungaria",
	"ID/password": "ID/parolă",
	"IMB Settings": "Setări IMB",
	"IMB Status": "Stare IMB",
	"IP Address": "Adresă IP",
	"Iceland": "Islanda",
	"Image": "Imagine",
	"Incorrect Password entered. Please try again.": "S-a introdus o parolă greșită. Încercați din nou.",
	"Indonesia": "Indonezia",
	"Information": "Informaţii",
	"Input": "Intrare",
	"Input 6 or more characters": "Introduceți 6 sau mai multe caractere",
	"Input Direction": "Direcție de intrare",
	"Input Password": "Introduceţi parola",
	"Input Priority": "Prioritate intrare",
	"Input Priority Setting": "Setare prioritate intrări",
	"Input Signage Name please.": "Introduceți numele afișajului Signage.",
	"Input Window": "Fereastră intrare",
	"Install": "Instalare",
	"Install Succeeded": "Instalarea a reușit",
	"Installation Failed": "Instalare nereușită",
	"Installation Menu": "Meniu de instalare",
	"Installing…": "Se instalează...",
	"Internet Not available": "Internet nedisponibil",
	"Internet available": "Internet disponibil",
	"Invalid NEW Password. Password must be 6 characters in length.": "Parolă NOUĂ nevalidă. Parolă trebuie să aibă lungimea de 6 caractere.",
	"Invalid NEW Password. Password must be 8 characters in length.": "Parolă NOUĂ nevalidă. Parolă trebuie să aibă lungimea de 8 caractere.",
	"Invalid NEW Password. You must use a combination of letters and numbers.": "Parolă NOUĂ nevalidă. Trebuie să utilizați o combinație de litere și cifre.",
	"Invalid New password. Password must be at least 8 characters.": "Parolă nouă nevalidă. Parola trebuie să includă cel puţin 8 caractere.",
	"Invalid New password. You must use a mixture of mixed-case letters, numbers and special characters.": "Parolă nouă nevalidă. Trebuie să utilizaţi o combinaţie de litere majuscule şi minuscule, numere şi caractere speciale.",
	"Invalid day value": "Valoare zi nevalidă",
	"Invalid hour value": "Valoare oră nevalidă",
	"Invalid minute value": "Valoare minut nevalidă",
	"Invalid month value": "Valoare lună nevalidă",
	"Invalid value": "Valoare nevalidă",
	"Invalid year value": "Valoare an nevalidă",
	"Iraq": "Irak",
	"Ireland": "Irlanda",
	"Irregular": "Neregulat",
	"Issue History": "Istoric probleme",
	"Italy": "Italia",
	"January": "ianuarie",
	"Japan": "Japonia",
	"Jerusalem": "Ierusalim",
	"Jordan": "Iordania",
	"July": "iulie",
	"June": "iunie",
	"Korea": "Coreea",
	"Korea, Republic of": "Republica Coreea",
	"Kuwait City": "Kuweit",
	"Kyrgyzstan": "Kirghizstan",
	"LED Assistant Settings": "Setări LED Assistant",
	"LED FPGA Update file list": "Listă fișiere actualizare FPGA LED",
	"LED FPGA Updating ......": "Se actualizează FPGA LED......",
	"LED Features": "Funcții LED",
	"LED Film Settings": "Setări film LED",
	"LED Open Detection": "Detectare led deschis",
	"LED Settings": "Setări led",
	"LED Unit": "Unitate LED",
	"LED Unit Status": "Stare unitate LED",
	"LG ConnectedCare App": "Aplicația LG ConnectedCare",
	"LG ConnectedCare app": "Aplicația LG ConnectedCare",
	"LG Control Manager": "Gestionare comenzi LG",
	"Landscape": "Mod vedere",
	"Language": "Limba",
	"Large": "Mare",
	"Latvia": "Letonia",
	"Layout": "Aspect",
	"Layout Editor": "Editor dispunere",
	"Lebanon": "Liban",
	"Libya": "Libia",
	"Lisbon": "Lisabona",
	"Lithuania": "Lituania",
	"Loading": "Încărcare",
	"Loading...": "Se încarcă…",
	"Loading…": "Încărcare în curs...",
	"Location": "Locaţie",
	"Log": "Jurnal",
	"Log Report": "Raport jurnal",
	"Log after Power Up": "Jurnal după pornire",
	"Log in with the authorized ID and password.": "Autentificaţi-vă cu ID-ul şi parola autorizate.",
	"Login": "Autentificare",
	"Login is required.": "Este necesară autentificarea.",
	"Logout": "Deconectare",
	"London": "Londra",
	"Low": "Scăzută",
	"MAC Address": "Adresă MAC",
	"Main": "Principal",
	"Malaysia": "Malaiezia",
	"Maldives": "Maldive",
	"Manage": "Gestionare",
	"March": "martie",
	"Marriage Guide (2 Steps)": "Ghid Marriage (2 paşi)",
	"Marriage Status": "Stare Marriage",
	"Marshall Islands": "Insulele Marshall",
	"Martinique": "Martinica",
	"Max Backlight": "Lumină de fond max",
	"Maximum": "Maxim",
	"May": "mai",
	"Media Library": "Bibliotecă media",
	"Media file List": "Listă fișiere media",
	"Media file Upload (XXX GB available)": "Încărcare fișier media (XXX GB disponibili)",
	"Medium": "Mediu",
	"Menu Language": "Limbă meniu",
	"Mexico": "Mexic",
	"Mexico City": "Ciudad de Mexico",
	"Micom Progress": "Progres Micom",
	"Micom Update": "Actualizare micom",
	"Micom Version": "Versiune micom",
	"Middle East": "Orientul Mijlociu",
	"Min Backlight": "Lumină de fond min",
	"Mini Module": "Mini-modul",
	"Minimum": "Minim",
	"Minimum = XXms, Maximum = YYms, Average = ZZms": "Minim = XXms, Maxim = YYms, Medie = ZZms",
	"Mins": "Minute",
	"Model Name": "Nume model",
	"Module Calibration": "Calibrare modul",
	"Module Calibration is modified. Exit without saving?": "Calibrarea modulului este modificată. Ieșiți fără să salvați?",
	"Module Size": "Mărime modul",
	"Modules": "Module",
	"Mon": "Luni",
	"Monday": "Luni",
	"Montenegro": "Muntenegru",
	"Month": "Luna",
	"More": "Mai multe",
	"Morocco": "Maroc",
	"Moscow": "Moscova",
	"Motion": "Mişcare",
	"Mozambique": "Mozambic",
	"Mute": "Activare/Dezactivare sunet",
	"NG": "NB",
	"NO": "NU",
	"NOT AVAILABLE": "NU ESTE DISPONIBIL",
	"Name": "Nume",
	"Natural Mode": "Mod natural",
	"Natural Size": "Mărime naturală",
	"Netherlands": "Olanda",
	"Network": "Reţea",
	"Network Ready": "Reţea pregătită",
	"Network Settings": "Setări rețea",
	"New Caledonia": "Noua Caledonie",
	"New Password": "Parolă nouă",
	"New Password and Confirm Password do not match.": "Câmpurile Parola nouă și Confirmați parola nu corespund.",
	"New Zealand": "Noua Zeelandă",
	"Newer Ver.": "Ver. mai nouă",
	"Next": "Următorul",
	"Next Day": "Următoarea zi",
	"No": "Nu",
	"No Signal": "Niciun semnal",
	"No backup files exist in storage device.": "Nu există fişiere pentru copiere de siguranță în dispozitivul de stocare.",
	"None": "Niciunul",
	"North America": "America de Nord",
	"North Korea": "Coreea de Nord",
	"Norway": "Norvegia",
	"Not Connected": "Neconectat",
	"Notification": "Notificare",
	"November": "noiembrie",
	"Number": "Doar cifre",
	"OFF": "Oprit",
	"OLED LIGHT": "Lumină OLED",
	"OLED Light": "Lumină OLED",
	"ON": "PORNIT",
	"OSD Portrait Mode": "OSD Mod portret",
	"OSD Portrait Mode is ON": "Mod Portret OSD Activat",
	"OSD Portrait Status": "Stare portret OSD",
	"OSD Portrait mode is xxx": "Modul portret OSD este xxx",
	"OSD Rotation is ON": "Funcția de rotire OSD este activă",
	"Occurrence Time": "Ora apariției",
	"October": "octombrie",
	"Off": "Oprit",
	"Off Until Reset": "Oprit până la resetare",
	"Off When Open": "Oprit la deschidere",
	"On": "Pornit",
	"On When Open": "Pornit la deschidere",
	"Open Loop Fan": "Ventilator cu buclă deschisă",
	"OpenLoop": "Buclă deschisă",
	"Opened": "Deschis",
	"Original": "Format original",
	"Output Window": "Fereastră ieșire",
	"OverHeat": "Supraîncălzire",
	"Overwrite": "Suprascriere",
	"Overwrite xxx?": "Suprascriere xxx?",
	"Overwrite?": "Suprascriere?",
	"PM Mode": "Mod PM",
	"Pacific": "Oceanul Pacific",
	"Packets : Sent = XX. Received = YY. Lost = ZZ (WW% loss)": "Pachete: Trimis = XX. Primit = YY. Pierdut = ZZ (pierdere WW%)",
	"Panama City": "Panama",
	"Panel": "Panou",
	"Papua New Guinea": "Papua Noua Guinee",
	"Password": "Parolă",
	"Password is incorrect. Please Try Again": "Parola este incorectă. Încercați din nou",
	"Password is incorrect. Please try again.": "Parola este incorectă. Încercați din nou.",
	"Philippines": "Filipine",
	"Picture": "Imagine",
	"Picture Mode": "Mod imagine",
	"Picture Settings": "Setări imagine",
	"Ping Test": "Test ping",
	"Ping statistics for [X.X.X.X]": "Statistică ping pentru [X.X.X.X]",
	"Ping test failed. Invalid format of network address field.": "Testul ping a eșuat. Format nevalid de câmp adresă de rețea.",
	"Ping test is in progress": "Test ping în curs de desfășurare",
	"Ping test result": "Rezultat test ping",
	"Pinging [X.X.X.X] with YYY bytes of data": "Testare ping [X.X.X.X] cu YYY octeți de date",
	"Play": "Redare",
	"Play via URL": "Redare prin URL",
	"Please Keep this Signage on.": "Mențineți acest afișaj Signage pornit.",
	"Please check the following items and try again.": "Verificaţi următoarele elemente şi încercaţi din nou.",
	"Please check the installation file and try again.": "Verificați fișierul de instalare și încercați din nou.",
	"Please choose a file to upload": "Alegeți un fișier pentru încărcare",
	"Please choose a video file to upload": "Selectați un fișier video pentru încărcare",
	"Please don't turn off the device and wait until the installation is completed.": "Nu opriţi dispozitivul şi aşteptaţi până la finalizarea instalării.",
	"Please don’t turn off the device. And wait while process is completed.": "Nu opriți dispozitivul. Și așteptați în timp ce procesul este finalizat.",
	"Please enter the authorized ID and password.": "Introduceţi ID-ul şi parola autorizate.",
	"Please login again.": "Autentificați-vă din nou.",
	"Please press the physical marriage button.": "Apăsaţi pe butonul de Marriage fizic.",
	"Please restart the marriage authentication process.": "Reporniţi procesul de autentificare Marriage.",
	"Please select city": "Selectați orașul",
	"Please select country": "Selectați țara",
	"Please upload S/W update file via PC browser.": "Încărcați fișierul de actualizare S/W prin browserul computerului.",
	"Poland": "Polonia",
	"Port Number": "Număr port",
	"Port Settings": "Setări port",
	"Portrait": "Portret",
	"Portrait Mode": "Mod portret",
	"Portugal": "Portugalia",
	"Position": "Poziție",
	"Power": "Alimentare",
	"Power Off": "Oprire",
	"Power Off Management": "Gestionare oprire",
	"Power Off(Default)": "Oprire(Implicit)",
	"Power Rack Settings": "Setări Power Rack",
	"Prague": "Praga",
	"Press the physical marriage button on your master cabinet.": "Apăsaţi pe butonul de Marriage fizic de pe dulapul dvs. principal.",
	"Pressing Start will give you 1 minute to perform the process.": "Apăsaţi pe Pornire şi veţi avea la dispoziţie 1 minut pentru a realiza procesul.",
	"Prev DAY": "ZIUA preced.",
	"Prev.": "Prec.",
	"Preview": "Avanpremieră",
	"Priority": "Prioritate",
	"Rearrange": "Rearanjare",
	"Reboot": "Reinițializare",
	"Reboot?": "Reinițializare?",
	"Rebooting": "Se reinițializează",
	"Reference Resolution": "Rezoluție de referință",
	"Refresh": "Reîmprospătare",
	"Regular": "Regulat",
	"Rejected": "Respins",
	"Remember me": "Reține datele mele",
	"Rename": "Redenumire",
	"Rename or Overwrite?": "Redenumiți sau suprascrieți?",
	"Rename to {{filename (2)}} or Overwrite?": "Redenumiţi ca {{filename (2)}} sau suprascrieţi?",
	"Reply from [X.X.X.X] : bytes = YY, time = ZZms, TTL = WW": "Răspuns de la [X.X.X.X] : octeți = YY, timp = ZZms, TTL = WW",
	"Republic Of The Congo": "Republica Congo",
	"Request timed out.": "Cererea a expirat.",
	"Require Network Settings": "Solicitare setări de reţea",
	"Required Marriage": "Marriage necesare",
	"Reset": "Resetare",
	"Reset All": "Resetare toate",
	"Reset Mute": "Resetare dezactivare sonor",
	"Reset Mute' is Needed": "Este necesară resetarea dezactivării sonorului",
	"Reset to factory reset": "Resetare la setările din fabrică",
	"Romania": "România",
	"Rome": "Roma",
	"Rotation": "Rotire",
	"Row": "Rând",
	"Run Time": "Timp de rulare",
	"Run Time Since Last Power Up": "Timp de rulare de la ultima pornire",
	"Russia": "Rusia",
	"S/W Update": "Actualizare S/W",
	"S/W Update File list": "Listă fișiere actualizare S/W",
	"S/W Update file list": "Listă fișiere de actualizare S/W",
	"S/W Update succeeded": "Actualizarea S/W a avut succes",
	"S/W Updating": "Se actualizează S/W",
	"S/W Updating......": "Se actualizează S/W......",
	"S/W Ver.": "Ver. S/W",
	"S/W update file does not exist.": "Fișierul de actualizare S/W nu există.",
	"S/W will update. Do you want to continue?": "S/W se va actualiza. Doriți să continuați?",
	"SCREEN": "ECRAN",
	"SI App / Play via URL": "Aplicaţie SI/Redare prin URL",
	"Saint Lucia": "Sfânta Lucia",
	"Sat": "Sâmbătă",
	"Saturday": "Sâmbătă",
	"Saudi Arabia": "Arabia Saudită",
	"Save": "Salvare",
	"Screen": "Ecran",
	"Screen Configuration": "Configurație ecran",
	"Screen Fault Detection": "Detectare defecte ecran",
	"Screen Off": "Ecran oprit",
	"Screen Off & Backlight": "Ecran oprit și lumină de fond",
	"Screen Off & Backlight On": "Ecran oprit și iluminat de fundal pornit",
	"Screen Off Always": "Ecran oprit întotdeauna",
	"Screen Power Off": "Oprire ecran",
	"Screen Rotation": "Rotire ecran",
	"Screen Rotation Status": "Stare rotire ecran",
	"Screen Rotation is ON": "Rotire ecran este PORNITĂ",
	"ScreenOn": "Ecran pornit",
	"Select File": "Selectare fișier",
	"Select Input Source": "Selectați sursa de intrare",
	"Select a file to upload": "Selectați un fișier pentru încărcare",
	"Select media file": "Selectați fișierul media",
	"Sensor": "Senzor",
	"Seoul": "Seul",
	"September": "septembrie",
	"Serial Number": "Număr de serie",
	"Server Status": "Stare server",
	"Set": "Setare",
	"Set Automatically": "Setare automată",
	"Set ID": "Setare ID",
	"Set Master": "Setare principal",
	"Set Slave": "Setare subordonat",
	"Set URL": "Setare URL",
	"Setting": "Setare",
	"Show Color": "Afișare culoare",
	"Sigane Name is Too Long": "Numele afișajului Signage este prea lung",
	"Sign in": "Autentificare",
	"Signage 365 Care App": "Aplicația Signage 365 Care",
	"Signage Name": "Nume Signage",
	"Signal": "Semnal",
	"Size": "Dimensiune",
	"Slovakia": "Slovacia",
	"Small": "Mică",
	"Software Version": "Versiune de software",
	"Solomon Islands": "Insulele Solomon",
	"Sound Control": "Comenzi sunet",
	"South Africa": "Africa de Sud",
	"South America": "America de Sud",
	"Spain": "Spania",
	"Sports": "Sport",
	"Stalled Image": "Imagine oprită",
	"Start": "Pornire",
	"Start Time": "Oră pornire",
	"State": "Stat",
	"Status": "Stare",
	"Step 1. Physical Marriage": "Pasul 1. Marriage fizic",
	"Step 2. Logical Marriage": "Pasul 2. Marriage logic",
	"Subnet Mask": "Mască de subreţea",
	"Subnet prefix length": "Lungime prefix subreţea",
	"Success": "Succes",
	"Sun": "Dum",
	"Sunday": "Duminică",
	"SuperSign Content": "Conținut SuperSign",
	"SuperSign Contents": "Conținut SuperSign",
	"Sustain Aspect Ratio": "Susținere format imagine",
	"Sweden": "Suedia",
	"Switzerland": "Elveţia",
	"Syria": "Siria",
	"System": "Sistem",
	"System Box": "Casetă sistem",
	"System Control": "Comenzi sistem",
	"System Controller": "Controler sistem",
	"System Controller Settings": "Setări controler sistem",
	"System Information": "Informații despre sistem",
	"System Reboot": "Reinițializare sistem",
	"System Settings": "Setări de sistem",
	"System controller will restart.": "Controler sistem va reporni.",
	"System controller will restart. Do you want to continue?": "Controler sistem va reporni. Doriți să continuați?",
	"São Paulo": "Săo Paulo",
	"Tajikistan": "Tadjikistan",
	"Tashkent": "Taşkent",
	"Tehran": "Teheran",
	"Temperature": "Temperatură",
	"Temperature history is not yet collected": "Istoricul temperaturii nu a fost colectat încă",
	"Test Color": "Testare culori",
	"Test Pattern": "Testare structură",
	"Thailand": "Thailanda",
	"The POWER remote controller key will not work during the update.": "Tasta POWER (ALIMENTARE) de la telecomandă nu va funcționa în timpul actualizării.",
	"The Signage 365 care app has been deleted.": "Aplicaţia Signage 365 Care a fost ştearsă.",
	"The Signage 365 care app has been successfully installed.": "Aplicaţia Signage 365 Care a fost instalată cu succes.",
	"The Signage 365 care app has been successfully updated.": "Aplicaţia Signage 365 Care a fost actualizată cu succes.",
	"The URL format is invalid.": "Formatul URL-ului este nevalid.",
	"The installation of the Signage 365 care app has failed.": "Instalarea aplicaţiei Signage 365 Care a eşuat.",
	"The installation of the Signage 365 care app is in progress.": "Instalarea aplicaţiei Signage 365 Care este în curs.",
	"The installation of the {apptitle} has failed.": "Instalarea {apptitle} a eșuat.",
	"The installation of the {apptitle} is in progress.": "Instalarea {apptitle} este în curs de desfășurare.",
	"The timer is reset and the marriage process must be restarted from the beginning.": "Temporizatorul este resetat şi procesul Marriage trebuie să fie repornit de la început.",
	"The update of the Signage 365 care app has failed.": "Actualizarea aplicaţiei Signage 365 Care a eşuat.",
	"The update of the Signage 365 care app is in progress.": "Actualizarea aplicaţiei Signage 365 Care este în curs.",
	"The update of the {apptitle} has failed.": "Actualizarea {apptitle} a eșuat.",
	"The update of the {apptitle} is in progress.": "Actualizarea {apptitle} este în curs de desfășurare.",
	"The {apptitle} has been successfully installed.": "{apptitle} a fost instalat cu succes.",
	"The {apptitle} has been successfully updated.": "{apptitle} a fost actualizat cu succes.",
	"There is a difference between your signage and the signage 365 care server in time and date.": "Există o diferență de dată și oră între dispozitivul dvs. Signage și serverul Signage 365 Care.",
	"There is a difference between your signage and the {apptitle} server in time and date.": "Există o diferență de dată și oră între dispozitivul dvs. Signage și serverul {apptitle}.",
	"There is no list.": "Nu există nicio listă.",
	"There's No Backup file": "Nu există fișier copie de rezervă",
	"This pop up will be closed automatically in 5 sec.": "Această fereastră de tip pop-up va fi închisă automat în 5 sec.",
	"Thu": "Joi",
	"Thursday": "Joi",
	"Tile ID": "ID cadru",
	"Tile Mode": "Mod cadru",
	"Tile Mode Setting": "Tile Mode Setting",
	"Tile Mode Settings": "Setare mod dală",
	"Time": "Oră",
	"Time & Date": "Ora și data",
	"Time & Date Settings": "Setări oră şi dată",
	"Time & Date Settings Required": "Oră & Setări dată necesare",
	"Time Setting": "Setare de timp",
	"Time Zone": "Fus orar",
	"Tint": "Nuanţă",
	"To choose an AP, please use Settings App. with a remote controller.": "Pentru a alege o AP, utilizați aplicația Setări de la telecomandă.",
	"To make your Password more secure. Use letters and numbers.": "Pentru a face Parola dvs. mai securizată. Utilizați litere și numere.",
	"To make your password more secure, use a mixture of mixed-case letters, numbers and special characters": "Pentru ca parola dvs. să fie mai securizată, utilizaţi o combinaţie de litere majuscule şi minuscule, numere şi caractere speciale",
	"To use Signage 365 care, you need to connect the device to the network . Do you want to set the network connection?": "Pentru a utiliza Signage 365 Care, trebuie să conectaţi dispozitivul la reţea. Doriţi să setaţi conexiunea de reţea?",
	"To use {apptitle}, you need to connect the device to the network. Do you want to set the network connection?": "Pentru a utiliza {apptitle}, trebuie să conectați dispozitivul la rețea. Doriți să setați conexiunea de rețea?",
	"Top": "Sus",
	"Top Left": "Stânga sus",
	"Top Right": "Dreapta sus",
	"Transportation": "Mijloace de transport",
	"Trinidad And Tobago": "Trinidad-Tobago",
	"Tue": "Marţi",
	"Tuesday": "Marţi",
	"Turkey": "Turcia",
	"Type": "Tip",
	"URL Loader": "Program de încărcare URL",
	"URL Setting": "Setare URL",
	"Ukraine": "Ucraina",
	"Unit Calibration": "Calibrare unitate",
	"Unit Calibration is modified. Exit without saving?": "Calibrarea unității este modificată. Ieșiți fără să salvați?",
	"Unit Configuration": "Configurație unitate",
	"Unit Resolution": "Rezoluție unitate",
	"Unit Status": "Stare unitate",
	"Unit Temperature": "Temperatură unitate",
	"United Arab Emirates": "Emiratele Arabe Unite",
	"United Kingdom": "Regatul Unit",
	"United States of America": "Statele Unite ale Americii",
	"Units cut left edge can not be placed in the X:0 positions.": "Unitățile pentru tăiere margine stânga nu pot fi aplicate în pozițiile X:0.",
	"Units cut right edge cannot be placed in the Y:(Cut Pixel) positions.": "Unitățile pentru tăiere margine dreapta nu pot fi aplicate în pozițiile Y:(Pixel de tăiere).",
	"Unsupported File type.": "Tip de fișier neacceptat.",
	"Unsupported File type. Only Image/Video files are allowed.": "Tip de fișier neacceptat. Sunt permise numai fișiere imagine/video.",
	"Update": "Actualizare",
	"Update Failed": "Actualizare nereușită",
	"Update LED FPGA micom with xxx done": "Actualizare micom FPGA led cu xxx finalizată",
	"Update LED FPGA with xxx done": "Actualizare FPGA led cu xxx finalizată",
	"Update Progress": "Progres actualizare",
	"Update Succeeded": "Actualizarea a reușit",
	"Update completed. Set is rebooting now.": "Actualizare finalizată. Set. se reinițializează acum.",
	"Update completed. Signage is rebooting now.": "Actualizare finalizată. Afișajul Signage se reinițializează acum.",
	"Update fan micom with xxx done": "Actualizare micom ventilator cu xxx finalizată",
	"Update is completed.": "Actualizarea a fost finalizată.",
	"Update is in progress.": "Actualizarea este în curs de desfășurare.",
	"Update?": "Actualizare?",
	"Updating…": "Se actualizează...",
	"Upload": "ÎNCĂRCARE",
	"Upload FPGA Update file (XXX GB available)": "Încărcare fișier de actualizare FPGA (XXX GB disponibili)",
	"Upload LED FPGA update file": "Încărcați fișierul de actualizare FPGA led",
	"Upload secured S/W Update file": "Încărcare fișier actualizare S/W securizat",
	"Upload secured S/W Update file (XXX GB available)": "Încărcare fișier de actualizare securizat S/W (XXX GB disponibili)",
	"Uploading": "Se încarcă",
	"User": "Utilizator",
	"Validation Error.": "Eroare de validare.",
	"Vatican City": "Vatican",
	"Ver": "Vers.",
	"Version": "Versiune",
	"Vertical": "Verticală",
	"Video Scaler": "Element setare scală video",
	"Vienna": "Viena",
	"View": "Vizualizare",
	"View Photo": "Vizualizare fotografie",
	"Virtual Controller": "Controler virtual",
	"Vivid": "Intens",
	"Volume": "Volum",
	"Waiting for Approval": "Așteptare aprobare",
	"Warm": "Cald",
	"Warsaw": "Varşovia",
	"Wed": "Miercuri",
	"Wednesday": "Miercuri",
	"Week": "Săptămâna",
	"Weekday": "În zilele lucrătoare",
	"Welcome to LG WebOS": "Bine ați venit la LG WebOS",
	"Width": "Lățime",
	"Wired": "cu fir",
	"Working": "Funcționare",
	"XX GB free of XXGB": "XX GB liberi din XX GB",
	"XX of YY": "XX din YY",
	"YES": "DA",
	"Yes": "Da",
	"You changed IP address or DHCP status. Please reconnect to changed IP address": "Ați schimbat adresa IP sau starea DHCP. Reconectați-vă la adresa IP schimbată",
	"You did not finish the process in time.": "Nu aţi finalizat procesul la timp.",
	"You have failed to login 1/5 time.": "Autentificarea a eșuat 1/5 ori.",
	"You have failed to login 5 times. Please try again after 05:00.": "Autentificarea a eșuat de 5 ori. Încercați din nou după 05:00.",
	"You may not be able to reconnect to web pages if you cannot find out new IP address.": "Este posibil să nu vă puteți reconecta la pagini web dacă nu aflați noua adresă IP.",
	"You've entered the same password as the current one. Please enter a different password.": "Aţi introdus o parolă identică cu cea actuală. Vă rugăm să introduceţi o parolă diferită.",
	"Your Password has been changed.": "Parola dvs. a fost schimbată.",
	"Your device needs the correct time & date to authenticate marriage.": "Dispozitivul dvs. are nevoie de informaţii corecte pentru oră & dată pentru a putea autentifica marriage.",
	"Zoom": "Panoramare",
	"Zoom In": "Mărire",
	"Zoom In/Out": "Mărire/Micșorare",
	"Zoom Out": "Micșorare",
	"align": "aliniere",
	"available": "disponibil(ă)",
	"color": "culoare",
	"full aspect ratio": "format întreagă dimensiune imagine",
	"hour": "oră",
	"last": "Ultima",
	"original aspect ratio": "format original dimensiune imagine",
	"over {period} min.": "timp de {period} min.",
	"reading": "citire",
	"save as PC Time": "salvare ca timp PC",
	"sharpness": "claritate",
	"upload": "încărcare",
	"version": "versiune",
	"warning": "atenție",
	"webOS Version": "Versiunea webOS",
	"year": "an",
	"{apptitle} will be deleted.": "{apptitle} va fi ștearsă.",
	"{{filename}} already exists.": "{{filename}} există deja."
}
