{
	"All": "All",
	"Automatically Assign IP Address": "Automatically assign IP Address",
	"Available to Installation": "Available to install",
	"Capture time interval": "Capture time interval",
	"CheckScreen": "Check Screen",
	"Checking for update...": "Checking for Update...",
	"ClosedLoop": "Closed Loop",
	"Color Temperature": "Colour Temperature",
	"ColorRead": "Colour Read",
	"Current Picture mode does not support changing color temperature. Please select \"Expert\" of \"Calibration\" mode to adjust the color temperature.": "Current Picture mode does not support changing colour temperature. Please select \"Expert\" of \"Calibration\" mode to adjust the colour temperature.",
	"DNS Server": "DNS SERVER",
	"OpenLoop": "Open Loop",
	"Power Off(Default)": "Power Off (Default)",
	"Reset to factory reset": "Reset factory settings",
	"ScreenOn": "Screen On",
	"Show Color": "Show Colour",
	"Sigane Name is Too Long": "Signage Name is Too Long",
	"Success": "Success!",
	"Test Color": "Test Colour",
	"Tile Mode Setting": "Tile Mode Setting",
	"To make your Password more secure. Use letters and numbers.": "Use letters and numbers, to make your Password more secure.",
	"Upload": "Upload",
	"XX GB free of XXGB": "XX GB free of XX GB",
	"You have failed to login 1/5 time.": "You have failed to login 1/5 attempts.",
	"You have failed to login 5 times. Please try again after 05:00.": "You have failed to login 5 attempts. Please try again after 05:00",
	"color": "colour",
	"last": "Last"
}
